2022-04-29 13:43:55 | balance 664 | debut envoi
2022-04-29 13:43:55 | numéro : 773387902 | resultat envoi : b'{"outboundSMSMessageRequest":{"address":["tel:+221773387902"],"senderAddress":"tel:+221773387902","senderName":"ipps","outboundSMSTextMessage":{"message":"Chers pareents,\\nPour la classe de 3eme ann\xc3\xa9e Confirmation, la r\xc3\xa9union des parents est pr\xc3\xa9vue le samedi 7 mai 2022, au lieu du 30 avril.Pour rappel cette r\xc3\xa9union est obligatoire.Merci.Le bureau de la cat\xc3\xa9ch\xc3\xa8se\\nhttps://bit.ly/3F9cRIK"},"resourceURL":"https://api.orange.com/smsmessaging/v1/outbound/tel:+221773387902/requests/4752f3a5-0a23-47c2-9ba1-71f3afd138bc"}}'
2022-04-29 13:43:55 | numéro : 774507437 | resultat envoi : b'{"outboundSMSMessageRequest":{"address":["tel:+221774507437"],"senderAddress":"tel:+221773387902","senderName":"ipps","outboundSMSTextMessage":{"message":"Chers pareents,\\nPour la classe de 3eme ann\xc3\xa9e Confirmation, la r\xc3\xa9union des parents est pr\xc3\xa9vue le samedi 7 mai 2022, au lieu du 30 avril.Pour rappel cette r\xc3\xa9union est obligatoire.Merci.Le bureau de la cat\xc3\xa9ch\xc3\xa8se\\nhttps://bit.ly/3F9cRIK"},"resourceURL":"https://api.orange.com/smsmessaging/v1/outbound/tel:+221773387902/requests/9a0ba289-527b-499b-a3ba-266fd0469bf8"}}'
2022-04-29 13:43:56 | numéro : 775089662 | resultat envoi : b'{"outboundSMSMessageRequest":{"address":["tel:+221775089662"],"senderAddress":"tel:+221773387902","senderName":"ipps","outboundSMSTextMessage":{"message":"Chers pareents,\\nPour la classe de 3eme ann\xc3\xa9e Confirmation, la r\xc3\xa9union des parents est pr\xc3\xa9vue le samedi 7 mai 2022, au lieu du 30 avril.Pour rappel cette r\xc3\xa9union est obligatoire.Merci.Le bureau de la cat\xc3\xa9ch\xc3\xa8se\\nhttps://bit.ly/3F9cRIK"},"resourceURL":"https://api.orange.com/smsmessaging/v1/outbound/tel:+221773387902/requests/a1deb194-cc65-47e2-a9fd-6a74626c49d9"}}'
2022-04-29 13:43:56 | numéro : 775359092 | resultat envoi : b'{"outboundSMSMessageRequest":{"address":["tel:+221775359092"],"senderAddress":"tel:+221773387902","senderName":"ipps","outboundSMSTextMessage":{"message":"Chers pareents,\\nPour la classe de 3eme ann\xc3\xa9e Confirmation, la r\xc3\xa9union des parents est pr\xc3\xa9vue le samedi 7 mai 2022, au lieu du 30 avril.Pour rappel cette r\xc3\xa9union est obligatoire.Merci.Le bureau de la cat\xc3\xa9ch\xc3\xa8se\\nhttps://bit.ly/3F9cRIK"},"resourceURL":"https://api.orange.com/smsmessaging/v1/outbound/tel:+221773387902/requests/99d3288d-a4e7-44ee-ab91-ad843c37cbfd"}}'
2022-04-29 13:43:56 | numéro : 775672727 | resultat envoi : b'{"outboundSMSMessageRequest":{"address":["tel:+221775672727"],"senderAddress":"tel:+221773387902","senderName":"ipps","outboundSMSTextMessage":{"message":"Chers pareents,\\nPour la classe de 3eme ann\xc3\xa9e Confirmation, la r\xc3\xa9union des parents est pr\xc3\xa9vue le samedi 7 mai 2022, au lieu du 30 avril.Pour rappel cette r\xc3\xa9union est obligatoire.Merci.Le bureau de la cat\xc3\xa9ch\xc3\xa8se\\nhttps://bit.ly/3F9cRIK"},"resourceURL":"https://api.orange.com/smsmessaging/v1/outbound/tel:+221773387902/requests/9a12a77b-4d62-4f44-b710-69713d1851e3"}}'
2022-04-29 13:43:57 | numéro : 775748741 | resultat envoi : b'{"outboundSMSMessageRequest":{"address":["tel:+221775748741"],"senderAddress":"tel:+221773387902","senderName":"ipps","outboundSMSTextMessage":{"message":"Chers pareents,\\nPour la classe de 3eme ann\xc3\xa9e Confirmation, la r\xc3\xa9union des parents est pr\xc3\xa9vue le samedi 7 mai 2022, au lieu du 30 avril.Pour rappel cette r\xc3\xa9union est obligatoire.Merci.Le bureau de la cat\xc3\xa9ch\xc3\xa8se\\nhttps://bit.ly/3F9cRIK"},"resourceURL":"https://api.orange.com/smsmessaging/v1/outbound/tel:+221773387902/requests/4e5f53f1-d867-4608-9c56-b40482bfad13"}}'
2022-04-29 13:43:57 | numéro : 776509246 | resultat envoi : b'{"outboundSMSMessageRequest":{"address":["tel:+221776509246"],"senderAddress":"tel:+221773387902","senderName":"ipps","outboundSMSTextMessage":{"message":"Chers pareents,\\nPour la classe de 3eme ann\xc3\xa9e Confirmation, la r\xc3\xa9union des parents est pr\xc3\xa9vue le samedi 7 mai 2022, au lieu du 30 avril.Pour rappel cette r\xc3\xa9union est obligatoire.Merci.Le bureau de la cat\xc3\xa9ch\xc3\xa8se\\nhttps://bit.ly/3F9cRIK"},"resourceURL":"https://api.orange.com/smsmessaging/v1/outbound/tel:+221773387902/requests/f87f102b-6868-4d05-8cd2-47b7714efb07"}}'
2022-04-29 13:43:57 | numéro : 775398628 | resultat envoi : b'{"outboundSMSMessageRequest":{"address":["tel:+221775398628"],"senderAddress":"tel:+221773387902","senderName":"ipps","outboundSMSTextMessage":{"message":"Chers pareents,\\nPour la classe de 3eme ann\xc3\xa9e Confirmation, la r\xc3\xa9union des parents est pr\xc3\xa9vue le samedi 7 mai 2022, au lieu du 30 avril.Pour rappel cette r\xc3\xa9union est obligatoire.Merci.Le bureau de la cat\xc3\xa9ch\xc3\xa8se\\nhttps://bit.ly/3F9cRIK"},"resourceURL":"https://api.orange.com/smsmessaging/v1/outbound/tel:+221773387902/requests/42d843b4-8610-47d9-b3c5-e2e93cb01732"}}'
2022-04-29 13:43:58 | numéro : 783069999 | resultat envoi : b'{"outboundSMSMessageRequest":{"address":["tel:+221783069999"],"senderAddress":"tel:+221773387902","senderName":"ipps","outboundSMSTextMessage":{"message":"Chers pareents,\\nPour la classe de 3eme ann\xc3\xa9e Confirmation, la r\xc3\xa9union des parents est pr\xc3\xa9vue le samedi 7 mai 2022, au lieu du 30 avril.Pour rappel cette r\xc3\xa9union est obligatoire.Merci.Le bureau de la cat\xc3\xa9ch\xc3\xa8se\\nhttps://bit.ly/3F9cRIK"},"resourceURL":"https://api.orange.com/smsmessaging/v1/outbound/tel:+221773387902/requests/ef331b1b-59b6-4a0b-a7c1-a2d84c6da7bc"}}'
2022-04-29 13:43:58 | numéro : 774238040 | resultat envoi : b'{"outboundSMSMessageRequest":{"address":["tel:+221774238040"],"senderAddress":"tel:+221773387902","senderName":"ipps","outboundSMSTextMessage":{"message":"Chers pareents,\\nPour la classe de 3eme ann\xc3\xa9e Confirmation, la r\xc3\xa9union des parents est pr\xc3\xa9vue le samedi 7 mai 2022, au lieu du 30 avril.Pour rappel cette r\xc3\xa9union est obligatoire.Merci.Le bureau de la cat\xc3\xa9ch\xc3\xa8se\\nhttps://bit.ly/3F9cRIK"},"resourceURL":"https://api.orange.com/smsmessaging/v1/outbound/tel:+221773387902/requests/1aa2ee07-ccf6-40b7-b28c-aa20b389d3d6"}}'
2022-04-29 13:43:58 | numéro : 773591482 | resultat envoi : b'{"outboundSMSMessageRequest":{"address":["tel:+221773591482"],"senderAddress":"tel:+221773387902","senderName":"ipps","outboundSMSTextMessage":{"message":"Chers pareents,\\nPour la classe de 3eme ann\xc3\xa9e Confirmation, la r\xc3\xa9union des parents est pr\xc3\xa9vue le samedi 7 mai 2022, au lieu du 30 avril.Pour rappel cette r\xc3\xa9union est obligatoire.Merci.Le bureau de la cat\xc3\xa9ch\xc3\xa8se\\nhttps://bit.ly/3F9cRIK"},"resourceURL":"https://api.orange.com/smsmessaging/v1/outbound/tel:+221773387902/requests/a552d49b-f0c8-4f13-908b-ce61a3552d9e"}}'
2022-04-29 13:43:59 | numéro : 776507635 | resultat envoi : b'{"outboundSMSMessageRequest":{"address":["tel:+221776507635"],"senderAddress":"tel:+221773387902","senderName":"ipps","outboundSMSTextMessage":{"message":"Chers pareents,\\nPour la classe de 3eme ann\xc3\xa9e Confirmation, la r\xc3\xa9union des parents est pr\xc3\xa9vue le samedi 7 mai 2022, au lieu du 30 avril.Pour rappel cette r\xc3\xa9union est obligatoire.Merci.Le bureau de la cat\xc3\xa9ch\xc3\xa8se\\nhttps://bit.ly/3F9cRIK"},"resourceURL":"https://api.orange.com/smsmessaging/v1/outbound/tel:+221773387902/requests/be60f0d5-9565-4d29-b061-de725bbe1a06"}}'
2022-04-29 13:43:59 | numéro : 775605414 | resultat envoi : b'{"outboundSMSMessageRequest":{"address":["tel:+221775605414"],"senderAddress":"tel:+221773387902","senderName":"ipps","outboundSMSTextMessage":{"message":"Chers pareents,\\nPour la classe de 3eme ann\xc3\xa9e Confirmation, la r\xc3\xa9union des parents est pr\xc3\xa9vue le samedi 7 mai 2022, au lieu du 30 avril.Pour rappel cette r\xc3\xa9union est obligatoire.Merci.Le bureau de la cat\xc3\xa9ch\xc3\xa8se\\nhttps://bit.ly/3F9cRIK"},"resourceURL":"https://api.orange.com/smsmessaging/v1/outbound/tel:+221773387902/requests/e654ab77-d8c6-4ac9-8041-ea035ae89199"}}'
2022-04-29 13:43:59 | numéro : 774408604 | resultat envoi : b'{"outboundSMSMessageRequest":{"address":["tel:+221774408604"],"senderAddress":"tel:+221773387902","senderName":"ipps","outboundSMSTextMessage":{"message":"Chers pareents,\\nPour la classe de 3eme ann\xc3\xa9e Confirmation, la r\xc3\xa9union des parents est pr\xc3\xa9vue le samedi 7 mai 2022, au lieu du 30 avril.Pour rappel cette r\xc3\xa9union est obligatoire.Merci.Le bureau de la cat\xc3\xa9ch\xc3\xa8se\\nhttps://bit.ly/3F9cRIK"},"resourceURL":"https://api.orange.com/smsmessaging/v1/outbound/tel:+221773387902/requests/d187f77e-cf55-4eda-b274-989b44fa795d"}}'
2022-04-29 13:44:00 | numéro : 775325170 | resultat envoi : b'{"outboundSMSMessageRequest":{"address":["tel:+221775325170"],"senderAddress":"tel:+221773387902","senderName":"ipps","outboundSMSTextMessage":{"message":"Chers pareents,\\nPour la classe de 3eme ann\xc3\xa9e Confirmation, la r\xc3\xa9union des parents est pr\xc3\xa9vue le samedi 7 mai 2022, au lieu du 30 avril.Pour rappel cette r\xc3\xa9union est obligatoire.Merci.Le bureau de la cat\xc3\xa9ch\xc3\xa8se\\nhttps://bit.ly/3F9cRIK"},"resourceURL":"https://api.orange.com/smsmessaging/v1/outbound/tel:+221773387902/requests/88a25237-6c0c-42c6-a673-a46a1f433088"}}'
2022-04-29 13:44:00 | numéro : 775240726 | resultat envoi : b'{"outboundSMSMessageRequest":{"address":["tel:+221775240726"],"senderAddress":"tel:+221773387902","senderName":"ipps","outboundSMSTextMessage":{"message":"Chers pareents,\\nPour la classe de 3eme ann\xc3\xa9e Confirmation, la r\xc3\xa9union des parents est pr\xc3\xa9vue le samedi 7 mai 2022, au lieu du 30 avril.Pour rappel cette r\xc3\xa9union est obligatoire.Merci.Le bureau de la cat\xc3\xa9ch\xc3\xa8se\\nhttps://bit.ly/3F9cRIK"},"resourceURL":"https://api.orange.com/smsmessaging/v1/outbound/tel:+221773387902/requests/1b123798-ba1c-434d-89ff-39d4d2870d51"}}'
2022-04-29 13:44:00 | numéro : 772505078 | resultat envoi : b'{"outboundSMSMessageRequest":{"address":["tel:+221772505078"],"senderAddress":"tel:+221773387902","senderName":"ipps","outboundSMSTextMessage":{"message":"Chers pareents,\\nPour la classe de 3eme ann\xc3\xa9e Confirmation, la r\xc3\xa9union des parents est pr\xc3\xa9vue le samedi 7 mai 2022, au lieu du 30 avril.Pour rappel cette r\xc3\xa9union est obligatoire.Merci.Le bureau de la cat\xc3\xa9ch\xc3\xa8se\\nhttps://bit.ly/3F9cRIK"},"resourceURL":"https://api.orange.com/smsmessaging/v1/outbound/tel:+221773387902/requests/836d656e-3423-4ed4-89ce-21ce37e51351"}}'
2022-04-29 13:44:01 | numéro : 775717070 | resultat envoi : b'{"outboundSMSMessageRequest":{"address":["tel:+221775717070"],"senderAddress":"tel:+221773387902","senderName":"ipps","outboundSMSTextMessage":{"message":"Chers pareents,\\nPour la classe de 3eme ann\xc3\xa9e Confirmation, la r\xc3\xa9union des parents est pr\xc3\xa9vue le samedi 7 mai 2022, au lieu du 30 avril.Pour rappel cette r\xc3\xa9union est obligatoire.Merci.Le bureau de la cat\xc3\xa9ch\xc3\xa8se\\nhttps://bit.ly/3F9cRIK"},"resourceURL":"https://api.orange.com/smsmessaging/v1/outbound/tel:+221773387902/requests/38673d8c-5c30-4d7a-a536-4db1e67ba15c"}}'
2022-04-29 13:44:01 | numéro : 778275151 | resultat envoi : b'{"outboundSMSMessageRequest":{"address":["tel:+221778275151"],"senderAddress":"tel:+221773387902","senderName":"ipps","outboundSMSTextMessage":{"message":"Chers pareents,\\nPour la classe de 3eme ann\xc3\xa9e Confirmation, la r\xc3\xa9union des parents est pr\xc3\xa9vue le samedi 7 mai 2022, au lieu du 30 avril.Pour rappel cette r\xc3\xa9union est obligatoire.Merci.Le bureau de la cat\xc3\xa9ch\xc3\xa8se\\nhttps://bit.ly/3F9cRIK"},"resourceURL":"https://api.orange.com/smsmessaging/v1/outbound/tel:+221773387902/requests/5f35dfa0-846f-497e-a4fd-cc19a1c8ade6"}}'
2022-04-29 13:44:02 | numéro : 777338757 | resultat envoi : b'{"outboundSMSMessageRequest":{"address":["tel:+221777338757"],"senderAddress":"tel:+221773387902","senderName":"ipps","outboundSMSTextMessage":{"message":"Chers pareents,\\nPour la classe de 3eme ann\xc3\xa9e Confirmation, la r\xc3\xa9union des parents est pr\xc3\xa9vue le samedi 7 mai 2022, au lieu du 30 avril.Pour rappel cette r\xc3\xa9union est obligatoire.Merci.Le bureau de la cat\xc3\xa9ch\xc3\xa8se\\nhttps://bit.ly/3F9cRIK"},"resourceURL":"https://api.orange.com/smsmessaging/v1/outbound/tel:+221773387902/requests/a37b5dc3-947b-41f4-a906-2181124e3277"}}'
2022-04-29 13:44:02 | numéro : 775313888 | resultat envoi : b'{"outboundSMSMessageRequest":{"address":["tel:+221775313888"],"senderAddress":"tel:+221773387902","senderName":"ipps","outboundSMSTextMessage":{"message":"Chers pareents,\\nPour la classe de 3eme ann\xc3\xa9e Confirmation, la r\xc3\xa9union des parents est pr\xc3\xa9vue le samedi 7 mai 2022, au lieu du 30 avril.Pour rappel cette r\xc3\xa9union est obligatoire.Merci.Le bureau de la cat\xc3\xa9ch\xc3\xa8se\\nhttps://bit.ly/3F9cRIK"},"resourceURL":"https://api.orange.com/smsmessaging/v1/outbound/tel:+221773387902/requests/bf498601-9555-4c81-b665-664518f10e7f"}}'
2022-04-29 13:44:02 | numéro : 775313888 | resultat envoi : b'{"outboundSMSMessageRequest":{"address":["tel:+221775313888"],"senderAddress":"tel:+221773387902","senderName":"ipps","outboundSMSTextMessage":{"message":"Chers pareents,\\nPour la classe de 3eme ann\xc3\xa9e Confirmation, la r\xc3\xa9union des parents est pr\xc3\xa9vue le samedi 7 mai 2022, au lieu du 30 avril.Pour rappel cette r\xc3\xa9union est obligatoire.Merci.Le bureau de la cat\xc3\xa9ch\xc3\xa8se\\nhttps://bit.ly/3F9cRIK"},"resourceURL":"https://api.orange.com/smsmessaging/v1/outbound/tel:+221773387902/requests/cad5c500-4d5b-49f5-ac9b-1d67d862d496"}}'
2022-04-29 13:44:02 | numéro : 776386644 | resultat envoi : b'{"outboundSMSMessageRequest":{"address":["tel:+221776386644"],"senderAddress":"tel:+221773387902","senderName":"ipps","outboundSMSTextMessage":{"message":"Chers pareents,\\nPour la classe de 3eme ann\xc3\xa9e Confirmation, la r\xc3\xa9union des parents est pr\xc3\xa9vue le samedi 7 mai 2022, au lieu du 30 avril.Pour rappel cette r\xc3\xa9union est obligatoire.Merci.Le bureau de la cat\xc3\xa9ch\xc3\xa8se\\nhttps://bit.ly/3F9cRIK"},"resourceURL":"https://api.orange.com/smsmessaging/v1/outbound/tel:+221773387902/requests/1acd0665-b777-46ce-8372-2c280c76c3bf"}}'
2022-04-29 13:44:03 | numéro : 776587031 | resultat envoi : b'{"outboundSMSMessageRequest":{"address":["tel:+221776587031"],"senderAddress":"tel:+221773387902","senderName":"ipps","outboundSMSTextMessage":{"message":"Chers pareents,\\nPour la classe de 3eme ann\xc3\xa9e Confirmation, la r\xc3\xa9union des parents est pr\xc3\xa9vue le samedi 7 mai 2022, au lieu du 30 avril.Pour rappel cette r\xc3\xa9union est obligatoire.Merci.Le bureau de la cat\xc3\xa9ch\xc3\xa8se\\nhttps://bit.ly/3F9cRIK"},"resourceURL":"https://api.orange.com/smsmessaging/v1/outbound/tel:+221773387902/requests/6ca4371c-6dc7-4de7-ba7b-401d9860aad5"}}'
2022-04-29 13:44:03 | numéro : 776781505 | resultat envoi : b'{"outboundSMSMessageRequest":{"address":["tel:+221776781505"],"senderAddress":"tel:+221773387902","senderName":"ipps","outboundSMSTextMessage":{"message":"Chers pareents,\\nPour la classe de 3eme ann\xc3\xa9e Confirmation, la r\xc3\xa9union des parents est pr\xc3\xa9vue le samedi 7 mai 2022, au lieu du 30 avril.Pour rappel cette r\xc3\xa9union est obligatoire.Merci.Le bureau de la cat\xc3\xa9ch\xc3\xa8se\\nhttps://bit.ly/3F9cRIK"},"resourceURL":"https://api.orange.com/smsmessaging/v1/outbound/tel:+221773387902/requests/7564a5ad-3bb9-4806-916c-057290586eab"}}'
2022-04-29 13:44:04 | numéro : 777892124 | resultat envoi : b'{"outboundSMSMessageRequest":{"address":["tel:+221777892124"],"senderAddress":"tel:+221773387902","senderName":"ipps","outboundSMSTextMessage":{"message":"Chers pareents,\\nPour la classe de 3eme ann\xc3\xa9e Confirmation, la r\xc3\xa9union des parents est pr\xc3\xa9vue le samedi 7 mai 2022, au lieu du 30 avril.Pour rappel cette r\xc3\xa9union est obligatoire.Merci.Le bureau de la cat\xc3\xa9ch\xc3\xa8se\\nhttps://bit.ly/3F9cRIK"},"resourceURL":"https://api.orange.com/smsmessaging/v1/outbound/tel:+221773387902/requests/2e499d53-c5ba-46ea-9e7c-8f547146ecb4"}}'
2022-04-29 13:44:04 | numéro : 775578617 | resultat envoi : b'{"outboundSMSMessageRequest":{"address":["tel:+221775578617"],"senderAddress":"tel:+221773387902","senderName":"ipps","outboundSMSTextMessage":{"message":"Chers pareents,\\nPour la classe de 3eme ann\xc3\xa9e Confirmation, la r\xc3\xa9union des parents est pr\xc3\xa9vue le samedi 7 mai 2022, au lieu du 30 avril.Pour rappel cette r\xc3\xa9union est obligatoire.Merci.Le bureau de la cat\xc3\xa9ch\xc3\xa8se\\nhttps://bit.ly/3F9cRIK"},"resourceURL":"https://api.orange.com/smsmessaging/v1/outbound/tel:+221773387902/requests/e17334c1-467a-4042-80e9-3d562d11a020"}}'
2022-04-29 13:44:04 | numéro : 778170857 | resultat envoi : b'{"outboundSMSMessageRequest":{"address":["tel:+221778170857"],"senderAddress":"tel:+221773387902","senderName":"ipps","outboundSMSTextMessage":{"message":"Chers pareents,\\nPour la classe de 3eme ann\xc3\xa9e Confirmation, la r\xc3\xa9union des parents est pr\xc3\xa9vue le samedi 7 mai 2022, au lieu du 30 avril.Pour rappel cette r\xc3\xa9union est obligatoire.Merci.Le bureau de la cat\xc3\xa9ch\xc3\xa8se\\nhttps://bit.ly/3F9cRIK"},"resourceURL":"https://api.orange.com/smsmessaging/v1/outbound/tel:+221773387902/requests/081920ec-400d-40d4-9560-789f23a7c3e8"}}'
2022-04-29 13:44:05 | numéro : 774461705 | resultat envoi : b'{"outboundSMSMessageRequest":{"address":["tel:+221774461705"],"senderAddress":"tel:+221773387902","senderName":"ipps","outboundSMSTextMessage":{"message":"Chers pareents,\\nPour la classe de 3eme ann\xc3\xa9e Confirmation, la r\xc3\xa9union des parents est pr\xc3\xa9vue le samedi 7 mai 2022, au lieu du 30 avril.Pour rappel cette r\xc3\xa9union est obligatoire.Merci.Le bureau de la cat\xc3\xa9ch\xc3\xa8se\\nhttps://bit.ly/3F9cRIK"},"resourceURL":"https://api.orange.com/smsmessaging/v1/outbound/tel:+221773387902/requests/de1d14ac-3619-4501-9665-7534effa56aa"}}'
2022-04-29 13:44:05 | numéro : 774238040 | resultat envoi : b'{"outboundSMSMessageRequest":{"address":["tel:+221774238040"],"senderAddress":"tel:+221773387902","senderName":"ipps","outboundSMSTextMessage":{"message":"Chers pareents,\\nPour la classe de 3eme ann\xc3\xa9e Confirmation, la r\xc3\xa9union des parents est pr\xc3\xa9vue le samedi 7 mai 2022, au lieu du 30 avril.Pour rappel cette r\xc3\xa9union est obligatoire.Merci.Le bureau de la cat\xc3\xa9ch\xc3\xa8se\\nhttps://bit.ly/3F9cRIK"},"resourceURL":"https://api.orange.com/smsmessaging/v1/outbound/tel:+221773387902/requests/dba55e53-63a5-4a33-a766-1cab387fc09d"}}'
2022-04-29 13:44:05 | numéro : 773632643 | resultat envoi : b'{"outboundSMSMessageRequest":{"address":["tel:+221773632643"],"senderAddress":"tel:+221773387902","senderName":"ipps","outboundSMSTextMessage":{"message":"Chers pareents,\\nPour la classe de 3eme ann\xc3\xa9e Confirmation, la r\xc3\xa9union des parents est pr\xc3\xa9vue le samedi 7 mai 2022, au lieu du 30 avril.Pour rappel cette r\xc3\xa9union est obligatoire.Merci.Le bureau de la cat\xc3\xa9ch\xc3\xa8se\\nhttps://bit.ly/3F9cRIK"},"resourceURL":"https://api.orange.com/smsmessaging/v1/outbound/tel:+221773387902/requests/c2091742-a9e6-4ab4-a5f2-0f72ab310887"}}'
2022-04-29 13:44:05 | numéro : 772000618 | resultat envoi : b'{"outboundSMSMessageRequest":{"address":["tel:+221772000618"],"senderAddress":"tel:+221773387902","senderName":"ipps","outboundSMSTextMessage":{"message":"Chers pareents,\\nPour la classe de 3eme ann\xc3\xa9e Confirmation, la r\xc3\xa9union des parents est pr\xc3\xa9vue le samedi 7 mai 2022, au lieu du 30 avril.Pour rappel cette r\xc3\xa9union est obligatoire.Merci.Le bureau de la cat\xc3\xa9ch\xc3\xa8se\\nhttps://bit.ly/3F9cRIK"},"resourceURL":"https://api.orange.com/smsmessaging/v1/outbound/tel:+221773387902/requests/30695c02-0a1e-4c9d-9a4f-d2707ca8e126"}}'
2022-04-29 13:44:06 | numéro : 772000618 | resultat envoi : b'{"outboundSMSMessageRequest":{"address":["tel:+221772000618"],"senderAddress":"tel:+221773387902","senderName":"ipps","outboundSMSTextMessage":{"message":"Chers pareents,\\nPour la classe de 3eme ann\xc3\xa9e Confirmation, la r\xc3\xa9union des parents est pr\xc3\xa9vue le samedi 7 mai 2022, au lieu du 30 avril.Pour rappel cette r\xc3\xa9union est obligatoire.Merci.Le bureau de la cat\xc3\xa9ch\xc3\xa8se\\nhttps://bit.ly/3F9cRIK"},"resourceURL":"https://api.orange.com/smsmessaging/v1/outbound/tel:+221773387902/requests/2c8d7802-8515-4886-8d2f-0c00d400290b"}}'
2022-04-29 13:44:06 | numéro : 784641693 | resultat envoi : b'{"outboundSMSMessageRequest":{"address":["tel:+221784641693"],"senderAddress":"tel:+221773387902","senderName":"ipps","outboundSMSTextMessage":{"message":"Chers pareents,\\nPour la classe de 3eme ann\xc3\xa9e Confirmation, la r\xc3\xa9union des parents est pr\xc3\xa9vue le samedi 7 mai 2022, au lieu du 30 avril.Pour rappel cette r\xc3\xa9union est obligatoire.Merci.Le bureau de la cat\xc3\xa9ch\xc3\xa8se\\nhttps://bit.ly/3F9cRIK"},"resourceURL":"https://api.orange.com/smsmessaging/v1/outbound/tel:+221773387902/requests/b6ab64c7-8b72-4e51-8d18-0308bd17d6c1"}}'
2022-04-29 13:44:06 | numéro : 772669929 | resultat envoi : b'{"outboundSMSMessageRequest":{"address":["tel:+221772669929"],"senderAddress":"tel:+221773387902","senderName":"ipps","outboundSMSTextMessage":{"message":"Chers pareents,\\nPour la classe de 3eme ann\xc3\xa9e Confirmation, la r\xc3\xa9union des parents est pr\xc3\xa9vue le samedi 7 mai 2022, au lieu du 30 avril.Pour rappel cette r\xc3\xa9union est obligatoire.Merci.Le bureau de la cat\xc3\xa9ch\xc3\xa8se\\nhttps://bit.ly/3F9cRIK"},"resourceURL":"https://api.orange.com/smsmessaging/v1/outbound/tel:+221773387902/requests/3464d83f-18cb-448a-ba09-587ed09da023"}}'
2022-04-29 13:44:07 | numéro : 778116032 | resultat envoi : b'{"outboundSMSMessageRequest":{"address":["tel:+221778116032"],"senderAddress":"tel:+221773387902","senderName":"ipps","outboundSMSTextMessage":{"message":"Chers pareents,\\nPour la classe de 3eme ann\xc3\xa9e Confirmation, la r\xc3\xa9union des parents est pr\xc3\xa9vue le samedi 7 mai 2022, au lieu du 30 avril.Pour rappel cette r\xc3\xa9union est obligatoire.Merci.Le bureau de la cat\xc3\xa9ch\xc3\xa8se\\nhttps://bit.ly/3F9cRIK"},"resourceURL":"https://api.orange.com/smsmessaging/v1/outbound/tel:+221773387902/requests/97d6ff4b-a08e-49b7-9347-92207e5ddf18"}}'
2022-04-29 13:44:07 | numéro : 774670742 | resultat envoi : b'{"outboundSMSMessageRequest":{"address":["tel:+221774670742"],"senderAddress":"tel:+221773387902","senderName":"ipps","outboundSMSTextMessage":{"message":"Chers pareents,\\nPour la classe de 3eme ann\xc3\xa9e Confirmation, la r\xc3\xa9union des parents est pr\xc3\xa9vue le samedi 7 mai 2022, au lieu du 30 avril.Pour rappel cette r\xc3\xa9union est obligatoire.Merci.Le bureau de la cat\xc3\xa9ch\xc3\xa8se\\nhttps://bit.ly/3F9cRIK"},"resourceURL":"https://api.orange.com/smsmessaging/v1/outbound/tel:+221773387902/requests/64fb7aba-7724-4494-812e-ae4522f205c6"}}'
2022-04-29 13:44:07 | numéro : 775395349 | resultat envoi : b'{"outboundSMSMessageRequest":{"address":["tel:+221775395349"],"senderAddress":"tel:+221773387902","senderName":"ipps","outboundSMSTextMessage":{"message":"Chers pareents,\\nPour la classe de 3eme ann\xc3\xa9e Confirmation, la r\xc3\xa9union des parents est pr\xc3\xa9vue le samedi 7 mai 2022, au lieu du 30 avril.Pour rappel cette r\xc3\xa9union est obligatoire.Merci.Le bureau de la cat\xc3\xa9ch\xc3\xa8se\\nhttps://bit.ly/3F9cRIK"},"resourceURL":"https://api.orange.com/smsmessaging/v1/outbound/tel:+221773387902/requests/750c31b1-78ec-481b-95d3-44b74947dbcd"}}'
2022-04-29 13:44:08 | numéro : 776556463 | resultat envoi : b'{"outboundSMSMessageRequest":{"address":["tel:+221776556463"],"senderAddress":"tel:+221773387902","senderName":"ipps","outboundSMSTextMessage":{"message":"Chers pareents,\\nPour la classe de 3eme ann\xc3\xa9e Confirmation, la r\xc3\xa9union des parents est pr\xc3\xa9vue le samedi 7 mai 2022, au lieu du 30 avril.Pour rappel cette r\xc3\xa9union est obligatoire.Merci.Le bureau de la cat\xc3\xa9ch\xc3\xa8se\\nhttps://bit.ly/3F9cRIK"},"resourceURL":"https://api.orange.com/smsmessaging/v1/outbound/tel:+221773387902/requests/7c88f0a7-a5f8-4a81-b7ca-c4d590758905"}}'
2022-04-29 13:44:08 | numéro : 776177154 | resultat envoi : b'{"outboundSMSMessageRequest":{"address":["tel:+221776177154"],"senderAddress":"tel:+221773387902","senderName":"ipps","outboundSMSTextMessage":{"message":"Chers pareents,\\nPour la classe de 3eme ann\xc3\xa9e Confirmation, la r\xc3\xa9union des parents est pr\xc3\xa9vue le samedi 7 mai 2022, au lieu du 30 avril.Pour rappel cette r\xc3\xa9union est obligatoire.Merci.Le bureau de la cat\xc3\xa9ch\xc3\xa8se\\nhttps://bit.ly/3F9cRIK"},"resourceURL":"https://api.orange.com/smsmessaging/v1/outbound/tel:+221773387902/requests/54b5a92a-588a-4581-88b9-2eeb8c53bc6b"}}'
2022-04-29 13:44:08 | numéro : 775712727 | resultat envoi : b'{"outboundSMSMessageRequest":{"address":["tel:+221775712727"],"senderAddress":"tel:+221773387902","senderName":"ipps","outboundSMSTextMessage":{"message":"Chers pareents,\\nPour la classe de 3eme ann\xc3\xa9e Confirmation, la r\xc3\xa9union des parents est pr\xc3\xa9vue le samedi 7 mai 2022, au lieu du 30 avril.Pour rappel cette r\xc3\xa9union est obligatoire.Merci.Le bureau de la cat\xc3\xa9ch\xc3\xa8se\\nhttps://bit.ly/3F9cRIK"},"resourceURL":"https://api.orange.com/smsmessaging/v1/outbound/tel:+221773387902/requests/9a2c827c-e3a1-4054-9088-b5cfdd78847e"}}'
2022-04-29 13:44:09 | numéro : 775492796 | resultat envoi : b'{"outboundSMSMessageRequest":{"address":["tel:+221775492796"],"senderAddress":"tel:+221773387902","senderName":"ipps","outboundSMSTextMessage":{"message":"Chers pareents,\\nPour la classe de 3eme ann\xc3\xa9e Confirmation, la r\xc3\xa9union des parents est pr\xc3\xa9vue le samedi 7 mai 2022, au lieu du 30 avril.Pour rappel cette r\xc3\xa9union est obligatoire.Merci.Le bureau de la cat\xc3\xa9ch\xc3\xa8se\\nhttps://bit.ly/3F9cRIK"},"resourceURL":"https://api.orange.com/smsmessaging/v1/outbound/tel:+221773387902/requests/6a907435-f736-4ee2-ba50-fcb99b659323"}}'
2022-04-29 13:44:09 | numéro : 770577086 | resultat envoi : b'{"outboundSMSMessageRequest":{"address":["tel:+221770577086"],"senderAddress":"tel:+221773387902","senderName":"ipps","outboundSMSTextMessage":{"message":"Chers pareents,\\nPour la classe de 3eme ann\xc3\xa9e Confirmation, la r\xc3\xa9union des parents est pr\xc3\xa9vue le samedi 7 mai 2022, au lieu du 30 avril.Pour rappel cette r\xc3\xa9union est obligatoire.Merci.Le bureau de la cat\xc3\xa9ch\xc3\xa8se\\nhttps://bit.ly/3F9cRIK"},"resourceURL":"https://api.orange.com/smsmessaging/v1/outbound/tel:+221773387902/requests/4632e65c-4a6d-464a-8738-89a5dc43cf2a"}}'
2022-04-29 13:44:09 | numéro : 775949406 | resultat envoi : b'{"outboundSMSMessageRequest":{"address":["tel:+221775949406"],"senderAddress":"tel:+221773387902","senderName":"ipps","outboundSMSTextMessage":{"message":"Chers pareents,\\nPour la classe de 3eme ann\xc3\xa9e Confirmation, la r\xc3\xa9union des parents est pr\xc3\xa9vue le samedi 7 mai 2022, au lieu du 30 avril.Pour rappel cette r\xc3\xa9union est obligatoire.Merci.Le bureau de la cat\xc3\xa9ch\xc3\xa8se\\nhttps://bit.ly/3F9cRIK"},"resourceURL":"https://api.orange.com/smsmessaging/v1/outbound/tel:+221773387902/requests/6536eb5b-b2e0-48f0-9f6c-0821e4ad9601"}}'
2022-04-29 13:44:09 | numéro : 775168038 | resultat envoi : b'{"outboundSMSMessageRequest":{"address":["tel:+221775168038"],"senderAddress":"tel:+221773387902","senderName":"ipps","outboundSMSTextMessage":{"message":"Chers pareents,\\nPour la classe de 3eme ann\xc3\xa9e Confirmation, la r\xc3\xa9union des parents est pr\xc3\xa9vue le samedi 7 mai 2022, au lieu du 30 avril.Pour rappel cette r\xc3\xa9union est obligatoire.Merci.Le bureau de la cat\xc3\xa9ch\xc3\xa8se\\nhttps://bit.ly/3F9cRIK"},"resourceURL":"https://api.orange.com/smsmessaging/v1/outbound/tel:+221773387902/requests/e8a191b3-f7fd-41c6-880c-2ba72c7fe8e4"}}'
2022-04-29 13:44:10 | numéro : 775918410 | resultat envoi : b'{"outboundSMSMessageRequest":{"address":["tel:+221775918410"],"senderAddress":"tel:+221773387902","senderName":"ipps","outboundSMSTextMessage":{"message":"Chers pareents,\\nPour la classe de 3eme ann\xc3\xa9e Confirmation, la r\xc3\xa9union des parents est pr\xc3\xa9vue le samedi 7 mai 2022, au lieu du 30 avril.Pour rappel cette r\xc3\xa9union est obligatoire.Merci.Le bureau de la cat\xc3\xa9ch\xc3\xa8se\\nhttps://bit.ly/3F9cRIK"},"resourceURL":"https://api.orange.com/smsmessaging/v1/outbound/tel:+221773387902/requests/150b1cde-153c-451d-bd74-231a52e67abc"}}'
2022-04-29 13:44:10 | numéro : 775711415 | resultat envoi : b'{"outboundSMSMessageRequest":{"address":["tel:+221775711415"],"senderAddress":"tel:+221773387902","senderName":"ipps","outboundSMSTextMessage":{"message":"Chers pareents,\\nPour la classe de 3eme ann\xc3\xa9e Confirmation, la r\xc3\xa9union des parents est pr\xc3\xa9vue le samedi 7 mai 2022, au lieu du 30 avril.Pour rappel cette r\xc3\xa9union est obligatoire.Merci.Le bureau de la cat\xc3\xa9ch\xc3\xa8se\\nhttps://bit.ly/3F9cRIK"},"resourceURL":"https://api.orange.com/smsmessaging/v1/outbound/tel:+221773387902/requests/f6cb1e49-b7f8-4634-994b-7e00152bdcca"}}'
2022-04-29 13:44:10 | numéro : 773210720 | resultat envoi : b'{"outboundSMSMessageRequest":{"address":["tel:+221773210720"],"senderAddress":"tel:+221773387902","senderName":"ipps","outboundSMSTextMessage":{"message":"Chers pareents,\\nPour la classe de 3eme ann\xc3\xa9e Confirmation, la r\xc3\xa9union des parents est pr\xc3\xa9vue le samedi 7 mai 2022, au lieu du 30 avril.Pour rappel cette r\xc3\xa9union est obligatoire.Merci.Le bureau de la cat\xc3\xa9ch\xc3\xa8se\\nhttps://bit.ly/3F9cRIK"},"resourceURL":"https://api.orange.com/smsmessaging/v1/outbound/tel:+221773387902/requests/e48c4228-6f40-4e62-b974-50e8c25f3d79"}}'
2022-04-29 13:44:11 | numéro : 778590854 | resultat envoi : b'{"outboundSMSMessageRequest":{"address":["tel:+221778590854"],"senderAddress":"tel:+221773387902","senderName":"ipps","outboundSMSTextMessage":{"message":"Chers pareents,\\nPour la classe de 3eme ann\xc3\xa9e Confirmation, la r\xc3\xa9union des parents est pr\xc3\xa9vue le samedi 7 mai 2022, au lieu du 30 avril.Pour rappel cette r\xc3\xa9union est obligatoire.Merci.Le bureau de la cat\xc3\xa9ch\xc3\xa8se\\nhttps://bit.ly/3F9cRIK"},"resourceURL":"https://api.orange.com/smsmessaging/v1/outbound/tel:+221773387902/requests/2dc7a267-c724-4d0b-a48e-e0eddec4b1c9"}}'
2022-04-29 13:44:11 | numéro : 765005555 | resultat envoi : b'{"outboundSMSMessageRequest":{"address":["tel:+221765005555"],"senderAddress":"tel:+221773387902","senderName":"ipps","outboundSMSTextMessage":{"message":"Chers pareents,\\nPour la classe de 3eme ann\xc3\xa9e Confirmation, la r\xc3\xa9union des parents est pr\xc3\xa9vue le samedi 7 mai 2022, au lieu du 30 avril.Pour rappel cette r\xc3\xa9union est obligatoire.Merci.Le bureau de la cat\xc3\xa9ch\xc3\xa8se\\nhttps://bit.ly/3F9cRIK"},"resourceURL":"https://api.orange.com/smsmessaging/v1/outbound/tel:+221773387902/requests/43992f46-fbc0-4ace-97b5-491a714bb800"}}'
2022-04-29 13:44:11 | balance 231 | fin envoi
