2021-11-09 11:22:30 | balance 996 | debut envoi
2021-11-09 11:22:30 | numéro : 765005555 | resultat envoi : b'{"outboundSMSMessageRequest":{"address":["tel:+221765005555"],"senderAddress":"tel:+221773387902","senderName":"ipps","outboundSMSTextMessage":{"message":"Chers cat\xc3\xa9chum\xc3\xa8nes, ce dimanche aura lieu la messe d\'envoi de la cat\xc3\xa9ch\xc3\xa8se durant l\'office de 11h. De ce fait vous aurez exceptionnellement cours \xc3\xa0 09h, et la messe \xc3\xa0 11h.\\nLe Bureau de la cat\xc3\xa9ch\xc3\xa8se\\n\\nDear catechumens, this Sunday will take place the mass of sending of the catechesis during the service of 11 AM. Therefore, you will have class at 9 AM, and mass at 11 AM\\nThe Catechesis Office"},"resourceURL":"https://api.orange.com/smsmessaging/v1/outbound/tel:+221773387902/requests/91b7721e-d282-4651-a77c-6fb581fced68"}}'
2021-11-09 11:22:31 | numéro : 779914795 | resultat envoi : b'{"outboundSMSMessageRequest":{"address":["tel:+221779914795"],"senderAddress":"tel:+221773387902","senderName":"ipps","outboundSMSTextMessage":{"message":"Chers cat\xc3\xa9chum\xc3\xa8nes, ce dimanche aura lieu la messe d\'envoi de la cat\xc3\xa9ch\xc3\xa8se durant l\'office de 11h. De ce fait vous aurez exceptionnellement cours \xc3\xa0 09h, et la messe \xc3\xa0 11h.\\nLe Bureau de la cat\xc3\xa9ch\xc3\xa8se\\n\\nDear catechumens, this Sunday will take place the mass of sending of the catechesis during the service of 11 AM. Therefore, you will have class at 9 AM, and mass at 11 AM\\nThe Catechesis Office"},"resourceURL":"https://api.orange.com/smsmessaging/v1/outbound/tel:+221773387902/requests/a7c3de14-8918-4684-9017-eaa087cb898e"}}'
2021-11-09 11:22:32 | numéro : 771229696 | resultat envoi : b'{"outboundSMSMessageRequest":{"address":["tel:+221771229696"],"senderAddress":"tel:+221773387902","senderName":"ipps","outboundSMSTextMessage":{"message":"Chers cat\xc3\xa9chum\xc3\xa8nes, ce dimanche aura lieu la messe d\'envoi de la cat\xc3\xa9ch\xc3\xa8se durant l\'office de 11h. De ce fait vous aurez exceptionnellement cours \xc3\xa0 09h, et la messe \xc3\xa0 11h.\\nLe Bureau de la cat\xc3\xa9ch\xc3\xa8se\\n\\nDear catechumens, this Sunday will take place the mass of sending of the catechesis during the service of 11 AM. Therefore, you will have class at 9 AM, and mass at 11 AM\\nThe Catechesis Office"},"resourceURL":"https://api.orange.com/smsmessaging/v1/outbound/tel:+221773387902/requests/8ecd2ddb-6499-4488-a116-6f41b13a6c80"}}'
2021-11-09 11:22:32 | numéro : 775642749 | resultat envoi : b'{"outboundSMSMessageRequest":{"address":["tel:+221775642749"],"senderAddress":"tel:+221773387902","senderName":"ipps","outboundSMSTextMessage":{"message":"Chers cat\xc3\xa9chum\xc3\xa8nes, ce dimanche aura lieu la messe d\'envoi de la cat\xc3\xa9ch\xc3\xa8se durant l\'office de 11h. De ce fait vous aurez exceptionnellement cours \xc3\xa0 09h, et la messe \xc3\xa0 11h.\\nLe Bureau de la cat\xc3\xa9ch\xc3\xa8se\\n\\nDear catechumens, this Sunday will take place the mass of sending of the catechesis during the service of 11 AM. Therefore, you will have class at 9 AM, and mass at 11 AM\\nThe Catechesis Office"},"resourceURL":"https://api.orange.com/smsmessaging/v1/outbound/tel:+221773387902/requests/4bc7b2ff-1974-422f-83d2-957ee1402a95"}}'
2021-11-09 11:22:33 | numéro : 785967363 | resultat envoi : b'{"outboundSMSMessageRequest":{"address":["tel:+221785967363"],"senderAddress":"tel:+221773387902","senderName":"ipps","outboundSMSTextMessage":{"message":"Chers cat\xc3\xa9chum\xc3\xa8nes, ce dimanche aura lieu la messe d\'envoi de la cat\xc3\xa9ch\xc3\xa8se durant l\'office de 11h. De ce fait vous aurez exceptionnellement cours \xc3\xa0 09h, et la messe \xc3\xa0 11h.\\nLe Bureau de la cat\xc3\xa9ch\xc3\xa8se\\n\\nDear catechumens, this Sunday will take place the mass of sending of the catechesis during the service of 11 AM. Therefore, you will have class at 9 AM, and mass at 11 AM\\nThe Catechesis Office"},"resourceURL":"https://api.orange.com/smsmessaging/v1/outbound/tel:+221773387902/requests/f545c717-09fe-46a7-9a08-554d9605f3de"}}'
2021-11-09 11:22:33 | numéro : 785392854 | resultat envoi : b'{"outboundSMSMessageRequest":{"address":["tel:+221785392854"],"senderAddress":"tel:+221773387902","senderName":"ipps","outboundSMSTextMessage":{"message":"Chers cat\xc3\xa9chum\xc3\xa8nes, ce dimanche aura lieu la messe d\'envoi de la cat\xc3\xa9ch\xc3\xa8se durant l\'office de 11h. De ce fait vous aurez exceptionnellement cours \xc3\xa0 09h, et la messe \xc3\xa0 11h.\\nLe Bureau de la cat\xc3\xa9ch\xc3\xa8se\\n\\nDear catechumens, this Sunday will take place the mass of sending of the catechesis during the service of 11 AM. Therefore, you will have class at 9 AM, and mass at 11 AM\\nThe Catechesis Office"},"resourceURL":"https://api.orange.com/smsmessaging/v1/outbound/tel:+221773387902/requests/272ee7dd-4708-43a9-82b4-5c926d1bf10c"}}'
2021-11-09 11:22:34 | numéro : 768502818 | resultat envoi : b'{"outboundSMSMessageRequest":{"address":["tel:+221768502818"],"senderAddress":"tel:+221773387902","senderName":"ipps","outboundSMSTextMessage":{"message":"Chers cat\xc3\xa9chum\xc3\xa8nes, ce dimanche aura lieu la messe d\'envoi de la cat\xc3\xa9ch\xc3\xa8se durant l\'office de 11h. De ce fait vous aurez exceptionnellement cours \xc3\xa0 09h, et la messe \xc3\xa0 11h.\\nLe Bureau de la cat\xc3\xa9ch\xc3\xa8se\\n\\nDear catechumens, this Sunday will take place the mass of sending of the catechesis during the service of 11 AM. Therefore, you will have class at 9 AM, and mass at 11 AM\\nThe Catechesis Office"},"resourceURL":"https://api.orange.com/smsmessaging/v1/outbound/tel:+221773387902/requests/95d40520-e1b5-4328-960c-51da3b3f9403"}}'
2021-11-09 11:22:34 | numéro : 707283615 | resultat envoi : b'{"outboundSMSMessageRequest":{"address":["tel:+221707283615"],"senderAddress":"tel:+221773387902","senderName":"ipps","outboundSMSTextMessage":{"message":"Chers cat\xc3\xa9chum\xc3\xa8nes, ce dimanche aura lieu la messe d\'envoi de la cat\xc3\xa9ch\xc3\xa8se durant l\'office de 11h. De ce fait vous aurez exceptionnellement cours \xc3\xa0 09h, et la messe \xc3\xa0 11h.\\nLe Bureau de la cat\xc3\xa9ch\xc3\xa8se\\n\\nDear catechumens, this Sunday will take place the mass of sending of the catechesis during the service of 11 AM. Therefore, you will have class at 9 AM, and mass at 11 AM\\nThe Catechesis Office"},"resourceURL":"https://api.orange.com/smsmessaging/v1/outbound/tel:+221773387902/requests/9d153da3-1ee7-4082-a743-720cc24c655e"}}'
2021-11-09 11:22:35 | numéro : 775133324 | resultat envoi : b'{"outboundSMSMessageRequest":{"address":["tel:+221775133324"],"senderAddress":"tel:+221773387902","senderName":"ipps","outboundSMSTextMessage":{"message":"Chers cat\xc3\xa9chum\xc3\xa8nes, ce dimanche aura lieu la messe d\'envoi de la cat\xc3\xa9ch\xc3\xa8se durant l\'office de 11h. De ce fait vous aurez exceptionnellement cours \xc3\xa0 09h, et la messe \xc3\xa0 11h.\\nLe Bureau de la cat\xc3\xa9ch\xc3\xa8se\\n\\nDear catechumens, this Sunday will take place the mass of sending of the catechesis during the service of 11 AM. Therefore, you will have class at 9 AM, and mass at 11 AM\\nThe Catechesis Office"},"resourceURL":"https://api.orange.com/smsmessaging/v1/outbound/tel:+221773387902/requests/aad8d2ca-50c9-44d0-aab0-7956cd441830"}}'
2021-11-09 11:22:35 | numéro : 708462464 | resultat envoi : b'{"outboundSMSMessageRequest":{"address":["tel:+221708462464"],"senderAddress":"tel:+221773387902","senderName":"ipps","outboundSMSTextMessage":{"message":"Chers cat\xc3\xa9chum\xc3\xa8nes, ce dimanche aura lieu la messe d\'envoi de la cat\xc3\xa9ch\xc3\xa8se durant l\'office de 11h. De ce fait vous aurez exceptionnellement cours \xc3\xa0 09h, et la messe \xc3\xa0 11h.\\nLe Bureau de la cat\xc3\xa9ch\xc3\xa8se\\n\\nDear catechumens, this Sunday will take place the mass of sending of the catechesis during the service of 11 AM. Therefore, you will have class at 9 AM, and mass at 11 AM\\nThe Catechesis Office"},"resourceURL":"https://api.orange.com/smsmessaging/v1/outbound/tel:+221773387902/requests/8a67cb9e-49a6-4a98-b3c6-30716fc856fe"}}'
2021-11-09 11:22:36 | numéro : 781309502 | resultat envoi : b'{"outboundSMSMessageRequest":{"address":["tel:+221781309502"],"senderAddress":"tel:+221773387902","senderName":"ipps","outboundSMSTextMessage":{"message":"Chers cat\xc3\xa9chum\xc3\xa8nes, ce dimanche aura lieu la messe d\'envoi de la cat\xc3\xa9ch\xc3\xa8se durant l\'office de 11h. De ce fait vous aurez exceptionnellement cours \xc3\xa0 09h, et la messe \xc3\xa0 11h.\\nLe Bureau de la cat\xc3\xa9ch\xc3\xa8se\\n\\nDear catechumens, this Sunday will take place the mass of sending of the catechesis during the service of 11 AM. Therefore, you will have class at 9 AM, and mass at 11 AM\\nThe Catechesis Office"},"resourceURL":"https://api.orange.com/smsmessaging/v1/outbound/tel:+221773387902/requests/095d6444-fff3-4f13-b4b6-720f33b43c1d"}}'
2021-11-09 11:22:36 | numéro : 781511041 | resultat envoi : b'{"outboundSMSMessageRequest":{"address":["tel:+221781511041"],"senderAddress":"tel:+221773387902","senderName":"ipps","outboundSMSTextMessage":{"message":"Chers cat\xc3\xa9chum\xc3\xa8nes, ce dimanche aura lieu la messe d\'envoi de la cat\xc3\xa9ch\xc3\xa8se durant l\'office de 11h. De ce fait vous aurez exceptionnellement cours \xc3\xa0 09h, et la messe \xc3\xa0 11h.\\nLe Bureau de la cat\xc3\xa9ch\xc3\xa8se\\n\\nDear catechumens, this Sunday will take place the mass of sending of the catechesis during the service of 11 AM. Therefore, you will have class at 9 AM, and mass at 11 AM\\nThe Catechesis Office"},"resourceURL":"https://api.orange.com/smsmessaging/v1/outbound/tel:+221773387902/requests/ce094980-ac3a-40f7-90b5-34660f212432"}}'
2021-11-09 11:22:36 | numéro : 765472363 | resultat envoi : b'{"outboundSMSMessageRequest":{"address":["tel:+221765472363"],"senderAddress":"tel:+221773387902","senderName":"ipps","outboundSMSTextMessage":{"message":"Chers cat\xc3\xa9chum\xc3\xa8nes, ce dimanche aura lieu la messe d\'envoi de la cat\xc3\xa9ch\xc3\xa8se durant l\'office de 11h. De ce fait vous aurez exceptionnellement cours \xc3\xa0 09h, et la messe \xc3\xa0 11h.\\nLe Bureau de la cat\xc3\xa9ch\xc3\xa8se\\n\\nDear catechumens, this Sunday will take place the mass of sending of the catechesis during the service of 11 AM. Therefore, you will have class at 9 AM, and mass at 11 AM\\nThe Catechesis Office"},"resourceURL":"https://api.orange.com/smsmessaging/v1/outbound/tel:+221773387902/requests/febff70f-7f99-4a9f-a658-7dbea46af249"}}'
2021-11-09 11:22:37 | numéro : 776084967 | resultat envoi : b'{"outboundSMSMessageRequest":{"address":["tel:+221776084967"],"senderAddress":"tel:+221773387902","senderName":"ipps","outboundSMSTextMessage":{"message":"Chers cat\xc3\xa9chum\xc3\xa8nes, ce dimanche aura lieu la messe d\'envoi de la cat\xc3\xa9ch\xc3\xa8se durant l\'office de 11h. De ce fait vous aurez exceptionnellement cours \xc3\xa0 09h, et la messe \xc3\xa0 11h.\\nLe Bureau de la cat\xc3\xa9ch\xc3\xa8se\\n\\nDear catechumens, this Sunday will take place the mass of sending of the catechesis during the service of 11 AM. Therefore, you will have class at 9 AM, and mass at 11 AM\\nThe Catechesis Office"},"resourceURL":"https://api.orange.com/smsmessaging/v1/outbound/tel:+221773387902/requests/873c89d4-bc93-47cf-be60-14f931d594e3"}}'
2021-11-09 11:22:37 | numéro : 776108893 | resultat envoi : b'{"outboundSMSMessageRequest":{"address":["tel:+221776108893"],"senderAddress":"tel:+221773387902","senderName":"ipps","outboundSMSTextMessage":{"message":"Chers cat\xc3\xa9chum\xc3\xa8nes, ce dimanche aura lieu la messe d\'envoi de la cat\xc3\xa9ch\xc3\xa8se durant l\'office de 11h. De ce fait vous aurez exceptionnellement cours \xc3\xa0 09h, et la messe \xc3\xa0 11h.\\nLe Bureau de la cat\xc3\xa9ch\xc3\xa8se\\n\\nDear catechumens, this Sunday will take place the mass of sending of the catechesis during the service of 11 AM. Therefore, you will have class at 9 AM, and mass at 11 AM\\nThe Catechesis Office"},"resourceURL":"https://api.orange.com/smsmessaging/v1/outbound/tel:+221773387902/requests/3af83210-9b88-47b4-b7ec-39081c636566"}}'
2021-11-09 11:22:37 | numéro : 764380570 | resultat envoi : b'{"outboundSMSMessageRequest":{"address":["tel:+221764380570"],"senderAddress":"tel:+221773387902","senderName":"ipps","outboundSMSTextMessage":{"message":"Chers cat\xc3\xa9chum\xc3\xa8nes, ce dimanche aura lieu la messe d\'envoi de la cat\xc3\xa9ch\xc3\xa8se durant l\'office de 11h. De ce fait vous aurez exceptionnellement cours \xc3\xa0 09h, et la messe \xc3\xa0 11h.\\nLe Bureau de la cat\xc3\xa9ch\xc3\xa8se\\n\\nDear catechumens, this Sunday will take place the mass of sending of the catechesis during the service of 11 AM. Therefore, you will have class at 9 AM, and mass at 11 AM\\nThe Catechesis Office"},"resourceURL":"https://api.orange.com/smsmessaging/v1/outbound/tel:+221773387902/requests/15f137f9-c05a-41f4-b79b-7cee7cce16b3"}}'
2021-11-09 11:22:38 | numéro : 778590854 | resultat envoi : b'{"outboundSMSMessageRequest":{"address":["tel:+221778590854"],"senderAddress":"tel:+221773387902","senderName":"ipps","outboundSMSTextMessage":{"message":"Chers cat\xc3\xa9chum\xc3\xa8nes, ce dimanche aura lieu la messe d\'envoi de la cat\xc3\xa9ch\xc3\xa8se durant l\'office de 11h. De ce fait vous aurez exceptionnellement cours \xc3\xa0 09h, et la messe \xc3\xa0 11h.\\nLe Bureau de la cat\xc3\xa9ch\xc3\xa8se\\n\\nDear catechumens, this Sunday will take place the mass of sending of the catechesis during the service of 11 AM. Therefore, you will have class at 9 AM, and mass at 11 AM\\nThe Catechesis Office"},"resourceURL":"https://api.orange.com/smsmessaging/v1/outbound/tel:+221773387902/requests/f97653cc-5526-4c2f-91be-f206fc1f6780"}}'
2021-11-09 11:22:39 | numéro : 773387902 | resultat envoi : b'{"outboundSMSMessageRequest":{"address":["tel:+221773387902"],"senderAddress":"tel:+221773387902","senderName":"ipps","outboundSMSTextMessage":{"message":"Chers cat\xc3\xa9chum\xc3\xa8nes, ce dimanche aura lieu la messe d\'envoi de la cat\xc3\xa9ch\xc3\xa8se durant l\'office de 11h. De ce fait vous aurez exceptionnellement cours \xc3\xa0 09h, et la messe \xc3\xa0 11h.\\nLe Bureau de la cat\xc3\xa9ch\xc3\xa8se\\n\\nDear catechumens, this Sunday will take place the mass of sending of the catechesis during the service of 11 AM. Therefore, you will have class at 9 AM, and mass at 11 AM\\nThe Catechesis Office"},"resourceURL":"https://api.orange.com/smsmessaging/v1/outbound/tel:+221773387902/requests/72867f09-9d5e-40e7-a82b-bb4f9300c829"}}'
2021-11-09 11:22:39 | balance 576 | fin envoi
