2021-05-12 17:00:22 | balance 1114 | debut envoi
2021-05-12 17:00:22 | numéro : 776114280 | resultat envoi : b'{"outboundSMSMessageRequest":{"address":["tel:+221776114280"],"senderAddress":"tel:+221773387902","senderName":"ipps","outboundSMSTextMessage":{"message":"Shalom Famille, soyez b\xc3\xa9nis.\\nA l\'occasion du 10\xc3\xa8me Anniversaire de notre Minist\xc3\xa8re IPPS, nous recevrons deux Hautes autorit\xc3\xa9s spirituelles qui seront nos invit\xc3\xa9s durant tout le temps des programmes du mois de Septembre. (les dates vous seront communiqu\xc3\xa9es ult\xc3\xa9rieurement) Vues toutes les d\xc3\xa9penses qui nous incombent pour la pr\xc3\xa9paration, l\'organisation et l\'apr\xc3\xa8s programmes,..."},"resourceURL":"https://api.orange.com/smsmessaging/v1/outbound/tel:+221773387902/requests/79d87714-1279-424b-a429-3848053b6743"}}'
2021-05-12 17:00:22 | numéro : 773667648 | resultat envoi : b'{"outboundSMSMessageRequest":{"address":["tel:+221773667648"],"senderAddress":"tel:+221773387902","senderName":"ipps","outboundSMSTextMessage":{"message":"Shalom Famille, soyez b\xc3\xa9nis.\\nA l\'occasion du 10\xc3\xa8me Anniversaire de notre Minist\xc3\xa8re IPPS, nous recevrons deux Hautes autorit\xc3\xa9s spirituelles qui seront nos invit\xc3\xa9s durant tout le temps des programmes du mois de Septembre. (les dates vous seront communiqu\xc3\xa9es ult\xc3\xa9rieurement) Vues toutes les d\xc3\xa9penses qui nous incombent pour la pr\xc3\xa9paration, l\'organisation et l\'apr\xc3\xa8s programmes,..."},"resourceURL":"https://api.orange.com/smsmessaging/v1/outbound/tel:+221773387902/requests/b66b8e05-f2ca-41d3-b178-2430200ba4bf"}}'
2021-05-12 17:00:23 | numéro : 777053369 | resultat envoi : b'{"outboundSMSMessageRequest":{"address":["tel:+221777053369"],"senderAddress":"tel:+221773387902","senderName":"ipps","outboundSMSTextMessage":{"message":"Shalom Famille, soyez b\xc3\xa9nis.\\nA l\'occasion du 10\xc3\xa8me Anniversaire de notre Minist\xc3\xa8re IPPS, nous recevrons deux Hautes autorit\xc3\xa9s spirituelles qui seront nos invit\xc3\xa9s durant tout le temps des programmes du mois de Septembre. (les dates vous seront communiqu\xc3\xa9es ult\xc3\xa9rieurement) Vues toutes les d\xc3\xa9penses qui nous incombent pour la pr\xc3\xa9paration, l\'organisation et l\'apr\xc3\xa8s programmes,..."},"resourceURL":"https://api.orange.com/smsmessaging/v1/outbound/tel:+221773387902/requests/87a73474-20b9-44a5-879e-a4b22f22bba9"}}'
2021-05-12 17:00:23 | numéro : 772421253 | resultat envoi : b'{"outboundSMSMessageRequest":{"address":["tel:+221772421253"],"senderAddress":"tel:+221773387902","senderName":"ipps","outboundSMSTextMessage":{"message":"Shalom Famille, soyez b\xc3\xa9nis.\\nA l\'occasion du 10\xc3\xa8me Anniversaire de notre Minist\xc3\xa8re IPPS, nous recevrons deux Hautes autorit\xc3\xa9s spirituelles qui seront nos invit\xc3\xa9s durant tout le temps des programmes du mois de Septembre. (les dates vous seront communiqu\xc3\xa9es ult\xc3\xa9rieurement) Vues toutes les d\xc3\xa9penses qui nous incombent pour la pr\xc3\xa9paration, l\'organisation et l\'apr\xc3\xa8s programmes,..."},"resourceURL":"https://api.orange.com/smsmessaging/v1/outbound/tel:+221773387902/requests/795921cd-d838-4b9c-8557-56d1f184f098"}}'
2021-05-12 17:00:23 | numéro : 771827907 | resultat envoi : b'{"outboundSMSMessageRequest":{"address":["tel:+221771827907"],"senderAddress":"tel:+221773387902","senderName":"ipps","outboundSMSTextMessage":{"message":"Shalom Famille, soyez b\xc3\xa9nis.\\nA l\'occasion du 10\xc3\xa8me Anniversaire de notre Minist\xc3\xa8re IPPS, nous recevrons deux Hautes autorit\xc3\xa9s spirituelles qui seront nos invit\xc3\xa9s durant tout le temps des programmes du mois de Septembre. (les dates vous seront communiqu\xc3\xa9es ult\xc3\xa9rieurement) Vues toutes les d\xc3\xa9penses qui nous incombent pour la pr\xc3\xa9paration, l\'organisation et l\'apr\xc3\xa8s programmes,..."},"resourceURL":"https://api.orange.com/smsmessaging/v1/outbound/tel:+221773387902/requests/58012bac-d56d-4c24-bea9-5ba8cfa9b9f0"}}'
2021-05-12 17:00:24 | numéro : 772787249 | resultat envoi : b'{"outboundSMSMessageRequest":{"address":["tel:+221772787249"],"senderAddress":"tel:+221773387902","senderName":"ipps","outboundSMSTextMessage":{"message":"Shalom Famille, soyez b\xc3\xa9nis.\\nA l\'occasion du 10\xc3\xa8me Anniversaire de notre Minist\xc3\xa8re IPPS, nous recevrons deux Hautes autorit\xc3\xa9s spirituelles qui seront nos invit\xc3\xa9s durant tout le temps des programmes du mois de Septembre. (les dates vous seront communiqu\xc3\xa9es ult\xc3\xa9rieurement) Vues toutes les d\xc3\xa9penses qui nous incombent pour la pr\xc3\xa9paration, l\'organisation et l\'apr\xc3\xa8s programmes,..."},"resourceURL":"https://api.orange.com/smsmessaging/v1/outbound/tel:+221773387902/requests/ec83f967-0ebb-490d-a121-93f8be91735f"}}'
2021-05-12 17:00:24 | numéro : 770468214 | resultat envoi : b'{"outboundSMSMessageRequest":{"address":["tel:+221770468214"],"senderAddress":"tel:+221773387902","senderName":"ipps","outboundSMSTextMessage":{"message":"Shalom Famille, soyez b\xc3\xa9nis.\\nA l\'occasion du 10\xc3\xa8me Anniversaire de notre Minist\xc3\xa8re IPPS, nous recevrons deux Hautes autorit\xc3\xa9s spirituelles qui seront nos invit\xc3\xa9s durant tout le temps des programmes du mois de Septembre. (les dates vous seront communiqu\xc3\xa9es ult\xc3\xa9rieurement) Vues toutes les d\xc3\xa9penses qui nous incombent pour la pr\xc3\xa9paration, l\'organisation et l\'apr\xc3\xa8s programmes,..."},"resourceURL":"https://api.orange.com/smsmessaging/v1/outbound/tel:+221773387902/requests/c4a9fb50-4ab0-4212-8972-573b03f1f5ba"}}'
2021-05-12 17:00:24 | numéro : 771160943 | resultat envoi : b'{"outboundSMSMessageRequest":{"address":["tel:+221771160943"],"senderAddress":"tel:+221773387902","senderName":"ipps","outboundSMSTextMessage":{"message":"Shalom Famille, soyez b\xc3\xa9nis.\\nA l\'occasion du 10\xc3\xa8me Anniversaire de notre Minist\xc3\xa8re IPPS, nous recevrons deux Hautes autorit\xc3\xa9s spirituelles qui seront nos invit\xc3\xa9s durant tout le temps des programmes du mois de Septembre. (les dates vous seront communiqu\xc3\xa9es ult\xc3\xa9rieurement) Vues toutes les d\xc3\xa9penses qui nous incombent pour la pr\xc3\xa9paration, l\'organisation et l\'apr\xc3\xa8s programmes,..."},"resourceURL":"https://api.orange.com/smsmessaging/v1/outbound/tel:+221773387902/requests/c4772f70-25e4-43d2-aa78-cda1b5c682d8"}}'
2021-05-12 17:00:25 | numéro : 777251041 | resultat envoi : b'{"outboundSMSMessageRequest":{"address":["tel:+221777251041"],"senderAddress":"tel:+221773387902","senderName":"ipps","outboundSMSTextMessage":{"message":"Shalom Famille, soyez b\xc3\xa9nis.\\nA l\'occasion du 10\xc3\xa8me Anniversaire de notre Minist\xc3\xa8re IPPS, nous recevrons deux Hautes autorit\xc3\xa9s spirituelles qui seront nos invit\xc3\xa9s durant tout le temps des programmes du mois de Septembre. (les dates vous seront communiqu\xc3\xa9es ult\xc3\xa9rieurement) Vues toutes les d\xc3\xa9penses qui nous incombent pour la pr\xc3\xa9paration, l\'organisation et l\'apr\xc3\xa8s programmes,..."},"resourceURL":"https://api.orange.com/smsmessaging/v1/outbound/tel:+221773387902/requests/97a5f688-c405-4ae2-8576-2a82f8f37579"}}'
2021-05-12 17:00:25 | numéro : 784750972 | resultat envoi : b'{"outboundSMSMessageRequest":{"address":["tel:+221784750972"],"senderAddress":"tel:+221773387902","senderName":"ipps","outboundSMSTextMessage":{"message":"Shalom Famille, soyez b\xc3\xa9nis.\\nA l\'occasion du 10\xc3\xa8me Anniversaire de notre Minist\xc3\xa8re IPPS, nous recevrons deux Hautes autorit\xc3\xa9s spirituelles qui seront nos invit\xc3\xa9s durant tout le temps des programmes du mois de Septembre. (les dates vous seront communiqu\xc3\xa9es ult\xc3\xa9rieurement) Vues toutes les d\xc3\xa9penses qui nous incombent pour la pr\xc3\xa9paration, l\'organisation et l\'apr\xc3\xa8s programmes,..."},"resourceURL":"https://api.orange.com/smsmessaging/v1/outbound/tel:+221773387902/requests/c467c2bc-3a89-4201-a849-5491174d6a81"}}'
2021-05-12 17:00:25 | numéro : 770986503 | resultat envoi : b'{"outboundSMSMessageRequest":{"address":["tel:+221770986503"],"senderAddress":"tel:+221773387902","senderName":"ipps","outboundSMSTextMessage":{"message":"Shalom Famille, soyez b\xc3\xa9nis.\\nA l\'occasion du 10\xc3\xa8me Anniversaire de notre Minist\xc3\xa8re IPPS, nous recevrons deux Hautes autorit\xc3\xa9s spirituelles qui seront nos invit\xc3\xa9s durant tout le temps des programmes du mois de Septembre. (les dates vous seront communiqu\xc3\xa9es ult\xc3\xa9rieurement) Vues toutes les d\xc3\xa9penses qui nous incombent pour la pr\xc3\xa9paration, l\'organisation et l\'apr\xc3\xa8s programmes,..."},"resourceURL":"https://api.orange.com/smsmessaging/v1/outbound/tel:+221773387902/requests/2748c42c-082c-4691-bc64-9ea36bcca1d6"}}'
2021-05-12 17:00:25 | numéro : 775941646 | resultat envoi : b'{"outboundSMSMessageRequest":{"address":["tel:+221775941646"],"senderAddress":"tel:+221773387902","senderName":"ipps","outboundSMSTextMessage":{"message":"Shalom Famille, soyez b\xc3\xa9nis.\\nA l\'occasion du 10\xc3\xa8me Anniversaire de notre Minist\xc3\xa8re IPPS, nous recevrons deux Hautes autorit\xc3\xa9s spirituelles qui seront nos invit\xc3\xa9s durant tout le temps des programmes du mois de Septembre. (les dates vous seront communiqu\xc3\xa9es ult\xc3\xa9rieurement) Vues toutes les d\xc3\xa9penses qui nous incombent pour la pr\xc3\xa9paration, l\'organisation et l\'apr\xc3\xa8s programmes,..."},"resourceURL":"https://api.orange.com/smsmessaging/v1/outbound/tel:+221773387902/requests/2acb520e-8637-49e7-86ba-6d2191f0003a"}}'
2021-05-12 17:00:26 | numéro : 770305030 | resultat envoi : b'{"outboundSMSMessageRequest":{"address":["tel:+221770305030"],"senderAddress":"tel:+221773387902","senderName":"ipps","outboundSMSTextMessage":{"message":"Shalom Famille, soyez b\xc3\xa9nis.\\nA l\'occasion du 10\xc3\xa8me Anniversaire de notre Minist\xc3\xa8re IPPS, nous recevrons deux Hautes autorit\xc3\xa9s spirituelles qui seront nos invit\xc3\xa9s durant tout le temps des programmes du mois de Septembre. (les dates vous seront communiqu\xc3\xa9es ult\xc3\xa9rieurement) Vues toutes les d\xc3\xa9penses qui nous incombent pour la pr\xc3\xa9paration, l\'organisation et l\'apr\xc3\xa8s programmes,..."},"resourceURL":"https://api.orange.com/smsmessaging/v1/outbound/tel:+221773387902/requests/19b134de-47fd-4871-a1a0-1f32643206a8"}}'
2021-05-12 17:00:26 | numéro : 771766736 | resultat envoi : b'{"outboundSMSMessageRequest":{"address":["tel:+221771766736"],"senderAddress":"tel:+221773387902","senderName":"ipps","outboundSMSTextMessage":{"message":"Shalom Famille, soyez b\xc3\xa9nis.\\nA l\'occasion du 10\xc3\xa8me Anniversaire de notre Minist\xc3\xa8re IPPS, nous recevrons deux Hautes autorit\xc3\xa9s spirituelles qui seront nos invit\xc3\xa9s durant tout le temps des programmes du mois de Septembre. (les dates vous seront communiqu\xc3\xa9es ult\xc3\xa9rieurement) Vues toutes les d\xc3\xa9penses qui nous incombent pour la pr\xc3\xa9paration, l\'organisation et l\'apr\xc3\xa8s programmes,..."},"resourceURL":"https://api.orange.com/smsmessaging/v1/outbound/tel:+221773387902/requests/56304566-1398-4479-a880-de157402134a"}}'
2021-05-12 17:00:26 | numéro : 777888851 | resultat envoi : b'{"outboundSMSMessageRequest":{"address":["tel:+221777888851"],"senderAddress":"tel:+221773387902","senderName":"ipps","outboundSMSTextMessage":{"message":"Shalom Famille, soyez b\xc3\xa9nis.\\nA l\'occasion du 10\xc3\xa8me Anniversaire de notre Minist\xc3\xa8re IPPS, nous recevrons deux Hautes autorit\xc3\xa9s spirituelles qui seront nos invit\xc3\xa9s durant tout le temps des programmes du mois de Septembre. (les dates vous seront communiqu\xc3\xa9es ult\xc3\xa9rieurement) Vues toutes les d\xc3\xa9penses qui nous incombent pour la pr\xc3\xa9paration, l\'organisation et l\'apr\xc3\xa8s programmes,..."},"resourceURL":"https://api.orange.com/smsmessaging/v1/outbound/tel:+221773387902/requests/66da9078-22a8-428d-acc4-dbdf7064dfec"}}'
2021-05-12 17:00:26 | numéro : 774835159 | resultat envoi : b'{"outboundSMSMessageRequest":{"address":["tel:+221774835159"],"senderAddress":"tel:+221773387902","senderName":"ipps","outboundSMSTextMessage":{"message":"Shalom Famille, soyez b\xc3\xa9nis.\\nA l\'occasion du 10\xc3\xa8me Anniversaire de notre Minist\xc3\xa8re IPPS, nous recevrons deux Hautes autorit\xc3\xa9s spirituelles qui seront nos invit\xc3\xa9s durant tout le temps des programmes du mois de Septembre. (les dates vous seront communiqu\xc3\xa9es ult\xc3\xa9rieurement) Vues toutes les d\xc3\xa9penses qui nous incombent pour la pr\xc3\xa9paration, l\'organisation et l\'apr\xc3\xa8s programmes,..."},"resourceURL":"https://api.orange.com/smsmessaging/v1/outbound/tel:+221773387902/requests/7b6934a8-3504-4dc9-9dba-9a5f68b1ca10"}}'
2021-05-12 17:00:27 | numéro : 785238617 | resultat envoi : b'{"outboundSMSMessageRequest":{"address":["tel:+221785238617"],"senderAddress":"tel:+221773387902","senderName":"ipps","outboundSMSTextMessage":{"message":"Shalom Famille, soyez b\xc3\xa9nis.\\nA l\'occasion du 10\xc3\xa8me Anniversaire de notre Minist\xc3\xa8re IPPS, nous recevrons deux Hautes autorit\xc3\xa9s spirituelles qui seront nos invit\xc3\xa9s durant tout le temps des programmes du mois de Septembre. (les dates vous seront communiqu\xc3\xa9es ult\xc3\xa9rieurement) Vues toutes les d\xc3\xa9penses qui nous incombent pour la pr\xc3\xa9paration, l\'organisation et l\'apr\xc3\xa8s programmes,..."},"resourceURL":"https://api.orange.com/smsmessaging/v1/outbound/tel:+221773387902/requests/9e007dee-1e1d-4176-ad3d-f0157570f5c8"}}'
2021-05-12 17:00:27 | numéro : 785232548 | resultat envoi : b'{"outboundSMSMessageRequest":{"address":["tel:+221785232548"],"senderAddress":"tel:+221773387902","senderName":"ipps","outboundSMSTextMessage":{"message":"Shalom Famille, soyez b\xc3\xa9nis.\\nA l\'occasion du 10\xc3\xa8me Anniversaire de notre Minist\xc3\xa8re IPPS, nous recevrons deux Hautes autorit\xc3\xa9s spirituelles qui seront nos invit\xc3\xa9s durant tout le temps des programmes du mois de Septembre. (les dates vous seront communiqu\xc3\xa9es ult\xc3\xa9rieurement) Vues toutes les d\xc3\xa9penses qui nous incombent pour la pr\xc3\xa9paration, l\'organisation et l\'apr\xc3\xa8s programmes,..."},"resourceURL":"https://api.orange.com/smsmessaging/v1/outbound/tel:+221773387902/requests/44b5f8cb-11fe-4e9a-a240-4e2702ede685"}}'
2021-05-12 17:00:27 | numéro : 781925367 | resultat envoi : b'{"outboundSMSMessageRequest":{"address":["tel:+221781925367"],"senderAddress":"tel:+221773387902","senderName":"ipps","outboundSMSTextMessage":{"message":"Shalom Famille, soyez b\xc3\xa9nis.\\nA l\'occasion du 10\xc3\xa8me Anniversaire de notre Minist\xc3\xa8re IPPS, nous recevrons deux Hautes autorit\xc3\xa9s spirituelles qui seront nos invit\xc3\xa9s durant tout le temps des programmes du mois de Septembre. (les dates vous seront communiqu\xc3\xa9es ult\xc3\xa9rieurement) Vues toutes les d\xc3\xa9penses qui nous incombent pour la pr\xc3\xa9paration, l\'organisation et l\'apr\xc3\xa8s programmes,..."},"resourceURL":"https://api.orange.com/smsmessaging/v1/outbound/tel:+221773387902/requests/d9c9986b-26e9-480c-a148-a8e350460eb5"}}'
2021-05-12 17:00:28 | numéro : 770552465 | resultat envoi : b'{"outboundSMSMessageRequest":{"address":["tel:+221770552465"],"senderAddress":"tel:+221773387902","senderName":"ipps","outboundSMSTextMessage":{"message":"Shalom Famille, soyez b\xc3\xa9nis.\\nA l\'occasion du 10\xc3\xa8me Anniversaire de notre Minist\xc3\xa8re IPPS, nous recevrons deux Hautes autorit\xc3\xa9s spirituelles qui seront nos invit\xc3\xa9s durant tout le temps des programmes du mois de Septembre. (les dates vous seront communiqu\xc3\xa9es ult\xc3\xa9rieurement) Vues toutes les d\xc3\xa9penses qui nous incombent pour la pr\xc3\xa9paration, l\'organisation et l\'apr\xc3\xa8s programmes,..."},"resourceURL":"https://api.orange.com/smsmessaging/v1/outbound/tel:+221773387902/requests/e7282757-cf44-40fe-87d7-939c54b2b17d"}}'
2021-05-12 17:00:28 | numéro : 776401147 | resultat envoi : b'{"outboundSMSMessageRequest":{"address":["tel:+221776401147"],"senderAddress":"tel:+221773387902","senderName":"ipps","outboundSMSTextMessage":{"message":"Shalom Famille, soyez b\xc3\xa9nis.\\nA l\'occasion du 10\xc3\xa8me Anniversaire de notre Minist\xc3\xa8re IPPS, nous recevrons deux Hautes autorit\xc3\xa9s spirituelles qui seront nos invit\xc3\xa9s durant tout le temps des programmes du mois de Septembre. (les dates vous seront communiqu\xc3\xa9es ult\xc3\xa9rieurement) Vues toutes les d\xc3\xa9penses qui nous incombent pour la pr\xc3\xa9paration, l\'organisation et l\'apr\xc3\xa8s programmes,..."},"resourceURL":"https://api.orange.com/smsmessaging/v1/outbound/tel:+221773387902/requests/3ed26018-ab5a-4057-aaef-461d754d4945"}}'
2021-05-12 17:00:28 | balance 694 | fin envoi
