2021-07-28 22:08:45 | balance 1742 | debut envoi
2021-07-28 22:08:45 | numéro : 765005555 | resultat envoi : b'{"outboundSMSMessageRequest":{"address":["tel:+221765005555"],"senderAddress":"tel:+221773387902","senderName":"ipps","outboundSMSTextMessage":{"message":"[Berger NIXON] Shalom famille soyez b\xc3\xa9nis.\\n Un rappel concernant la cotisation pour l\'organisation des 10 ans d\'IPPS. Nous sommes \xc3\xa0 quelques jours de l\'\xc3\xa9ch\xc3\xa9ance et nous comptons sur chacun pour la r\xc3\xa9ussite de cet \xc3\xa9v\xc3\xa9nement unique.\\n Passez une excellente fin de semaine sous la protection divine."},"resourceURL":"https://api.orange.com/smsmessaging/v1/outbound/tel:+221773387902/requests/e8814b78-24d9-4428-9c54-867a0c359e59"}}'
2021-07-28 22:08:46 | numéro : 778929932 | resultat envoi : b'{"outboundSMSMessageRequest":{"address":["tel:+221778929932"],"senderAddress":"tel:+221773387902","senderName":"ipps","outboundSMSTextMessage":{"message":"[Berger NIXON] Shalom famille soyez b\xc3\xa9nis.\\n Un rappel concernant la cotisation pour l\'organisation des 10 ans d\'IPPS. Nous sommes \xc3\xa0 quelques jours de l\'\xc3\xa9ch\xc3\xa9ance et nous comptons sur chacun pour la r\xc3\xa9ussite de cet \xc3\xa9v\xc3\xa9nement unique.\\n Passez une excellente fin de semaine sous la protection divine."},"resourceURL":"https://api.orange.com/smsmessaging/v1/outbound/tel:+221773387902/requests/c8027813-6ef5-4da1-aec7-237ecdd59615"}}'
2021-07-28 22:08:46 | numéro : 771594350 | resultat envoi : b'{"outboundSMSMessageRequest":{"address":["tel:+221771594350"],"senderAddress":"tel:+221773387902","senderName":"ipps","outboundSMSTextMessage":{"message":"[Berger NIXON] Shalom famille soyez b\xc3\xa9nis.\\n Un rappel concernant la cotisation pour l\'organisation des 10 ans d\'IPPS. Nous sommes \xc3\xa0 quelques jours de l\'\xc3\xa9ch\xc3\xa9ance et nous comptons sur chacun pour la r\xc3\xa9ussite de cet \xc3\xa9v\xc3\xa9nement unique.\\n Passez une excellente fin de semaine sous la protection divine."},"resourceURL":"https://api.orange.com/smsmessaging/v1/outbound/tel:+221773387902/requests/1a599c1a-5bfe-4d34-be59-31fd636e4f39"}}'
2021-07-28 22:08:46 | numéro : 773458517 | resultat envoi : b'{"outboundSMSMessageRequest":{"address":["tel:+221773458517"],"senderAddress":"tel:+221773387902","senderName":"ipps","outboundSMSTextMessage":{"message":"[Berger NIXON] Shalom famille soyez b\xc3\xa9nis.\\n Un rappel concernant la cotisation pour l\'organisation des 10 ans d\'IPPS. Nous sommes \xc3\xa0 quelques jours de l\'\xc3\xa9ch\xc3\xa9ance et nous comptons sur chacun pour la r\xc3\xa9ussite de cet \xc3\xa9v\xc3\xa9nement unique.\\n Passez une excellente fin de semaine sous la protection divine."},"resourceURL":"https://api.orange.com/smsmessaging/v1/outbound/tel:+221773387902/requests/26a0a37f-50a4-4c48-ae97-bdebfc9de417"}}'
2021-07-28 22:08:47 | numéro : 773532839 | resultat envoi : b'{"outboundSMSMessageRequest":{"address":["tel:+221773532839"],"senderAddress":"tel:+221773387902","senderName":"ipps","outboundSMSTextMessage":{"message":"[Berger NIXON] Shalom famille soyez b\xc3\xa9nis.\\n Un rappel concernant la cotisation pour l\'organisation des 10 ans d\'IPPS. Nous sommes \xc3\xa0 quelques jours de l\'\xc3\xa9ch\xc3\xa9ance et nous comptons sur chacun pour la r\xc3\xa9ussite de cet \xc3\xa9v\xc3\xa9nement unique.\\n Passez une excellente fin de semaine sous la protection divine."},"resourceURL":"https://api.orange.com/smsmessaging/v1/outbound/tel:+221773387902/requests/f680449c-a6ed-4c65-bdab-6d4b2d5e7180"}}'
2021-07-28 22:08:47 | numéro : 772494914 | resultat envoi : b'{"outboundSMSMessageRequest":{"address":["tel:+221772494914"],"senderAddress":"tel:+221773387902","senderName":"ipps","outboundSMSTextMessage":{"message":"[Berger NIXON] Shalom famille soyez b\xc3\xa9nis.\\n Un rappel concernant la cotisation pour l\'organisation des 10 ans d\'IPPS. Nous sommes \xc3\xa0 quelques jours de l\'\xc3\xa9ch\xc3\xa9ance et nous comptons sur chacun pour la r\xc3\xa9ussite de cet \xc3\xa9v\xc3\xa9nement unique.\\n Passez une excellente fin de semaine sous la protection divine."},"resourceURL":"https://api.orange.com/smsmessaging/v1/outbound/tel:+221773387902/requests/99ee3869-adf7-4361-837c-9807944b7ac8"}}'
2021-07-28 22:08:48 | numéro : 776381558 | resultat envoi : b'{"outboundSMSMessageRequest":{"address":["tel:+221776381558"],"senderAddress":"tel:+221773387902","senderName":"ipps","outboundSMSTextMessage":{"message":"[Berger NIXON] Shalom famille soyez b\xc3\xa9nis.\\n Un rappel concernant la cotisation pour l\'organisation des 10 ans d\'IPPS. Nous sommes \xc3\xa0 quelques jours de l\'\xc3\xa9ch\xc3\xa9ance et nous comptons sur chacun pour la r\xc3\xa9ussite de cet \xc3\xa9v\xc3\xa9nement unique.\\n Passez une excellente fin de semaine sous la protection divine."},"resourceURL":"https://api.orange.com/smsmessaging/v1/outbound/tel:+221773387902/requests/fb73d344-b1ae-4225-9f84-db94d23b4b66"}}'
2021-07-28 22:08:48 | numéro : 775411590 | resultat envoi : b'{"outboundSMSMessageRequest":{"address":["tel:+221775411590"],"senderAddress":"tel:+221773387902","senderName":"ipps","outboundSMSTextMessage":{"message":"[Berger NIXON] Shalom famille soyez b\xc3\xa9nis.\\n Un rappel concernant la cotisation pour l\'organisation des 10 ans d\'IPPS. Nous sommes \xc3\xa0 quelques jours de l\'\xc3\xa9ch\xc3\xa9ance et nous comptons sur chacun pour la r\xc3\xa9ussite de cet \xc3\xa9v\xc3\xa9nement unique.\\n Passez une excellente fin de semaine sous la protection divine."},"resourceURL":"https://api.orange.com/smsmessaging/v1/outbound/tel:+221773387902/requests/45e4f796-481d-4837-8c95-8af459e028ea"}}'
2021-07-28 22:08:48 | numéro : 777476138 | resultat envoi : b'{"outboundSMSMessageRequest":{"address":["tel:+221777476138"],"senderAddress":"tel:+221773387902","senderName":"ipps","outboundSMSTextMessage":{"message":"[Berger NIXON] Shalom famille soyez b\xc3\xa9nis.\\n Un rappel concernant la cotisation pour l\'organisation des 10 ans d\'IPPS. Nous sommes \xc3\xa0 quelques jours de l\'\xc3\xa9ch\xc3\xa9ance et nous comptons sur chacun pour la r\xc3\xa9ussite de cet \xc3\xa9v\xc3\xa9nement unique.\\n Passez une excellente fin de semaine sous la protection divine."},"resourceURL":"https://api.orange.com/smsmessaging/v1/outbound/tel:+221773387902/requests/efb0bc72-305d-4b3d-b43f-1d6a4673acee"}}'
2021-07-28 22:08:50 | numéro : 775179857 | resultat envoi : b'{"outboundSMSMessageRequest":{"address":["tel:+221775179857"],"senderAddress":"tel:+221773387902","senderName":"ipps","outboundSMSTextMessage":{"message":"[Berger NIXON] Shalom famille soyez b\xc3\xa9nis.\\n Un rappel concernant la cotisation pour l\'organisation des 10 ans d\'IPPS. Nous sommes \xc3\xa0 quelques jours de l\'\xc3\xa9ch\xc3\xa9ance et nous comptons sur chacun pour la r\xc3\xa9ussite de cet \xc3\xa9v\xc3\xa9nement unique.\\n Passez une excellente fin de semaine sous la protection divine."},"resourceURL":"https://api.orange.com/smsmessaging/v1/outbound/tel:+221773387902/requests/ea54c38a-895e-4daa-a951-e807136cacd4"}}'
2021-07-28 22:08:50 | numéro : 775333414 | resultat envoi : b'{"outboundSMSMessageRequest":{"address":["tel:+221775333414"],"senderAddress":"tel:+221773387902","senderName":"ipps","outboundSMSTextMessage":{"message":"[Berger NIXON] Shalom famille soyez b\xc3\xa9nis.\\n Un rappel concernant la cotisation pour l\'organisation des 10 ans d\'IPPS. Nous sommes \xc3\xa0 quelques jours de l\'\xc3\xa9ch\xc3\xa9ance et nous comptons sur chacun pour la r\xc3\xa9ussite de cet \xc3\xa9v\xc3\xa9nement unique.\\n Passez une excellente fin de semaine sous la protection divine."},"resourceURL":"https://api.orange.com/smsmessaging/v1/outbound/tel:+221773387902/requests/17728c5a-ed8a-4bdc-a0a6-82b72841e0df"}}'
2021-07-28 22:08:50 | numéro : 782120212 | resultat envoi : b'{"outboundSMSMessageRequest":{"address":["tel:+221782120212"],"senderAddress":"tel:+221773387902","senderName":"ipps","outboundSMSTextMessage":{"message":"[Berger NIXON] Shalom famille soyez b\xc3\xa9nis.\\n Un rappel concernant la cotisation pour l\'organisation des 10 ans d\'IPPS. Nous sommes \xc3\xa0 quelques jours de l\'\xc3\xa9ch\xc3\xa9ance et nous comptons sur chacun pour la r\xc3\xa9ussite de cet \xc3\xa9v\xc3\xa9nement unique.\\n Passez une excellente fin de semaine sous la protection divine."},"resourceURL":"https://api.orange.com/smsmessaging/v1/outbound/tel:+221773387902/requests/b8a511de-0c3d-4203-a888-2c8eea17a1ce"}}'
2021-07-28 22:08:50 | numéro : 774104700 | resultat envoi : b'{"outboundSMSMessageRequest":{"address":["tel:+221774104700"],"senderAddress":"tel:+221773387902","senderName":"ipps","outboundSMSTextMessage":{"message":"[Berger NIXON] Shalom famille soyez b\xc3\xa9nis.\\n Un rappel concernant la cotisation pour l\'organisation des 10 ans d\'IPPS. Nous sommes \xc3\xa0 quelques jours de l\'\xc3\xa9ch\xc3\xa9ance et nous comptons sur chacun pour la r\xc3\xa9ussite de cet \xc3\xa9v\xc3\xa9nement unique.\\n Passez une excellente fin de semaine sous la protection divine."},"resourceURL":"https://api.orange.com/smsmessaging/v1/outbound/tel:+221773387902/requests/46ab6d65-ab79-4ce3-aefb-41f5f0b10775"}}'
2021-07-28 22:08:50 | numéro : 776622494 | resultat envoi : b'{"outboundSMSMessageRequest":{"address":["tel:+221776622494"],"senderAddress":"tel:+221773387902","senderName":"ipps","outboundSMSTextMessage":{"message":"[Berger NIXON] Shalom famille soyez b\xc3\xa9nis.\\n Un rappel concernant la cotisation pour l\'organisation des 10 ans d\'IPPS. Nous sommes \xc3\xa0 quelques jours de l\'\xc3\xa9ch\xc3\xa9ance et nous comptons sur chacun pour la r\xc3\xa9ussite de cet \xc3\xa9v\xc3\xa9nement unique.\\n Passez une excellente fin de semaine sous la protection divine."},"resourceURL":"https://api.orange.com/smsmessaging/v1/outbound/tel:+221773387902/requests/57e31bce-8b6d-4fc1-b413-45bda02cf81e"}}'
2021-07-28 22:08:51 | numéro : 775195670 | resultat envoi : b'{"outboundSMSMessageRequest":{"address":["tel:+221775195670"],"senderAddress":"tel:+221773387902","senderName":"ipps","outboundSMSTextMessage":{"message":"[Berger NIXON] Shalom famille soyez b\xc3\xa9nis.\\n Un rappel concernant la cotisation pour l\'organisation des 10 ans d\'IPPS. Nous sommes \xc3\xa0 quelques jours de l\'\xc3\xa9ch\xc3\xa9ance et nous comptons sur chacun pour la r\xc3\xa9ussite de cet \xc3\xa9v\xc3\xa9nement unique.\\n Passez une excellente fin de semaine sous la protection divine."},"resourceURL":"https://api.orange.com/smsmessaging/v1/outbound/tel:+221773387902/requests/f799d38c-56f4-4c50-a7c7-3c4f513c72d9"}}'
2021-07-28 22:08:51 | numéro : 775101032 | resultat envoi : b'{"outboundSMSMessageRequest":{"address":["tel:+221775101032"],"senderAddress":"tel:+221773387902","senderName":"ipps","outboundSMSTextMessage":{"message":"[Berger NIXON] Shalom famille soyez b\xc3\xa9nis.\\n Un rappel concernant la cotisation pour l\'organisation des 10 ans d\'IPPS. Nous sommes \xc3\xa0 quelques jours de l\'\xc3\xa9ch\xc3\xa9ance et nous comptons sur chacun pour la r\xc3\xa9ussite de cet \xc3\xa9v\xc3\xa9nement unique.\\n Passez une excellente fin de semaine sous la protection divine."},"resourceURL":"https://api.orange.com/smsmessaging/v1/outbound/tel:+221773387902/requests/86f34ab3-9303-46d0-8594-5b9f808b6fda"}}'
2021-07-28 22:08:51 | numéro : 784605558 | resultat envoi : b'{"outboundSMSMessageRequest":{"address":["tel:+221784605558"],"senderAddress":"tel:+221773387902","senderName":"ipps","outboundSMSTextMessage":{"message":"[Berger NIXON] Shalom famille soyez b\xc3\xa9nis.\\n Un rappel concernant la cotisation pour l\'organisation des 10 ans d\'IPPS. Nous sommes \xc3\xa0 quelques jours de l\'\xc3\xa9ch\xc3\xa9ance et nous comptons sur chacun pour la r\xc3\xa9ussite de cet \xc3\xa9v\xc3\xa9nement unique.\\n Passez une excellente fin de semaine sous la protection divine."},"resourceURL":"https://api.orange.com/smsmessaging/v1/outbound/tel:+221773387902/requests/f4932821-524b-49f4-9d74-836271328c01"}}'
2021-07-28 22:08:51 | numéro : 774924590 | resultat envoi : b'{"outboundSMSMessageRequest":{"address":["tel:+221774924590"],"senderAddress":"tel:+221773387902","senderName":"ipps","outboundSMSTextMessage":{"message":"[Berger NIXON] Shalom famille soyez b\xc3\xa9nis.\\n Un rappel concernant la cotisation pour l\'organisation des 10 ans d\'IPPS. Nous sommes \xc3\xa0 quelques jours de l\'\xc3\xa9ch\xc3\xa9ance et nous comptons sur chacun pour la r\xc3\xa9ussite de cet \xc3\xa9v\xc3\xa9nement unique.\\n Passez une excellente fin de semaine sous la protection divine."},"resourceURL":"https://api.orange.com/smsmessaging/v1/outbound/tel:+221773387902/requests/2fe1b112-b9a8-4373-ab92-4254624c0d23"}}'
2021-07-28 22:08:52 | numéro : 774088344 | resultat envoi : b'{"outboundSMSMessageRequest":{"address":["tel:+221774088344"],"senderAddress":"tel:+221773387902","senderName":"ipps","outboundSMSTextMessage":{"message":"[Berger NIXON] Shalom famille soyez b\xc3\xa9nis.\\n Un rappel concernant la cotisation pour l\'organisation des 10 ans d\'IPPS. Nous sommes \xc3\xa0 quelques jours de l\'\xc3\xa9ch\xc3\xa9ance et nous comptons sur chacun pour la r\xc3\xa9ussite de cet \xc3\xa9v\xc3\xa9nement unique.\\n Passez une excellente fin de semaine sous la protection divine."},"resourceURL":"https://api.orange.com/smsmessaging/v1/outbound/tel:+221773387902/requests/ce145563-4ea1-441a-98ae-5283cb15cedd"}}'
2021-07-28 22:08:52 | numéro : 776084577 | resultat envoi : b'{"outboundSMSMessageRequest":{"address":["tel:+221776084577"],"senderAddress":"tel:+221773387902","senderName":"ipps","outboundSMSTextMessage":{"message":"[Berger NIXON] Shalom famille soyez b\xc3\xa9nis.\\n Un rappel concernant la cotisation pour l\'organisation des 10 ans d\'IPPS. Nous sommes \xc3\xa0 quelques jours de l\'\xc3\xa9ch\xc3\xa9ance et nous comptons sur chacun pour la r\xc3\xa9ussite de cet \xc3\xa9v\xc3\xa9nement unique.\\n Passez une excellente fin de semaine sous la protection divine."},"resourceURL":"https://api.orange.com/smsmessaging/v1/outbound/tel:+221773387902/requests/64d2048b-9f63-4ac1-bf98-92dd87a5e403"}}'
2021-07-28 22:08:52 | numéro : 771448080 | resultat envoi : b'{"outboundSMSMessageRequest":{"address":["tel:+221771448080"],"senderAddress":"tel:+221773387902","senderName":"ipps","outboundSMSTextMessage":{"message":"[Berger NIXON] Shalom famille soyez b\xc3\xa9nis.\\n Un rappel concernant la cotisation pour l\'organisation des 10 ans d\'IPPS. Nous sommes \xc3\xa0 quelques jours de l\'\xc3\xa9ch\xc3\xa9ance et nous comptons sur chacun pour la r\xc3\xa9ussite de cet \xc3\xa9v\xc3\xa9nement unique.\\n Passez une excellente fin de semaine sous la protection divine."},"resourceURL":"https://api.orange.com/smsmessaging/v1/outbound/tel:+221773387902/requests/af7811b4-1084-45b2-a869-542d46143825"}}'
2021-07-28 22:08:52 | numéro : 774136992 | resultat envoi : b'{"outboundSMSMessageRequest":{"address":["tel:+221774136992"],"senderAddress":"tel:+221773387902","senderName":"ipps","outboundSMSTextMessage":{"message":"[Berger NIXON] Shalom famille soyez b\xc3\xa9nis.\\n Un rappel concernant la cotisation pour l\'organisation des 10 ans d\'IPPS. Nous sommes \xc3\xa0 quelques jours de l\'\xc3\xa9ch\xc3\xa9ance et nous comptons sur chacun pour la r\xc3\xa9ussite de cet \xc3\xa9v\xc3\xa9nement unique.\\n Passez une excellente fin de semaine sous la protection divine."},"resourceURL":"https://api.orange.com/smsmessaging/v1/outbound/tel:+221773387902/requests/0d58c132-1fa6-4c58-bd78-6c23a1e76ba4"}}'
2021-07-28 22:08:53 | numéro : 775583928 | resultat envoi : b'{"outboundSMSMessageRequest":{"address":["tel:+221775583928"],"senderAddress":"tel:+221773387902","senderName":"ipps","outboundSMSTextMessage":{"message":"[Berger NIXON] Shalom famille soyez b\xc3\xa9nis.\\n Un rappel concernant la cotisation pour l\'organisation des 10 ans d\'IPPS. Nous sommes \xc3\xa0 quelques jours de l\'\xc3\xa9ch\xc3\xa9ance et nous comptons sur chacun pour la r\xc3\xa9ussite de cet \xc3\xa9v\xc3\xa9nement unique.\\n Passez une excellente fin de semaine sous la protection divine."},"resourceURL":"https://api.orange.com/smsmessaging/v1/outbound/tel:+221773387902/requests/4b21a7cb-26a2-4e79-84cf-5a97c7070302"}}'
2021-07-28 22:08:53 | numéro : 776054888 | resultat envoi : b'{"outboundSMSMessageRequest":{"address":["tel:+221776054888"],"senderAddress":"tel:+221773387902","senderName":"ipps","outboundSMSTextMessage":{"message":"[Berger NIXON] Shalom famille soyez b\xc3\xa9nis.\\n Un rappel concernant la cotisation pour l\'organisation des 10 ans d\'IPPS. Nous sommes \xc3\xa0 quelques jours de l\'\xc3\xa9ch\xc3\xa9ance et nous comptons sur chacun pour la r\xc3\xa9ussite de cet \xc3\xa9v\xc3\xa9nement unique.\\n Passez une excellente fin de semaine sous la protection divine."},"resourceURL":"https://api.orange.com/smsmessaging/v1/outbound/tel:+221773387902/requests/edfa31e9-0f10-4b93-83af-210dfaaf63f9"}}'
2021-07-28 22:08:53 | numéro : 775079264 | resultat envoi : b'{"outboundSMSMessageRequest":{"address":["tel:+221775079264"],"senderAddress":"tel:+221773387902","senderName":"ipps","outboundSMSTextMessage":{"message":"[Berger NIXON] Shalom famille soyez b\xc3\xa9nis.\\n Un rappel concernant la cotisation pour l\'organisation des 10 ans d\'IPPS. Nous sommes \xc3\xa0 quelques jours de l\'\xc3\xa9ch\xc3\xa9ance et nous comptons sur chacun pour la r\xc3\xa9ussite de cet \xc3\xa9v\xc3\xa9nement unique.\\n Passez une excellente fin de semaine sous la protection divine."},"resourceURL":"https://api.orange.com/smsmessaging/v1/outbound/tel:+221773387902/requests/8d239810-4214-46a8-b79b-9e1917fc2c89"}}'
2021-07-28 22:08:53 | numéro : 774563764 | resultat envoi : b'{"outboundSMSMessageRequest":{"address":["tel:+221774563764"],"senderAddress":"tel:+221773387902","senderName":"ipps","outboundSMSTextMessage":{"message":"[Berger NIXON] Shalom famille soyez b\xc3\xa9nis.\\n Un rappel concernant la cotisation pour l\'organisation des 10 ans d\'IPPS. Nous sommes \xc3\xa0 quelques jours de l\'\xc3\xa9ch\xc3\xa9ance et nous comptons sur chacun pour la r\xc3\xa9ussite de cet \xc3\xa9v\xc3\xa9nement unique.\\n Passez une excellente fin de semaine sous la protection divine."},"resourceURL":"https://api.orange.com/smsmessaging/v1/outbound/tel:+221773387902/requests/d246e08b-64b8-48dc-83e1-503436f54da3"}}'
2021-07-28 22:08:54 | numéro : 778847941 | resultat envoi : b'{"outboundSMSMessageRequest":{"address":["tel:+221778847941"],"senderAddress":"tel:+221773387902","senderName":"ipps","outboundSMSTextMessage":{"message":"[Berger NIXON] Shalom famille soyez b\xc3\xa9nis.\\n Un rappel concernant la cotisation pour l\'organisation des 10 ans d\'IPPS. Nous sommes \xc3\xa0 quelques jours de l\'\xc3\xa9ch\xc3\xa9ance et nous comptons sur chacun pour la r\xc3\xa9ussite de cet \xc3\xa9v\xc3\xa9nement unique.\\n Passez une excellente fin de semaine sous la protection divine."},"resourceURL":"https://api.orange.com/smsmessaging/v1/outbound/tel:+221773387902/requests/1cf9a307-89de-407f-97ac-a98b612f5d93"}}'
2021-07-28 22:08:54 | numéro : 775657881 | resultat envoi : b'{"outboundSMSMessageRequest":{"address":["tel:+221775657881"],"senderAddress":"tel:+221773387902","senderName":"ipps","outboundSMSTextMessage":{"message":"[Berger NIXON] Shalom famille soyez b\xc3\xa9nis.\\n Un rappel concernant la cotisation pour l\'organisation des 10 ans d\'IPPS. Nous sommes \xc3\xa0 quelques jours de l\'\xc3\xa9ch\xc3\xa9ance et nous comptons sur chacun pour la r\xc3\xa9ussite de cet \xc3\xa9v\xc3\xa9nement unique.\\n Passez une excellente fin de semaine sous la protection divine."},"resourceURL":"https://api.orange.com/smsmessaging/v1/outbound/tel:+221773387902/requests/31a12383-2e38-4873-97ef-d6eebce26788"}}'
2021-07-28 22:08:54 | numéro : 775264433 | resultat envoi : b'{"outboundSMSMessageRequest":{"address":["tel:+221775264433"],"senderAddress":"tel:+221773387902","senderName":"ipps","outboundSMSTextMessage":{"message":"[Berger NIXON] Shalom famille soyez b\xc3\xa9nis.\\n Un rappel concernant la cotisation pour l\'organisation des 10 ans d\'IPPS. Nous sommes \xc3\xa0 quelques jours de l\'\xc3\xa9ch\xc3\xa9ance et nous comptons sur chacun pour la r\xc3\xa9ussite de cet \xc3\xa9v\xc3\xa9nement unique.\\n Passez une excellente fin de semaine sous la protection divine."},"resourceURL":"https://api.orange.com/smsmessaging/v1/outbound/tel:+221773387902/requests/14e73260-923d-4bd2-82ea-8c14ef3dd3ca"}}'
2021-07-28 22:08:54 | numéro : 772172163 | resultat envoi : b'{"outboundSMSMessageRequest":{"address":["tel:+221772172163"],"senderAddress":"tel:+221773387902","senderName":"ipps","outboundSMSTextMessage":{"message":"[Berger NIXON] Shalom famille soyez b\xc3\xa9nis.\\n Un rappel concernant la cotisation pour l\'organisation des 10 ans d\'IPPS. Nous sommes \xc3\xa0 quelques jours de l\'\xc3\xa9ch\xc3\xa9ance et nous comptons sur chacun pour la r\xc3\xa9ussite de cet \xc3\xa9v\xc3\xa9nement unique.\\n Passez une excellente fin de semaine sous la protection divine."},"resourceURL":"https://api.orange.com/smsmessaging/v1/outbound/tel:+221773387902/requests/f242e774-4b56-4e9d-ad43-a518affa791c"}}'
2021-07-28 22:08:55 | numéro : 779278940 | resultat envoi : b'{"outboundSMSMessageRequest":{"address":["tel:+221779278940"],"senderAddress":"tel:+221773387902","senderName":"ipps","outboundSMSTextMessage":{"message":"[Berger NIXON] Shalom famille soyez b\xc3\xa9nis.\\n Un rappel concernant la cotisation pour l\'organisation des 10 ans d\'IPPS. Nous sommes \xc3\xa0 quelques jours de l\'\xc3\xa9ch\xc3\xa9ance et nous comptons sur chacun pour la r\xc3\xa9ussite de cet \xc3\xa9v\xc3\xa9nement unique.\\n Passez une excellente fin de semaine sous la protection divine."},"resourceURL":"https://api.orange.com/smsmessaging/v1/outbound/tel:+221773387902/requests/fb1cfd1d-b9bd-4a7f-baab-e59ae8239cdc"}}'
2021-07-28 22:08:55 | numéro : 776518053 | resultat envoi : b'{"outboundSMSMessageRequest":{"address":["tel:+221776518053"],"senderAddress":"tel:+221773387902","senderName":"ipps","outboundSMSTextMessage":{"message":"[Berger NIXON] Shalom famille soyez b\xc3\xa9nis.\\n Un rappel concernant la cotisation pour l\'organisation des 10 ans d\'IPPS. Nous sommes \xc3\xa0 quelques jours de l\'\xc3\xa9ch\xc3\xa9ance et nous comptons sur chacun pour la r\xc3\xa9ussite de cet \xc3\xa9v\xc3\xa9nement unique.\\n Passez une excellente fin de semaine sous la protection divine."},"resourceURL":"https://api.orange.com/smsmessaging/v1/outbound/tel:+221773387902/requests/a0bb16cb-08ba-410d-bd58-fe2927bec101"}}'
2021-07-28 22:08:55 | numéro : 771774360 | resultat envoi : b'{"outboundSMSMessageRequest":{"address":["tel:+221771774360"],"senderAddress":"tel:+221773387902","senderName":"ipps","outboundSMSTextMessage":{"message":"[Berger NIXON] Shalom famille soyez b\xc3\xa9nis.\\n Un rappel concernant la cotisation pour l\'organisation des 10 ans d\'IPPS. Nous sommes \xc3\xa0 quelques jours de l\'\xc3\xa9ch\xc3\xa9ance et nous comptons sur chacun pour la r\xc3\xa9ussite de cet \xc3\xa9v\xc3\xa9nement unique.\\n Passez une excellente fin de semaine sous la protection divine."},"resourceURL":"https://api.orange.com/smsmessaging/v1/outbound/tel:+221773387902/requests/7584af0e-380a-421e-8b35-a4c694454347"}}'
2021-07-28 22:08:55 | numéro : 775177136 | resultat envoi : b'{"outboundSMSMessageRequest":{"address":["tel:+221775177136"],"senderAddress":"tel:+221773387902","senderName":"ipps","outboundSMSTextMessage":{"message":"[Berger NIXON] Shalom famille soyez b\xc3\xa9nis.\\n Un rappel concernant la cotisation pour l\'organisation des 10 ans d\'IPPS. Nous sommes \xc3\xa0 quelques jours de l\'\xc3\xa9ch\xc3\xa9ance et nous comptons sur chacun pour la r\xc3\xa9ussite de cet \xc3\xa9v\xc3\xa9nement unique.\\n Passez une excellente fin de semaine sous la protection divine."},"resourceURL":"https://api.orange.com/smsmessaging/v1/outbound/tel:+221773387902/requests/ba251e29-7cb3-4ed2-9af7-21ed5b737dbc"}}'
2021-07-28 22:08:56 | numéro : 776082705 | resultat envoi : b'{"outboundSMSMessageRequest":{"address":["tel:+221776082705"],"senderAddress":"tel:+221773387902","senderName":"ipps","outboundSMSTextMessage":{"message":"[Berger NIXON] Shalom famille soyez b\xc3\xa9nis.\\n Un rappel concernant la cotisation pour l\'organisation des 10 ans d\'IPPS. Nous sommes \xc3\xa0 quelques jours de l\'\xc3\xa9ch\xc3\xa9ance et nous comptons sur chacun pour la r\xc3\xa9ussite de cet \xc3\xa9v\xc3\xa9nement unique.\\n Passez une excellente fin de semaine sous la protection divine."},"resourceURL":"https://api.orange.com/smsmessaging/v1/outbound/tel:+221773387902/requests/a0333d47-4aa7-4fb2-856f-850356ace0a3"}}'
2021-07-28 22:08:56 | numéro : 763043832 | resultat envoi : b'{"outboundSMSMessageRequest":{"address":["tel:+221763043832"],"senderAddress":"tel:+221773387902","senderName":"ipps","outboundSMSTextMessage":{"message":"[Berger NIXON] Shalom famille soyez b\xc3\xa9nis.\\n Un rappel concernant la cotisation pour l\'organisation des 10 ans d\'IPPS. Nous sommes \xc3\xa0 quelques jours de l\'\xc3\xa9ch\xc3\xa9ance et nous comptons sur chacun pour la r\xc3\xa9ussite de cet \xc3\xa9v\xc3\xa9nement unique.\\n Passez une excellente fin de semaine sous la protection divine."},"resourceURL":"https://api.orange.com/smsmessaging/v1/outbound/tel:+221773387902/requests/0b034c28-69a8-4ee3-acdf-17f94be4f93b"}}'
2021-07-28 22:08:56 | numéro : 704029979 | resultat envoi : b'{"outboundSMSMessageRequest":{"address":["tel:+221704029979"],"senderAddress":"tel:+221773387902","senderName":"ipps","outboundSMSTextMessage":{"message":"[Berger NIXON] Shalom famille soyez b\xc3\xa9nis.\\n Un rappel concernant la cotisation pour l\'organisation des 10 ans d\'IPPS. Nous sommes \xc3\xa0 quelques jours de l\'\xc3\xa9ch\xc3\xa9ance et nous comptons sur chacun pour la r\xc3\xa9ussite de cet \xc3\xa9v\xc3\xa9nement unique.\\n Passez une excellente fin de semaine sous la protection divine."},"resourceURL":"https://api.orange.com/smsmessaging/v1/outbound/tel:+221773387902/requests/7bd753bc-f94c-4125-a3f6-c6575cef30ef"}}'
2021-07-28 22:08:56 | numéro : 775690622 | resultat envoi : b'{"outboundSMSMessageRequest":{"address":["tel:+221775690622"],"senderAddress":"tel:+221773387902","senderName":"ipps","outboundSMSTextMessage":{"message":"[Berger NIXON] Shalom famille soyez b\xc3\xa9nis.\\n Un rappel concernant la cotisation pour l\'organisation des 10 ans d\'IPPS. Nous sommes \xc3\xa0 quelques jours de l\'\xc3\xa9ch\xc3\xa9ance et nous comptons sur chacun pour la r\xc3\xa9ussite de cet \xc3\xa9v\xc3\xa9nement unique.\\n Passez une excellente fin de semaine sous la protection divine."},"resourceURL":"https://api.orange.com/smsmessaging/v1/outbound/tel:+221773387902/requests/db886e50-56e6-4af8-8673-6fdb2b48088f"}}'
2021-07-28 22:08:57 | numéro : 776621278 | resultat envoi : b'{"outboundSMSMessageRequest":{"address":["tel:+221776621278"],"senderAddress":"tel:+221773387902","senderName":"ipps","outboundSMSTextMessage":{"message":"[Berger NIXON] Shalom famille soyez b\xc3\xa9nis.\\n Un rappel concernant la cotisation pour l\'organisation des 10 ans d\'IPPS. Nous sommes \xc3\xa0 quelques jours de l\'\xc3\xa9ch\xc3\xa9ance et nous comptons sur chacun pour la r\xc3\xa9ussite de cet \xc3\xa9v\xc3\xa9nement unique.\\n Passez une excellente fin de semaine sous la protection divine."},"resourceURL":"https://api.orange.com/smsmessaging/v1/outbound/tel:+221773387902/requests/d5df9c50-e1fd-4e20-bc0c-352d19375204"}}'
2021-07-28 22:08:57 | numéro : 776486794 | resultat envoi : b'{"outboundSMSMessageRequest":{"address":["tel:+221776486794"],"senderAddress":"tel:+221773387902","senderName":"ipps","outboundSMSTextMessage":{"message":"[Berger NIXON] Shalom famille soyez b\xc3\xa9nis.\\n Un rappel concernant la cotisation pour l\'organisation des 10 ans d\'IPPS. Nous sommes \xc3\xa0 quelques jours de l\'\xc3\xa9ch\xc3\xa9ance et nous comptons sur chacun pour la r\xc3\xa9ussite de cet \xc3\xa9v\xc3\xa9nement unique.\\n Passez une excellente fin de semaine sous la protection divine."},"resourceURL":"https://api.orange.com/smsmessaging/v1/outbound/tel:+221773387902/requests/b670f3f1-3d85-42cc-bf1d-3d561be70b22"}}'
2021-07-28 22:08:57 | numéro : 773438766 | resultat envoi : b'{"outboundSMSMessageRequest":{"address":["tel:+221773438766"],"senderAddress":"tel:+221773387902","senderName":"ipps","outboundSMSTextMessage":{"message":"[Berger NIXON] Shalom famille soyez b\xc3\xa9nis.\\n Un rappel concernant la cotisation pour l\'organisation des 10 ans d\'IPPS. Nous sommes \xc3\xa0 quelques jours de l\'\xc3\xa9ch\xc3\xa9ance et nous comptons sur chacun pour la r\xc3\xa9ussite de cet \xc3\xa9v\xc3\xa9nement unique.\\n Passez une excellente fin de semaine sous la protection divine."},"resourceURL":"https://api.orange.com/smsmessaging/v1/outbound/tel:+221773387902/requests/8920bda9-b108-470c-a019-7214f5537528"}}'
2021-07-28 22:08:57 | numéro : 774008247 | resultat envoi : b'{"outboundSMSMessageRequest":{"address":["tel:+221774008247"],"senderAddress":"tel:+221773387902","senderName":"ipps","outboundSMSTextMessage":{"message":"[Berger NIXON] Shalom famille soyez b\xc3\xa9nis.\\n Un rappel concernant la cotisation pour l\'organisation des 10 ans d\'IPPS. Nous sommes \xc3\xa0 quelques jours de l\'\xc3\xa9ch\xc3\xa9ance et nous comptons sur chacun pour la r\xc3\xa9ussite de cet \xc3\xa9v\xc3\xa9nement unique.\\n Passez une excellente fin de semaine sous la protection divine."},"resourceURL":"https://api.orange.com/smsmessaging/v1/outbound/tel:+221773387902/requests/7ede6956-a095-45d3-90d9-2d12d202ced9"}}'
2021-07-28 22:08:58 | numéro : 771324007 | resultat envoi : b'{"outboundSMSMessageRequest":{"address":["tel:+221771324007"],"senderAddress":"tel:+221773387902","senderName":"ipps","outboundSMSTextMessage":{"message":"[Berger NIXON] Shalom famille soyez b\xc3\xa9nis.\\n Un rappel concernant la cotisation pour l\'organisation des 10 ans d\'IPPS. Nous sommes \xc3\xa0 quelques jours de l\'\xc3\xa9ch\xc3\xa9ance et nous comptons sur chacun pour la r\xc3\xa9ussite de cet \xc3\xa9v\xc3\xa9nement unique.\\n Passez une excellente fin de semaine sous la protection divine."},"resourceURL":"https://api.orange.com/smsmessaging/v1/outbound/tel:+221773387902/requests/87fdf91d-62f4-43af-9271-820695605990"}}'
2021-07-28 22:08:58 | numéro : 774516330 | resultat envoi : b'{"outboundSMSMessageRequest":{"address":["tel:+221774516330"],"senderAddress":"tel:+221773387902","senderName":"ipps","outboundSMSTextMessage":{"message":"[Berger NIXON] Shalom famille soyez b\xc3\xa9nis.\\n Un rappel concernant la cotisation pour l\'organisation des 10 ans d\'IPPS. Nous sommes \xc3\xa0 quelques jours de l\'\xc3\xa9ch\xc3\xa9ance et nous comptons sur chacun pour la r\xc3\xa9ussite de cet \xc3\xa9v\xc3\xa9nement unique.\\n Passez une excellente fin de semaine sous la protection divine."},"resourceURL":"https://api.orange.com/smsmessaging/v1/outbound/tel:+221773387902/requests/61358f65-aec9-4a9f-883f-c25fb02f7b85"}}'
2021-07-28 22:08:58 | numéro : 776430358 | resultat envoi : b'{"outboundSMSMessageRequest":{"address":["tel:+221776430358"],"senderAddress":"tel:+221773387902","senderName":"ipps","outboundSMSTextMessage":{"message":"[Berger NIXON] Shalom famille soyez b\xc3\xa9nis.\\n Un rappel concernant la cotisation pour l\'organisation des 10 ans d\'IPPS. Nous sommes \xc3\xa0 quelques jours de l\'\xc3\xa9ch\xc3\xa9ance et nous comptons sur chacun pour la r\xc3\xa9ussite de cet \xc3\xa9v\xc3\xa9nement unique.\\n Passez une excellente fin de semaine sous la protection divine."},"resourceURL":"https://api.orange.com/smsmessaging/v1/outbound/tel:+221773387902/requests/97a5b013-2515-4a55-9c41-db6bf53ca20f"}}'
2021-07-28 22:08:58 | numéro : 776567420 | resultat envoi : b'{"outboundSMSMessageRequest":{"address":["tel:+221776567420"],"senderAddress":"tel:+221773387902","senderName":"ipps","outboundSMSTextMessage":{"message":"[Berger NIXON] Shalom famille soyez b\xc3\xa9nis.\\n Un rappel concernant la cotisation pour l\'organisation des 10 ans d\'IPPS. Nous sommes \xc3\xa0 quelques jours de l\'\xc3\xa9ch\xc3\xa9ance et nous comptons sur chacun pour la r\xc3\xa9ussite de cet \xc3\xa9v\xc3\xa9nement unique.\\n Passez une excellente fin de semaine sous la protection divine."},"resourceURL":"https://api.orange.com/smsmessaging/v1/outbound/tel:+221773387902/requests/5f8d5ad4-186b-47e9-b46b-d2a2330d758d"}}'
2021-07-28 22:08:58 | numéro : 772430279 | resultat envoi : b'{"outboundSMSMessageRequest":{"address":["tel:+221772430279"],"senderAddress":"tel:+221773387902","senderName":"ipps","outboundSMSTextMessage":{"message":"[Berger NIXON] Shalom famille soyez b\xc3\xa9nis.\\n Un rappel concernant la cotisation pour l\'organisation des 10 ans d\'IPPS. Nous sommes \xc3\xa0 quelques jours de l\'\xc3\xa9ch\xc3\xa9ance et nous comptons sur chacun pour la r\xc3\xa9ussite de cet \xc3\xa9v\xc3\xa9nement unique.\\n Passez une excellente fin de semaine sous la protection divine."},"resourceURL":"https://api.orange.com/smsmessaging/v1/outbound/tel:+221773387902/requests/7783e336-897d-4428-a87c-57f43921ec29"}}'
2021-07-28 22:08:59 | numéro : 781491434 | resultat envoi : b'{"outboundSMSMessageRequest":{"address":["tel:+221781491434"],"senderAddress":"tel:+221773387902","senderName":"ipps","outboundSMSTextMessage":{"message":"[Berger NIXON] Shalom famille soyez b\xc3\xa9nis.\\n Un rappel concernant la cotisation pour l\'organisation des 10 ans d\'IPPS. Nous sommes \xc3\xa0 quelques jours de l\'\xc3\xa9ch\xc3\xa9ance et nous comptons sur chacun pour la r\xc3\xa9ussite de cet \xc3\xa9v\xc3\xa9nement unique.\\n Passez une excellente fin de semaine sous la protection divine."},"resourceURL":"https://api.orange.com/smsmessaging/v1/outbound/tel:+221773387902/requests/b780c245-dbe2-4db3-b5c4-fbb45581307c"}}'
2021-07-28 22:08:59 | numéro : 771785321 | resultat envoi : b'{"outboundSMSMessageRequest":{"address":["tel:+221771785321"],"senderAddress":"tel:+221773387902","senderName":"ipps","outboundSMSTextMessage":{"message":"[Berger NIXON] Shalom famille soyez b\xc3\xa9nis.\\n Un rappel concernant la cotisation pour l\'organisation des 10 ans d\'IPPS. Nous sommes \xc3\xa0 quelques jours de l\'\xc3\xa9ch\xc3\xa9ance et nous comptons sur chacun pour la r\xc3\xa9ussite de cet \xc3\xa9v\xc3\xa9nement unique.\\n Passez une excellente fin de semaine sous la protection divine."},"resourceURL":"https://api.orange.com/smsmessaging/v1/outbound/tel:+221773387902/requests/ed79e82e-0dd4-4127-a966-c8ba1d57c61e"}}'
2021-07-28 22:08:59 | numéro : 771785310 | resultat envoi : b'{"outboundSMSMessageRequest":{"address":["tel:+221771785310"],"senderAddress":"tel:+221773387902","senderName":"ipps","outboundSMSTextMessage":{"message":"[Berger NIXON] Shalom famille soyez b\xc3\xa9nis.\\n Un rappel concernant la cotisation pour l\'organisation des 10 ans d\'IPPS. Nous sommes \xc3\xa0 quelques jours de l\'\xc3\xa9ch\xc3\xa9ance et nous comptons sur chacun pour la r\xc3\xa9ussite de cet \xc3\xa9v\xc3\xa9nement unique.\\n Passez une excellente fin de semaine sous la protection divine."},"resourceURL":"https://api.orange.com/smsmessaging/v1/outbound/tel:+221773387902/requests/32c26851-f4a0-4a72-a109-8250c8a2bee4"}}'
2021-07-28 22:09:00 | numéro : 775358064 | resultat envoi : b'{"outboundSMSMessageRequest":{"address":["tel:+221775358064"],"senderAddress":"tel:+221773387902","senderName":"ipps","outboundSMSTextMessage":{"message":"[Berger NIXON] Shalom famille soyez b\xc3\xa9nis.\\n Un rappel concernant la cotisation pour l\'organisation des 10 ans d\'IPPS. Nous sommes \xc3\xa0 quelques jours de l\'\xc3\xa9ch\xc3\xa9ance et nous comptons sur chacun pour la r\xc3\xa9ussite de cet \xc3\xa9v\xc3\xa9nement unique.\\n Passez une excellente fin de semaine sous la protection divine."},"resourceURL":"https://api.orange.com/smsmessaging/v1/outbound/tel:+221773387902/requests/d6112b00-ceac-468a-b305-645a3ba99365"}}'
2021-07-28 22:09:00 | numéro : 771160304 | resultat envoi : b'{"outboundSMSMessageRequest":{"address":["tel:+221771160304"],"senderAddress":"tel:+221773387902","senderName":"ipps","outboundSMSTextMessage":{"message":"[Berger NIXON] Shalom famille soyez b\xc3\xa9nis.\\n Un rappel concernant la cotisation pour l\'organisation des 10 ans d\'IPPS. Nous sommes \xc3\xa0 quelques jours de l\'\xc3\xa9ch\xc3\xa9ance et nous comptons sur chacun pour la r\xc3\xa9ussite de cet \xc3\xa9v\xc3\xa9nement unique.\\n Passez une excellente fin de semaine sous la protection divine."},"resourceURL":"https://api.orange.com/smsmessaging/v1/outbound/tel:+221773387902/requests/93df03d9-86dc-4117-8c2d-0f02692f9e66"}}'
2021-07-28 22:09:00 | numéro : 775319967 | resultat envoi : b'{"outboundSMSMessageRequest":{"address":["tel:+221775319967"],"senderAddress":"tel:+221773387902","senderName":"ipps","outboundSMSTextMessage":{"message":"[Berger NIXON] Shalom famille soyez b\xc3\xa9nis.\\n Un rappel concernant la cotisation pour l\'organisation des 10 ans d\'IPPS. Nous sommes \xc3\xa0 quelques jours de l\'\xc3\xa9ch\xc3\xa9ance et nous comptons sur chacun pour la r\xc3\xa9ussite de cet \xc3\xa9v\xc3\xa9nement unique.\\n Passez une excellente fin de semaine sous la protection divine."},"resourceURL":"https://api.orange.com/smsmessaging/v1/outbound/tel:+221773387902/requests/f4d5700b-1aa0-4dcf-9f3b-a96371554168"}}'
2021-07-28 22:09:00 | numéro : 775234183 | resultat envoi : b'{"outboundSMSMessageRequest":{"address":["tel:+221775234183"],"senderAddress":"tel:+221773387902","senderName":"ipps","outboundSMSTextMessage":{"message":"[Berger NIXON] Shalom famille soyez b\xc3\xa9nis.\\n Un rappel concernant la cotisation pour l\'organisation des 10 ans d\'IPPS. Nous sommes \xc3\xa0 quelques jours de l\'\xc3\xa9ch\xc3\xa9ance et nous comptons sur chacun pour la r\xc3\xa9ussite de cet \xc3\xa9v\xc3\xa9nement unique.\\n Passez une excellente fin de semaine sous la protection divine."},"resourceURL":"https://api.orange.com/smsmessaging/v1/outbound/tel:+221773387902/requests/ced3a541-b683-4131-a2c4-c7cfd5649570"}}'
2021-07-28 22:09:01 | numéro : 764811761 | resultat envoi : b'{"outboundSMSMessageRequest":{"address":["tel:+221764811761"],"senderAddress":"tel:+221773387902","senderName":"ipps","outboundSMSTextMessage":{"message":"[Berger NIXON] Shalom famille soyez b\xc3\xa9nis.\\n Un rappel concernant la cotisation pour l\'organisation des 10 ans d\'IPPS. Nous sommes \xc3\xa0 quelques jours de l\'\xc3\xa9ch\xc3\xa9ance et nous comptons sur chacun pour la r\xc3\xa9ussite de cet \xc3\xa9v\xc3\xa9nement unique.\\n Passez une excellente fin de semaine sous la protection divine."},"resourceURL":"https://api.orange.com/smsmessaging/v1/outbound/tel:+221773387902/requests/3ee90b08-276e-4431-a45f-7c4e78f29e0f"}}'
2021-07-28 22:09:01 | numéro : 770745364 | resultat envoi : b'{"outboundSMSMessageRequest":{"address":["tel:+221770745364"],"senderAddress":"tel:+221773387902","senderName":"ipps","outboundSMSTextMessage":{"message":"[Berger NIXON] Shalom famille soyez b\xc3\xa9nis.\\n Un rappel concernant la cotisation pour l\'organisation des 10 ans d\'IPPS. Nous sommes \xc3\xa0 quelques jours de l\'\xc3\xa9ch\xc3\xa9ance et nous comptons sur chacun pour la r\xc3\xa9ussite de cet \xc3\xa9v\xc3\xa9nement unique.\\n Passez une excellente fin de semaine sous la protection divine."},"resourceURL":"https://api.orange.com/smsmessaging/v1/outbound/tel:+221773387902/requests/dbd1037e-7826-40b9-b4ee-8a0fb418cf47"}}'
2021-07-28 22:09:01 | numéro : 767318023 | resultat envoi : b'{"outboundSMSMessageRequest":{"address":["tel:+221767318023"],"senderAddress":"tel:+221773387902","senderName":"ipps","outboundSMSTextMessage":{"message":"[Berger NIXON] Shalom famille soyez b\xc3\xa9nis.\\n Un rappel concernant la cotisation pour l\'organisation des 10 ans d\'IPPS. Nous sommes \xc3\xa0 quelques jours de l\'\xc3\xa9ch\xc3\xa9ance et nous comptons sur chacun pour la r\xc3\xa9ussite de cet \xc3\xa9v\xc3\xa9nement unique.\\n Passez une excellente fin de semaine sous la protection divine."},"resourceURL":"https://api.orange.com/smsmessaging/v1/outbound/tel:+221773387902/requests/e8bca3a5-8aef-490c-9fed-3881731b6392"}}'
2021-07-28 22:09:01 | numéro : 778758816 | resultat envoi : b'{"outboundSMSMessageRequest":{"address":["tel:+221778758816"],"senderAddress":"tel:+221773387902","senderName":"ipps","outboundSMSTextMessage":{"message":"[Berger NIXON] Shalom famille soyez b\xc3\xa9nis.\\n Un rappel concernant la cotisation pour l\'organisation des 10 ans d\'IPPS. Nous sommes \xc3\xa0 quelques jours de l\'\xc3\xa9ch\xc3\xa9ance et nous comptons sur chacun pour la r\xc3\xa9ussite de cet \xc3\xa9v\xc3\xa9nement unique.\\n Passez une excellente fin de semaine sous la protection divine."},"resourceURL":"https://api.orange.com/smsmessaging/v1/outbound/tel:+221773387902/requests/5ba93ee8-0645-4062-9833-8f972a9aeec9"}}'
2021-07-28 22:09:02 | numéro : 778253398 | resultat envoi : b'{"outboundSMSMessageRequest":{"address":["tel:+221778253398"],"senderAddress":"tel:+221773387902","senderName":"ipps","outboundSMSTextMessage":{"message":"[Berger NIXON] Shalom famille soyez b\xc3\xa9nis.\\n Un rappel concernant la cotisation pour l\'organisation des 10 ans d\'IPPS. Nous sommes \xc3\xa0 quelques jours de l\'\xc3\xa9ch\xc3\xa9ance et nous comptons sur chacun pour la r\xc3\xa9ussite de cet \xc3\xa9v\xc3\xa9nement unique.\\n Passez une excellente fin de semaine sous la protection divine."},"resourceURL":"https://api.orange.com/smsmessaging/v1/outbound/tel:+221773387902/requests/f8884d57-464c-4b0b-90f0-34eed42820e4"}}'
2021-07-28 22:09:02 | numéro : 776534105 | resultat envoi : b'{"outboundSMSMessageRequest":{"address":["tel:+221776534105"],"senderAddress":"tel:+221773387902","senderName":"ipps","outboundSMSTextMessage":{"message":"[Berger NIXON] Shalom famille soyez b\xc3\xa9nis.\\n Un rappel concernant la cotisation pour l\'organisation des 10 ans d\'IPPS. Nous sommes \xc3\xa0 quelques jours de l\'\xc3\xa9ch\xc3\xa9ance et nous comptons sur chacun pour la r\xc3\xa9ussite de cet \xc3\xa9v\xc3\xa9nement unique.\\n Passez une excellente fin de semaine sous la protection divine."},"resourceURL":"https://api.orange.com/smsmessaging/v1/outbound/tel:+221773387902/requests/48b72441-3cc1-4d8c-a72d-a3af6b47e0fa"}}'
2021-07-28 22:09:02 | numéro : 772339508 | resultat envoi : b'{"outboundSMSMessageRequest":{"address":["tel:+221772339508"],"senderAddress":"tel:+221773387902","senderName":"ipps","outboundSMSTextMessage":{"message":"[Berger NIXON] Shalom famille soyez b\xc3\xa9nis.\\n Un rappel concernant la cotisation pour l\'organisation des 10 ans d\'IPPS. Nous sommes \xc3\xa0 quelques jours de l\'\xc3\xa9ch\xc3\xa9ance et nous comptons sur chacun pour la r\xc3\xa9ussite de cet \xc3\xa9v\xc3\xa9nement unique.\\n Passez une excellente fin de semaine sous la protection divine."},"resourceURL":"https://api.orange.com/smsmessaging/v1/outbound/tel:+221773387902/requests/8ed58706-21b9-4b97-a44c-daddb4098fa9"}}'
2021-07-28 22:09:02 | numéro : 776887068 | resultat envoi : b'{"outboundSMSMessageRequest":{"address":["tel:+221776887068"],"senderAddress":"tel:+221773387902","senderName":"ipps","outboundSMSTextMessage":{"message":"[Berger NIXON] Shalom famille soyez b\xc3\xa9nis.\\n Un rappel concernant la cotisation pour l\'organisation des 10 ans d\'IPPS. Nous sommes \xc3\xa0 quelques jours de l\'\xc3\xa9ch\xc3\xa9ance et nous comptons sur chacun pour la r\xc3\xa9ussite de cet \xc3\xa9v\xc3\xa9nement unique.\\n Passez une excellente fin de semaine sous la protection divine."},"resourceURL":"https://api.orange.com/smsmessaging/v1/outbound/tel:+221773387902/requests/a22108ee-4832-4472-9517-7b9a3bef6744"}}'
2021-07-28 22:09:03 | numéro : 773047208 | resultat envoi : b'{"outboundSMSMessageRequest":{"address":["tel:+221773047208"],"senderAddress":"tel:+221773387902","senderName":"ipps","outboundSMSTextMessage":{"message":"[Berger NIXON] Shalom famille soyez b\xc3\xa9nis.\\n Un rappel concernant la cotisation pour l\'organisation des 10 ans d\'IPPS. Nous sommes \xc3\xa0 quelques jours de l\'\xc3\xa9ch\xc3\xa9ance et nous comptons sur chacun pour la r\xc3\xa9ussite de cet \xc3\xa9v\xc3\xa9nement unique.\\n Passez une excellente fin de semaine sous la protection divine."},"resourceURL":"https://api.orange.com/smsmessaging/v1/outbound/tel:+221773387902/requests/33c975a0-70b7-4a37-b3e5-5264ec8b7a30"}}'
2021-07-28 22:09:03 | numéro : 770533446 | resultat envoi : b'{"outboundSMSMessageRequest":{"address":["tel:+221770533446"],"senderAddress":"tel:+221773387902","senderName":"ipps","outboundSMSTextMessage":{"message":"[Berger NIXON] Shalom famille soyez b\xc3\xa9nis.\\n Un rappel concernant la cotisation pour l\'organisation des 10 ans d\'IPPS. Nous sommes \xc3\xa0 quelques jours de l\'\xc3\xa9ch\xc3\xa9ance et nous comptons sur chacun pour la r\xc3\xa9ussite de cet \xc3\xa9v\xc3\xa9nement unique.\\n Passez une excellente fin de semaine sous la protection divine."},"resourceURL":"https://api.orange.com/smsmessaging/v1/outbound/tel:+221773387902/requests/14c16cab-e652-41dd-8bc9-b2c01c400cc2"}}'
2021-07-28 22:09:03 | numéro : 772787686 | resultat envoi : b'{"outboundSMSMessageRequest":{"address":["tel:+221772787686"],"senderAddress":"tel:+221773387902","senderName":"ipps","outboundSMSTextMessage":{"message":"[Berger NIXON] Shalom famille soyez b\xc3\xa9nis.\\n Un rappel concernant la cotisation pour l\'organisation des 10 ans d\'IPPS. Nous sommes \xc3\xa0 quelques jours de l\'\xc3\xa9ch\xc3\xa9ance et nous comptons sur chacun pour la r\xc3\xa9ussite de cet \xc3\xa9v\xc3\xa9nement unique.\\n Passez une excellente fin de semaine sous la protection divine."},"resourceURL":"https://api.orange.com/smsmessaging/v1/outbound/tel:+221773387902/requests/6d3e1d39-194f-4df8-978b-a28d758c9b14"}}'
2021-07-28 22:09:04 | numéro : 770912764 | resultat envoi : b'{"outboundSMSMessageRequest":{"address":["tel:+221770912764"],"senderAddress":"tel:+221773387902","senderName":"ipps","outboundSMSTextMessage":{"message":"[Berger NIXON] Shalom famille soyez b\xc3\xa9nis.\\n Un rappel concernant la cotisation pour l\'organisation des 10 ans d\'IPPS. Nous sommes \xc3\xa0 quelques jours de l\'\xc3\xa9ch\xc3\xa9ance et nous comptons sur chacun pour la r\xc3\xa9ussite de cet \xc3\xa9v\xc3\xa9nement unique.\\n Passez une excellente fin de semaine sous la protection divine."},"resourceURL":"https://api.orange.com/smsmessaging/v1/outbound/tel:+221773387902/requests/8f67f97b-60cd-467b-826e-8b92e4d8899a"}}'
2021-07-28 22:09:04 | numéro : 775033438 | resultat envoi : b'{"outboundSMSMessageRequest":{"address":["tel:+221775033438"],"senderAddress":"tel:+221773387902","senderName":"ipps","outboundSMSTextMessage":{"message":"[Berger NIXON] Shalom famille soyez b\xc3\xa9nis.\\n Un rappel concernant la cotisation pour l\'organisation des 10 ans d\'IPPS. Nous sommes \xc3\xa0 quelques jours de l\'\xc3\xa9ch\xc3\xa9ance et nous comptons sur chacun pour la r\xc3\xa9ussite de cet \xc3\xa9v\xc3\xa9nement unique.\\n Passez une excellente fin de semaine sous la protection divine."},"resourceURL":"https://api.orange.com/smsmessaging/v1/outbound/tel:+221773387902/requests/7357b2d7-4164-4ef1-8ddb-cf94bad49156"}}'
2021-07-28 22:09:04 | numéro : 776945964 | resultat envoi : b'{"outboundSMSMessageRequest":{"address":["tel:+221776945964"],"senderAddress":"tel:+221773387902","senderName":"ipps","outboundSMSTextMessage":{"message":"[Berger NIXON] Shalom famille soyez b\xc3\xa9nis.\\n Un rappel concernant la cotisation pour l\'organisation des 10 ans d\'IPPS. Nous sommes \xc3\xa0 quelques jours de l\'\xc3\xa9ch\xc3\xa9ance et nous comptons sur chacun pour la r\xc3\xa9ussite de cet \xc3\xa9v\xc3\xa9nement unique.\\n Passez une excellente fin de semaine sous la protection divine."},"resourceURL":"https://api.orange.com/smsmessaging/v1/outbound/tel:+221773387902/requests/9ba10dde-b377-4030-b2d5-b3fdf7caf795"}}'
2021-07-28 22:09:04 | numéro : 772542047 | resultat envoi : b'{"outboundSMSMessageRequest":{"address":["tel:+221772542047"],"senderAddress":"tel:+221773387902","senderName":"ipps","outboundSMSTextMessage":{"message":"[Berger NIXON] Shalom famille soyez b\xc3\xa9nis.\\n Un rappel concernant la cotisation pour l\'organisation des 10 ans d\'IPPS. Nous sommes \xc3\xa0 quelques jours de l\'\xc3\xa9ch\xc3\xa9ance et nous comptons sur chacun pour la r\xc3\xa9ussite de cet \xc3\xa9v\xc3\xa9nement unique.\\n Passez une excellente fin de semaine sous la protection divine."},"resourceURL":"https://api.orange.com/smsmessaging/v1/outbound/tel:+221773387902/requests/b44ae206-17bb-43a9-9644-ce3db8a6477b"}}'
2021-07-28 22:09:05 | numéro : 773335607 | resultat envoi : b'{"outboundSMSMessageRequest":{"address":["tel:+221773335607"],"senderAddress":"tel:+221773387902","senderName":"ipps","outboundSMSTextMessage":{"message":"[Berger NIXON] Shalom famille soyez b\xc3\xa9nis.\\n Un rappel concernant la cotisation pour l\'organisation des 10 ans d\'IPPS. Nous sommes \xc3\xa0 quelques jours de l\'\xc3\xa9ch\xc3\xa9ance et nous comptons sur chacun pour la r\xc3\xa9ussite de cet \xc3\xa9v\xc3\xa9nement unique.\\n Passez une excellente fin de semaine sous la protection divine."},"resourceURL":"https://api.orange.com/smsmessaging/v1/outbound/tel:+221773387902/requests/7cd71702-cbb4-44de-9981-637bb805f2cc"}}'
2021-07-28 22:09:05 | numéro : 776114280 | resultat envoi : b'{"outboundSMSMessageRequest":{"address":["tel:+221776114280"],"senderAddress":"tel:+221773387902","senderName":"ipps","outboundSMSTextMessage":{"message":"[Berger NIXON] Shalom famille soyez b\xc3\xa9nis.\\n Un rappel concernant la cotisation pour l\'organisation des 10 ans d\'IPPS. Nous sommes \xc3\xa0 quelques jours de l\'\xc3\xa9ch\xc3\xa9ance et nous comptons sur chacun pour la r\xc3\xa9ussite de cet \xc3\xa9v\xc3\xa9nement unique.\\n Passez une excellente fin de semaine sous la protection divine."},"resourceURL":"https://api.orange.com/smsmessaging/v1/outbound/tel:+221773387902/requests/5b598146-74ed-415a-83f1-3cc3b9652754"}}'
2021-07-28 22:09:05 | numéro : 773667648 | resultat envoi : b'{"outboundSMSMessageRequest":{"address":["tel:+221773667648"],"senderAddress":"tel:+221773387902","senderName":"ipps","outboundSMSTextMessage":{"message":"[Berger NIXON] Shalom famille soyez b\xc3\xa9nis.\\n Un rappel concernant la cotisation pour l\'organisation des 10 ans d\'IPPS. Nous sommes \xc3\xa0 quelques jours de l\'\xc3\xa9ch\xc3\xa9ance et nous comptons sur chacun pour la r\xc3\xa9ussite de cet \xc3\xa9v\xc3\xa9nement unique.\\n Passez une excellente fin de semaine sous la protection divine."},"resourceURL":"https://api.orange.com/smsmessaging/v1/outbound/tel:+221773387902/requests/0e9ead5f-9fd5-4c25-89fe-cb2ecc81e72e"}}'
2021-07-28 22:09:06 | numéro : 777053369 | resultat envoi : b'{"outboundSMSMessageRequest":{"address":["tel:+221777053369"],"senderAddress":"tel:+221773387902","senderName":"ipps","outboundSMSTextMessage":{"message":"[Berger NIXON] Shalom famille soyez b\xc3\xa9nis.\\n Un rappel concernant la cotisation pour l\'organisation des 10 ans d\'IPPS. Nous sommes \xc3\xa0 quelques jours de l\'\xc3\xa9ch\xc3\xa9ance et nous comptons sur chacun pour la r\xc3\xa9ussite de cet \xc3\xa9v\xc3\xa9nement unique.\\n Passez une excellente fin de semaine sous la protection divine."},"resourceURL":"https://api.orange.com/smsmessaging/v1/outbound/tel:+221773387902/requests/93abdd5a-d3eb-4f6f-b532-3a0b57f44dd9"}}'
2021-07-28 22:09:06 | numéro : 772421253 | resultat envoi : b'{"outboundSMSMessageRequest":{"address":["tel:+221772421253"],"senderAddress":"tel:+221773387902","senderName":"ipps","outboundSMSTextMessage":{"message":"[Berger NIXON] Shalom famille soyez b\xc3\xa9nis.\\n Un rappel concernant la cotisation pour l\'organisation des 10 ans d\'IPPS. Nous sommes \xc3\xa0 quelques jours de l\'\xc3\xa9ch\xc3\xa9ance et nous comptons sur chacun pour la r\xc3\xa9ussite de cet \xc3\xa9v\xc3\xa9nement unique.\\n Passez une excellente fin de semaine sous la protection divine."},"resourceURL":"https://api.orange.com/smsmessaging/v1/outbound/tel:+221773387902/requests/d99ff454-bb86-488d-bd13-779636d648b9"}}'
2021-07-28 22:09:06 | numéro : 771827907 | resultat envoi : b'{"outboundSMSMessageRequest":{"address":["tel:+221771827907"],"senderAddress":"tel:+221773387902","senderName":"ipps","outboundSMSTextMessage":{"message":"[Berger NIXON] Shalom famille soyez b\xc3\xa9nis.\\n Un rappel concernant la cotisation pour l\'organisation des 10 ans d\'IPPS. Nous sommes \xc3\xa0 quelques jours de l\'\xc3\xa9ch\xc3\xa9ance et nous comptons sur chacun pour la r\xc3\xa9ussite de cet \xc3\xa9v\xc3\xa9nement unique.\\n Passez une excellente fin de semaine sous la protection divine."},"resourceURL":"https://api.orange.com/smsmessaging/v1/outbound/tel:+221773387902/requests/5c376fdf-0a65-451f-bf27-c1fdf9f83cf6"}}'
2021-07-28 22:09:06 | numéro : 772787249 | resultat envoi : b'{"outboundSMSMessageRequest":{"address":["tel:+221772787249"],"senderAddress":"tel:+221773387902","senderName":"ipps","outboundSMSTextMessage":{"message":"[Berger NIXON] Shalom famille soyez b\xc3\xa9nis.\\n Un rappel concernant la cotisation pour l\'organisation des 10 ans d\'IPPS. Nous sommes \xc3\xa0 quelques jours de l\'\xc3\xa9ch\xc3\xa9ance et nous comptons sur chacun pour la r\xc3\xa9ussite de cet \xc3\xa9v\xc3\xa9nement unique.\\n Passez une excellente fin de semaine sous la protection divine."},"resourceURL":"https://api.orange.com/smsmessaging/v1/outbound/tel:+221773387902/requests/a69c697d-ec55-42ab-a397-b895c16301f8"}}'
2021-07-28 22:09:07 | numéro : 770468214 | resultat envoi : b'{"outboundSMSMessageRequest":{"address":["tel:+221770468214"],"senderAddress":"tel:+221773387902","senderName":"ipps","outboundSMSTextMessage":{"message":"[Berger NIXON] Shalom famille soyez b\xc3\xa9nis.\\n Un rappel concernant la cotisation pour l\'organisation des 10 ans d\'IPPS. Nous sommes \xc3\xa0 quelques jours de l\'\xc3\xa9ch\xc3\xa9ance et nous comptons sur chacun pour la r\xc3\xa9ussite de cet \xc3\xa9v\xc3\xa9nement unique.\\n Passez une excellente fin de semaine sous la protection divine."},"resourceURL":"https://api.orange.com/smsmessaging/v1/outbound/tel:+221773387902/requests/138bfa55-42ce-4d84-8425-a874e233b5a2"}}'
2021-07-28 22:09:07 | numéro : 771160943 | resultat envoi : b'{"outboundSMSMessageRequest":{"address":["tel:+221771160943"],"senderAddress":"tel:+221773387902","senderName":"ipps","outboundSMSTextMessage":{"message":"[Berger NIXON] Shalom famille soyez b\xc3\xa9nis.\\n Un rappel concernant la cotisation pour l\'organisation des 10 ans d\'IPPS. Nous sommes \xc3\xa0 quelques jours de l\'\xc3\xa9ch\xc3\xa9ance et nous comptons sur chacun pour la r\xc3\xa9ussite de cet \xc3\xa9v\xc3\xa9nement unique.\\n Passez une excellente fin de semaine sous la protection divine."},"resourceURL":"https://api.orange.com/smsmessaging/v1/outbound/tel:+221773387902/requests/b7a6e60d-a11f-41aa-8971-e3d4b03db549"}}'
2021-07-28 22:09:07 | numéro : 777251041 | resultat envoi : b'{"outboundSMSMessageRequest":{"address":["tel:+221777251041"],"senderAddress":"tel:+221773387902","senderName":"ipps","outboundSMSTextMessage":{"message":"[Berger NIXON] Shalom famille soyez b\xc3\xa9nis.\\n Un rappel concernant la cotisation pour l\'organisation des 10 ans d\'IPPS. Nous sommes \xc3\xa0 quelques jours de l\'\xc3\xa9ch\xc3\xa9ance et nous comptons sur chacun pour la r\xc3\xa9ussite de cet \xc3\xa9v\xc3\xa9nement unique.\\n Passez une excellente fin de semaine sous la protection divine."},"resourceURL":"https://api.orange.com/smsmessaging/v1/outbound/tel:+221773387902/requests/6d5505a6-1424-4bdc-bae7-978fe523dc45"}}'
2021-07-28 22:09:08 | numéro : 784750972 | resultat envoi : b'{"outboundSMSMessageRequest":{"address":["tel:+221784750972"],"senderAddress":"tel:+221773387902","senderName":"ipps","outboundSMSTextMessage":{"message":"[Berger NIXON] Shalom famille soyez b\xc3\xa9nis.\\n Un rappel concernant la cotisation pour l\'organisation des 10 ans d\'IPPS. Nous sommes \xc3\xa0 quelques jours de l\'\xc3\xa9ch\xc3\xa9ance et nous comptons sur chacun pour la r\xc3\xa9ussite de cet \xc3\xa9v\xc3\xa9nement unique.\\n Passez une excellente fin de semaine sous la protection divine."},"resourceURL":"https://api.orange.com/smsmessaging/v1/outbound/tel:+221773387902/requests/50f19512-e4f6-4d09-8189-5b9e5ac5e271"}}'
2021-07-28 22:09:08 | numéro : 770986503 | resultat envoi : b'{"outboundSMSMessageRequest":{"address":["tel:+221770986503"],"senderAddress":"tel:+221773387902","senderName":"ipps","outboundSMSTextMessage":{"message":"[Berger NIXON] Shalom famille soyez b\xc3\xa9nis.\\n Un rappel concernant la cotisation pour l\'organisation des 10 ans d\'IPPS. Nous sommes \xc3\xa0 quelques jours de l\'\xc3\xa9ch\xc3\xa9ance et nous comptons sur chacun pour la r\xc3\xa9ussite de cet \xc3\xa9v\xc3\xa9nement unique.\\n Passez une excellente fin de semaine sous la protection divine."},"resourceURL":"https://api.orange.com/smsmessaging/v1/outbound/tel:+221773387902/requests/d71cb10f-c745-400e-b8d7-2ebdf2e17f64"}}'
2021-07-28 22:09:08 | numéro : 775941646 | resultat envoi : b'{"outboundSMSMessageRequest":{"address":["tel:+221775941646"],"senderAddress":"tel:+221773387902","senderName":"ipps","outboundSMSTextMessage":{"message":"[Berger NIXON] Shalom famille soyez b\xc3\xa9nis.\\n Un rappel concernant la cotisation pour l\'organisation des 10 ans d\'IPPS. Nous sommes \xc3\xa0 quelques jours de l\'\xc3\xa9ch\xc3\xa9ance et nous comptons sur chacun pour la r\xc3\xa9ussite de cet \xc3\xa9v\xc3\xa9nement unique.\\n Passez une excellente fin de semaine sous la protection divine."},"resourceURL":"https://api.orange.com/smsmessaging/v1/outbound/tel:+221773387902/requests/1125f14d-da78-4252-b1bc-73f5a5ef1536"}}'
2021-07-28 22:09:09 | numéro : 770305030 | resultat envoi : b'{"outboundSMSMessageRequest":{"address":["tel:+221770305030"],"senderAddress":"tel:+221773387902","senderName":"ipps","outboundSMSTextMessage":{"message":"[Berger NIXON] Shalom famille soyez b\xc3\xa9nis.\\n Un rappel concernant la cotisation pour l\'organisation des 10 ans d\'IPPS. Nous sommes \xc3\xa0 quelques jours de l\'\xc3\xa9ch\xc3\xa9ance et nous comptons sur chacun pour la r\xc3\xa9ussite de cet \xc3\xa9v\xc3\xa9nement unique.\\n Passez une excellente fin de semaine sous la protection divine."},"resourceURL":"https://api.orange.com/smsmessaging/v1/outbound/tel:+221773387902/requests/64467d4f-27b1-4508-8b8d-5c7117da05f4"}}'
2021-07-28 22:09:09 | numéro : 771766736 | resultat envoi : b'{"outboundSMSMessageRequest":{"address":["tel:+221771766736"],"senderAddress":"tel:+221773387902","senderName":"ipps","outboundSMSTextMessage":{"message":"[Berger NIXON] Shalom famille soyez b\xc3\xa9nis.\\n Un rappel concernant la cotisation pour l\'organisation des 10 ans d\'IPPS. Nous sommes \xc3\xa0 quelques jours de l\'\xc3\xa9ch\xc3\xa9ance et nous comptons sur chacun pour la r\xc3\xa9ussite de cet \xc3\xa9v\xc3\xa9nement unique.\\n Passez une excellente fin de semaine sous la protection divine."},"resourceURL":"https://api.orange.com/smsmessaging/v1/outbound/tel:+221773387902/requests/d3dbc601-c7e2-4b87-9975-6d34de900b84"}}'
2021-07-28 22:09:09 | numéro : 777888851 | resultat envoi : b'{"outboundSMSMessageRequest":{"address":["tel:+221777888851"],"senderAddress":"tel:+221773387902","senderName":"ipps","outboundSMSTextMessage":{"message":"[Berger NIXON] Shalom famille soyez b\xc3\xa9nis.\\n Un rappel concernant la cotisation pour l\'organisation des 10 ans d\'IPPS. Nous sommes \xc3\xa0 quelques jours de l\'\xc3\xa9ch\xc3\xa9ance et nous comptons sur chacun pour la r\xc3\xa9ussite de cet \xc3\xa9v\xc3\xa9nement unique.\\n Passez une excellente fin de semaine sous la protection divine."},"resourceURL":"https://api.orange.com/smsmessaging/v1/outbound/tel:+221773387902/requests/08eb23e0-8a6a-429c-acdf-7d6e623bdfbc"}}'
2021-07-28 22:09:09 | numéro : 774835159 | resultat envoi : b'{"outboundSMSMessageRequest":{"address":["tel:+221774835159"],"senderAddress":"tel:+221773387902","senderName":"ipps","outboundSMSTextMessage":{"message":"[Berger NIXON] Shalom famille soyez b\xc3\xa9nis.\\n Un rappel concernant la cotisation pour l\'organisation des 10 ans d\'IPPS. Nous sommes \xc3\xa0 quelques jours de l\'\xc3\xa9ch\xc3\xa9ance et nous comptons sur chacun pour la r\xc3\xa9ussite de cet \xc3\xa9v\xc3\xa9nement unique.\\n Passez une excellente fin de semaine sous la protection divine."},"resourceURL":"https://api.orange.com/smsmessaging/v1/outbound/tel:+221773387902/requests/8063f6b2-676b-4507-9c18-192b554de8d6"}}'
2021-07-28 22:09:10 | numéro : 785238617 | resultat envoi : b'{"outboundSMSMessageRequest":{"address":["tel:+221785238617"],"senderAddress":"tel:+221773387902","senderName":"ipps","outboundSMSTextMessage":{"message":"[Berger NIXON] Shalom famille soyez b\xc3\xa9nis.\\n Un rappel concernant la cotisation pour l\'organisation des 10 ans d\'IPPS. Nous sommes \xc3\xa0 quelques jours de l\'\xc3\xa9ch\xc3\xa9ance et nous comptons sur chacun pour la r\xc3\xa9ussite de cet \xc3\xa9v\xc3\xa9nement unique.\\n Passez une excellente fin de semaine sous la protection divine."},"resourceURL":"https://api.orange.com/smsmessaging/v1/outbound/tel:+221773387902/requests/c660515b-6411-4389-9371-ca4675cc0e32"}}'
2021-07-28 22:09:10 | numéro : 785232548 | resultat envoi : b'{"outboundSMSMessageRequest":{"address":["tel:+221785232548"],"senderAddress":"tel:+221773387902","senderName":"ipps","outboundSMSTextMessage":{"message":"[Berger NIXON] Shalom famille soyez b\xc3\xa9nis.\\n Un rappel concernant la cotisation pour l\'organisation des 10 ans d\'IPPS. Nous sommes \xc3\xa0 quelques jours de l\'\xc3\xa9ch\xc3\xa9ance et nous comptons sur chacun pour la r\xc3\xa9ussite de cet \xc3\xa9v\xc3\xa9nement unique.\\n Passez une excellente fin de semaine sous la protection divine."},"resourceURL":"https://api.orange.com/smsmessaging/v1/outbound/tel:+221773387902/requests/1108dbc2-f596-47a9-9390-be6bd7f38526"}}'
2021-07-28 22:09:10 | numéro : 781925367 | resultat envoi : b'{"outboundSMSMessageRequest":{"address":["tel:+221781925367"],"senderAddress":"tel:+221773387902","senderName":"ipps","outboundSMSTextMessage":{"message":"[Berger NIXON] Shalom famille soyez b\xc3\xa9nis.\\n Un rappel concernant la cotisation pour l\'organisation des 10 ans d\'IPPS. Nous sommes \xc3\xa0 quelques jours de l\'\xc3\xa9ch\xc3\xa9ance et nous comptons sur chacun pour la r\xc3\xa9ussite de cet \xc3\xa9v\xc3\xa9nement unique.\\n Passez une excellente fin de semaine sous la protection divine."},"resourceURL":"https://api.orange.com/smsmessaging/v1/outbound/tel:+221773387902/requests/6f0bc320-f370-4d2e-9ce3-a2a04477ee89"}}'
2021-07-28 22:09:10 | numéro : 770552465 | resultat envoi : b'{"outboundSMSMessageRequest":{"address":["tel:+221770552465"],"senderAddress":"tel:+221773387902","senderName":"ipps","outboundSMSTextMessage":{"message":"[Berger NIXON] Shalom famille soyez b\xc3\xa9nis.\\n Un rappel concernant la cotisation pour l\'organisation des 10 ans d\'IPPS. Nous sommes \xc3\xa0 quelques jours de l\'\xc3\xa9ch\xc3\xa9ance et nous comptons sur chacun pour la r\xc3\xa9ussite de cet \xc3\xa9v\xc3\xa9nement unique.\\n Passez une excellente fin de semaine sous la protection divine."},"resourceURL":"https://api.orange.com/smsmessaging/v1/outbound/tel:+221773387902/requests/47085df6-e9a8-4962-a355-f64411db240e"}}'
2021-07-28 22:09:11 | numéro : 776401147 | resultat envoi : b'{"outboundSMSMessageRequest":{"address":["tel:+221776401147"],"senderAddress":"tel:+221773387902","senderName":"ipps","outboundSMSTextMessage":{"message":"[Berger NIXON] Shalom famille soyez b\xc3\xa9nis.\\n Un rappel concernant la cotisation pour l\'organisation des 10 ans d\'IPPS. Nous sommes \xc3\xa0 quelques jours de l\'\xc3\xa9ch\xc3\xa9ance et nous comptons sur chacun pour la r\xc3\xa9ussite de cet \xc3\xa9v\xc3\xa9nement unique.\\n Passez une excellente fin de semaine sous la protection divine."},"resourceURL":"https://api.orange.com/smsmessaging/v1/outbound/tel:+221773387902/requests/dcba9031-702a-4865-a336-50f8de5fa593"}}'
2021-07-28 22:09:11 | numéro : 770789620 | resultat envoi : b'{"outboundSMSMessageRequest":{"address":["tel:+221770789620"],"senderAddress":"tel:+221773387902","senderName":"ipps","outboundSMSTextMessage":{"message":"[Berger NIXON] Shalom famille soyez b\xc3\xa9nis.\\n Un rappel concernant la cotisation pour l\'organisation des 10 ans d\'IPPS. Nous sommes \xc3\xa0 quelques jours de l\'\xc3\xa9ch\xc3\xa9ance et nous comptons sur chacun pour la r\xc3\xa9ussite de cet \xc3\xa9v\xc3\xa9nement unique.\\n Passez une excellente fin de semaine sous la protection divine."},"resourceURL":"https://api.orange.com/smsmessaging/v1/outbound/tel:+221773387902/requests/41189a70-270e-4ddf-87c6-6088370d1ad1"}}'
2021-07-28 22:09:11 | numéro : 776800589 | resultat envoi : b'{"outboundSMSMessageRequest":{"address":["tel:+221776800589"],"senderAddress":"tel:+221773387902","senderName":"ipps","outboundSMSTextMessage":{"message":"[Berger NIXON] Shalom famille soyez b\xc3\xa9nis.\\n Un rappel concernant la cotisation pour l\'organisation des 10 ans d\'IPPS. Nous sommes \xc3\xa0 quelques jours de l\'\xc3\xa9ch\xc3\xa9ance et nous comptons sur chacun pour la r\xc3\xa9ussite de cet \xc3\xa9v\xc3\xa9nement unique.\\n Passez une excellente fin de semaine sous la protection divine."},"resourceURL":"https://api.orange.com/smsmessaging/v1/outbound/tel:+221773387902/requests/3b2745d3-01b4-4c8b-89a2-210c0da6f1fd"}}'
2021-07-28 22:09:11 | numéro : 773387902 | resultat envoi : b'{"outboundSMSMessageRequest":{"address":["tel:+221773387902"],"senderAddress":"tel:+221773387902","senderName":"ipps","outboundSMSTextMessage":{"message":"[Berger NIXON] Shalom famille soyez b\xc3\xa9nis.\\n Un rappel concernant la cotisation pour l\'organisation des 10 ans d\'IPPS. Nous sommes \xc3\xa0 quelques jours de l\'\xc3\xa9ch\xc3\xa9ance et nous comptons sur chacun pour la r\xc3\xa9ussite de cet \xc3\xa9v\xc3\xa9nement unique.\\n Passez une excellente fin de semaine sous la protection divine."},"resourceURL":"https://api.orange.com/smsmessaging/v1/outbound/tel:+221773387902/requests/6254c606-2784-40a8-841f-b97e0edb35ba"}}'
2021-07-28 22:09:11 | balance 1273 | fin envoi
