2021-05-21 12:32:34 | balance 257 | debut envoi
2021-05-21 12:32:34 | numéro : 764609256 | resultat envoi : b'{"outboundSMSMessageRequest":{"address":["tel:+221764609256"],"senderAddress":"tel:+221773387902","senderName":"ipps","outboundSMSTextMessage":{"message":"Chers parents,\\nComme annonc\xc3\xa9, les photos et vid\xc3\xa9os dans l\'\xc3\xa9glise seront exclusivement g\xc3\xa9r\xc3\xa9es par la cat\xc3\xa9ch\xc3\xa8se. Vous pouvez vous inscrire en suivant ce lien pour la confirmation et verser d\'avance le prix des photos/vid\xc3\xa9os : https://bit.ly/2RB7Xk3\\n\\nLe bureau de la cat\xc3\xa9ch\xc3\xa8se."},"resourceURL":"https://api.orange.com/smsmessaging/v1/outbound/tel:+221773387902/requests/163412a5-596d-4e8b-9492-e26cd4336b58"}}'
2021-05-21 12:32:34 | numéro : 776499719 | resultat envoi : b'{"outboundSMSMessageRequest":{"address":["tel:+221776499719"],"senderAddress":"tel:+221773387902","senderName":"ipps","outboundSMSTextMessage":{"message":"Chers parents,\\nComme annonc\xc3\xa9, les photos et vid\xc3\xa9os dans l\'\xc3\xa9glise seront exclusivement g\xc3\xa9r\xc3\xa9es par la cat\xc3\xa9ch\xc3\xa8se. Vous pouvez vous inscrire en suivant ce lien pour la confirmation et verser d\'avance le prix des photos/vid\xc3\xa9os : https://bit.ly/2RB7Xk3\\n\\nLe bureau de la cat\xc3\xa9ch\xc3\xa8se."},"resourceURL":"https://api.orange.com/smsmessaging/v1/outbound/tel:+221773387902/requests/b963d59f-9186-4ff6-99cf-2b727e0d5e1f"}}'
2021-05-21 12:32:34 | numéro : 775056461 | resultat envoi : b'{"outboundSMSMessageRequest":{"address":["tel:+221775056461"],"senderAddress":"tel:+221773387902","senderName":"ipps","outboundSMSTextMessage":{"message":"Chers parents,\\nComme annonc\xc3\xa9, les photos et vid\xc3\xa9os dans l\'\xc3\xa9glise seront exclusivement g\xc3\xa9r\xc3\xa9es par la cat\xc3\xa9ch\xc3\xa8se. Vous pouvez vous inscrire en suivant ce lien pour la confirmation et verser d\'avance le prix des photos/vid\xc3\xa9os : https://bit.ly/2RB7Xk3\\n\\nLe bureau de la cat\xc3\xa9ch\xc3\xa8se."},"resourceURL":"https://api.orange.com/smsmessaging/v1/outbound/tel:+221773387902/requests/1551d3b9-94fc-452b-86f9-5b62910f7c40"}}'
2021-05-21 12:32:35 | numéro : 775500879 | resultat envoi : b'{"outboundSMSMessageRequest":{"address":["tel:+221775500879"],"senderAddress":"tel:+221773387902","senderName":"ipps","outboundSMSTextMessage":{"message":"Chers parents,\\nComme annonc\xc3\xa9, les photos et vid\xc3\xa9os dans l\'\xc3\xa9glise seront exclusivement g\xc3\xa9r\xc3\xa9es par la cat\xc3\xa9ch\xc3\xa8se. Vous pouvez vous inscrire en suivant ce lien pour la confirmation et verser d\'avance le prix des photos/vid\xc3\xa9os : https://bit.ly/2RB7Xk3\\n\\nLe bureau de la cat\xc3\xa9ch\xc3\xa8se."},"resourceURL":"https://api.orange.com/smsmessaging/v1/outbound/tel:+221773387902/requests/274c27f1-c58b-4ad5-8d91-abaf3f48bc93"}}'
2021-05-21 12:32:35 | numéro : 775589584 | resultat envoi : b'{"outboundSMSMessageRequest":{"address":["tel:+221775589584"],"senderAddress":"tel:+221773387902","senderName":"ipps","outboundSMSTextMessage":{"message":"Chers parents,\\nComme annonc\xc3\xa9, les photos et vid\xc3\xa9os dans l\'\xc3\xa9glise seront exclusivement g\xc3\xa9r\xc3\xa9es par la cat\xc3\xa9ch\xc3\xa8se. Vous pouvez vous inscrire en suivant ce lien pour la confirmation et verser d\'avance le prix des photos/vid\xc3\xa9os : https://bit.ly/2RB7Xk3\\n\\nLe bureau de la cat\xc3\xa9ch\xc3\xa8se."},"resourceURL":"https://api.orange.com/smsmessaging/v1/outbound/tel:+221773387902/requests/e3ed75df-478f-4479-a471-96f5de40289e"}}'
2021-05-21 12:32:36 | numéro : 776509246 | resultat envoi : b'{"outboundSMSMessageRequest":{"address":["tel:+221776509246"],"senderAddress":"tel:+221773387902","senderName":"ipps","outboundSMSTextMessage":{"message":"Chers parents,\\nComme annonc\xc3\xa9, les photos et vid\xc3\xa9os dans l\'\xc3\xa9glise seront exclusivement g\xc3\xa9r\xc3\xa9es par la cat\xc3\xa9ch\xc3\xa8se. Vous pouvez vous inscrire en suivant ce lien pour la confirmation et verser d\'avance le prix des photos/vid\xc3\xa9os : https://bit.ly/2RB7Xk3\\n\\nLe bureau de la cat\xc3\xa9ch\xc3\xa8se."},"resourceURL":"https://api.orange.com/smsmessaging/v1/outbound/tel:+221773387902/requests/a277d350-27cc-48e6-b544-ce41a70f4889"}}'
2021-05-21 12:32:36 | numéro : 776508957 | resultat envoi : b'{"outboundSMSMessageRequest":{"address":["tel:+221776508957"],"senderAddress":"tel:+221773387902","senderName":"ipps","outboundSMSTextMessage":{"message":"Chers parents,\\nComme annonc\xc3\xa9, les photos et vid\xc3\xa9os dans l\'\xc3\xa9glise seront exclusivement g\xc3\xa9r\xc3\xa9es par la cat\xc3\xa9ch\xc3\xa8se. Vous pouvez vous inscrire en suivant ce lien pour la confirmation et verser d\'avance le prix des photos/vid\xc3\xa9os : https://bit.ly/2RB7Xk3\\n\\nLe bureau de la cat\xc3\xa9ch\xc3\xa8se."},"resourceURL":"https://api.orange.com/smsmessaging/v1/outbound/tel:+221773387902/requests/d49279e2-b721-47b6-aabe-2b2ca13b80cc"}}'
2021-05-21 12:32:36 | balance 45 | fin envoi
