2021-06-30 10:24:33 | balance 51 | debut envoi
2021-06-30 10:24:33 | numéro : 776875644 | resultat envoi : b'{"outboundSMSMessageRequest":{"address":["tel:+221776875644"],"senderAddress":"tel:+221773387902","senderName":"ipps","outboundSMSTextMessage":{"message":"Chers parents,\\nla cat\xc3\xa9ch\xc3\xa8se prend fin ce sam. 03/07/2021 avec un go\xc3\xbbter partager. Les enfants doivent venir avec des jus et buscuits comme participation. Pour les absents du samedi pass\xc3\xa9, un devoir de rattrappage est pr\xc3\xa9vu. Les bulletins seront disponibles aux heures de cours. Nous comptons sur votre collaboration pour une cl\xc3\xb4ture en beaut\xc3\xa9. Que Dieu vous b\xc3\xa9nisse.\\n\\nLe bureau de la cat\xc3\xa9ch\xc3\xa8se."},"resourceURL":"https://api.orange.com/smsmessaging/v1/outbound/tel:+221773387902/requests/55061cd8-66e5-4491-a767-56c874a6abad"}}'
2021-06-30 10:24:34 | numéro : 776513054 | resultat envoi : b'{"outboundSMSMessageRequest":{"address":["tel:+221776513054"],"senderAddress":"tel:+221773387902","senderName":"ipps","outboundSMSTextMessage":{"message":"Chers parents,\\nla cat\xc3\xa9ch\xc3\xa8se prend fin ce sam. 03/07/2021 avec un go\xc3\xbbter partager. Les enfants doivent venir avec des jus et buscuits comme participation. Pour les absents du samedi pass\xc3\xa9, un devoir de rattrappage est pr\xc3\xa9vu. Les bulletins seront disponibles aux heures de cours. Nous comptons sur votre collaboration pour une cl\xc3\xb4ture en beaut\xc3\xa9. Que Dieu vous b\xc3\xa9nisse.\\n\\nLe bureau de la cat\xc3\xa9ch\xc3\xa8se."},"resourceURL":"https://api.orange.com/smsmessaging/v1/outbound/tel:+221773387902/requests/23525a87-620f-4f3e-a3b2-a62faf84937b"}}'
2021-06-30 10:24:34 | numéro : 775414435 | resultat envoi : b'{"outboundSMSMessageRequest":{"address":["tel:+221775414435"],"senderAddress":"tel:+221773387902","senderName":"ipps","outboundSMSTextMessage":{"message":"Chers parents,\\nla cat\xc3\xa9ch\xc3\xa8se prend fin ce sam. 03/07/2021 avec un go\xc3\xbbter partager. Les enfants doivent venir avec des jus et buscuits comme participation. Pour les absents du samedi pass\xc3\xa9, un devoir de rattrappage est pr\xc3\xa9vu. Les bulletins seront disponibles aux heures de cours. Nous comptons sur votre collaboration pour une cl\xc3\xb4ture en beaut\xc3\xa9. Que Dieu vous b\xc3\xa9nisse.\\n\\nLe bureau de la cat\xc3\xa9ch\xc3\xa8se."},"resourceURL":"https://api.orange.com/smsmessaging/v1/outbound/tel:+221773387902/requests/4571e605-6694-4385-b41c-8430fa8cdbed"}}'
2021-06-30 10:24:35 | numéro : 772234794 | resultat envoi : b'{"outboundSMSMessageRequest":{"address":["tel:+221772234794"],"senderAddress":"tel:+221773387902","senderName":"ipps","outboundSMSTextMessage":{"message":"Chers parents,\\nla cat\xc3\xa9ch\xc3\xa8se prend fin ce sam. 03/07/2021 avec un go\xc3\xbbter partager. Les enfants doivent venir avec des jus et buscuits comme participation. Pour les absents du samedi pass\xc3\xa9, un devoir de rattrappage est pr\xc3\xa9vu. Les bulletins seront disponibles aux heures de cours. Nous comptons sur votre collaboration pour une cl\xc3\xb4ture en beaut\xc3\xa9. Que Dieu vous b\xc3\xa9nisse.\\n\\nLe bureau de la cat\xc3\xa9ch\xc3\xa8se."},"resourceURL":"https://api.orange.com/smsmessaging/v1/outbound/tel:+221773387902/requests/ca671357-dd4c-47c5-81c8-f45427aa26ab"}}'
2021-06-30 10:24:35 | numéro : 771731156 | resultat envoi : b'{"outboundSMSMessageRequest":{"address":["tel:+221771731156"],"senderAddress":"tel:+221773387902","senderName":"ipps","outboundSMSTextMessage":{"message":"Chers parents,\\nla cat\xc3\xa9ch\xc3\xa8se prend fin ce sam. 03/07/2021 avec un go\xc3\xbbter partager. Les enfants doivent venir avec des jus et buscuits comme participation. Pour les absents du samedi pass\xc3\xa9, un devoir de rattrappage est pr\xc3\xa9vu. Les bulletins seront disponibles aux heures de cours. Nous comptons sur votre collaboration pour une cl\xc3\xb4ture en beaut\xc3\xa9. Que Dieu vous b\xc3\xa9nisse.\\n\\nLe bureau de la cat\xc3\xa9ch\xc3\xa8se."},"resourceURL":"https://api.orange.com/smsmessaging/v1/outbound/tel:+221773387902/requests/30f5dd20-d473-4de6-b35d-73e8836aaa28"}}'
2021-06-30 10:24:35 | numéro : 773334985 | resultat envoi : b'{"outboundSMSMessageRequest":{"address":["tel:+221773334985"],"senderAddress":"tel:+221773387902","senderName":"ipps","outboundSMSTextMessage":{"message":"Chers parents,\\nla cat\xc3\xa9ch\xc3\xa8se prend fin ce sam. 03/07/2021 avec un go\xc3\xbbter partager. Les enfants doivent venir avec des jus et buscuits comme participation. Pour les absents du samedi pass\xc3\xa9, un devoir de rattrappage est pr\xc3\xa9vu. Les bulletins seront disponibles aux heures de cours. Nous comptons sur votre collaboration pour une cl\xc3\xb4ture en beaut\xc3\xa9. Que Dieu vous b\xc3\xa9nisse.\\n\\nLe bureau de la cat\xc3\xa9ch\xc3\xa8se."},"resourceURL":"https://api.orange.com/smsmessaging/v1/outbound/tel:+221773387902/requests/21cddd24-ff8e-4136-822f-170481614c97"}}'
2021-06-30 10:24:36 | numéro : 776339579 | resultat envoi : b'{"outboundSMSMessageRequest":{"address":["tel:+221776339579"],"senderAddress":"tel:+221773387902","senderName":"ipps","outboundSMSTextMessage":{"message":"Chers parents,\\nla cat\xc3\xa9ch\xc3\xa8se prend fin ce sam. 03/07/2021 avec un go\xc3\xbbter partager. Les enfants doivent venir avec des jus et buscuits comme participation. Pour les absents du samedi pass\xc3\xa9, un devoir de rattrappage est pr\xc3\xa9vu. Les bulletins seront disponibles aux heures de cours. Nous comptons sur votre collaboration pour une cl\xc3\xb4ture en beaut\xc3\xa9. Que Dieu vous b\xc3\xa9nisse.\\n\\nLe bureau de la cat\xc3\xa9ch\xc3\xa8se."},"resourceURL":"https://api.orange.com/smsmessaging/v1/outbound/tel:+221773387902/requests/6058eab3-9bf6-43bc-aa7d-777b5c344f4b"}}'
2021-06-30 10:24:37 | numéro : 776556463 | resultat envoi : b'{"outboundSMSMessageRequest":{"address":["tel:+221776556463"],"senderAddress":"tel:+221773387902","senderName":"ipps","outboundSMSTextMessage":{"message":"Chers parents,\\nla cat\xc3\xa9ch\xc3\xa8se prend fin ce sam. 03/07/2021 avec un go\xc3\xbbter partager. Les enfants doivent venir avec des jus et buscuits comme participation. Pour les absents du samedi pass\xc3\xa9, un devoir de rattrappage est pr\xc3\xa9vu. Les bulletins seront disponibles aux heures de cours. Nous comptons sur votre collaboration pour une cl\xc3\xb4ture en beaut\xc3\xa9. Que Dieu vous b\xc3\xa9nisse.\\n\\nLe bureau de la cat\xc3\xa9ch\xc3\xa8se."},"resourceURL":"https://api.orange.com/smsmessaging/v1/outbound/tel:+221773387902/requests/5b0b8441-6ca7-4ebf-8b8f-08855f8a9d58"}}'
2021-06-30 10:24:38 | numéro : 775764412 | resultat envoi : b'{"outboundSMSMessageRequest":{"address":["tel:+221775764412"],"senderAddress":"tel:+221773387902","senderName":"ipps","outboundSMSTextMessage":{"message":"Chers parents,\\nla cat\xc3\xa9ch\xc3\xa8se prend fin ce sam. 03/07/2021 avec un go\xc3\xbbter partager. Les enfants doivent venir avec des jus et buscuits comme participation. Pour les absents du samedi pass\xc3\xa9, un devoir de rattrappage est pr\xc3\xa9vu. Les bulletins seront disponibles aux heures de cours. Nous comptons sur votre collaboration pour une cl\xc3\xb4ture en beaut\xc3\xa9. Que Dieu vous b\xc3\xa9nisse.\\n\\nLe bureau de la cat\xc3\xa9ch\xc3\xa8se."},"resourceURL":"https://api.orange.com/smsmessaging/v1/outbound/tel:+221773387902/requests/33298d8f-e353-4f52-8f7e-1d01d7b11e8e"}}'
2021-06-30 10:24:39 | numéro : 775564221 | resultat envoi : b'{"outboundSMSMessageRequest":{"address":["tel:+221775564221"],"senderAddress":"tel:+221773387902","senderName":"ipps","outboundSMSTextMessage":{"message":"Chers parents,\\nla cat\xc3\xa9ch\xc3\xa8se prend fin ce sam. 03/07/2021 avec un go\xc3\xbbter partager. Les enfants doivent venir avec des jus et buscuits comme participation. Pour les absents du samedi pass\xc3\xa9, un devoir de rattrappage est pr\xc3\xa9vu. Les bulletins seront disponibles aux heures de cours. Nous comptons sur votre collaboration pour une cl\xc3\xb4ture en beaut\xc3\xa9. Que Dieu vous b\xc3\xa9nisse.\\n\\nLe bureau de la cat\xc3\xa9ch\xc3\xa8se."},"resourceURL":"https://api.orange.com/smsmessaging/v1/outbound/tel:+221773387902/requests/0ae31da7-b62f-4000-a7e6-a6a35159c391"}}'
2021-06-30 10:24:39 | numéro : 707283615 | resultat envoi : b'{"outboundSMSMessageRequest":{"address":["tel:+221707283615"],"senderAddress":"tel:+221773387902","senderName":"ipps","outboundSMSTextMessage":{"message":"Chers parents,\\nla cat\xc3\xa9ch\xc3\xa8se prend fin ce sam. 03/07/2021 avec un go\xc3\xbbter partager. Les enfants doivent venir avec des jus et buscuits comme participation. Pour les absents du samedi pass\xc3\xa9, un devoir de rattrappage est pr\xc3\xa9vu. Les bulletins seront disponibles aux heures de cours. Nous comptons sur votre collaboration pour une cl\xc3\xb4ture en beaut\xc3\xa9. Que Dieu vous b\xc3\xa9nisse.\\n\\nLe bureau de la cat\xc3\xa9ch\xc3\xa8se."},"resourceURL":"https://api.orange.com/smsmessaging/v1/outbound/tel:+221773387902/requests/05ef27bd-1fe7-4cbf-ab40-1a05fca19d30"}}'
2021-06-30 10:24:40 | numéro : 709745723 | resultat envoi : b'{"outboundSMSMessageRequest":{"address":["tel:+221709745723"],"senderAddress":"tel:+221773387902","senderName":"ipps","outboundSMSTextMessage":{"message":"Chers parents,\\nla cat\xc3\xa9ch\xc3\xa8se prend fin ce sam. 03/07/2021 avec un go\xc3\xbbter partager. Les enfants doivent venir avec des jus et buscuits comme participation. Pour les absents du samedi pass\xc3\xa9, un devoir de rattrappage est pr\xc3\xa9vu. Les bulletins seront disponibles aux heures de cours. Nous comptons sur votre collaboration pour une cl\xc3\xb4ture en beaut\xc3\xa9. Que Dieu vous b\xc3\xa9nisse.\\n\\nLe bureau de la cat\xc3\xa9ch\xc3\xa8se."},"resourceURL":"https://api.orange.com/smsmessaging/v1/outbound/tel:+221773387902/requests/a350c089-968c-4743-aaa8-1a0762fd9794"}}'
2021-06-30 10:24:41 | numéro : 764609256 | resultat envoi : b'{"outboundSMSMessageRequest":{"address":["tel:+221764609256"],"senderAddress":"tel:+221773387902","senderName":"ipps","outboundSMSTextMessage":{"message":"Chers parents,\\nla cat\xc3\xa9ch\xc3\xa8se prend fin ce sam. 03/07/2021 avec un go\xc3\xbbter partager. Les enfants doivent venir avec des jus et buscuits comme participation. Pour les absents du samedi pass\xc3\xa9, un devoir de rattrappage est pr\xc3\xa9vu. Les bulletins seront disponibles aux heures de cours. Nous comptons sur votre collaboration pour une cl\xc3\xb4ture en beaut\xc3\xa9. Que Dieu vous b\xc3\xa9nisse.\\n\\nLe bureau de la cat\xc3\xa9ch\xc3\xa8se."},"resourceURL":"https://api.orange.com/smsmessaging/v1/outbound/tel:+221773387902/requests/219ad460-c25c-41f7-83cb-dcc268f34548"}}'
2021-06-30 10:24:42 | numéro : 764842343 | resultat envoi : b'{"outboundSMSMessageRequest":{"address":["tel:+221764842343"],"senderAddress":"tel:+221773387902","senderName":"ipps","outboundSMSTextMessage":{"message":"Chers parents,\\nla cat\xc3\xa9ch\xc3\xa8se prend fin ce sam. 03/07/2021 avec un go\xc3\xbbter partager. Les enfants doivent venir avec des jus et buscuits comme participation. Pour les absents du samedi pass\xc3\xa9, un devoir de rattrappage est pr\xc3\xa9vu. Les bulletins seront disponibles aux heures de cours. Nous comptons sur votre collaboration pour une cl\xc3\xb4ture en beaut\xc3\xa9. Que Dieu vous b\xc3\xa9nisse.\\n\\nLe bureau de la cat\xc3\xa9ch\xc3\xa8se."},"resourceURL":"https://api.orange.com/smsmessaging/v1/outbound/tel:+221773387902/requests/f5702254-b26a-44cf-833c-697d4d57c08d"}}'
2021-06-30 10:24:42 | numéro : 765005555 | resultat envoi : b'{"outboundSMSMessageRequest":{"address":["tel:+221765005555"],"senderAddress":"tel:+221773387902","senderName":"ipps","outboundSMSTextMessage":{"message":"Chers parents,\\nla cat\xc3\xa9ch\xc3\xa8se prend fin ce sam. 03/07/2021 avec un go\xc3\xbbter partager. Les enfants doivent venir avec des jus et buscuits comme participation. Pour les absents du samedi pass\xc3\xa9, un devoir de rattrappage est pr\xc3\xa9vu. Les bulletins seront disponibles aux heures de cours. Nous comptons sur votre collaboration pour une cl\xc3\xb4ture en beaut\xc3\xa9. Que Dieu vous b\xc3\xa9nisse.\\n\\nLe bureau de la cat\xc3\xa9ch\xc3\xa8se."},"resourceURL":"https://api.orange.com/smsmessaging/v1/outbound/tel:+221773387902/requests/1d1db105-a139-4a7d-8c1c-a2cc1168d10b"}}'
2021-06-30 10:24:43 | numéro : 765472363 | resultat envoi : b'{"outboundSMSMessageRequest":{"address":["tel:+221765472363"],"senderAddress":"tel:+221773387902","senderName":"ipps","outboundSMSTextMessage":{"message":"Chers parents,\\nla cat\xc3\xa9ch\xc3\xa8se prend fin ce sam. 03/07/2021 avec un go\xc3\xbbter partager. Les enfants doivent venir avec des jus et buscuits comme participation. Pour les absents du samedi pass\xc3\xa9, un devoir de rattrappage est pr\xc3\xa9vu. Les bulletins seront disponibles aux heures de cours. Nous comptons sur votre collaboration pour une cl\xc3\xb4ture en beaut\xc3\xa9. Que Dieu vous b\xc3\xa9nisse.\\n\\nLe bureau de la cat\xc3\xa9ch\xc3\xa8se."},"resourceURL":"https://api.orange.com/smsmessaging/v1/outbound/tel:+221773387902/requests/bd5da661-28bf-4bdc-8d9a-0212d5577145"}}'
2021-06-30 10:24:43 | numéro : 766614352 | resultat envoi : b'{"outboundSMSMessageRequest":{"address":["tel:+221766614352"],"senderAddress":"tel:+221773387902","senderName":"ipps","outboundSMSTextMessage":{"message":"Chers parents,\\nla cat\xc3\xa9ch\xc3\xa8se prend fin ce sam. 03/07/2021 avec un go\xc3\xbbter partager. Les enfants doivent venir avec des jus et buscuits comme participation. Pour les absents du samedi pass\xc3\xa9, un devoir de rattrappage est pr\xc3\xa9vu. Les bulletins seront disponibles aux heures de cours. Nous comptons sur votre collaboration pour une cl\xc3\xb4ture en beaut\xc3\xa9. Que Dieu vous b\xc3\xa9nisse.\\n\\nLe bureau de la cat\xc3\xa9ch\xc3\xa8se."},"resourceURL":"https://api.orange.com/smsmessaging/v1/outbound/tel:+221773387902/requests/689f6056-c660-4548-8358-db70eed40f03"}}'
2021-06-30 10:24:44 | numéro : 768502818 | resultat envoi : b'{"outboundSMSMessageRequest":{"address":["tel:+221768502818"],"senderAddress":"tel:+221773387902","senderName":"ipps","outboundSMSTextMessage":{"message":"Chers parents,\\nla cat\xc3\xa9ch\xc3\xa8se prend fin ce sam. 03/07/2021 avec un go\xc3\xbbter partager. Les enfants doivent venir avec des jus et buscuits comme participation. Pour les absents du samedi pass\xc3\xa9, un devoir de rattrappage est pr\xc3\xa9vu. Les bulletins seront disponibles aux heures de cours. Nous comptons sur votre collaboration pour une cl\xc3\xb4ture en beaut\xc3\xa9. Que Dieu vous b\xc3\xa9nisse.\\n\\nLe bureau de la cat\xc3\xa9ch\xc3\xa8se."},"resourceURL":"https://api.orange.com/smsmessaging/v1/outbound/tel:+221773387902/requests/12ab6454-19f4-4e61-a27d-79be23687191"}}'
2021-06-30 10:24:44 | numéro : 768653646 | resultat envoi : b'{"outboundSMSMessageRequest":{"address":["tel:+221768653646"],"senderAddress":"tel:+221773387902","senderName":"ipps","outboundSMSTextMessage":{"message":"Chers parents,\\nla cat\xc3\xa9ch\xc3\xa8se prend fin ce sam. 03/07/2021 avec un go\xc3\xbbter partager. Les enfants doivent venir avec des jus et buscuits comme participation. Pour les absents du samedi pass\xc3\xa9, un devoir de rattrappage est pr\xc3\xa9vu. Les bulletins seront disponibles aux heures de cours. Nous comptons sur votre collaboration pour une cl\xc3\xb4ture en beaut\xc3\xa9. Que Dieu vous b\xc3\xa9nisse.\\n\\nLe bureau de la cat\xc3\xa9ch\xc3\xa8se."},"resourceURL":"https://api.orange.com/smsmessaging/v1/outbound/tel:+221773387902/requests/90db992f-e885-4993-ace2-c88ec4068158"}}'
2021-06-30 10:24:45 | numéro : 770520301 | resultat envoi : b'{"outboundSMSMessageRequest":{"address":["tel:+221770520301"],"senderAddress":"tel:+221773387902","senderName":"ipps","outboundSMSTextMessage":{"message":"Chers parents,\\nla cat\xc3\xa9ch\xc3\xa8se prend fin ce sam. 03/07/2021 avec un go\xc3\xbbter partager. Les enfants doivent venir avec des jus et buscuits comme participation. Pour les absents du samedi pass\xc3\xa9, un devoir de rattrappage est pr\xc3\xa9vu. Les bulletins seront disponibles aux heures de cours. Nous comptons sur votre collaboration pour une cl\xc3\xb4ture en beaut\xc3\xa9. Que Dieu vous b\xc3\xa9nisse.\\n\\nLe bureau de la cat\xc3\xa9ch\xc3\xa8se."},"resourceURL":"https://api.orange.com/smsmessaging/v1/outbound/tel:+221773387902/requests/0f095de4-529e-4931-b2d1-975959b53066"}}'
2021-06-30 10:24:45 | numéro : 770577086 | resultat envoi : b'{"outboundSMSMessageRequest":{"address":["tel:+221770577086"],"senderAddress":"tel:+221773387902","senderName":"ipps","outboundSMSTextMessage":{"message":"Chers parents,\\nla cat\xc3\xa9ch\xc3\xa8se prend fin ce sam. 03/07/2021 avec un go\xc3\xbbter partager. Les enfants doivent venir avec des jus et buscuits comme participation. Pour les absents du samedi pass\xc3\xa9, un devoir de rattrappage est pr\xc3\xa9vu. Les bulletins seront disponibles aux heures de cours. Nous comptons sur votre collaboration pour une cl\xc3\xb4ture en beaut\xc3\xa9. Que Dieu vous b\xc3\xa9nisse.\\n\\nLe bureau de la cat\xc3\xa9ch\xc3\xa8se."},"resourceURL":"https://api.orange.com/smsmessaging/v1/outbound/tel:+221773387902/requests/3d10a37e-6047-44ae-bf7f-2a0901b9092a"}}'
2021-06-30 10:24:46 | numéro : 771043316 | resultat envoi : b'{"outboundSMSMessageRequest":{"address":["tel:+221771043316"],"senderAddress":"tel:+221773387902","senderName":"ipps","outboundSMSTextMessage":{"message":"Chers parents,\\nla cat\xc3\xa9ch\xc3\xa8se prend fin ce sam. 03/07/2021 avec un go\xc3\xbbter partager. Les enfants doivent venir avec des jus et buscuits comme participation. Pour les absents du samedi pass\xc3\xa9, un devoir de rattrappage est pr\xc3\xa9vu. Les bulletins seront disponibles aux heures de cours. Nous comptons sur votre collaboration pour une cl\xc3\xb4ture en beaut\xc3\xa9. Que Dieu vous b\xc3\xa9nisse.\\n\\nLe bureau de la cat\xc3\xa9ch\xc3\xa8se."},"resourceURL":"https://api.orange.com/smsmessaging/v1/outbound/tel:+221773387902/requests/402eb07d-d392-4ee7-866d-906e7963d4a7"}}'
2021-06-30 10:24:46 | numéro : 771229696 | resultat envoi : b'{"outboundSMSMessageRequest":{"address":["tel:+221771229696"],"senderAddress":"tel:+221773387902","senderName":"ipps","outboundSMSTextMessage":{"message":"Chers parents,\\nla cat\xc3\xa9ch\xc3\xa8se prend fin ce sam. 03/07/2021 avec un go\xc3\xbbter partager. Les enfants doivent venir avec des jus et buscuits comme participation. Pour les absents du samedi pass\xc3\xa9, un devoir de rattrappage est pr\xc3\xa9vu. Les bulletins seront disponibles aux heures de cours. Nous comptons sur votre collaboration pour une cl\xc3\xb4ture en beaut\xc3\xa9. Que Dieu vous b\xc3\xa9nisse.\\n\\nLe bureau de la cat\xc3\xa9ch\xc3\xa8se."},"resourceURL":"https://api.orange.com/smsmessaging/v1/outbound/tel:+221773387902/requests/e3d087f1-0549-4a0b-baf3-fba8d3d51aaf"}}'
2021-06-30 10:24:47 | numéro : 771332447 | resultat envoi : b'{"outboundSMSMessageRequest":{"address":["tel:+221771332447"],"senderAddress":"tel:+221773387902","senderName":"ipps","outboundSMSTextMessage":{"message":"Chers parents,\\nla cat\xc3\xa9ch\xc3\xa8se prend fin ce sam. 03/07/2021 avec un go\xc3\xbbter partager. Les enfants doivent venir avec des jus et buscuits comme participation. Pour les absents du samedi pass\xc3\xa9, un devoir de rattrappage est pr\xc3\xa9vu. Les bulletins seront disponibles aux heures de cours. Nous comptons sur votre collaboration pour une cl\xc3\xb4ture en beaut\xc3\xa9. Que Dieu vous b\xc3\xa9nisse.\\n\\nLe bureau de la cat\xc3\xa9ch\xc3\xa8se."},"resourceURL":"https://api.orange.com/smsmessaging/v1/outbound/tel:+221773387902/requests/9b631f48-6b0e-4545-bf10-6197a43f32ce"}}'
2021-06-30 10:24:48 | numéro : 771356007 | resultat envoi : b'{"outboundSMSMessageRequest":{"address":["tel:+221771356007"],"senderAddress":"tel:+221773387902","senderName":"ipps","outboundSMSTextMessage":{"message":"Chers parents,\\nla cat\xc3\xa9ch\xc3\xa8se prend fin ce sam. 03/07/2021 avec un go\xc3\xbbter partager. Les enfants doivent venir avec des jus et buscuits comme participation. Pour les absents du samedi pass\xc3\xa9, un devoir de rattrappage est pr\xc3\xa9vu. Les bulletins seront disponibles aux heures de cours. Nous comptons sur votre collaboration pour une cl\xc3\xb4ture en beaut\xc3\xa9. Que Dieu vous b\xc3\xa9nisse.\\n\\nLe bureau de la cat\xc3\xa9ch\xc3\xa8se."},"resourceURL":"https://api.orange.com/smsmessaging/v1/outbound/tel:+221773387902/requests/42e60a42-22a2-49bd-aa23-bb741f291587"}}'
2021-06-30 10:24:49 | numéro : 771403848 | resultat envoi : b'{"outboundSMSMessageRequest":{"address":["tel:+221771403848"],"senderAddress":"tel:+221773387902","senderName":"ipps","outboundSMSTextMessage":{"message":"Chers parents,\\nla cat\xc3\xa9ch\xc3\xa8se prend fin ce sam. 03/07/2021 avec un go\xc3\xbbter partager. Les enfants doivent venir avec des jus et buscuits comme participation. Pour les absents du samedi pass\xc3\xa9, un devoir de rattrappage est pr\xc3\xa9vu. Les bulletins seront disponibles aux heures de cours. Nous comptons sur votre collaboration pour une cl\xc3\xb4ture en beaut\xc3\xa9. Que Dieu vous b\xc3\xa9nisse.\\n\\nLe bureau de la cat\xc3\xa9ch\xc3\xa8se."},"resourceURL":"https://api.orange.com/smsmessaging/v1/outbound/tel:+221773387902/requests/6be1ebfe-039d-45d5-a8b9-e25b4dd3f524"}}'
2021-06-30 10:24:50 | numéro : 771541666 | resultat envoi : b'{"outboundSMSMessageRequest":{"address":["tel:+221771541666"],"senderAddress":"tel:+221773387902","senderName":"ipps","outboundSMSTextMessage":{"message":"Chers parents,\\nla cat\xc3\xa9ch\xc3\xa8se prend fin ce sam. 03/07/2021 avec un go\xc3\xbbter partager. Les enfants doivent venir avec des jus et buscuits comme participation. Pour les absents du samedi pass\xc3\xa9, un devoir de rattrappage est pr\xc3\xa9vu. Les bulletins seront disponibles aux heures de cours. Nous comptons sur votre collaboration pour une cl\xc3\xb4ture en beaut\xc3\xa9. Que Dieu vous b\xc3\xa9nisse.\\n\\nLe bureau de la cat\xc3\xa9ch\xc3\xa8se."},"resourceURL":"https://api.orange.com/smsmessaging/v1/outbound/tel:+221773387902/requests/83fbdda6-2dfc-409c-b27b-29111623c9d4"}}'
2021-06-30 10:24:50 | numéro : 771561674 | resultat envoi : b'{"outboundSMSMessageRequest":{"address":["tel:+221771561674"],"senderAddress":"tel:+221773387902","senderName":"ipps","outboundSMSTextMessage":{"message":"Chers parents,\\nla cat\xc3\xa9ch\xc3\xa8se prend fin ce sam. 03/07/2021 avec un go\xc3\xbbter partager. Les enfants doivent venir avec des jus et buscuits comme participation. Pour les absents du samedi pass\xc3\xa9, un devoir de rattrappage est pr\xc3\xa9vu. Les bulletins seront disponibles aux heures de cours. Nous comptons sur votre collaboration pour une cl\xc3\xb4ture en beaut\xc3\xa9. Que Dieu vous b\xc3\xa9nisse.\\n\\nLe bureau de la cat\xc3\xa9ch\xc3\xa8se."},"resourceURL":"https://api.orange.com/smsmessaging/v1/outbound/tel:+221773387902/requests/3e88b89c-53e9-4fe8-8fe3-2762ad62976e"}}'
2021-06-30 10:24:50 | numéro : 771624536 | resultat envoi : b'{"outboundSMSMessageRequest":{"address":["tel:+221771624536"],"senderAddress":"tel:+221773387902","senderName":"ipps","outboundSMSTextMessage":{"message":"Chers parents,\\nla cat\xc3\xa9ch\xc3\xa8se prend fin ce sam. 03/07/2021 avec un go\xc3\xbbter partager. Les enfants doivent venir avec des jus et buscuits comme participation. Pour les absents du samedi pass\xc3\xa9, un devoir de rattrappage est pr\xc3\xa9vu. Les bulletins seront disponibles aux heures de cours. Nous comptons sur votre collaboration pour une cl\xc3\xb4ture en beaut\xc3\xa9. Que Dieu vous b\xc3\xa9nisse.\\n\\nLe bureau de la cat\xc3\xa9ch\xc3\xa8se."},"resourceURL":"https://api.orange.com/smsmessaging/v1/outbound/tel:+221773387902/requests/53850067-8ee1-4896-9490-efa75ff8e5e3"}}'
2021-06-30 10:24:51 | numéro : 771671737 | resultat envoi : b'{"outboundSMSMessageRequest":{"address":["tel:+221771671737"],"senderAddress":"tel:+221773387902","senderName":"ipps","outboundSMSTextMessage":{"message":"Chers parents,\\nla cat\xc3\xa9ch\xc3\xa8se prend fin ce sam. 03/07/2021 avec un go\xc3\xbbter partager. Les enfants doivent venir avec des jus et buscuits comme participation. Pour les absents du samedi pass\xc3\xa9, un devoir de rattrappage est pr\xc3\xa9vu. Les bulletins seront disponibles aux heures de cours. Nous comptons sur votre collaboration pour une cl\xc3\xb4ture en beaut\xc3\xa9. Que Dieu vous b\xc3\xa9nisse.\\n\\nLe bureau de la cat\xc3\xa9ch\xc3\xa8se."},"resourceURL":"https://api.orange.com/smsmessaging/v1/outbound/tel:+221773387902/requests/38a81a24-6610-4234-a6c9-1861a30e03e9"}}'
2021-06-30 10:24:51 | numéro : 771677231 | resultat envoi : b'{"outboundSMSMessageRequest":{"address":["tel:+221771677231"],"senderAddress":"tel:+221773387902","senderName":"ipps","outboundSMSTextMessage":{"message":"Chers parents,\\nla cat\xc3\xa9ch\xc3\xa8se prend fin ce sam. 03/07/2021 avec un go\xc3\xbbter partager. Les enfants doivent venir avec des jus et buscuits comme participation. Pour les absents du samedi pass\xc3\xa9, un devoir de rattrappage est pr\xc3\xa9vu. Les bulletins seront disponibles aux heures de cours. Nous comptons sur votre collaboration pour une cl\xc3\xb4ture en beaut\xc3\xa9. Que Dieu vous b\xc3\xa9nisse.\\n\\nLe bureau de la cat\xc3\xa9ch\xc3\xa8se."},"resourceURL":"https://api.orange.com/smsmessaging/v1/outbound/tel:+221773387902/requests/fe90623b-8c0c-469b-a347-bef2b89df5bd"}}'
2021-06-30 10:24:52 | numéro : 771723076 | resultat envoi : b'{"outboundSMSMessageRequest":{"address":["tel:+221771723076"],"senderAddress":"tel:+221773387902","senderName":"ipps","outboundSMSTextMessage":{"message":"Chers parents,\\nla cat\xc3\xa9ch\xc3\xa8se prend fin ce sam. 03/07/2021 avec un go\xc3\xbbter partager. Les enfants doivent venir avec des jus et buscuits comme participation. Pour les absents du samedi pass\xc3\xa9, un devoir de rattrappage est pr\xc3\xa9vu. Les bulletins seront disponibles aux heures de cours. Nous comptons sur votre collaboration pour une cl\xc3\xb4ture en beaut\xc3\xa9. Que Dieu vous b\xc3\xa9nisse.\\n\\nLe bureau de la cat\xc3\xa9ch\xc3\xa8se."},"resourceURL":"https://api.orange.com/smsmessaging/v1/outbound/tel:+221773387902/requests/a2c3ded2-4004-4833-bcb0-0702a243d7de"}}'
2021-06-30 10:24:52 | numéro : 771732310 | resultat envoi : b'{"outboundSMSMessageRequest":{"address":["tel:+221771732310"],"senderAddress":"tel:+221773387902","senderName":"ipps","outboundSMSTextMessage":{"message":"Chers parents,\\nla cat\xc3\xa9ch\xc3\xa8se prend fin ce sam. 03/07/2021 avec un go\xc3\xbbter partager. Les enfants doivent venir avec des jus et buscuits comme participation. Pour les absents du samedi pass\xc3\xa9, un devoir de rattrappage est pr\xc3\xa9vu. Les bulletins seront disponibles aux heures de cours. Nous comptons sur votre collaboration pour une cl\xc3\xb4ture en beaut\xc3\xa9. Que Dieu vous b\xc3\xa9nisse.\\n\\nLe bureau de la cat\xc3\xa9ch\xc3\xa8se."},"resourceURL":"https://api.orange.com/smsmessaging/v1/outbound/tel:+221773387902/requests/3360491f-46b9-4659-8b5c-3445a1192f21"}}'
2021-06-30 10:24:52 | numéro : 771800496 | resultat envoi : b'{"outboundSMSMessageRequest":{"address":["tel:+221771800496"],"senderAddress":"tel:+221773387902","senderName":"ipps","outboundSMSTextMessage":{"message":"Chers parents,\\nla cat\xc3\xa9ch\xc3\xa8se prend fin ce sam. 03/07/2021 avec un go\xc3\xbbter partager. Les enfants doivent venir avec des jus et buscuits comme participation. Pour les absents du samedi pass\xc3\xa9, un devoir de rattrappage est pr\xc3\xa9vu. Les bulletins seront disponibles aux heures de cours. Nous comptons sur votre collaboration pour une cl\xc3\xb4ture en beaut\xc3\xa9. Que Dieu vous b\xc3\xa9nisse.\\n\\nLe bureau de la cat\xc3\xa9ch\xc3\xa8se."},"resourceURL":"https://api.orange.com/smsmessaging/v1/outbound/tel:+221773387902/requests/345f1d14-ec84-41fa-9fc2-efa5bd18b89e"}}'
2021-06-30 10:24:53 | numéro : 771985097 | resultat envoi : b'{"outboundSMSMessageRequest":{"address":["tel:+221771985097"],"senderAddress":"tel:+221773387902","senderName":"ipps","outboundSMSTextMessage":{"message":"Chers parents,\\nla cat\xc3\xa9ch\xc3\xa8se prend fin ce sam. 03/07/2021 avec un go\xc3\xbbter partager. Les enfants doivent venir avec des jus et buscuits comme participation. Pour les absents du samedi pass\xc3\xa9, un devoir de rattrappage est pr\xc3\xa9vu. Les bulletins seront disponibles aux heures de cours. Nous comptons sur votre collaboration pour une cl\xc3\xb4ture en beaut\xc3\xa9. Que Dieu vous b\xc3\xa9nisse.\\n\\nLe bureau de la cat\xc3\xa9ch\xc3\xa8se."},"resourceURL":"https://api.orange.com/smsmessaging/v1/outbound/tel:+221773387902/requests/ac4e050d-53fe-4050-a413-6ada275382e2"}}'
2021-06-30 10:24:54 | numéro : 772000618 | resultat envoi : b'{"outboundSMSMessageRequest":{"address":["tel:+221772000618"],"senderAddress":"tel:+221773387902","senderName":"ipps","outboundSMSTextMessage":{"message":"Chers parents,\\nla cat\xc3\xa9ch\xc3\xa8se prend fin ce sam. 03/07/2021 avec un go\xc3\xbbter partager. Les enfants doivent venir avec des jus et buscuits comme participation. Pour les absents du samedi pass\xc3\xa9, un devoir de rattrappage est pr\xc3\xa9vu. Les bulletins seront disponibles aux heures de cours. Nous comptons sur votre collaboration pour une cl\xc3\xb4ture en beaut\xc3\xa9. Que Dieu vous b\xc3\xa9nisse.\\n\\nLe bureau de la cat\xc3\xa9ch\xc3\xa8se."},"resourceURL":"https://api.orange.com/smsmessaging/v1/outbound/tel:+221773387902/requests/f05e4384-7849-43c6-b232-a5dc99481230"}}'
2021-06-30 10:24:55 | numéro : 772014225 | resultat envoi : b'{"outboundSMSMessageRequest":{"address":["tel:+221772014225"],"senderAddress":"tel:+221773387902","senderName":"ipps","outboundSMSTextMessage":{"message":"Chers parents,\\nla cat\xc3\xa9ch\xc3\xa8se prend fin ce sam. 03/07/2021 avec un go\xc3\xbbter partager. Les enfants doivent venir avec des jus et buscuits comme participation. Pour les absents du samedi pass\xc3\xa9, un devoir de rattrappage est pr\xc3\xa9vu. Les bulletins seront disponibles aux heures de cours. Nous comptons sur votre collaboration pour une cl\xc3\xb4ture en beaut\xc3\xa9. Que Dieu vous b\xc3\xa9nisse.\\n\\nLe bureau de la cat\xc3\xa9ch\xc3\xa8se."},"resourceURL":"https://api.orange.com/smsmessaging/v1/outbound/tel:+221773387902/requests/4c74f688-b6d2-4ad2-9145-d6d261598c32"}}'
2021-06-30 10:24:55 | numéro : 772023293 | resultat envoi : b'{"outboundSMSMessageRequest":{"address":["tel:+221772023293"],"senderAddress":"tel:+221773387902","senderName":"ipps","outboundSMSTextMessage":{"message":"Chers parents,\\nla cat\xc3\xa9ch\xc3\xa8se prend fin ce sam. 03/07/2021 avec un go\xc3\xbbter partager. Les enfants doivent venir avec des jus et buscuits comme participation. Pour les absents du samedi pass\xc3\xa9, un devoir de rattrappage est pr\xc3\xa9vu. Les bulletins seront disponibles aux heures de cours. Nous comptons sur votre collaboration pour une cl\xc3\xb4ture en beaut\xc3\xa9. Que Dieu vous b\xc3\xa9nisse.\\n\\nLe bureau de la cat\xc3\xa9ch\xc3\xa8se."},"resourceURL":"https://api.orange.com/smsmessaging/v1/outbound/tel:+221773387902/requests/662e072b-f036-4ee8-a7b1-b3197c943300"}}'
2021-06-30 10:24:56 | numéro : 772191960 | resultat envoi : b'{"outboundSMSMessageRequest":{"address":["tel:+221772191960"],"senderAddress":"tel:+221773387902","senderName":"ipps","outboundSMSTextMessage":{"message":"Chers parents,\\nla cat\xc3\xa9ch\xc3\xa8se prend fin ce sam. 03/07/2021 avec un go\xc3\xbbter partager. Les enfants doivent venir avec des jus et buscuits comme participation. Pour les absents du samedi pass\xc3\xa9, un devoir de rattrappage est pr\xc3\xa9vu. Les bulletins seront disponibles aux heures de cours. Nous comptons sur votre collaboration pour une cl\xc3\xb4ture en beaut\xc3\xa9. Que Dieu vous b\xc3\xa9nisse.\\n\\nLe bureau de la cat\xc3\xa9ch\xc3\xa8se."},"resourceURL":"https://api.orange.com/smsmessaging/v1/outbound/tel:+221773387902/requests/b46829fd-0894-4209-8595-487a714afec4"}}'
2021-06-30 10:24:56 | numéro : 772263463 | resultat envoi : b'{"outboundSMSMessageRequest":{"address":["tel:+221772263463"],"senderAddress":"tel:+221773387902","senderName":"ipps","outboundSMSTextMessage":{"message":"Chers parents,\\nla cat\xc3\xa9ch\xc3\xa8se prend fin ce sam. 03/07/2021 avec un go\xc3\xbbter partager. Les enfants doivent venir avec des jus et buscuits comme participation. Pour les absents du samedi pass\xc3\xa9, un devoir de rattrappage est pr\xc3\xa9vu. Les bulletins seront disponibles aux heures de cours. Nous comptons sur votre collaboration pour une cl\xc3\xb4ture en beaut\xc3\xa9. Que Dieu vous b\xc3\xa9nisse.\\n\\nLe bureau de la cat\xc3\xa9ch\xc3\xa8se."},"resourceURL":"https://api.orange.com/smsmessaging/v1/outbound/tel:+221773387902/requests/42ec5ac4-c85d-4ee6-9a67-478e6bda880d"}}'
2021-06-30 10:24:57 | numéro : 772446899 | resultat envoi : b'{"outboundSMSMessageRequest":{"address":["tel:+221772446899"],"senderAddress":"tel:+221773387902","senderName":"ipps","outboundSMSTextMessage":{"message":"Chers parents,\\nla cat\xc3\xa9ch\xc3\xa8se prend fin ce sam. 03/07/2021 avec un go\xc3\xbbter partager. Les enfants doivent venir avec des jus et buscuits comme participation. Pour les absents du samedi pass\xc3\xa9, un devoir de rattrappage est pr\xc3\xa9vu. Les bulletins seront disponibles aux heures de cours. Nous comptons sur votre collaboration pour une cl\xc3\xb4ture en beaut\xc3\xa9. Que Dieu vous b\xc3\xa9nisse.\\n\\nLe bureau de la cat\xc3\xa9ch\xc3\xa8se."},"resourceURL":"https://api.orange.com/smsmessaging/v1/outbound/tel:+221773387902/requests/41eb97da-8620-4f1a-9a2e-efe3d122186e"}}'
2021-06-30 10:24:57 | numéro : 772466800 | resultat envoi : b'{"outboundSMSMessageRequest":{"address":["tel:+221772466800"],"senderAddress":"tel:+221773387902","senderName":"ipps","outboundSMSTextMessage":{"message":"Chers parents,\\nla cat\xc3\xa9ch\xc3\xa8se prend fin ce sam. 03/07/2021 avec un go\xc3\xbbter partager. Les enfants doivent venir avec des jus et buscuits comme participation. Pour les absents du samedi pass\xc3\xa9, un devoir de rattrappage est pr\xc3\xa9vu. Les bulletins seront disponibles aux heures de cours. Nous comptons sur votre collaboration pour une cl\xc3\xb4ture en beaut\xc3\xa9. Que Dieu vous b\xc3\xa9nisse.\\n\\nLe bureau de la cat\xc3\xa9ch\xc3\xa8se."},"resourceURL":"https://api.orange.com/smsmessaging/v1/outbound/tel:+221773387902/requests/708cddd2-acda-4e3e-b5ea-85e331cf43c9"}}'
2021-06-30 10:24:59 | numéro : 772505078 | resultat envoi : b'{"outboundSMSMessageRequest":{"address":["tel:+221772505078"],"senderAddress":"tel:+221773387902","senderName":"ipps","outboundSMSTextMessage":{"message":"Chers parents,\\nla cat\xc3\xa9ch\xc3\xa8se prend fin ce sam. 03/07/2021 avec un go\xc3\xbbter partager. Les enfants doivent venir avec des jus et buscuits comme participation. Pour les absents du samedi pass\xc3\xa9, un devoir de rattrappage est pr\xc3\xa9vu. Les bulletins seront disponibles aux heures de cours. Nous comptons sur votre collaboration pour une cl\xc3\xb4ture en beaut\xc3\xa9. Que Dieu vous b\xc3\xa9nisse.\\n\\nLe bureau de la cat\xc3\xa9ch\xc3\xa8se."},"resourceURL":"https://api.orange.com/smsmessaging/v1/outbound/tel:+221773387902/requests/f3c504f7-63a7-4178-9e90-1af11244ad40"}}'
2021-06-30 10:24:59 | numéro : 772669929 | resultat envoi : b'{"outboundSMSMessageRequest":{"address":["tel:+221772669929"],"senderAddress":"tel:+221773387902","senderName":"ipps","outboundSMSTextMessage":{"message":"Chers parents,\\nla cat\xc3\xa9ch\xc3\xa8se prend fin ce sam. 03/07/2021 avec un go\xc3\xbbter partager. Les enfants doivent venir avec des jus et buscuits comme participation. Pour les absents du samedi pass\xc3\xa9, un devoir de rattrappage est pr\xc3\xa9vu. Les bulletins seront disponibles aux heures de cours. Nous comptons sur votre collaboration pour une cl\xc3\xb4ture en beaut\xc3\xa9. Que Dieu vous b\xc3\xa9nisse.\\n\\nLe bureau de la cat\xc3\xa9ch\xc3\xa8se."},"resourceURL":"https://api.orange.com/smsmessaging/v1/outbound/tel:+221773387902/requests/22a6a4d5-cbb0-46a4-a5c2-f208bb7ec423"}}'
2021-06-30 10:25:00 | numéro : 772753360 | resultat envoi : b'{"outboundSMSMessageRequest":{"address":["tel:+221772753360"],"senderAddress":"tel:+221773387902","senderName":"ipps","outboundSMSTextMessage":{"message":"Chers parents,\\nla cat\xc3\xa9ch\xc3\xa8se prend fin ce sam. 03/07/2021 avec un go\xc3\xbbter partager. Les enfants doivent venir avec des jus et buscuits comme participation. Pour les absents du samedi pass\xc3\xa9, un devoir de rattrappage est pr\xc3\xa9vu. Les bulletins seront disponibles aux heures de cours. Nous comptons sur votre collaboration pour une cl\xc3\xb4ture en beaut\xc3\xa9. Que Dieu vous b\xc3\xa9nisse.\\n\\nLe bureau de la cat\xc3\xa9ch\xc3\xa8se."},"resourceURL":"https://api.orange.com/smsmessaging/v1/outbound/tel:+221773387902/requests/e9c56556-3af9-4b94-8973-cb7624e26a3a"}}'
2021-06-30 10:25:01 | numéro : 772769694 | resultat envoi : b'{"outboundSMSMessageRequest":{"address":["tel:+221772769694"],"senderAddress":"tel:+221773387902","senderName":"ipps","outboundSMSTextMessage":{"message":"Chers parents,\\nla cat\xc3\xa9ch\xc3\xa8se prend fin ce sam. 03/07/2021 avec un go\xc3\xbbter partager. Les enfants doivent venir avec des jus et buscuits comme participation. Pour les absents du samedi pass\xc3\xa9, un devoir de rattrappage est pr\xc3\xa9vu. Les bulletins seront disponibles aux heures de cours. Nous comptons sur votre collaboration pour une cl\xc3\xb4ture en beaut\xc3\xa9. Que Dieu vous b\xc3\xa9nisse.\\n\\nLe bureau de la cat\xc3\xa9ch\xc3\xa8se."},"resourceURL":"https://api.orange.com/smsmessaging/v1/outbound/tel:+221773387902/requests/c77f5c89-a9a2-4b79-937a-d3766c7c37b6"}}'
2021-06-30 10:25:01 | numéro : 772855719 | resultat envoi : b'{"outboundSMSMessageRequest":{"address":["tel:+221772855719"],"senderAddress":"tel:+221773387902","senderName":"ipps","outboundSMSTextMessage":{"message":"Chers parents,\\nla cat\xc3\xa9ch\xc3\xa8se prend fin ce sam. 03/07/2021 avec un go\xc3\xbbter partager. Les enfants doivent venir avec des jus et buscuits comme participation. Pour les absents du samedi pass\xc3\xa9, un devoir de rattrappage est pr\xc3\xa9vu. Les bulletins seront disponibles aux heures de cours. Nous comptons sur votre collaboration pour une cl\xc3\xb4ture en beaut\xc3\xa9. Que Dieu vous b\xc3\xa9nisse.\\n\\nLe bureau de la cat\xc3\xa9ch\xc3\xa8se."},"resourceURL":"https://api.orange.com/smsmessaging/v1/outbound/tel:+221773387902/requests/bebcc499-920f-4290-80a2-7c5203d284bc"}}'
2021-06-30 10:25:02 | numéro : 773210720 | resultat envoi : b'{"outboundSMSMessageRequest":{"address":["tel:+221773210720"],"senderAddress":"tel:+221773387902","senderName":"ipps","outboundSMSTextMessage":{"message":"Chers parents,\\nla cat\xc3\xa9ch\xc3\xa8se prend fin ce sam. 03/07/2021 avec un go\xc3\xbbter partager. Les enfants doivent venir avec des jus et buscuits comme participation. Pour les absents du samedi pass\xc3\xa9, un devoir de rattrappage est pr\xc3\xa9vu. Les bulletins seront disponibles aux heures de cours. Nous comptons sur votre collaboration pour une cl\xc3\xb4ture en beaut\xc3\xa9. Que Dieu vous b\xc3\xa9nisse.\\n\\nLe bureau de la cat\xc3\xa9ch\xc3\xa8se."},"resourceURL":"https://api.orange.com/smsmessaging/v1/outbound/tel:+221773387902/requests/aff6cced-85c0-41cb-9a70-d8e53fb7f19b"}}'
2021-06-30 10:25:02 | numéro : 773260947 | resultat envoi : b'{"outboundSMSMessageRequest":{"address":["tel:+221773260947"],"senderAddress":"tel:+221773387902","senderName":"ipps","outboundSMSTextMessage":{"message":"Chers parents,\\nla cat\xc3\xa9ch\xc3\xa8se prend fin ce sam. 03/07/2021 avec un go\xc3\xbbter partager. Les enfants doivent venir avec des jus et buscuits comme participation. Pour les absents du samedi pass\xc3\xa9, un devoir de rattrappage est pr\xc3\xa9vu. Les bulletins seront disponibles aux heures de cours. Nous comptons sur votre collaboration pour une cl\xc3\xb4ture en beaut\xc3\xa9. Que Dieu vous b\xc3\xa9nisse.\\n\\nLe bureau de la cat\xc3\xa9ch\xc3\xa8se."},"resourceURL":"https://api.orange.com/smsmessaging/v1/outbound/tel:+221773387902/requests/688c0a49-6583-492d-ac75-75fe7cbd7726"}}'
2021-06-30 10:25:02 | numéro : 773420254 | resultat envoi : b'{"outboundSMSMessageRequest":{"address":["tel:+221773420254"],"senderAddress":"tel:+221773387902","senderName":"ipps","outboundSMSTextMessage":{"message":"Chers parents,\\nla cat\xc3\xa9ch\xc3\xa8se prend fin ce sam. 03/07/2021 avec un go\xc3\xbbter partager. Les enfants doivent venir avec des jus et buscuits comme participation. Pour les absents du samedi pass\xc3\xa9, un devoir de rattrappage est pr\xc3\xa9vu. Les bulletins seront disponibles aux heures de cours. Nous comptons sur votre collaboration pour une cl\xc3\xb4ture en beaut\xc3\xa9. Que Dieu vous b\xc3\xa9nisse.\\n\\nLe bureau de la cat\xc3\xa9ch\xc3\xa8se."},"resourceURL":"https://api.orange.com/smsmessaging/v1/outbound/tel:+221773387902/requests/0aa45167-c5d5-4818-a4fd-3da648028ca2"}}'
2021-06-30 10:25:04 | numéro : 773557749 | resultat envoi : b'{"outboundSMSMessageRequest":{"address":["tel:+221773557749"],"senderAddress":"tel:+221773387902","senderName":"ipps","outboundSMSTextMessage":{"message":"Chers parents,\\nla cat\xc3\xa9ch\xc3\xa8se prend fin ce sam. 03/07/2021 avec un go\xc3\xbbter partager. Les enfants doivent venir avec des jus et buscuits comme participation. Pour les absents du samedi pass\xc3\xa9, un devoir de rattrappage est pr\xc3\xa9vu. Les bulletins seront disponibles aux heures de cours. Nous comptons sur votre collaboration pour une cl\xc3\xb4ture en beaut\xc3\xa9. Que Dieu vous b\xc3\xa9nisse.\\n\\nLe bureau de la cat\xc3\xa9ch\xc3\xa8se."},"resourceURL":"https://api.orange.com/smsmessaging/v1/outbound/tel:+221773387902/requests/336f6eb9-b4d8-490d-8fa5-6b0ba5667ad0"}}'
2021-06-30 10:25:05 | numéro : 773591482 | resultat envoi : b'{"requestError":{"policyException":{"messageId":"POL0001","text":"A policy error occurred. Error code is %1","variables":["Not enough credit"]}}}'
2021-06-30 10:25:06 | numéro : 773670365 | resultat envoi : b'{"requestError":{"policyException":{"messageId":"POL0001","text":"A policy error occurred. Error code is %1","variables":["Not enough credit"]}}}'
2021-06-30 10:25:06 | numéro : 773773921 | resultat envoi : b'{"requestError":{"policyException":{"messageId":"POL0001","text":"A policy error occurred. Error code is %1","variables":["Not enough credit"]}}}'
2021-06-30 10:25:07 | numéro : 773796203 | resultat envoi : b'{"requestError":{"policyException":{"messageId":"POL0001","text":"A policy error occurred. Error code is %1","variables":["Not enough credit"]}}}'
2021-06-30 10:25:10 | numéro : 774000949 | resultat envoi : b'{"requestError":{"policyException":{"messageId":"POL0001","text":"A policy error occurred. Error code is %1","variables":["Not enough credit"]}}}'
2021-06-30 10:25:10 | numéro : 774016185 | resultat envoi : b'{"requestError":{"policyException":{"messageId":"POL0001","text":"A policy error occurred. Error code is %1","variables":["Not enough credit"]}}}'
2021-06-30 10:25:10 | numéro : 774021156 | resultat envoi : b'{"requestError":{"policyException":{"messageId":"POL0001","text":"A policy error occurred. Error code is %1","variables":["Not enough credit"]}}}'
2021-06-30 10:25:12 | numéro : 774095176 | resultat envoi : b'{"requestError":{"policyException":{"messageId":"POL0001","text":"A policy error occurred. Error code is %1","variables":["Not enough credit"]}}}'
2021-06-30 10:25:12 | numéro : 774118434 | resultat envoi : b'{"requestError":{"policyException":{"messageId":"POL0001","text":"A policy error occurred. Error code is %1","variables":["Not enough credit"]}}}'
2021-06-30 10:25:12 | numéro : 774126591 | resultat envoi : b'{"requestError":{"policyException":{"messageId":"POL0001","text":"A policy error occurred. Error code is %1","variables":["Not enough credit"]}}}'
2021-06-30 10:25:13 | numéro : 774133658 | resultat envoi : b'{"requestError":{"policyException":{"messageId":"POL0001","text":"A policy error occurred. Error code is %1","variables":["Not enough credit"]}}}'
2021-06-30 10:25:13 | numéro : 774135373 | resultat envoi : b'{"requestError":{"policyException":{"messageId":"POL0001","text":"A policy error occurred. Error code is %1","variables":["Not enough credit"]}}}'
2021-06-30 10:25:14 | numéro : 774176259 | resultat envoi : b'{"requestError":{"policyException":{"messageId":"POL0001","text":"A policy error occurred. Error code is %1","variables":["Not enough credit"]}}}'
2021-06-30 10:25:14 | numéro : 774214986 | resultat envoi : b'{"requestError":{"policyException":{"messageId":"POL0001","text":"A policy error occurred. Error code is %1","variables":["Not enough credit"]}}}'
2021-06-30 10:25:14 | numéro : 774261252 | resultat envoi : b'{"requestError":{"policyException":{"messageId":"POL0001","text":"A policy error occurred. Error code is %1","variables":["Not enough credit"]}}}'
2021-06-30 10:25:15 | numéro : 774278168 | resultat envoi : b'{"requestError":{"policyException":{"messageId":"POL0001","text":"A policy error occurred. Error code is %1","variables":["Not enough credit"]}}}'
2021-06-30 10:25:16 | numéro : 774287075 | resultat envoi : b'{"requestError":{"policyException":{"messageId":"POL0001","text":"A policy error occurred. Error code is %1","variables":["Not enough credit"]}}}'
2021-06-30 10:25:17 | numéro : 774298056 | resultat envoi : b'{"requestError":{"policyException":{"messageId":"POL0001","text":"A policy error occurred. Error code is %1","variables":["Not enough credit"]}}}'
2021-06-30 10:25:17 | numéro : 774315632 | resultat envoi : b'{"requestError":{"policyException":{"messageId":"POL0001","text":"A policy error occurred. Error code is %1","variables":["Not enough credit"]}}}'
2021-06-30 10:25:17 | numéro : 774338369 | resultat envoi : b'{"requestError":{"policyException":{"messageId":"POL0001","text":"A policy error occurred. Error code is %1","variables":["Not enough credit"]}}}'
2021-06-30 10:25:18 | numéro : 774404336 | resultat envoi : b'{"requestError":{"policyException":{"messageId":"POL0001","text":"A policy error occurred. Error code is %1","variables":["Not enough credit"]}}}'
2021-06-30 10:25:18 | numéro : 774408604 | resultat envoi : b'{"requestError":{"policyException":{"messageId":"POL0001","text":"A policy error occurred. Error code is %1","variables":["Not enough credit"]}}}'
2021-06-30 10:25:18 | numéro : 774431491 | resultat envoi : b'{"requestError":{"policyException":{"messageId":"POL0001","text":"A policy error occurred. Error code is %1","variables":["Not enough credit"]}}}'
2021-06-30 10:25:19 | numéro : 774437114 | resultat envoi : b'{"requestError":{"policyException":{"messageId":"POL0001","text":"A policy error occurred. Error code is %1","variables":["Not enough credit"]}}}'
2021-06-30 10:25:19 | numéro : 774444153 | resultat envoi : b'{"requestError":{"policyException":{"messageId":"POL0001","text":"A policy error occurred. Error code is %1","variables":["Not enough credit"]}}}'
2021-06-30 10:25:20 | numéro : 774494750 | resultat envoi : b'{"requestError":{"policyException":{"messageId":"POL0001","text":"A policy error occurred. Error code is %1","variables":["Not enough credit"]}}}'
2021-06-30 10:25:21 | numéro : 774501240 | resultat envoi : b'{"requestError":{"policyException":{"messageId":"POL0001","text":"A policy error occurred. Error code is %1","variables":["Not enough credit"]}}}'
2021-06-30 10:25:21 | numéro : 774507437 | resultat envoi : b'{"requestError":{"policyException":{"messageId":"POL0001","text":"A policy error occurred. Error code is %1","variables":["Not enough credit"]}}}'
2021-06-30 10:25:22 | numéro : 774558595 | resultat envoi : b'{"requestError":{"policyException":{"messageId":"POL0001","text":"A policy error occurred. Error code is %1","variables":["Not enough credit"]}}}'
2021-06-30 10:25:24 | numéro : 774566305 | resultat envoi : b'{"requestError":{"policyException":{"messageId":"POL0001","text":"A policy error occurred. Error code is %1","variables":["Not enough credit"]}}}'
2021-06-30 10:25:24 | numéro : 774581844 | resultat envoi : b'{"requestError":{"policyException":{"messageId":"POL0001","text":"A policy error occurred. Error code is %1","variables":["Not enough credit"]}}}'
2021-06-30 10:25:25 | numéro : 774670742 | resultat envoi : b'{"requestError":{"policyException":{"messageId":"POL0001","text":"A policy error occurred. Error code is %1","variables":["Not enough credit"]}}}'
2021-06-30 10:25:25 | numéro : 774722989 | resultat envoi : b'{"requestError":{"policyException":{"messageId":"POL0001","text":"A policy error occurred. Error code is %1","variables":["Not enough credit"]}}}'
2021-06-30 10:25:26 | numéro : 775004574 | resultat envoi : b'{"requestError":{"policyException":{"messageId":"POL0001","text":"A policy error occurred. Error code is %1","variables":["Not enough credit"]}}}'
2021-06-30 10:25:26 | numéro : 775035049 | resultat envoi : b'{"requestError":{"policyException":{"messageId":"POL0001","text":"A policy error occurred. Error code is %1","variables":["Not enough credit"]}}}'
2021-06-30 10:25:27 | numéro : 775056461 | resultat envoi : b'{"requestError":{"policyException":{"messageId":"POL0001","text":"A policy error occurred. Error code is %1","variables":["Not enough credit"]}}}'
2021-06-30 10:25:27 | numéro : 775089662 | resultat envoi : b'{"requestError":{"policyException":{"messageId":"POL0001","text":"A policy error occurred. Error code is %1","variables":["Not enough credit"]}}}'
2021-06-30 10:25:27 | numéro : 775090971 | resultat envoi : b'{"requestError":{"policyException":{"messageId":"POL0001","text":"A policy error occurred. Error code is %1","variables":["Not enough credit"]}}}'
2021-06-30 10:25:28 | numéro : 775106381 | resultat envoi : b'{"requestError":{"policyException":{"messageId":"POL0001","text":"A policy error occurred. Error code is %1","variables":["Not enough credit"]}}}'
2021-06-30 10:25:31 | numéro : 775107730 | resultat envoi : b'{"requestError":{"policyException":{"messageId":"POL0001","text":"A policy error occurred. Error code is %1","variables":["Not enough credit"]}}}'
2021-06-30 10:25:35 | numéro : 775109571 | resultat envoi : b'{"requestError":{"policyException":{"messageId":"POL0001","text":"A policy error occurred. Error code is %1","variables":["Not enough credit"]}}}'
2021-06-30 10:25:36 | numéro : 775111578 | resultat envoi : b'{"requestError":{"policyException":{"messageId":"POL0001","text":"A policy error occurred. Error code is %1","variables":["Not enough credit"]}}}'
2021-06-30 10:25:36 | numéro : 775114078 | resultat envoi : b'{"requestError":{"policyException":{"messageId":"POL0001","text":"A policy error occurred. Error code is %1","variables":["Not enough credit"]}}}'
2021-06-30 10:25:36 | numéro : 775116324 | resultat envoi : b'{"requestError":{"policyException":{"messageId":"POL0001","text":"A policy error occurred. Error code is %1","variables":["Not enough credit"]}}}'
2021-06-30 10:25:37 | numéro : 775126906 | resultat envoi : b'{"requestError":{"policyException":{"messageId":"POL0001","text":"A policy error occurred. Error code is %1","variables":["Not enough credit"]}}}'
2021-06-30 10:25:37 | numéro : 775130286 | resultat envoi : b'{"requestError":{"policyException":{"messageId":"POL0001","text":"A policy error occurred. Error code is %1","variables":["Not enough credit"]}}}'
2021-06-30 10:25:39 | numéro : 775133324 | resultat envoi : b'{"requestError":{"policyException":{"messageId":"POL0001","text":"A policy error occurred. Error code is %1","variables":["Not enough credit"]}}}'
2021-06-30 10:25:40 | numéro : 775159531 | resultat envoi : b'{"requestError":{"policyException":{"messageId":"POL0001","text":"A policy error occurred. Error code is %1","variables":["Not enough credit"]}}}'
2021-06-30 10:25:40 | numéro : 775168038 | resultat envoi : b'{"requestError":{"policyException":{"messageId":"POL0001","text":"A policy error occurred. Error code is %1","variables":["Not enough credit"]}}}'
2021-06-30 10:25:43 | numéro : 775195436 | resultat envoi : b'{"requestError":{"policyException":{"messageId":"POL0001","text":"A policy error occurred. Error code is %1","variables":["Not enough credit"]}}}'
2021-06-30 10:25:43 | numéro : 775212029 | resultat envoi : b'{"requestError":{"policyException":{"messageId":"POL0001","text":"A policy error occurred. Error code is %1","variables":["Not enough credit"]}}}'
2021-06-30 10:25:43 | numéro : 775220517 | resultat envoi : b'{"requestError":{"policyException":{"messageId":"POL0001","text":"A policy error occurred. Error code is %1","variables":["Not enough credit"]}}}'
2021-06-30 10:25:44 | numéro : 775240726 | resultat envoi : b'{"requestError":{"policyException":{"messageId":"POL0001","text":"A policy error occurred. Error code is %1","variables":["Not enough credit"]}}}'
2021-06-30 10:25:44 | numéro : 775263904 | resultat envoi : b'{"requestError":{"policyException":{"messageId":"POL0001","text":"A policy error occurred. Error code is %1","variables":["Not enough credit"]}}}'
2021-06-30 10:25:47 | numéro : 775264921 | resultat envoi : b'{"requestError":{"policyException":{"messageId":"POL0001","text":"A policy error occurred. Error code is %1","variables":["Not enough credit"]}}}'
2021-06-30 10:25:51 | numéro : 775272339 | resultat envoi : b'{"requestError":{"policyException":{"messageId":"POL0001","text":"A policy error occurred. Error code is %1","variables":["Not enough credit"]}}}'
2021-06-30 10:25:53 | numéro : 775280909 | resultat envoi : b'{"requestError":{"policyException":{"messageId":"POL0001","text":"A policy error occurred. Error code is %1","variables":["Not enough credit"]}}}'
2021-06-30 10:25:54 | numéro : 775288651 | resultat envoi : b'{"requestError":{"policyException":{"messageId":"POL0001","text":"A policy error occurred. Error code is %1","variables":["Not enough credit"]}}}'
2021-06-30 10:25:55 | numéro : 775312030 | resultat envoi : b'{"requestError":{"policyException":{"messageId":"POL0001","text":"A policy error occurred. Error code is %1","variables":["Not enough credit"]}}}'
2021-06-30 10:25:56 | numéro : 775313888 | resultat envoi : b'{"requestError":{"policyException":{"messageId":"POL0001","text":"A policy error occurred. Error code is %1","variables":["Not enough credit"]}}}'
2021-06-30 10:25:57 | numéro : 775317250 | resultat envoi : b'{"requestError":{"policyException":{"messageId":"POL0001","text":"A policy error occurred. Error code is %1","variables":["Not enough credit"]}}}'
2021-06-30 10:25:58 | numéro : 775318517 | resultat envoi : b'{"requestError":{"policyException":{"messageId":"POL0001","text":"A policy error occurred. Error code is %1","variables":["Not enough credit"]}}}'
2021-06-30 10:25:58 | numéro : 775325170 | resultat envoi : b'{"requestError":{"policyException":{"messageId":"POL0001","text":"A policy error occurred. Error code is %1","variables":["Not enough credit"]}}}'
2021-06-30 10:25:59 | numéro : 775331586 | resultat envoi : b'{"requestError":{"policyException":{"messageId":"POL0001","text":"A policy error occurred. Error code is %1","variables":["Not enough credit"]}}}'
2021-06-30 10:25:59 | numéro : 775357238 | resultat envoi : b'{"requestError":{"policyException":{"messageId":"POL0001","text":"A policy error occurred. Error code is %1","variables":["Not enough credit"]}}}'
2021-06-30 10:25:59 | numéro : 775358000 | resultat envoi : b'{"requestError":{"policyException":{"messageId":"POL0001","text":"A policy error occurred. Error code is %1","variables":["Not enough credit"]}}}'
2021-06-30 10:26:00 | numéro : 775395349 | resultat envoi : b'{"requestError":{"policyException":{"messageId":"POL0001","text":"A policy error occurred. Error code is %1","variables":["Not enough credit"]}}}'
2021-06-30 10:26:00 | numéro : 775398628 | resultat envoi : b'{"requestError":{"policyException":{"messageId":"POL0001","text":"A policy error occurred. Error code is %1","variables":["Not enough credit"]}}}'
2021-06-30 10:26:01 | numéro : 775409935 | resultat envoi : b'{"requestError":{"policyException":{"messageId":"POL0001","text":"A policy error occurred. Error code is %1","variables":["Not enough credit"]}}}'
2021-06-30 10:26:01 | numéro : 775417946 | resultat envoi : b'{"requestError":{"policyException":{"messageId":"POL0001","text":"A policy error occurred. Error code is %1","variables":["Not enough credit"]}}}'
2021-06-30 10:26:01 | numéro : 775419217 | resultat envoi : b'{"requestError":{"policyException":{"messageId":"POL0001","text":"A policy error occurred. Error code is %1","variables":["Not enough credit"]}}}'
2021-06-30 10:26:04 | numéro : 775424504 | resultat envoi : b'{"requestError":{"policyException":{"messageId":"POL0001","text":"A policy error occurred. Error code is %1","variables":["Not enough credit"]}}}'
2021-06-30 10:26:05 | numéro : 775426108 | resultat envoi : b'{"requestError":{"policyException":{"messageId":"POL0001","text":"A policy error occurred. Error code is %1","variables":["Not enough credit"]}}}'
2021-06-30 10:26:05 | numéro : 775428173 | resultat envoi : b'{"requestError":{"policyException":{"messageId":"POL0001","text":"A policy error occurred. Error code is %1","variables":["Not enough credit"]}}}'
2021-06-30 10:26:06 | numéro : 775452777 | resultat envoi : b'{"requestError":{"policyException":{"messageId":"POL0001","text":"A policy error occurred. Error code is %1","variables":["Not enough credit"]}}}'
2021-06-30 10:26:07 | numéro : 775474875 | resultat envoi : b'{"requestError":{"policyException":{"messageId":"POL0001","text":"A policy error occurred. Error code is %1","variables":["Not enough credit"]}}}'
2021-06-30 10:26:08 | numéro : 775482641 | resultat envoi : b'{"requestError":{"policyException":{"messageId":"POL0001","text":"A policy error occurred. Error code is %1","variables":["Not enough credit"]}}}'
2021-06-30 10:26:10 | numéro : 775484214 | resultat envoi : b'{"requestError":{"policyException":{"messageId":"POL0001","text":"A policy error occurred. Error code is %1","variables":["Not enough credit"]}}}'
2021-06-30 10:26:11 | numéro : 775484330 | resultat envoi : b'{"requestError":{"policyException":{"messageId":"POL0001","text":"A policy error occurred. Error code is %1","variables":["Not enough credit"]}}}'
2021-06-30 10:26:13 | numéro : 775492796 | resultat envoi : b'{"requestError":{"policyException":{"messageId":"POL0001","text":"A policy error occurred. Error code is %1","variables":["Not enough credit"]}}}'
2021-06-30 10:26:13 | numéro : 775494786 | resultat envoi : b'{"requestError":{"policyException":{"messageId":"POL0001","text":"A policy error occurred. Error code is %1","variables":["Not enough credit"]}}}'
2021-06-30 10:26:14 | numéro : 775500879 | resultat envoi : b'{"requestError":{"policyException":{"messageId":"POL0001","text":"A policy error occurred. Error code is %1","variables":["Not enough credit"]}}}'
2021-06-30 10:26:17 | numéro : 775513089 | resultat envoi : b'{"requestError":{"policyException":{"messageId":"POL0001","text":"A policy error occurred. Error code is %1","variables":["Not enough credit"]}}}'
2021-06-30 10:26:18 | numéro : 775526105 | resultat envoi : b'{"requestError":{"policyException":{"messageId":"POL0001","text":"A policy error occurred. Error code is %1","variables":["Not enough credit"]}}}'
2021-06-30 10:26:18 | numéro : 775561594 | resultat envoi : b'{"requestError":{"policyException":{"messageId":"POL0001","text":"A policy error occurred. Error code is %1","variables":["Not enough credit"]}}}'
2021-06-30 10:26:18 | numéro : 775572959 | resultat envoi : b'{"requestError":{"policyException":{"messageId":"POL0001","text":"A policy error occurred. Error code is %1","variables":["Not enough credit"]}}}'
2021-06-30 10:26:20 | numéro : 775573384 | resultat envoi : b'{"requestError":{"policyException":{"messageId":"POL0001","text":"A policy error occurred. Error code is %1","variables":["Not enough credit"]}}}'
2021-06-30 10:26:20 | numéro : 775578617 | resultat envoi : b'{"requestError":{"policyException":{"messageId":"POL0001","text":"A policy error occurred. Error code is %1","variables":["Not enough credit"]}}}'
2021-06-30 10:26:21 | numéro : 775580777 | resultat envoi : b'{"requestError":{"policyException":{"messageId":"POL0001","text":"A policy error occurred. Error code is %1","variables":["Not enough credit"]}}}'
2021-06-30 10:26:22 | numéro : 775580878 | resultat envoi : b'{"requestError":{"policyException":{"messageId":"POL0001","text":"A policy error occurred. Error code is %1","variables":["Not enough credit"]}}}'
2021-06-30 10:26:29 | numéro : 775589584 | resultat envoi : b'{"requestError":{"policyException":{"messageId":"POL0001","text":"A policy error occurred. Error code is %1","variables":["Not enough credit"]}}}'
2021-06-30 10:26:30 | numéro : 775601433 | resultat envoi : b'{"requestError":{"policyException":{"messageId":"POL0001","text":"A policy error occurred. Error code is %1","variables":["Not enough credit"]}}}'
2021-06-30 10:26:30 | numéro : 775606176 | resultat envoi : b'{"requestError":{"policyException":{"messageId":"POL0001","text":"A policy error occurred. Error code is %1","variables":["Not enough credit"]}}}'
2021-06-30 10:26:30 | numéro : 775613232 | resultat envoi : b'{"requestError":{"policyException":{"messageId":"POL0001","text":"A policy error occurred. Error code is %1","variables":["Not enough credit"]}}}'
2021-06-30 10:26:31 | numéro : 775647216 | resultat envoi : b'{"requestError":{"policyException":{"messageId":"POL0001","text":"A policy error occurred. Error code is %1","variables":["Not enough credit"]}}}'
2021-06-30 10:26:32 | numéro : 775653895 | resultat envoi : b'{"requestError":{"policyException":{"messageId":"POL0001","text":"A policy error occurred. Error code is %1","variables":["Not enough credit"]}}}'
2021-06-30 10:26:33 | numéro : 775664370 | resultat envoi : b'{"requestError":{"policyException":{"messageId":"POL0001","text":"A policy error occurred. Error code is %1","variables":["Not enough credit"]}}}'
2021-06-30 10:26:33 | numéro : 775672727 | resultat envoi : b'{"requestError":{"policyException":{"messageId":"POL0001","text":"A policy error occurred. Error code is %1","variables":["Not enough credit"]}}}'
2021-06-30 10:26:34 | numéro : 775684345 | resultat envoi : b'{"requestError":{"policyException":{"messageId":"POL0001","text":"A policy error occurred. Error code is %1","variables":["Not enough credit"]}}}'
2021-06-30 10:26:35 | numéro : 775702023 | resultat envoi : b'{"requestError":{"policyException":{"messageId":"POL0001","text":"A policy error occurred. Error code is %1","variables":["Not enough credit"]}}}'
2021-06-30 10:26:36 | numéro : 775712727 | resultat envoi : b'{"requestError":{"policyException":{"messageId":"POL0001","text":"A policy error occurred. Error code is %1","variables":["Not enough credit"]}}}'
2021-06-30 10:26:36 | numéro : 775717070 | resultat envoi : b'{"requestError":{"policyException":{"messageId":"POL0001","text":"A policy error occurred. Error code is %1","variables":["Not enough credit"]}}}'
2021-06-30 10:26:37 | numéro : 775748741 | resultat envoi : b'{"requestError":{"policyException":{"messageId":"POL0001","text":"A policy error occurred. Error code is %1","variables":["Not enough credit"]}}}'
2021-06-30 10:26:38 | numéro : 775782652 | resultat envoi : b'{"requestError":{"policyException":{"messageId":"POL0001","text":"A policy error occurred. Error code is %1","variables":["Not enough credit"]}}}'
2021-06-30 10:26:39 | numéro : 775918410 | resultat envoi : b'{"requestError":{"policyException":{"messageId":"POL0001","text":"A policy error occurred. Error code is %1","variables":["Not enough credit"]}}}'
2021-06-30 10:26:40 | numéro : 775949406 | resultat envoi : b'{"requestError":{"policyException":{"messageId":"POL0001","text":"A policy error occurred. Error code is %1","variables":["Not enough credit"]}}}'
2021-06-30 10:26:41 | numéro : 776053011 | resultat envoi : b'{"requestError":{"policyException":{"messageId":"POL0001","text":"A policy error occurred. Error code is %1","variables":["Not enough credit"]}}}'
2021-06-30 10:26:42 | numéro : 776056655 | resultat envoi : b'{"requestError":{"policyException":{"messageId":"POL0001","text":"A policy error occurred. Error code is %1","variables":["Not enough credit"]}}}'
2021-06-30 10:26:44 | numéro : 776084967 | resultat envoi : b'{"requestError":{"policyException":{"messageId":"POL0001","text":"A policy error occurred. Error code is %1","variables":["Not enough credit"]}}}'
2021-06-30 10:26:44 | numéro : 776091083 | resultat envoi : b'{"requestError":{"policyException":{"messageId":"POL0001","text":"A policy error occurred. Error code is %1","variables":["Not enough credit"]}}}'
2021-06-30 10:26:46 | numéro : 776108893 | resultat envoi : b'{"requestError":{"policyException":{"messageId":"POL0001","text":"A policy error occurred. Error code is %1","variables":["Not enough credit"]}}}'
2021-06-30 10:26:46 | numéro : 776108894 | resultat envoi : b'{"requestError":{"policyException":{"messageId":"POL0001","text":"A policy error occurred. Error code is %1","variables":["Not enough credit"]}}}'
2021-06-30 10:26:47 | numéro : 776117050 | resultat envoi : b'{"requestError":{"policyException":{"messageId":"POL0001","text":"A policy error occurred. Error code is %1","variables":["Not enough credit"]}}}'
2021-06-30 10:26:47 | numéro : 776163951 | resultat envoi : b'{"requestError":{"policyException":{"messageId":"POL0001","text":"A policy error occurred. Error code is %1","variables":["Not enough credit"]}}}'
2021-06-30 10:26:48 | numéro : 776171813 | resultat envoi : b'{"requestError":{"policyException":{"messageId":"POL0001","text":"A policy error occurred. Error code is %1","variables":["Not enough credit"]}}}'
2021-06-30 10:26:49 | numéro : 776176815 | resultat envoi : b'{"requestError":{"policyException":{"messageId":"POL0001","text":"A policy error occurred. Error code is %1","variables":["Not enough credit"]}}}'
2021-06-30 10:26:49 | numéro : 776177154 | resultat envoi : b'{"requestError":{"policyException":{"messageId":"POL0001","text":"A policy error occurred. Error code is %1","variables":["Not enough credit"]}}}'
2021-06-30 10:26:50 | numéro : 776254216 | resultat envoi : b'{"requestError":{"policyException":{"messageId":"POL0001","text":"A policy error occurred. Error code is %1","variables":["Not enough credit"]}}}'
2021-06-30 10:26:50 | numéro : 776310663 | resultat envoi : b'{"requestError":{"policyException":{"messageId":"POL0001","text":"A policy error occurred. Error code is %1","variables":["Not enough credit"]}}}'
2021-06-30 10:26:50 | numéro : 776328926 | resultat envoi : b'{"requestError":{"policyException":{"messageId":"POL0001","text":"A policy error occurred. Error code is %1","variables":["Not enough credit"]}}}'
2021-06-30 10:26:51 | numéro : 776338757 | resultat envoi : b'{"requestError":{"policyException":{"messageId":"POL0001","text":"A policy error occurred. Error code is %1","variables":["Not enough credit"]}}}'
2021-06-30 10:26:51 | numéro : 776373107 | resultat envoi : b'{"requestError":{"policyException":{"messageId":"POL0001","text":"A policy error occurred. Error code is %1","variables":["Not enough credit"]}}}'
2021-06-30 10:26:52 | numéro : 776375885 | resultat envoi : b'{"requestError":{"policyException":{"messageId":"POL0001","text":"A policy error occurred. Error code is %1","variables":["Not enough credit"]}}}'
2021-06-30 10:26:53 | numéro : 776386644 | resultat envoi : b'{"requestError":{"policyException":{"messageId":"POL0001","text":"A policy error occurred. Error code is %1","variables":["Not enough credit"]}}}'
2021-06-30 10:26:54 | numéro : 776406129 | resultat envoi : b'{"requestError":{"policyException":{"messageId":"POL0001","text":"A policy error occurred. Error code is %1","variables":["Not enough credit"]}}}'
2021-06-30 10:26:55 | numéro : 776408993 | resultat envoi : b'{"requestError":{"policyException":{"messageId":"POL0001","text":"A policy error occurred. Error code is %1","variables":["Not enough credit"]}}}'
2021-06-30 10:26:55 | numéro : 776419216 | resultat envoi : b'{"requestError":{"policyException":{"messageId":"POL0001","text":"A policy error occurred. Error code is %1","variables":["Not enough credit"]}}}'
2021-06-30 10:26:56 | numéro : 776423893 | resultat envoi : b'{"requestError":{"policyException":{"messageId":"POL0001","text":"A policy error occurred. Error code is %1","variables":["Not enough credit"]}}}'
2021-06-30 10:26:57 | numéro : 776434009 | resultat envoi : b'{"requestError":{"policyException":{"messageId":"POL0001","text":"A policy error occurred. Error code is %1","variables":["Not enough credit"]}}}'
2021-06-30 10:26:58 | numéro : 776457989 | resultat envoi : b'{"requestError":{"policyException":{"messageId":"POL0001","text":"A policy error occurred. Error code is %1","variables":["Not enough credit"]}}}'
2021-06-30 10:26:58 | numéro : 776458971 | resultat envoi : b'{"requestError":{"policyException":{"messageId":"POL0001","text":"A policy error occurred. Error code is %1","variables":["Not enough credit"]}}}'
2021-06-30 10:26:59 | numéro : 776470554 | resultat envoi : b'{"requestError":{"policyException":{"messageId":"POL0001","text":"A policy error occurred. Error code is %1","variables":["Not enough credit"]}}}'
2021-06-30 10:27:00 | numéro : 776471616 | resultat envoi : b'{"requestError":{"policyException":{"messageId":"POL0001","text":"A policy error occurred. Error code is %1","variables":["Not enough credit"]}}}'
2021-06-30 10:27:00 | numéro : 776477735 | resultat envoi : b'{"requestError":{"policyException":{"messageId":"POL0001","text":"A policy error occurred. Error code is %1","variables":["Not enough credit"]}}}'
2021-06-30 10:27:01 | numéro : 776478256 | resultat envoi : b'{"requestError":{"policyException":{"messageId":"POL0001","text":"A policy error occurred. Error code is %1","variables":["Not enough credit"]}}}'
2021-06-30 10:27:01 | numéro : 776479389 | resultat envoi : b'{"requestError":{"policyException":{"messageId":"POL0001","text":"A policy error occurred. Error code is %1","variables":["Not enough credit"]}}}'
2021-06-30 10:27:02 | numéro : 776483485 | resultat envoi : b'{"requestError":{"policyException":{"messageId":"POL0001","text":"A policy error occurred. Error code is %1","variables":["Not enough credit"]}}}'
2021-06-30 10:27:02 | numéro : 776487532 | resultat envoi : b'{"requestError":{"policyException":{"messageId":"POL0001","text":"A policy error occurred. Error code is %1","variables":["Not enough credit"]}}}'
2021-06-30 10:27:03 | numéro : 776493338 | resultat envoi : b'{"requestError":{"policyException":{"messageId":"POL0001","text":"A policy error occurred. Error code is %1","variables":["Not enough credit"]}}}'
2021-06-30 10:27:04 | numéro : 776499719 | resultat envoi : b'{"requestError":{"policyException":{"messageId":"POL0001","text":"A policy error occurred. Error code is %1","variables":["Not enough credit"]}}}'
2021-06-30 10:27:05 | numéro : 776500134 | resultat envoi : b'{"requestError":{"policyException":{"messageId":"POL0001","text":"A policy error occurred. Error code is %1","variables":["Not enough credit"]}}}'
2021-06-30 10:27:06 | numéro : 776504070 | resultat envoi : b'{"requestError":{"policyException":{"messageId":"POL0001","text":"A policy error occurred. Error code is %1","variables":["Not enough credit"]}}}'
2021-06-30 10:27:08 | numéro : 776507635 | resultat envoi : b'{"requestError":{"policyException":{"messageId":"POL0001","text":"A policy error occurred. Error code is %1","variables":["Not enough credit"]}}}'
2021-06-30 10:27:08 | numéro : 776508957 | resultat envoi : b'{"requestError":{"policyException":{"messageId":"POL0001","text":"A policy error occurred. Error code is %1","variables":["Not enough credit"]}}}'
2021-06-30 10:27:10 | numéro : 776509246 | resultat envoi : b'{"requestError":{"policyException":{"messageId":"POL0001","text":"A policy error occurred. Error code is %1","variables":["Not enough credit"]}}}'
2021-06-30 10:27:11 | numéro : 776518320 | resultat envoi : b'{"requestError":{"policyException":{"messageId":"POL0001","text":"A policy error occurred. Error code is %1","variables":["Not enough credit"]}}}'
2021-06-30 10:27:12 | numéro : 776518371 | resultat envoi : b'{"requestError":{"policyException":{"messageId":"POL0001","text":"A policy error occurred. Error code is %1","variables":["Not enough credit"]}}}'
2021-06-30 10:27:14 | numéro : 776525040 | resultat envoi : b'{"requestError":{"policyException":{"messageId":"POL0001","text":"A policy error occurred. Error code is %1","variables":["Not enough credit"]}}}'
2021-06-30 10:27:14 | numéro : 776533581 | resultat envoi : b'{"requestError":{"policyException":{"messageId":"POL0001","text":"A policy error occurred. Error code is %1","variables":["Not enough credit"]}}}'
2021-06-30 10:27:15 | numéro : 776552903 | resultat envoi : b'{"requestError":{"policyException":{"messageId":"POL0001","text":"A policy error occurred. Error code is %1","variables":["Not enough credit"]}}}'
2021-06-30 10:27:16 | numéro : 776554504 | resultat envoi : b'{"requestError":{"policyException":{"messageId":"POL0001","text":"A policy error occurred. Error code is %1","variables":["Not enough credit"]}}}'
2021-06-30 10:27:17 | numéro : 776556519 | resultat envoi : b'{"requestError":{"policyException":{"messageId":"POL0001","text":"A policy error occurred. Error code is %1","variables":["Not enough credit"]}}}'
2021-06-30 10:27:17 | numéro : 776564635 | resultat envoi : b'{"requestError":{"policyException":{"messageId":"POL0001","text":"A policy error occurred. Error code is %1","variables":["Not enough credit"]}}}'
2021-06-30 10:27:18 | numéro : 776567822 | resultat envoi : b'{"requestError":{"policyException":{"messageId":"POL0001","text":"A policy error occurred. Error code is %1","variables":["Not enough credit"]}}}'
2021-06-30 10:27:19 | numéro : 776587031 | resultat envoi : b'{"requestError":{"policyException":{"messageId":"POL0001","text":"A policy error occurred. Error code is %1","variables":["Not enough credit"]}}}'
2021-06-30 10:27:19 | numéro : 776593275 | resultat envoi : b'{"requestError":{"policyException":{"messageId":"POL0001","text":"A policy error occurred. Error code is %1","variables":["Not enough credit"]}}}'
2021-06-30 10:27:20 | numéro : 776644586 | resultat envoi : b'{"requestError":{"policyException":{"messageId":"POL0001","text":"A policy error occurred. Error code is %1","variables":["Not enough credit"]}}}'
2021-06-30 10:27:21 | numéro : 776665018 | resultat envoi : b'{"requestError":{"policyException":{"messageId":"POL0001","text":"A policy error occurred. Error code is %1","variables":["Not enough credit"]}}}'
2021-06-30 10:27:21 | numéro : 776731794 | resultat envoi : b'{"requestError":{"policyException":{"messageId":"POL0001","text":"A policy error occurred. Error code is %1","variables":["Not enough credit"]}}}'
2021-06-30 10:27:22 | numéro : 776904718 | resultat envoi : b'{"requestError":{"policyException":{"messageId":"POL0001","text":"A policy error occurred. Error code is %1","variables":["Not enough credit"]}}}'
2021-06-30 10:27:23 | numéro : 776963571 | resultat envoi : b'{"requestError":{"policyException":{"messageId":"POL0001","text":"A policy error occurred. Error code is %1","variables":["Not enough credit"]}}}'
2021-06-30 10:27:24 | numéro : 777133603 | resultat envoi : b'{"requestError":{"policyException":{"messageId":"POL0001","text":"A policy error occurred. Error code is %1","variables":["Not enough credit"]}}}'
2021-06-30 10:27:25 | numéro : 777199496 | resultat envoi : b'{"requestError":{"policyException":{"messageId":"POL0001","text":"A policy error occurred. Error code is %1","variables":["Not enough credit"]}}}'
2021-06-30 10:27:25 | numéro : 777303158 | resultat envoi : b'{"requestError":{"policyException":{"messageId":"POL0001","text":"A policy error occurred. Error code is %1","variables":["Not enough credit"]}}}'
2021-06-30 10:27:25 | numéro : 777321957 | resultat envoi : b'{"requestError":{"policyException":{"messageId":"POL0001","text":"A policy error occurred. Error code is %1","variables":["Not enough credit"]}}}'
2021-06-30 10:27:26 | numéro : 777369467 | resultat envoi : b'{"requestError":{"policyException":{"messageId":"POL0001","text":"A policy error occurred. Error code is %1","variables":["Not enough credit"]}}}'
2021-06-30 10:27:26 | numéro : 777892124 | resultat envoi : b'{"requestError":{"policyException":{"messageId":"POL0001","text":"A policy error occurred. Error code is %1","variables":["Not enough credit"]}}}'
2021-06-30 10:27:28 | numéro : 777931493 | resultat envoi : b'{"requestError":{"policyException":{"messageId":"POL0001","text":"A policy error occurred. Error code is %1","variables":["Not enough credit"]}}}'
2021-06-30 10:27:29 | numéro : 777945519 | resultat envoi : b'{"requestError":{"policyException":{"messageId":"POL0001","text":"A policy error occurred. Error code is %1","variables":["Not enough credit"]}}}'
2021-06-30 10:27:30 | numéro : 778033346 | resultat envoi : b'{"requestError":{"policyException":{"messageId":"POL0001","text":"A policy error occurred. Error code is %1","variables":["Not enough credit"]}}}'
2021-06-30 10:27:30 | numéro : 778115904 | resultat envoi : b'{"requestError":{"policyException":{"messageId":"POL0001","text":"A policy error occurred. Error code is %1","variables":["Not enough credit"]}}}'
2021-06-30 10:27:30 | numéro : 778170857 | resultat envoi : b'{"requestError":{"policyException":{"messageId":"POL0001","text":"A policy error occurred. Error code is %1","variables":["Not enough credit"]}}}'
2021-06-30 10:27:32 | numéro : 778186880 | resultat envoi : b'{"requestError":{"policyException":{"messageId":"POL0001","text":"A policy error occurred. Error code is %1","variables":["Not enough credit"]}}}'
2021-06-30 10:27:32 | numéro : 778277894 | resultat envoi : b'{"requestError":{"policyException":{"messageId":"POL0001","text":"A policy error occurred. Error code is %1","variables":["Not enough credit"]}}}'
2021-06-30 10:27:33 | numéro : 778412946 | resultat envoi : b'{"requestError":{"policyException":{"messageId":"POL0001","text":"A policy error occurred. Error code is %1","variables":["Not enough credit"]}}}'
2021-06-30 10:27:34 | numéro : 778417588 | resultat envoi : b'{"requestError":{"policyException":{"messageId":"POL0001","text":"A policy error occurred. Error code is %1","variables":["Not enough credit"]}}}'
2021-06-30 10:27:35 | numéro : 778590854 | resultat envoi : b'{"requestError":{"policyException":{"messageId":"POL0001","text":"A policy error occurred. Error code is %1","variables":["Not enough credit"]}}}'
2021-06-30 10:27:36 | numéro : 778627506 | resultat envoi : b'{"requestError":{"policyException":{"messageId":"POL0001","text":"A policy error occurred. Error code is %1","variables":["Not enough credit"]}}}'
2021-06-30 10:27:36 | numéro : 778631439 | resultat envoi : b'{"requestError":{"policyException":{"messageId":"POL0001","text":"A policy error occurred. Error code is %1","variables":["Not enough credit"]}}}'
2021-06-30 10:27:37 | numéro : 778942332 | resultat envoi : b'{"requestError":{"policyException":{"messageId":"POL0001","text":"A policy error occurred. Error code is %1","variables":["Not enough credit"]}}}'
2021-06-30 10:27:37 | numéro : 778942582 | resultat envoi : b'{"requestError":{"policyException":{"messageId":"POL0001","text":"A policy error occurred. Error code is %1","variables":["Not enough credit"]}}}'
2021-06-30 10:27:39 | numéro : 779051492 | resultat envoi : b'{"requestError":{"policyException":{"messageId":"POL0001","text":"A policy error occurred. Error code is %1","variables":["Not enough credit"]}}}'
2021-06-30 10:27:41 | numéro : 779277796 | resultat envoi : b'{"requestError":{"policyException":{"messageId":"POL0001","text":"A policy error occurred. Error code is %1","variables":["Not enough credit"]}}}'
2021-06-30 10:27:41 | numéro : 779296349 | resultat envoi : b'{"requestError":{"policyException":{"messageId":"POL0001","text":"A policy error occurred. Error code is %1","variables":["Not enough credit"]}}}'
2021-06-30 10:27:42 | numéro : 779325273 | resultat envoi : b'{"requestError":{"policyException":{"messageId":"POL0001","text":"A policy error occurred. Error code is %1","variables":["Not enough credit"]}}}'
2021-06-30 10:27:43 | numéro : 779430351 | resultat envoi : b'{"requestError":{"policyException":{"messageId":"POL0001","text":"A policy error occurred. Error code is %1","variables":["Not enough credit"]}}}'
2021-06-30 10:27:44 | numéro : 779646193 | resultat envoi : b'{"requestError":{"policyException":{"messageId":"POL0001","text":"A policy error occurred. Error code is %1","variables":["Not enough credit"]}}}'
2021-06-30 10:27:44 | numéro : 779909554 | resultat envoi : b'{"requestError":{"policyException":{"messageId":"POL0001","text":"A policy error occurred. Error code is %1","variables":["Not enough credit"]}}}'
2021-06-30 10:27:44 | numéro : 780146697 | resultat envoi : b'{"requestError":{"policyException":{"messageId":"POL0001","text":"A policy error occurred. Error code is %1","variables":["Not enough credit"]}}}'
2021-06-30 10:27:46 | numéro : 781058883 | resultat envoi : b'{"requestError":{"policyException":{"messageId":"POL0001","text":"A policy error occurred. Error code is %1","variables":["Not enough credit"]}}}'
2021-06-30 10:27:46 | numéro : 781216723 | resultat envoi : b'{"requestError":{"policyException":{"messageId":"POL0001","text":"A policy error occurred. Error code is %1","variables":["Not enough credit"]}}}'
2021-06-30 10:27:47 | numéro : 781275199 | resultat envoi : b'{"requestError":{"policyException":{"messageId":"POL0001","text":"A policy error occurred. Error code is %1","variables":["Not enough credit"]}}}'
2021-06-30 10:27:47 | numéro : 781440170 | resultat envoi : b'{"requestError":{"policyException":{"messageId":"POL0001","text":"A policy error occurred. Error code is %1","variables":["Not enough credit"]}}}'
2021-06-30 10:27:48 | numéro : 781683050 | resultat envoi : b'{"requestError":{"policyException":{"messageId":"POL0001","text":"A policy error occurred. Error code is %1","variables":["Not enough credit"]}}}'
2021-06-30 10:27:49 | numéro : 781884603 | resultat envoi : b'{"requestError":{"policyException":{"messageId":"POL0001","text":"A policy error occurred. Error code is %1","variables":["Not enough credit"]}}}'
2021-06-30 10:27:50 | numéro : 781908746 | resultat envoi : b'{"requestError":{"policyException":{"messageId":"POL0001","text":"A policy error occurred. Error code is %1","variables":["Not enough credit"]}}}'
2021-06-30 10:27:51 | numéro : 782367809 | resultat envoi : b'{"requestError":{"policyException":{"messageId":"POL0001","text":"A policy error occurred. Error code is %1","variables":["Not enough credit"]}}}'
2021-06-30 10:27:52 | numéro : 782501185 | resultat envoi : b'{"requestError":{"policyException":{"messageId":"POL0001","text":"A policy error occurred. Error code is %1","variables":["Not enough credit"]}}}'
2021-06-30 10:27:53 | numéro : 782501187 | resultat envoi : b'{"requestError":{"policyException":{"messageId":"POL0001","text":"A policy error occurred. Error code is %1","variables":["Not enough credit"]}}}'
2021-06-30 10:27:53 | numéro : 782916195 | resultat envoi : b'{"requestError":{"policyException":{"messageId":"POL0001","text":"A policy error occurred. Error code is %1","variables":["Not enough credit"]}}}'
2021-06-30 10:27:54 | numéro : 783069999 | resultat envoi : b'{"requestError":{"policyException":{"messageId":"POL0001","text":"A policy error occurred. Error code is %1","variables":["Not enough credit"]}}}'
2021-06-30 10:27:55 | numéro : 783361123 | resultat envoi : b'{"requestError":{"policyException":{"messageId":"POL0001","text":"A policy error occurred. Error code is %1","variables":["Not enough credit"]}}}'
2021-06-30 10:27:55 | numéro : 783504796 | resultat envoi : b'{"requestError":{"policyException":{"messageId":"POL0001","text":"A policy error occurred. Error code is %1","variables":["Not enough credit"]}}}'
2021-06-30 10:27:56 | numéro : 784237451 | resultat envoi : b'{"requestError":{"policyException":{"messageId":"POL0001","text":"A policy error occurred. Error code is %1","variables":["Not enough credit"]}}}'
2021-06-30 10:27:57 | numéro : 784605433 | resultat envoi : b'{"requestError":{"policyException":{"messageId":"POL0001","text":"A policy error occurred. Error code is %1","variables":["Not enough credit"]}}}'
2021-06-30 10:27:57 | numéro : 784625715 | resultat envoi : b'{"requestError":{"policyException":{"messageId":"POL0001","text":"A policy error occurred. Error code is %1","variables":["Not enough credit"]}}}'
2021-06-30 10:27:58 | numéro : 785345168 | resultat envoi : b'{"requestError":{"policyException":{"messageId":"POL0001","text":"A policy error occurred. Error code is %1","variables":["Not enough credit"]}}}'
2021-06-30 10:27:58 | numéro : 785359748 | resultat envoi : b'{"requestError":{"policyException":{"messageId":"POL0001","text":"A policy error occurred. Error code is %1","variables":["Not enough credit"]}}}'
2021-06-30 10:27:59 | numéro : 785967363 | resultat envoi : b'{"requestError":{"policyException":{"messageId":"POL0001","text":"A policy error occurred. Error code is %1","variables":["Not enough credit"]}}}'
2021-06-30 10:27:59 | numéro : 786370657 | resultat envoi : b'{"requestError":{"policyException":{"messageId":"POL0001","text":"A policy error occurred. Error code is %1","variables":["Not enough credit"]}}}'
2021-06-30 10:27:59 | numéro : 772503472 | resultat envoi : b'{"requestError":{"policyException":{"messageId":"POL0001","text":"A policy error occurred. Error code is %1","variables":["Not enough credit"]}}}'
2021-06-30 10:27:59 | numéro : 772918038 | resultat envoi : b'{"requestError":{"policyException":{"messageId":"POL0001","text":"A policy error occurred. Error code is %1","variables":["Not enough credit"]}}}'
2021-06-30 10:28:00 | numéro : 774543127 | resultat envoi : b'{"requestError":{"policyException":{"messageId":"POL0001","text":"A policy error occurred. Error code is %1","variables":["Not enough credit"]}}}'
2021-06-30 10:28:00 | numéro : 775429373 | resultat envoi : b'{"requestError":{"policyException":{"messageId":"POL0001","text":"A policy error occurred. Error code is %1","variables":["Not enough credit"]}}}'
2021-06-30 10:28:01 | numéro : 775605414 | resultat envoi : b'{"requestError":{"policyException":{"messageId":"POL0001","text":"A policy error occurred. Error code is %1","variables":["Not enough credit"]}}}'
2021-06-30 10:28:02 | numéro : 775642749 | resultat envoi : b'{"requestError":{"policyException":{"messageId":"POL0001","text":"A policy error occurred. Error code is %1","variables":["Not enough credit"]}}}'
2021-06-30 10:28:02 | numéro : 776566752 | resultat envoi : b'{"requestError":{"policyException":{"messageId":"POL0001","text":"A policy error occurred. Error code is %1","variables":["Not enough credit"]}}}'
2021-06-30 10:28:03 | numéro : 777199843 | resultat envoi : b'{"requestError":{"policyException":{"messageId":"POL0001","text":"A policy error occurred. Error code is %1","variables":["Not enough credit"]}}}'
2021-06-30 10:28:04 | numéro : 778163193 | resultat envoi : b'{"requestError":{"policyException":{"messageId":"POL0001","text":"A policy error occurred. Error code is %1","variables":["Not enough credit"]}}}'
2021-06-30 10:28:04 | numéro : 772932492 | resultat envoi : b'{"requestError":{"policyException":{"messageId":"POL0001","text":"A policy error occurred. Error code is %1","variables":["Not enough credit"]}}}'
2021-06-30 10:28:05 | numéro : 771490977 | resultat envoi : b'{"requestError":{"policyException":{"messageId":"POL0001","text":"A policy error occurred. Error code is %1","variables":["Not enough credit"]}}}'
2021-06-30 10:28:05 | numéro : 771661816 | resultat envoi : b'{"requestError":{"policyException":{"messageId":"POL0001","text":"A policy error occurred. Error code is %1","variables":["Not enough credit"]}}}'
2021-06-30 10:28:06 | numéro : 779242942 | resultat envoi : b'{"requestError":{"policyException":{"messageId":"POL0001","text":"A policy error occurred. Error code is %1","variables":["Not enough credit"]}}}'
2021-06-30 10:28:06 | numéro : 777931080 | resultat envoi : b'{"requestError":{"policyException":{"messageId":"POL0001","text":"A policy error occurred. Error code is %1","variables":["Not enough credit"]}}}'
2021-06-30 10:28:06 | numéro : 774782486 | resultat envoi : b'{"requestError":{"policyException":{"messageId":"POL0001","text":"A policy error occurred. Error code is %1","variables":["Not enough credit"]}}}'
2021-06-30 10:28:07 | numéro : 775963859 | resultat envoi : b'{"requestError":{"policyException":{"messageId":"POL0001","text":"A policy error occurred. Error code is %1","variables":["Not enough credit"]}}}'
2021-06-30 10:28:07 | numéro : 781455015 | resultat envoi : b'{"requestError":{"policyException":{"messageId":"POL0001","text":"A policy error occurred. Error code is %1","variables":["Not enough credit"]}}}'
2021-06-30 10:28:08 | numéro : 781785100 | resultat envoi : b'{"requestError":{"policyException":{"messageId":"POL0001","text":"A policy error occurred. Error code is %1","variables":["Not enough credit"]}}}'
2021-06-30 10:28:08 | numéro : 773353028 | resultat envoi : b'{"requestError":{"policyException":{"messageId":"POL0001","text":"A policy error occurred. Error code is %1","variables":["Not enough credit"]}}}'
2021-06-30 10:28:08 | numéro : 772361598 | resultat envoi : b'{"requestError":{"policyException":{"messageId":"POL0001","text":"A policy error occurred. Error code is %1","variables":["Not enough credit"]}}}'
2021-06-30 10:28:09 | numéro : 775522148 | resultat envoi : b'{"requestError":{"policyException":{"messageId":"POL0001","text":"A policy error occurred. Error code is %1","variables":["Not enough credit"]}}}'
2021-06-30 10:28:10 | numéro : 772931538 | resultat envoi : b'{"requestError":{"policyException":{"messageId":"POL0001","text":"A policy error occurred. Error code is %1","variables":["Not enough credit"]}}}'
2021-06-30 10:28:11 | numéro : 776130535 | resultat envoi : b'{"requestError":{"policyException":{"messageId":"POL0001","text":"A policy error occurred. Error code is %1","variables":["Not enough credit"]}}}'
2021-06-30 10:28:12 | numéro : 777133003 | resultat envoi : b'{"requestError":{"policyException":{"messageId":"POL0001","text":"A policy error occurred. Error code is %1","variables":["Not enough credit"]}}}'
2021-06-30 10:28:12 | numéro : 772754360 | resultat envoi : b'{"requestError":{"policyException":{"messageId":"POL0001","text":"A policy error occurred. Error code is %1","variables":["Not enough credit"]}}}'
2021-06-30 10:28:12 | numéro : 768521534 | resultat envoi : b'{"requestError":{"policyException":{"messageId":"POL0001","text":"A policy error occurred. Error code is %1","variables":["Not enough credit"]}}}'
2021-06-30 10:28:14 | numéro : 779359753 | resultat envoi : b'{"requestError":{"policyException":{"messageId":"POL0001","text":"A policy error occurred. Error code is %1","variables":["Not enough credit"]}}}'
2021-06-30 10:28:14 | numéro : 777241807 | resultat envoi : b'{"requestError":{"policyException":{"messageId":"POL0001","text":"A policy error occurred. Error code is %1","variables":["Not enough credit"]}}}'
2021-06-30 10:28:15 | numéro : 771355242 | resultat envoi : b'{"requestError":{"policyException":{"messageId":"POL0001","text":"A policy error occurred. Error code is %1","variables":["Not enough credit"]}}}'
2021-06-30 10:28:16 | numéro : 776464539 | resultat envoi : b'{"requestError":{"policyException":{"messageId":"POL0001","text":"A policy error occurred. Error code is %1","variables":["Not enough credit"]}}}'
2021-06-30 10:28:16 | numéro : 775560088 | resultat envoi : b'{"requestError":{"policyException":{"messageId":"POL0001","text":"A policy error occurred. Error code is %1","variables":["Not enough credit"]}}}'
2021-06-30 10:28:17 | numéro : 775321279 | resultat envoi : b'{"requestError":{"policyException":{"messageId":"POL0001","text":"A policy error occurred. Error code is %1","variables":["Not enough credit"]}}}'
2021-06-30 10:28:18 | numéro : 781648639 | resultat envoi : b'{"requestError":{"policyException":{"messageId":"POL0001","text":"A policy error occurred. Error code is %1","variables":["Not enough credit"]}}}'
2021-06-30 10:28:18 | numéro : 775401087 | resultat envoi : b'{"requestError":{"policyException":{"messageId":"POL0001","text":"A policy error occurred. Error code is %1","variables":["Not enough credit"]}}}'
2021-06-30 10:28:18 | numéro : 778067048 | resultat envoi : b'{"requestError":{"policyException":{"messageId":"POL0001","text":"A policy error occurred. Error code is %1","variables":["Not enough credit"]}}}'
2021-06-30 10:28:19 | numéro : 775146250 | resultat envoi : b'{"requestError":{"policyException":{"messageId":"POL0001","text":"A policy error occurred. Error code is %1","variables":["Not enough credit"]}}}'
2021-06-30 10:28:19 | numéro : 771996596 | resultat envoi : b'{"requestError":{"policyException":{"messageId":"POL0001","text":"A policy error occurred. Error code is %1","variables":["Not enough credit"]}}}'
2021-06-30 10:28:21 | numéro : 772196872 | resultat envoi : b'{"requestError":{"policyException":{"messageId":"POL0001","text":"A policy error occurred. Error code is %1","variables":["Not enough credit"]}}}'
2021-06-30 10:28:21 | numéro : 776457495 | resultat envoi : b'{"requestError":{"policyException":{"messageId":"POL0001","text":"A policy error occurred. Error code is %1","variables":["Not enough credit"]}}}'
2021-06-30 10:28:22 | numéro : 775080718 | resultat envoi : b'{"requestError":{"policyException":{"messageId":"POL0001","text":"A policy error occurred. Error code is %1","variables":["Not enough credit"]}}}'
2021-06-30 10:28:22 | numéro : 778452777 | resultat envoi : b'{"requestError":{"policyException":{"messageId":"POL0001","text":"A policy error occurred. Error code is %1","variables":["Not enough credit"]}}}'
2021-06-30 10:28:24 | numéro : 775327533 | resultat envoi : b'{"requestError":{"policyException":{"messageId":"POL0001","text":"A policy error occurred. Error code is %1","variables":["Not enough credit"]}}}'
2021-06-30 10:28:24 | numéro : 773387902 | resultat envoi : b'{"requestError":{"policyException":{"messageId":"POL0001","text":"A policy error occurred. Error code is %1","variables":["Not enough credit"]}}}'
2021-06-30 10:28:25 | numéro : 776546643 | resultat envoi : b'{"requestError":{"policyException":{"messageId":"POL0001","text":"A policy error occurred. Error code is %1","variables":["Not enough credit"]}}}'
2021-06-30 10:28:25 | balance 0 | fin envoi
