2021-05-11 23:37:29 | balance 94 | debut envoi
2021-05-11 23:37:29 | numéro : 776483485 | resultat envoi : b'{"outboundSMSMessageRequest":{"address":["tel:+221776483485"],"senderAddress":"tel:+221773387902","senderName":"ipps","outboundSMSTextMessage":{"message":"Chers cat\xc3\xa9chistes, \\nIl y a recollection des communiants : \\n- jeudi 13 mai 09h00 - 16h30 \\n- dimanche 23 mai 09h00 - 16h30 \\n- lundi 24 mai 09h00 - 17h00 \\nPri\xc3\xa8re de vous manifester pour que nous vous comptions parmi les animateurs(trices).\\nMerci\\nLe bureau de la cat\xc3\xa9ch\xc3\xa8se."},"resourceURL":"https://api.orange.com/smsmessaging/v1/outbound/tel:+221773387902/requests/57bf6210-8ab9-4f03-9dae-232793011152"}}'
2021-05-11 23:37:29 | numéro : 776458971 | resultat envoi : b'{"outboundSMSMessageRequest":{"address":["tel:+221776458971"],"senderAddress":"tel:+221773387902","senderName":"ipps","outboundSMSTextMessage":{"message":"Chers cat\xc3\xa9chistes, \\nIl y a recollection des communiants : \\n- jeudi 13 mai 09h00 - 16h30 \\n- dimanche 23 mai 09h00 - 16h30 \\n- lundi 24 mai 09h00 - 17h00 \\nPri\xc3\xa8re de vous manifester pour que nous vous comptions parmi les animateurs(trices).\\nMerci\\nLe bureau de la cat\xc3\xa9ch\xc3\xa8se."},"resourceURL":"https://api.orange.com/smsmessaging/v1/outbound/tel:+221773387902/requests/f6416d6c-8069-468f-9b4c-3e3a2e2e8c03"}}'
2021-05-11 23:37:29 | numéro : 771561674 | resultat envoi : b'{"outboundSMSMessageRequest":{"address":["tel:+221771561674"],"senderAddress":"tel:+221773387902","senderName":"ipps","outboundSMSTextMessage":{"message":"Chers cat\xc3\xa9chistes, \\nIl y a recollection des communiants : \\n- jeudi 13 mai 09h00 - 16h30 \\n- dimanche 23 mai 09h00 - 16h30 \\n- lundi 24 mai 09h00 - 17h00 \\nPri\xc3\xa8re de vous manifester pour que nous vous comptions parmi les animateurs(trices).\\nMerci\\nLe bureau de la cat\xc3\xa9ch\xc3\xa8se."},"resourceURL":"https://api.orange.com/smsmessaging/v1/outbound/tel:+221773387902/requests/9a78c635-0e16-436a-86c7-f3d1dfb0e69d"}}'
2021-05-11 23:37:29 | numéro : 775782652 | resultat envoi : b'{"outboundSMSMessageRequest":{"address":["tel:+221775782652"],"senderAddress":"tel:+221773387902","senderName":"ipps","outboundSMSTextMessage":{"message":"Chers cat\xc3\xa9chistes, \\nIl y a recollection des communiants : \\n- jeudi 13 mai 09h00 - 16h30 \\n- dimanche 23 mai 09h00 - 16h30 \\n- lundi 24 mai 09h00 - 17h00 \\nPri\xc3\xa8re de vous manifester pour que nous vous comptions parmi les animateurs(trices).\\nMerci\\nLe bureau de la cat\xc3\xa9ch\xc3\xa8se."},"resourceURL":"https://api.orange.com/smsmessaging/v1/outbound/tel:+221773387902/requests/3e2a6fa3-d864-403a-818d-a9b340b3186f"}}'
2021-05-11 23:37:30 | numéro : 773670365 | resultat envoi : b'{"outboundSMSMessageRequest":{"address":["tel:+221773670365"],"senderAddress":"tel:+221773387902","senderName":"ipps","outboundSMSTextMessage":{"message":"Chers cat\xc3\xa9chistes, \\nIl y a recollection des communiants : \\n- jeudi 13 mai 09h00 - 16h30 \\n- dimanche 23 mai 09h00 - 16h30 \\n- lundi 24 mai 09h00 - 17h00 \\nPri\xc3\xa8re de vous manifester pour que nous vous comptions parmi les animateurs(trices).\\nMerci\\nLe bureau de la cat\xc3\xa9ch\xc3\xa8se."},"resourceURL":"https://api.orange.com/smsmessaging/v1/outbound/tel:+221773387902/requests/37527837-5c2d-412a-9bb3-962dc12f484b"}}'
2021-05-11 23:37:30 | numéro : 775452777 | resultat envoi : b'{"outboundSMSMessageRequest":{"address":["tel:+221775452777"],"senderAddress":"tel:+221773387902","senderName":"ipps","outboundSMSTextMessage":{"message":"Chers cat\xc3\xa9chistes, \\nIl y a recollection des communiants : \\n- jeudi 13 mai 09h00 - 16h30 \\n- dimanche 23 mai 09h00 - 16h30 \\n- lundi 24 mai 09h00 - 17h00 \\nPri\xc3\xa8re de vous manifester pour que nous vous comptions parmi les animateurs(trices).\\nMerci\\nLe bureau de la cat\xc3\xa9ch\xc3\xa8se."},"resourceURL":"https://api.orange.com/smsmessaging/v1/outbound/tel:+221773387902/requests/03aa292b-b5c5-461c-9821-0ce60aab3e02"}}'
2021-05-11 23:37:30 | numéro : 774095176 | resultat envoi : b'{"outboundSMSMessageRequest":{"address":["tel:+221774095176"],"senderAddress":"tel:+221773387902","senderName":"ipps","outboundSMSTextMessage":{"message":"Chers cat\xc3\xa9chistes, \\nIl y a recollection des communiants : \\n- jeudi 13 mai 09h00 - 16h30 \\n- dimanche 23 mai 09h00 - 16h30 \\n- lundi 24 mai 09h00 - 17h00 \\nPri\xc3\xa8re de vous manifester pour que nous vous comptions parmi les animateurs(trices).\\nMerci\\nLe bureau de la cat\xc3\xa9ch\xc3\xa8se."},"resourceURL":"https://api.orange.com/smsmessaging/v1/outbound/tel:+221773387902/requests/7b04c290-05aa-463a-b804-21466ca238f8"}}'
2021-05-11 23:37:31 | numéro : 776108894 | resultat envoi : b'{"outboundSMSMessageRequest":{"address":["tel:+221776108894"],"senderAddress":"tel:+221773387902","senderName":"ipps","outboundSMSTextMessage":{"message":"Chers cat\xc3\xa9chistes, \\nIl y a recollection des communiants : \\n- jeudi 13 mai 09h00 - 16h30 \\n- dimanche 23 mai 09h00 - 16h30 \\n- lundi 24 mai 09h00 - 17h00 \\nPri\xc3\xa8re de vous manifester pour que nous vous comptions parmi les animateurs(trices).\\nMerci\\nLe bureau de la cat\xc3\xa9ch\xc3\xa8se."},"resourceURL":"https://api.orange.com/smsmessaging/v1/outbound/tel:+221773387902/requests/3c70399c-0e1b-48ea-9c15-4276eb57c0d7"}}'
2021-05-11 23:37:31 | numéro : 765005555 | resultat envoi : b'{"outboundSMSMessageRequest":{"address":["tel:+221765005555"],"senderAddress":"tel:+221773387902","senderName":"ipps","outboundSMSTextMessage":{"message":"Chers cat\xc3\xa9chistes, \\nIl y a recollection des communiants : \\n- jeudi 13 mai 09h00 - 16h30 \\n- dimanche 23 mai 09h00 - 16h30 \\n- lundi 24 mai 09h00 - 17h00 \\nPri\xc3\xa8re de vous manifester pour que nous vous comptions parmi les animateurs(trices).\\nMerci\\nLe bureau de la cat\xc3\xa9ch\xc3\xa8se."},"resourceURL":"https://api.orange.com/smsmessaging/v1/outbound/tel:+221773387902/requests/f0b82b12-4c1e-4dca-afed-dd0d60102565"}}'
2021-05-11 23:37:31 | numéro : 778590854 | resultat envoi : b'{"outboundSMSMessageRequest":{"address":["tel:+221778590854"],"senderAddress":"tel:+221773387902","senderName":"ipps","outboundSMSTextMessage":{"message":"Chers cat\xc3\xa9chistes, \\nIl y a recollection des communiants : \\n- jeudi 13 mai 09h00 - 16h30 \\n- dimanche 23 mai 09h00 - 16h30 \\n- lundi 24 mai 09h00 - 17h00 \\nPri\xc3\xa8re de vous manifester pour que nous vous comptions parmi les animateurs(trices).\\nMerci\\nLe bureau de la cat\xc3\xa9ch\xc3\xa8se."},"resourceURL":"https://api.orange.com/smsmessaging/v1/outbound/tel:+221773387902/requests/4385f9ea-1a65-43e5-a0b0-7035ff7d4b5d"}}'
2021-05-11 23:37:32 | numéro : 775126906 | resultat envoi : b'{"outboundSMSMessageRequest":{"address":["tel:+221775126906"],"senderAddress":"tel:+221773387902","senderName":"ipps","outboundSMSTextMessage":{"message":"Chers cat\xc3\xa9chistes, \\nIl y a recollection des communiants : \\n- jeudi 13 mai 09h00 - 16h30 \\n- dimanche 23 mai 09h00 - 16h30 \\n- lundi 24 mai 09h00 - 17h00 \\nPri\xc3\xa8re de vous manifester pour que nous vous comptions parmi les animateurs(trices).\\nMerci\\nLe bureau de la cat\xc3\xa9ch\xc3\xa8se."},"resourceURL":"https://api.orange.com/smsmessaging/v1/outbound/tel:+221773387902/requests/7b7bc89c-2f0f-425b-a5ec-4eb472bac473"}}'
2021-05-11 23:37:32 | numéro : 765472363 | resultat envoi : b'{"outboundSMSMessageRequest":{"address":["tel:+221765472363"],"senderAddress":"tel:+221773387902","senderName":"ipps","outboundSMSTextMessage":{"message":"Chers cat\xc3\xa9chistes, \\nIl y a recollection des communiants : \\n- jeudi 13 mai 09h00 - 16h30 \\n- dimanche 23 mai 09h00 - 16h30 \\n- lundi 24 mai 09h00 - 17h00 \\nPri\xc3\xa8re de vous manifester pour que nous vous comptions parmi les animateurs(trices).\\nMerci\\nLe bureau de la cat\xc3\xa9ch\xc3\xa8se."},"resourceURL":"https://api.orange.com/smsmessaging/v1/outbound/tel:+221773387902/requests/de741be2-c877-4378-9cda-c3c9be071b9e"}}'
2021-05-11 23:37:32 | numéro : 774444153 | resultat envoi : b'{"outboundSMSMessageRequest":{"address":["tel:+221774444153"],"senderAddress":"tel:+221773387902","senderName":"ipps","outboundSMSTextMessage":{"message":"Chers cat\xc3\xa9chistes, \\nIl y a recollection des communiants : \\n- jeudi 13 mai 09h00 - 16h30 \\n- dimanche 23 mai 09h00 - 16h30 \\n- lundi 24 mai 09h00 - 17h00 \\nPri\xc3\xa8re de vous manifester pour que nous vous comptions parmi les animateurs(trices).\\nMerci\\nLe bureau de la cat\xc3\xa9ch\xc3\xa8se."},"resourceURL":"https://api.orange.com/smsmessaging/v1/outbound/tel:+221773387902/requests/a408ca20-b373-48e0-936a-d87d8cf4f523"}}'
2021-05-11 23:37:32 | numéro : 775264921 | resultat envoi : b'{"outboundSMSMessageRequest":{"address":["tel:+221775264921"],"senderAddress":"tel:+221773387902","senderName":"ipps","outboundSMSTextMessage":{"message":"Chers cat\xc3\xa9chistes, \\nIl y a recollection des communiants : \\n- jeudi 13 mai 09h00 - 16h30 \\n- dimanche 23 mai 09h00 - 16h30 \\n- lundi 24 mai 09h00 - 17h00 \\nPri\xc3\xa8re de vous manifester pour que nous vous comptions parmi les animateurs(trices).\\nMerci\\nLe bureau de la cat\xc3\xa9ch\xc3\xa8se."},"resourceURL":"https://api.orange.com/smsmessaging/v1/outbound/tel:+221773387902/requests/3c9b976a-f383-4d08-ad7e-803eaf29541b"}}'
2021-05-11 23:37:33 | numéro : 771541666 | resultat envoi : b'{"outboundSMSMessageRequest":{"address":["tel:+221771541666"],"senderAddress":"tel:+221773387902","senderName":"ipps","outboundSMSTextMessage":{"message":"Chers cat\xc3\xa9chistes, \\nIl y a recollection des communiants : \\n- jeudi 13 mai 09h00 - 16h30 \\n- dimanche 23 mai 09h00 - 16h30 \\n- lundi 24 mai 09h00 - 17h00 \\nPri\xc3\xa8re de vous manifester pour que nous vous comptions parmi les animateurs(trices).\\nMerci\\nLe bureau de la cat\xc3\xa9ch\xc3\xa8se."},"resourceURL":"https://api.orange.com/smsmessaging/v1/outbound/tel:+221773387902/requests/f1a3d915-a70d-4736-b5fb-d088d2680046"}}'
2021-05-11 23:37:33 | numéro : 775106381 | resultat envoi : b'{"outboundSMSMessageRequest":{"address":["tel:+221775106381"],"senderAddress":"tel:+221773387902","senderName":"ipps","outboundSMSTextMessage":{"message":"Chers cat\xc3\xa9chistes, \\nIl y a recollection des communiants : \\n- jeudi 13 mai 09h00 - 16h30 \\n- dimanche 23 mai 09h00 - 16h30 \\n- lundi 24 mai 09h00 - 17h00 \\nPri\xc3\xa8re de vous manifester pour que nous vous comptions parmi les animateurs(trices).\\nMerci\\nLe bureau de la cat\xc3\xa9ch\xc3\xa8se."},"resourceURL":"https://api.orange.com/smsmessaging/v1/outbound/tel:+221773387902/requests/c90e9fc4-c01f-43eb-9a0c-3bb6c42fde88"}}'
2021-05-11 23:37:33 | numéro : 775484214 | resultat envoi : b'{"outboundSMSMessageRequest":{"address":["tel:+221775484214"],"senderAddress":"tel:+221773387902","senderName":"ipps","outboundSMSTextMessage":{"message":"Chers cat\xc3\xa9chistes, \\nIl y a recollection des communiants : \\n- jeudi 13 mai 09h00 - 16h30 \\n- dimanche 23 mai 09h00 - 16h30 \\n- lundi 24 mai 09h00 - 17h00 \\nPri\xc3\xa8re de vous manifester pour que nous vous comptions parmi les animateurs(trices).\\nMerci\\nLe bureau de la cat\xc3\xa9ch\xc3\xa8se."},"resourceURL":"https://api.orange.com/smsmessaging/v1/outbound/tel:+221773387902/requests/5880af5b-8e0b-4287-9458-2053742fc3ae"}}'
2021-05-11 23:37:35 | numéro : 776567822 | resultat envoi : b'{"outboundSMSMessageRequest":{"address":["tel:+221776567822"],"senderAddress":"tel:+221773387902","senderName":"ipps","outboundSMSTextMessage":{"message":"Chers cat\xc3\xa9chistes, \\nIl y a recollection des communiants : \\n- jeudi 13 mai 09h00 - 16h30 \\n- dimanche 23 mai 09h00 - 16h30 \\n- lundi 24 mai 09h00 - 17h00 \\nPri\xc3\xa8re de vous manifester pour que nous vous comptions parmi les animateurs(trices).\\nMerci\\nLe bureau de la cat\xc3\xa9ch\xc3\xa8se."},"resourceURL":"https://api.orange.com/smsmessaging/v1/outbound/tel:+221773387902/requests/96038004-522e-4174-9816-a646517734d7"}}'
2021-05-11 23:37:36 | numéro : 776419216 | resultat envoi : b'{"outboundSMSMessageRequest":{"address":["tel:+221776419216"],"senderAddress":"tel:+221773387902","senderName":"ipps","outboundSMSTextMessage":{"message":"Chers cat\xc3\xa9chistes, \\nIl y a recollection des communiants : \\n- jeudi 13 mai 09h00 - 16h30 \\n- dimanche 23 mai 09h00 - 16h30 \\n- lundi 24 mai 09h00 - 17h00 \\nPri\xc3\xa8re de vous manifester pour que nous vous comptions parmi les animateurs(trices).\\nMerci\\nLe bureau de la cat\xc3\xa9ch\xc3\xa8se."},"resourceURL":"https://api.orange.com/smsmessaging/v1/outbound/tel:+221773387902/requests/c125ddac-9051-4c92-a1dc-e5dda3c28599"}}'
2021-05-11 23:37:37 | numéro : 776373107 | resultat envoi : b'{"outboundSMSMessageRequest":{"address":["tel:+221776373107"],"senderAddress":"tel:+221773387902","senderName":"ipps","outboundSMSTextMessage":{"message":"Chers cat\xc3\xa9chistes, \\nIl y a recollection des communiants : \\n- jeudi 13 mai 09h00 - 16h30 \\n- dimanche 23 mai 09h00 - 16h30 \\n- lundi 24 mai 09h00 - 17h00 \\nPri\xc3\xa8re de vous manifester pour que nous vous comptions parmi les animateurs(trices).\\nMerci\\nLe bureau de la cat\xc3\xa9ch\xc3\xa8se."},"resourceURL":"https://api.orange.com/smsmessaging/v1/outbound/tel:+221773387902/requests/0fe52785-a1b1-4729-bdc3-e20c555f6063"}}'
2021-05-11 23:37:37 | numéro : 775116324 | resultat envoi : b'{"outboundSMSMessageRequest":{"address":["tel:+221775116324"],"senderAddress":"tel:+221773387902","senderName":"ipps","outboundSMSTextMessage":{"message":"Chers cat\xc3\xa9chistes, \\nIl y a recollection des communiants : \\n- jeudi 13 mai 09h00 - 16h30 \\n- dimanche 23 mai 09h00 - 16h30 \\n- lundi 24 mai 09h00 - 17h00 \\nPri\xc3\xa8re de vous manifester pour que nous vous comptions parmi les animateurs(trices).\\nMerci\\nLe bureau de la cat\xc3\xa9ch\xc3\xa8se."},"resourceURL":"https://api.orange.com/smsmessaging/v1/outbound/tel:+221773387902/requests/946eb799-4541-4698-87e4-e738883a6346"}}'
2021-05-11 23:37:37 | numéro : 709745723 | resultat envoi : b'{"outboundSMSMessageRequest":{"address":["tel:+221709745723"],"senderAddress":"tel:+221773387902","senderName":"ipps","outboundSMSTextMessage":{"message":"Chers cat\xc3\xa9chistes, \\nIl y a recollection des communiants : \\n- jeudi 13 mai 09h00 - 16h30 \\n- dimanche 23 mai 09h00 - 16h30 \\n- lundi 24 mai 09h00 - 17h00 \\nPri\xc3\xa8re de vous manifester pour que nous vous comptions parmi les animateurs(trices).\\nMerci\\nLe bureau de la cat\xc3\xa9ch\xc3\xa8se."},"resourceURL":"https://api.orange.com/smsmessaging/v1/outbound/tel:+221773387902/requests/2da38e2d-8923-44d9-a946-4418e415ccd3"}}'
2021-05-11 23:37:38 | numéro : 766614352 | resultat envoi : b'{"outboundSMSMessageRequest":{"address":["tel:+221766614352"],"senderAddress":"tel:+221773387902","senderName":"ipps","outboundSMSTextMessage":{"message":"Chers cat\xc3\xa9chistes, \\nIl y a recollection des communiants : \\n- jeudi 13 mai 09h00 - 16h30 \\n- dimanche 23 mai 09h00 - 16h30 \\n- lundi 24 mai 09h00 - 17h00 \\nPri\xc3\xa8re de vous manifester pour que nous vous comptions parmi les animateurs(trices).\\nMerci\\nLe bureau de la cat\xc3\xa9ch\xc3\xa8se."},"resourceURL":"https://api.orange.com/smsmessaging/v1/outbound/tel:+221773387902/requests/7b740526-a9ce-4631-b821-8e40ee4f695f"}}'
2021-05-11 23:37:38 | numéro : 776084967 | resultat envoi : b'{"outboundSMSMessageRequest":{"address":["tel:+221776084967"],"senderAddress":"tel:+221773387902","senderName":"ipps","outboundSMSTextMessage":{"message":"Chers cat\xc3\xa9chistes, \\nIl y a recollection des communiants : \\n- jeudi 13 mai 09h00 - 16h30 \\n- dimanche 23 mai 09h00 - 16h30 \\n- lundi 24 mai 09h00 - 17h00 \\nPri\xc3\xa8re de vous manifester pour que nous vous comptions parmi les animateurs(trices).\\nMerci\\nLe bureau de la cat\xc3\xa9ch\xc3\xa8se."},"resourceURL":"https://api.orange.com/smsmessaging/v1/outbound/tel:+221773387902/requests/f7db9568-6541-438d-ad6a-906a45e99846"}}'
2021-05-11 23:37:38 | numéro : 779051492 | resultat envoi : b'{"outboundSMSMessageRequest":{"address":["tel:+221779051492"],"senderAddress":"tel:+221773387902","senderName":"ipps","outboundSMSTextMessage":{"message":"Chers cat\xc3\xa9chistes, \\nIl y a recollection des communiants : \\n- jeudi 13 mai 09h00 - 16h30 \\n- dimanche 23 mai 09h00 - 16h30 \\n- lundi 24 mai 09h00 - 17h00 \\nPri\xc3\xa8re de vous manifester pour que nous vous comptions parmi les animateurs(trices).\\nMerci\\nLe bureau de la cat\xc3\xa9ch\xc3\xa8se."},"resourceURL":"https://api.orange.com/smsmessaging/v1/outbound/tel:+221773387902/requests/6d04f556-d633-4d43-a115-21e3d76186c8"}}'
2021-05-11 23:37:39 | numéro : 775090971 | resultat envoi : b'{"outboundSMSMessageRequest":{"address":["tel:+221775090971"],"senderAddress":"tel:+221773387902","senderName":"ipps","outboundSMSTextMessage":{"message":"Chers cat\xc3\xa9chistes, \\nIl y a recollection des communiants : \\n- jeudi 13 mai 09h00 - 16h30 \\n- dimanche 23 mai 09h00 - 16h30 \\n- lundi 24 mai 09h00 - 17h00 \\nPri\xc3\xa8re de vous manifester pour que nous vous comptions parmi les animateurs(trices).\\nMerci\\nLe bureau de la cat\xc3\xa9ch\xc3\xa8se."},"resourceURL":"https://api.orange.com/smsmessaging/v1/outbound/tel:+221773387902/requests/a0692469-63b4-476c-8e61-f43a3db44cfd"}}'
2021-05-11 23:37:39 | numéro : 778631439 | resultat envoi : b'{"requestError":{"policyException":{"messageId":"POL0001","text":"A policy error occurred. Error code is %1","variables":["Not enough credit"]}}}'
2021-05-11 23:37:39 | numéro : 775090971 | resultat envoi : b'{"requestError":{"policyException":{"messageId":"POL0001","text":"A policy error occurred. Error code is %1","variables":["Not enough credit"]}}}'
2021-05-11 23:37:40 | numéro : 778631439 | resultat envoi : b'{"outboundSMSMessageRequest":{"address":["tel:+221778631439"],"senderAddress":"tel:+221773387902","senderName":"ipps","outboundSMSTextMessage":{"message":"Chers cat\xc3\xa9chistes, \\nIl y a recollection des communiants : \\n- jeudi 13 mai 09h00 - 16h30 \\n- dimanche 23 mai 09h00 - 16h30 \\n- lundi 24 mai 09h00 - 17h00 \\nPri\xc3\xa8re de vous manifester pour que nous vous comptions parmi les animateurs(trices).\\nMerci\\nLe bureau de la cat\xc3\xa9ch\xc3\xa8se."},"resourceURL":"https://api.orange.com/smsmessaging/v1/outbound/tel:+221773387902/requests/4977f04d-7af6-409a-bb7a-9e1fefff8c01"}}'
2021-05-11 23:37:40 | numéro : 775090971 | resultat envoi : b'{"requestError":{"policyException":{"messageId":"POL0001","text":"A policy error occurred. Error code is %1","variables":["Not enough credit"]}}}'
2021-05-11 23:37:40 | numéro : 778631439 | resultat envoi : b'{"requestError":{"policyException":{"messageId":"POL0001","text":"A policy error occurred. Error code is %1","variables":["Not enough credit"]}}}'
2021-05-11 23:37:40 | numéro : 778631439 | resultat envoi : b'{"requestError":{"policyException":{"messageId":"POL0001","text":"A policy error occurred. Error code is %1","variables":["Not enough credit"]}}}'
2021-05-11 23:37:41 | numéro : 776423893 | resultat envoi : b'{"requestError":{"policyException":{"messageId":"POL0001","text":"A policy error occurred. Error code is %1","variables":["Not enough credit"]}}}'
2021-05-11 23:37:41 | numéro : 778186880 | resultat envoi : b'{"requestError":{"policyException":{"messageId":"POL0001","text":"A policy error occurred. Error code is %1","variables":["Not enough credit"]}}}'
2021-05-11 23:37:41 | numéro : 774278168 | resultat envoi : b'{"outboundSMSMessageRequest":{"address":["tel:+221774278168"],"senderAddress":"tel:+221773387902","senderName":"ipps","outboundSMSTextMessage":{"message":"Chers cat\xc3\xa9chistes, \\nIl y a recollection des communiants : \\n- jeudi 13 mai 09h00 - 16h30 \\n- dimanche 23 mai 09h00 - 16h30 \\n- lundi 24 mai 09h00 - 17h00 \\nPri\xc3\xa8re de vous manifester pour que nous vous comptions parmi les animateurs(trices).\\nMerci\\nLe bureau de la cat\xc3\xa9ch\xc3\xa8se."},"resourceURL":"https://api.orange.com/smsmessaging/v1/outbound/tel:+221773387902/requests/5713e2a0-4c28-4d8f-99ef-2450b3780199"}}'
2021-05-11 23:37:42 | numéro : 775272339 | resultat envoi : b'{"requestError":{"policyException":{"messageId":"POL0001","text":"A policy error occurred. Error code is %1","variables":["Not enough credit"]}}}'
2021-05-11 23:37:42 | numéro : 775949406 | resultat envoi : b'{"requestError":{"policyException":{"messageId":"POL0001","text":"A policy error occurred. Error code is %1","variables":["Not enough credit"]}}}'
2021-05-11 23:37:42 | numéro : 776533581 | resultat envoi : b'{"requestError":{"policyException":{"messageId":"POL0001","text":"A policy error occurred. Error code is %1","variables":["Not enough credit"]}}}'
2021-05-11 23:37:42 | numéro : 784237451 | resultat envoi : b'{"requestError":{"policyException":{"messageId":"POL0001","text":"A policy error occurred. Error code is %1","variables":["Not enough credit"]}}}'
2021-05-11 23:37:42 | balance 0 | fin envoi
