2022-12-09 00:10:49 | balance 59 | debut envoi
2022-12-09 00:10:49 | numéro : 776408591 | resultat envoi : b'{"outboundSMSMessageRequest":{"address":["tel:+221776408591"],"senderAddress":"tel:+221773387902","senderName":"ipps","outboundSMSTextMessage":{"message":"Chers parents,\\nNous vous informons que le premier controle de cat\xc3\xa9ch\xc3\xa8se pour le premier trimestre se fera ce samedi 10 dec. 2022 aux heures habituelles de cours.\\nNous comptons sur vous pour la pr\xc3\xa9sence obligatoire de votre enfant.\\nLe Bureau de la cat\xc3\xa9ch\xc3\xa8se."},"resourceURL":"https://api.orange.com/smsmessaging/v1/outbound/tel:+221773387902/requests/ea39e209-2ded-4c9b-ad9d-1dc1f4e0bdf2"}}'
2022-12-09 00:10:50 | numéro : 775787833 | resultat envoi : b'{"outboundSMSMessageRequest":{"address":["tel:+221775787833"],"senderAddress":"tel:+221773387902","senderName":"ipps","outboundSMSTextMessage":{"message":"Chers parents,\\nNous vous informons que le premier controle de cat\xc3\xa9ch\xc3\xa8se pour le premier trimestre se fera ce samedi 10 dec. 2022 aux heures habituelles de cours.\\nNous comptons sur vous pour la pr\xc3\xa9sence obligatoire de votre enfant.\\nLe Bureau de la cat\xc3\xa9ch\xc3\xa8se."},"resourceURL":"https://api.orange.com/smsmessaging/v1/outbound/tel:+221773387902/requests/b424cbd6-f637-44a2-8573-195d9c909664"}}'
2022-12-09 00:10:50 | numéro : 776176878 | resultat envoi : b'{"outboundSMSMessageRequest":{"address":["tel:+221776176878"],"senderAddress":"tel:+221773387902","senderName":"ipps","outboundSMSTextMessage":{"message":"Chers parents,\\nNous vous informons que le premier controle de cat\xc3\xa9ch\xc3\xa8se pour le premier trimestre se fera ce samedi 10 dec. 2022 aux heures habituelles de cours.\\nNous comptons sur vous pour la pr\xc3\xa9sence obligatoire de votre enfant.\\nLe Bureau de la cat\xc3\xa9ch\xc3\xa8se."},"resourceURL":"https://api.orange.com/smsmessaging/v1/outbound/tel:+221773387902/requests/2fb4b6f1-8bff-4d90-96ea-4689978816b6"}}'
2022-12-09 00:10:50 | numéro : 773698374 | resultat envoi : b'{"outboundSMSMessageRequest":{"address":["tel:+221773698374"],"senderAddress":"tel:+221773387902","senderName":"ipps","outboundSMSTextMessage":{"message":"Chers parents,\\nNous vous informons que le premier controle de cat\xc3\xa9ch\xc3\xa8se pour le premier trimestre se fera ce samedi 10 dec. 2022 aux heures habituelles de cours.\\nNous comptons sur vous pour la pr\xc3\xa9sence obligatoire de votre enfant.\\nLe Bureau de la cat\xc3\xa9ch\xc3\xa8se."},"resourceURL":"https://api.orange.com/smsmessaging/v1/outbound/tel:+221773387902/requests/f6aef4ee-5fb7-4fe1-bcd3-7693c0b8603e"}}'
2022-12-09 00:10:50 | numéro : 770937183 | resultat envoi : b'{"outboundSMSMessageRequest":{"address":["tel:+221770937183"],"senderAddress":"tel:+221773387902","senderName":"ipps","outboundSMSTextMessage":{"message":"Chers parents,\\nNous vous informons que le premier controle de cat\xc3\xa9ch\xc3\xa8se pour le premier trimestre se fera ce samedi 10 dec. 2022 aux heures habituelles de cours.\\nNous comptons sur vous pour la pr\xc3\xa9sence obligatoire de votre enfant.\\nLe Bureau de la cat\xc3\xa9ch\xc3\xa8se."},"resourceURL":"https://api.orange.com/smsmessaging/v1/outbound/tel:+221773387902/requests/a212a260-4c0f-40cc-a610-a0e20872c5e6"}}'
2022-12-09 00:10:51 | numéro : 777171591 | resultat envoi : b'{"outboundSMSMessageRequest":{"address":["tel:+221777171591"],"senderAddress":"tel:+221773387902","senderName":"ipps","outboundSMSTextMessage":{"message":"Chers parents,\\nNous vous informons que le premier controle de cat\xc3\xa9ch\xc3\xa8se pour le premier trimestre se fera ce samedi 10 dec. 2022 aux heures habituelles de cours.\\nNous comptons sur vous pour la pr\xc3\xa9sence obligatoire de votre enfant.\\nLe Bureau de la cat\xc3\xa9ch\xc3\xa8se."},"resourceURL":"https://api.orange.com/smsmessaging/v1/outbound/tel:+221773387902/requests/3db3ca41-b39b-4e22-b5b7-ab94d43e1551"}}'
2022-12-09 00:10:51 | numéro : 774021156 | resultat envoi : b'{"outboundSMSMessageRequest":{"address":["tel:+221774021156"],"senderAddress":"tel:+221773387902","senderName":"ipps","outboundSMSTextMessage":{"message":"Chers parents,\\nNous vous informons que le premier controle de cat\xc3\xa9ch\xc3\xa8se pour le premier trimestre se fera ce samedi 10 dec. 2022 aux heures habituelles de cours.\\nNous comptons sur vous pour la pr\xc3\xa9sence obligatoire de votre enfant.\\nLe Bureau de la cat\xc3\xa9ch\xc3\xa8se."},"resourceURL":"https://api.orange.com/smsmessaging/v1/outbound/tel:+221773387902/requests/abd062ba-c830-409c-bbe6-dd7dab4bc0ba"}}'
2022-12-09 00:10:51 | numéro : 776471616 | resultat envoi : b'{"outboundSMSMessageRequest":{"address":["tel:+221776471616"],"senderAddress":"tel:+221773387902","senderName":"ipps","outboundSMSTextMessage":{"message":"Chers parents,\\nNous vous informons que le premier controle de cat\xc3\xa9ch\xc3\xa8se pour le premier trimestre se fera ce samedi 10 dec. 2022 aux heures habituelles de cours.\\nNous comptons sur vous pour la pr\xc3\xa9sence obligatoire de votre enfant.\\nLe Bureau de la cat\xc3\xa9ch\xc3\xa8se."},"resourceURL":"https://api.orange.com/smsmessaging/v1/outbound/tel:+221773387902/requests/e4f1249e-c26e-48ac-a80b-87f76a0e0da1"}}'
2022-12-09 00:10:51 | numéro : 775220517 | resultat envoi : b'{"outboundSMSMessageRequest":{"address":["tel:+221775220517"],"senderAddress":"tel:+221773387902","senderName":"ipps","outboundSMSTextMessage":{"message":"Chers parents,\\nNous vous informons que le premier controle de cat\xc3\xa9ch\xc3\xa8se pour le premier trimestre se fera ce samedi 10 dec. 2022 aux heures habituelles de cours.\\nNous comptons sur vous pour la pr\xc3\xa9sence obligatoire de votre enfant.\\nLe Bureau de la cat\xc3\xa9ch\xc3\xa8se."},"resourceURL":"https://api.orange.com/smsmessaging/v1/outbound/tel:+221773387902/requests/41102afe-2e4b-4928-adc3-b569e859f73e"}}'
2022-12-09 00:10:52 | numéro : 776399742 | resultat envoi : b'{"outboundSMSMessageRequest":{"address":["tel:+221776399742"],"senderAddress":"tel:+221773387902","senderName":"ipps","outboundSMSTextMessage":{"message":"Chers parents,\\nNous vous informons que le premier controle de cat\xc3\xa9ch\xc3\xa8se pour le premier trimestre se fera ce samedi 10 dec. 2022 aux heures habituelles de cours.\\nNous comptons sur vous pour la pr\xc3\xa9sence obligatoire de votre enfant.\\nLe Bureau de la cat\xc3\xa9ch\xc3\xa8se."},"resourceURL":"https://api.orange.com/smsmessaging/v1/outbound/tel:+221773387902/requests/23ad96b1-4976-4091-a4bc-7618d87d6d3e"}}'
2022-12-09 00:10:52 | numéro : 782649288 | resultat envoi : b'{"outboundSMSMessageRequest":{"address":["tel:+221782649288"],"senderAddress":"tel:+221773387902","senderName":"ipps","outboundSMSTextMessage":{"message":"Chers parents,\\nNous vous informons que le premier controle de cat\xc3\xa9ch\xc3\xa8se pour le premier trimestre se fera ce samedi 10 dec. 2022 aux heures habituelles de cours.\\nNous comptons sur vous pour la pr\xc3\xa9sence obligatoire de votre enfant.\\nLe Bureau de la cat\xc3\xa9ch\xc3\xa8se."},"resourceURL":"https://api.orange.com/smsmessaging/v1/outbound/tel:+221773387902/requests/153144a0-c680-4546-be3d-55158cdedbb7"}}'
2022-12-09 00:10:53 | numéro : 773762204 | resultat envoi : b'{"outboundSMSMessageRequest":{"address":["tel:+221773762204"],"senderAddress":"tel:+221773387902","senderName":"ipps","outboundSMSTextMessage":{"message":"Chers parents,\\nNous vous informons que le premier controle de cat\xc3\xa9ch\xc3\xa8se pour le premier trimestre se fera ce samedi 10 dec. 2022 aux heures habituelles de cours.\\nNous comptons sur vous pour la pr\xc3\xa9sence obligatoire de votre enfant.\\nLe Bureau de la cat\xc3\xa9ch\xc3\xa8se."},"resourceURL":"https://api.orange.com/smsmessaging/v1/outbound/tel:+221773387902/requests/55891a83-560f-43e8-ae8f-a6609d424fa4"}}'
2022-12-09 00:10:53 | numéro : 771731156 | resultat envoi : b'{"outboundSMSMessageRequest":{"address":["tel:+221771731156"],"senderAddress":"tel:+221773387902","senderName":"ipps","outboundSMSTextMessage":{"message":"Chers parents,\\nNous vous informons que le premier controle de cat\xc3\xa9ch\xc3\xa8se pour le premier trimestre se fera ce samedi 10 dec. 2022 aux heures habituelles de cours.\\nNous comptons sur vous pour la pr\xc3\xa9sence obligatoire de votre enfant.\\nLe Bureau de la cat\xc3\xa9ch\xc3\xa8se."},"resourceURL":"https://api.orange.com/smsmessaging/v1/outbound/tel:+221773387902/requests/9762ef8e-7cd7-4d7f-8dd8-30c3fd8dd0c7"}}'
2022-12-09 00:10:53 | numéro : 771043316 | resultat envoi : b'{"outboundSMSMessageRequest":{"address":["tel:+221771043316"],"senderAddress":"tel:+221773387902","senderName":"ipps","outboundSMSTextMessage":{"message":"Chers parents,\\nNous vous informons que le premier controle de cat\xc3\xa9ch\xc3\xa8se pour le premier trimestre se fera ce samedi 10 dec. 2022 aux heures habituelles de cours.\\nNous comptons sur vous pour la pr\xc3\xa9sence obligatoire de votre enfant.\\nLe Bureau de la cat\xc3\xa9ch\xc3\xa8se."},"resourceURL":"https://api.orange.com/smsmessaging/v1/outbound/tel:+221773387902/requests/b704adcb-5039-44e7-956b-a4eb3ed966d5"}}'
2022-12-09 00:10:54 | numéro : 775240726 | resultat envoi : b'{"outboundSMSMessageRequest":{"address":["tel:+221775240726"],"senderAddress":"tel:+221773387902","senderName":"ipps","outboundSMSTextMessage":{"message":"Chers parents,\\nNous vous informons que le premier controle de cat\xc3\xa9ch\xc3\xa8se pour le premier trimestre se fera ce samedi 10 dec. 2022 aux heures habituelles de cours.\\nNous comptons sur vous pour la pr\xc3\xa9sence obligatoire de votre enfant.\\nLe Bureau de la cat\xc3\xa9ch\xc3\xa8se."},"resourceURL":"https://api.orange.com/smsmessaging/v1/outbound/tel:+221773387902/requests/732c5cb6-3de5-41c9-a591-2a94a624d103"}}'
2022-12-09 00:10:54 | numéro : 772505078 | resultat envoi : b'{"outboundSMSMessageRequest":{"address":["tel:+221772505078"],"senderAddress":"tel:+221773387902","senderName":"ipps","outboundSMSTextMessage":{"message":"Chers parents,\\nNous vous informons que le premier controle de cat\xc3\xa9ch\xc3\xa8se pour le premier trimestre se fera ce samedi 10 dec. 2022 aux heures habituelles de cours.\\nNous comptons sur vous pour la pr\xc3\xa9sence obligatoire de votre enfant.\\nLe Bureau de la cat\xc3\xa9ch\xc3\xa8se."},"resourceURL":"https://api.orange.com/smsmessaging/v1/outbound/tel:+221773387902/requests/e0d9377c-05ea-442c-88bd-e756645a0d0d"}}'
2022-12-09 00:10:54 | numéro : 779296349 | resultat envoi : b'{"outboundSMSMessageRequest":{"address":["tel:+221779296349"],"senderAddress":"tel:+221773387902","senderName":"ipps","outboundSMSTextMessage":{"message":"Chers parents,\\nNous vous informons que le premier controle de cat\xc3\xa9ch\xc3\xa8se pour le premier trimestre se fera ce samedi 10 dec. 2022 aux heures habituelles de cours.\\nNous comptons sur vous pour la pr\xc3\xa9sence obligatoire de votre enfant.\\nLe Bureau de la cat\xc3\xa9ch\xc3\xa8se."},"resourceURL":"https://api.orange.com/smsmessaging/v1/outbound/tel:+221773387902/requests/da924dbe-20b2-42ec-a876-3adcb057fe30"}}'
2022-12-09 00:10:55 | numéro : 773667630 | resultat envoi : b'{"outboundSMSMessageRequest":{"address":["tel:+221773667630"],"senderAddress":"tel:+221773387902","senderName":"ipps","outboundSMSTextMessage":{"message":"Chers parents,\\nNous vous informons que le premier controle de cat\xc3\xa9ch\xc3\xa8se pour le premier trimestre se fera ce samedi 10 dec. 2022 aux heures habituelles de cours.\\nNous comptons sur vous pour la pr\xc3\xa9sence obligatoire de votre enfant.\\nLe Bureau de la cat\xc3\xa9ch\xc3\xa8se."},"resourceURL":"https://api.orange.com/smsmessaging/v1/outbound/tel:+221773387902/requests/0ee97a68-02d1-4391-b89c-50f43b3422cd"}}'
2022-12-09 00:10:55 | numéro : 773505457 | resultat envoi : b'{"outboundSMSMessageRequest":{"address":["tel:+221773505457"],"senderAddress":"tel:+221773387902","senderName":"ipps","outboundSMSTextMessage":{"message":"Chers parents,\\nNous vous informons que le premier controle de cat\xc3\xa9ch\xc3\xa8se pour le premier trimestre se fera ce samedi 10 dec. 2022 aux heures habituelles de cours.\\nNous comptons sur vous pour la pr\xc3\xa9sence obligatoire de votre enfant.\\nLe Bureau de la cat\xc3\xa9ch\xc3\xa8se."},"resourceURL":"https://api.orange.com/smsmessaging/v1/outbound/tel:+221773387902/requests/a87c8690-9d92-42b8-8d40-8db27371e870"}}'
2022-12-09 00:10:55 | numéro : 778417588 | resultat envoi : b'{"outboundSMSMessageRequest":{"address":["tel:+221778417588"],"senderAddress":"tel:+221773387902","senderName":"ipps","outboundSMSTextMessage":{"message":"Chers parents,\\nNous vous informons que le premier controle de cat\xc3\xa9ch\xc3\xa8se pour le premier trimestre se fera ce samedi 10 dec. 2022 aux heures habituelles de cours.\\nNous comptons sur vous pour la pr\xc3\xa9sence obligatoire de votre enfant.\\nLe Bureau de la cat\xc3\xa9ch\xc3\xa8se."},"resourceURL":"https://api.orange.com/smsmessaging/v1/outbound/tel:+221773387902/requests/30639c78-787f-4f31-9a93-f8714ac65dc0"}}'
2022-12-09 00:10:55 | numéro : 776572997 | resultat envoi : b'{"outboundSMSMessageRequest":{"address":["tel:+221776572997"],"senderAddress":"tel:+221773387902","senderName":"ipps","outboundSMSTextMessage":{"message":"Chers parents,\\nNous vous informons que le premier controle de cat\xc3\xa9ch\xc3\xa8se pour le premier trimestre se fera ce samedi 10 dec. 2022 aux heures habituelles de cours.\\nNous comptons sur vous pour la pr\xc3\xa9sence obligatoire de votre enfant.\\nLe Bureau de la cat\xc3\xa9ch\xc3\xa8se."},"resourceURL":"https://api.orange.com/smsmessaging/v1/outbound/tel:+221773387902/requests/08e29511-0122-49dd-8cf2-42488d4dd829"}}'
2022-12-09 00:10:56 | numéro : 777199843 | resultat envoi : b'{"outboundSMSMessageRequest":{"address":["tel:+221777199843"],"senderAddress":"tel:+221773387902","senderName":"ipps","outboundSMSTextMessage":{"message":"Chers parents,\\nNous vous informons que le premier controle de cat\xc3\xa9ch\xc3\xa8se pour le premier trimestre se fera ce samedi 10 dec. 2022 aux heures habituelles de cours.\\nNous comptons sur vous pour la pr\xc3\xa9sence obligatoire de votre enfant.\\nLe Bureau de la cat\xc3\xa9ch\xc3\xa8se."},"resourceURL":"https://api.orange.com/smsmessaging/v1/outbound/tel:+221773387902/requests/1311d756-f290-47e7-b050-d237cf0425bd"}}'
2022-12-09 00:10:56 | numéro : 773074411 | resultat envoi : b'{"outboundSMSMessageRequest":{"address":["tel:+221773074411"],"senderAddress":"tel:+221773387902","senderName":"ipps","outboundSMSTextMessage":{"message":"Chers parents,\\nNous vous informons que le premier controle de cat\xc3\xa9ch\xc3\xa8se pour le premier trimestre se fera ce samedi 10 dec. 2022 aux heures habituelles de cours.\\nNous comptons sur vous pour la pr\xc3\xa9sence obligatoire de votre enfant.\\nLe Bureau de la cat\xc3\xa9ch\xc3\xa8se."},"resourceURL":"https://api.orange.com/smsmessaging/v1/outbound/tel:+221773387902/requests/79f6dfc6-66e5-4dc7-ab66-7e61bcb01969"}}'
2022-12-09 00:10:56 | numéro : 784755429 | resultat envoi : b'{"outboundSMSMessageRequest":{"address":["tel:+221784755429"],"senderAddress":"tel:+221773387902","senderName":"ipps","outboundSMSTextMessage":{"message":"Chers parents,\\nNous vous informons que le premier controle de cat\xc3\xa9ch\xc3\xa8se pour le premier trimestre se fera ce samedi 10 dec. 2022 aux heures habituelles de cours.\\nNous comptons sur vous pour la pr\xc3\xa9sence obligatoire de votre enfant.\\nLe Bureau de la cat\xc3\xa9ch\xc3\xa8se."},"resourceURL":"https://api.orange.com/smsmessaging/v1/outbound/tel:+221773387902/requests/c0ad00d1-57eb-4f1c-bf11-fb2f7ac55859"}}'
2022-12-09 00:10:56 | numéro : 775398628 | resultat envoi : b'{"outboundSMSMessageRequest":{"address":["tel:+221775398628"],"senderAddress":"tel:+221773387902","senderName":"ipps","outboundSMSTextMessage":{"message":"Chers parents,\\nNous vous informons que le premier controle de cat\xc3\xa9ch\xc3\xa8se pour le premier trimestre se fera ce samedi 10 dec. 2022 aux heures habituelles de cours.\\nNous comptons sur vous pour la pr\xc3\xa9sence obligatoire de votre enfant.\\nLe Bureau de la cat\xc3\xa9ch\xc3\xa8se."},"resourceURL":"https://api.orange.com/smsmessaging/v1/outbound/tel:+221773387902/requests/cb4f1dc5-043a-4a5f-af3e-85caa5b111f2"}}'
2022-12-09 00:10:57 | numéro : 775712727 | resultat envoi : b'{"outboundSMSMessageRequest":{"address":["tel:+221775712727"],"senderAddress":"tel:+221773387902","senderName":"ipps","outboundSMSTextMessage":{"message":"Chers parents,\\nNous vous informons que le premier controle de cat\xc3\xa9ch\xc3\xa8se pour le premier trimestre se fera ce samedi 10 dec. 2022 aux heures habituelles de cours.\\nNous comptons sur vous pour la pr\xc3\xa9sence obligatoire de votre enfant.\\nLe Bureau de la cat\xc3\xa9ch\xc3\xa8se."},"resourceURL":"https://api.orange.com/smsmessaging/v1/outbound/tel:+221773387902/requests/3fce17bd-78b0-461a-aa00-146cc05f789c"}}'
2022-12-09 00:10:57 | numéro : 775327533 | resultat envoi : b'{"outboundSMSMessageRequest":{"address":["tel:+221775327533"],"senderAddress":"tel:+221773387902","senderName":"ipps","outboundSMSTextMessage":{"message":"Chers parents,\\nNous vous informons que le premier controle de cat\xc3\xa9ch\xc3\xa8se pour le premier trimestre se fera ce samedi 10 dec. 2022 aux heures habituelles de cours.\\nNous comptons sur vous pour la pr\xc3\xa9sence obligatoire de votre enfant.\\nLe Bureau de la cat\xc3\xa9ch\xc3\xa8se."},"resourceURL":"https://api.orange.com/smsmessaging/v1/outbound/tel:+221773387902/requests/34786d0f-bfd1-4882-b9b2-61e631988cfe"}}'
2022-12-09 00:10:57 | numéro : 777303158 | resultat envoi : b'{"outboundSMSMessageRequest":{"address":["tel:+221777303158"],"senderAddress":"tel:+221773387902","senderName":"ipps","outboundSMSTextMessage":{"message":"Chers parents,\\nNous vous informons que le premier controle de cat\xc3\xa9ch\xc3\xa8se pour le premier trimestre se fera ce samedi 10 dec. 2022 aux heures habituelles de cours.\\nNous comptons sur vous pour la pr\xc3\xa9sence obligatoire de votre enfant.\\nLe Bureau de la cat\xc3\xa9ch\xc3\xa8se."},"resourceURL":"https://api.orange.com/smsmessaging/v1/outbound/tel:+221773387902/requests/926c54b8-fa72-4409-b034-4c7df101040f"}}'
2022-12-09 00:10:58 | numéro : 778277894 | resultat envoi : b'{"outboundSMSMessageRequest":{"address":["tel:+221778277894"],"senderAddress":"tel:+221773387902","senderName":"ipps","outboundSMSTextMessage":{"message":"Chers parents,\\nNous vous informons que le premier controle de cat\xc3\xa9ch\xc3\xa8se pour le premier trimestre se fera ce samedi 10 dec. 2022 aux heures habituelles de cours.\\nNous comptons sur vous pour la pr\xc3\xa9sence obligatoire de votre enfant.\\nLe Bureau de la cat\xc3\xa9ch\xc3\xa8se."},"resourceURL":"https://api.orange.com/smsmessaging/v1/outbound/tel:+221773387902/requests/8563d3a6-e507-4f91-b650-f9db9b487bdc"}}'
2022-12-09 00:10:58 | numéro : 775601433 | resultat envoi : b'{"outboundSMSMessageRequest":{"address":["tel:+221775601433"],"senderAddress":"tel:+221773387902","senderName":"ipps","outboundSMSTextMessage":{"message":"Chers parents,\\nNous vous informons que le premier controle de cat\xc3\xa9ch\xc3\xa8se pour le premier trimestre se fera ce samedi 10 dec. 2022 aux heures habituelles de cours.\\nNous comptons sur vous pour la pr\xc3\xa9sence obligatoire de votre enfant.\\nLe Bureau de la cat\xc3\xa9ch\xc3\xa8se."},"resourceURL":"https://api.orange.com/smsmessaging/v1/outbound/tel:+221773387902/requests/f6488b16-b064-46eb-873c-c97695f38434"}}'
2022-12-09 00:10:58 | numéro : 775249738 | resultat envoi : b'{"outboundSMSMessageRequest":{"address":["tel:+221775249738"],"senderAddress":"tel:+221773387902","senderName":"ipps","outboundSMSTextMessage":{"message":"Chers parents,\\nNous vous informons que le premier controle de cat\xc3\xa9ch\xc3\xa8se pour le premier trimestre se fera ce samedi 10 dec. 2022 aux heures habituelles de cours.\\nNous comptons sur vous pour la pr\xc3\xa9sence obligatoire de votre enfant.\\nLe Bureau de la cat\xc3\xa9ch\xc3\xa8se."},"resourceURL":"https://api.orange.com/smsmessaging/v1/outbound/tel:+221773387902/requests/671fd064-8a0b-4c39-8303-a1744378435a"}}'
2022-12-09 00:10:59 | numéro : 776452338 | resultat envoi : b'{"outboundSMSMessageRequest":{"address":["tel:+221776452338"],"senderAddress":"tel:+221773387902","senderName":"ipps","outboundSMSTextMessage":{"message":"Chers parents,\\nNous vous informons que le premier controle de cat\xc3\xa9ch\xc3\xa8se pour le premier trimestre se fera ce samedi 10 dec. 2022 aux heures habituelles de cours.\\nNous comptons sur vous pour la pr\xc3\xa9sence obligatoire de votre enfant.\\nLe Bureau de la cat\xc3\xa9ch\xc3\xa8se."},"resourceURL":"https://api.orange.com/smsmessaging/v1/outbound/tel:+221773387902/requests/e171f173-2d5c-492c-b51a-3019a9b97b24"}}'
2022-12-09 00:10:59 | numéro : 777756452 | resultat envoi : b'{"outboundSMSMessageRequest":{"address":["tel:+221777756452"],"senderAddress":"tel:+221773387902","senderName":"ipps","outboundSMSTextMessage":{"message":"Chers parents,\\nNous vous informons que le premier controle de cat\xc3\xa9ch\xc3\xa8se pour le premier trimestre se fera ce samedi 10 dec. 2022 aux heures habituelles de cours.\\nNous comptons sur vous pour la pr\xc3\xa9sence obligatoire de votre enfant.\\nLe Bureau de la cat\xc3\xa9ch\xc3\xa8se."},"resourceURL":"https://api.orange.com/smsmessaging/v1/outbound/tel:+221773387902/requests/235e94e2-c483-4407-b22a-a84730fc2275"}}'
2022-12-09 00:10:59 | numéro : 776513034 | resultat envoi : b'{"outboundSMSMessageRequest":{"address":["tel:+221776513034"],"senderAddress":"tel:+221773387902","senderName":"ipps","outboundSMSTextMessage":{"message":"Chers parents,\\nNous vous informons que le premier controle de cat\xc3\xa9ch\xc3\xa8se pour le premier trimestre se fera ce samedi 10 dec. 2022 aux heures habituelles de cours.\\nNous comptons sur vous pour la pr\xc3\xa9sence obligatoire de votre enfant.\\nLe Bureau de la cat\xc3\xa9ch\xc3\xa8se."},"resourceURL":"https://api.orange.com/smsmessaging/v1/outbound/tel:+221773387902/requests/c5e5d845-a74e-4ce0-9ffd-fff2770e838c"}}'
2022-12-09 00:11:00 | numéro : 772238769 | resultat envoi : b'{"outboundSMSMessageRequest":{"address":["tel:+221772238769"],"senderAddress":"tel:+221773387902","senderName":"ipps","outboundSMSTextMessage":{"message":"Chers parents,\\nNous vous informons que le premier controle de cat\xc3\xa9ch\xc3\xa8se pour le premier trimestre se fera ce samedi 10 dec. 2022 aux heures habituelles de cours.\\nNous comptons sur vous pour la pr\xc3\xa9sence obligatoire de votre enfant.\\nLe Bureau de la cat\xc3\xa9ch\xc3\xa8se."},"resourceURL":"https://api.orange.com/smsmessaging/v1/outbound/tel:+221773387902/requests/3661ca1f-d58c-42af-8ad0-3a3aff913742"}}'
2022-12-09 00:11:00 | numéro : 770555098 | resultat envoi : b'{"outboundSMSMessageRequest":{"address":["tel:+221770555098"],"senderAddress":"tel:+221773387902","senderName":"ipps","outboundSMSTextMessage":{"message":"Chers parents,\\nNous vous informons que le premier controle de cat\xc3\xa9ch\xc3\xa8se pour le premier trimestre se fera ce samedi 10 dec. 2022 aux heures habituelles de cours.\\nNous comptons sur vous pour la pr\xc3\xa9sence obligatoire de votre enfant.\\nLe Bureau de la cat\xc3\xa9ch\xc3\xa8se."},"resourceURL":"https://api.orange.com/smsmessaging/v1/outbound/tel:+221773387902/requests/54b26663-1228-4c5f-a98e-d578c4be31b9"}}'
2022-12-09 00:11:00 | numéro : 778412946 | resultat envoi : b'{"outboundSMSMessageRequest":{"address":["tel:+221778412946"],"senderAddress":"tel:+221773387902","senderName":"ipps","outboundSMSTextMessage":{"message":"Chers parents,\\nNous vous informons que le premier controle de cat\xc3\xa9ch\xc3\xa8se pour le premier trimestre se fera ce samedi 10 dec. 2022 aux heures habituelles de cours.\\nNous comptons sur vous pour la pr\xc3\xa9sence obligatoire de votre enfant.\\nLe Bureau de la cat\xc3\xa9ch\xc3\xa8se."},"resourceURL":"https://api.orange.com/smsmessaging/v1/outbound/tel:+221773387902/requests/001794c7-0625-4520-b79f-11439745db07"}}'
2022-12-09 00:11:01 | numéro : 779909554 | resultat envoi : b'{"outboundSMSMessageRequest":{"address":["tel:+221779909554"],"senderAddress":"tel:+221773387902","senderName":"ipps","outboundSMSTextMessage":{"message":"Chers parents,\\nNous vous informons que le premier controle de cat\xc3\xa9ch\xc3\xa8se pour le premier trimestre se fera ce samedi 10 dec. 2022 aux heures habituelles de cours.\\nNous comptons sur vous pour la pr\xc3\xa9sence obligatoire de votre enfant.\\nLe Bureau de la cat\xc3\xa9ch\xc3\xa8se."},"resourceURL":"https://api.orange.com/smsmessaging/v1/outbound/tel:+221773387902/requests/5f8d0d66-22aa-4f67-83d4-ed0f4eb11e0e"}}'
2022-12-09 00:11:01 | numéro : 775177161 | resultat envoi : b'{"outboundSMSMessageRequest":{"address":["tel:+221775177161"],"senderAddress":"tel:+221773387902","senderName":"ipps","outboundSMSTextMessage":{"message":"Chers parents,\\nNous vous informons que le premier controle de cat\xc3\xa9ch\xc3\xa8se pour le premier trimestre se fera ce samedi 10 dec. 2022 aux heures habituelles de cours.\\nNous comptons sur vous pour la pr\xc3\xa9sence obligatoire de votre enfant.\\nLe Bureau de la cat\xc3\xa9ch\xc3\xa8se."},"resourceURL":"https://api.orange.com/smsmessaging/v1/outbound/tel:+221773387902/requests/d2a5a1e4-c75b-430c-bf06-1252faf1bc4a"}}'
2022-12-09 00:11:01 | numéro : 776459620 | resultat envoi : b'{"outboundSMSMessageRequest":{"address":["tel:+221776459620"],"senderAddress":"tel:+221773387902","senderName":"ipps","outboundSMSTextMessage":{"message":"Chers parents,\\nNous vous informons que le premier controle de cat\xc3\xa9ch\xc3\xa8se pour le premier trimestre se fera ce samedi 10 dec. 2022 aux heures habituelles de cours.\\nNous comptons sur vous pour la pr\xc3\xa9sence obligatoire de votre enfant.\\nLe Bureau de la cat\xc3\xa9ch\xc3\xa8se."},"resourceURL":"https://api.orange.com/smsmessaging/v1/outbound/tel:+221773387902/requests/3177e03d-100d-49bc-859d-b222e234ec56"}}'
2022-12-09 00:11:01 | balance 19 | fin envoi
