2021-11-09 11:49:19 | balance 978 | debut envoi
2021-11-09 11:49:19 | numéro : 773387902 | resultat envoi : b'{"outboundSMSMessageRequest":{"address":["tel:+221773387902"],"senderAddress":"tel:+221773387902","senderName":"ipps","outboundSMSTextMessage":{"message":"Chers cat\xc3\xa9chistes\\nDimanche 14 nov. 21, nous aurons la messe d\xe2\x80\x99envoi des cat\xc3\xa9chistes \xc3\xa0 11h.\\nC\xe2\x80\x99est la messe d\xe2\x80\x99envoi au cours de laquelle le cur\xc3\xa9 donne pouvoir au cat\xc3\xa9chiste d\xe2\x80\x99enseigner la cat\xc3\xa9ch\xc3\xa8se sur sa paroisse.\\nVu l\xe2\x80\x99importance de cette c\xc3\xa9l\xc3\xa9bration, la pr\xc3\xa9sence de tous est obligatoire.\\n\\nNb: nous prions chacun de nous de se mettre en blanc, signe de la joie dans la mission\\nSoyez b\xc3\xa9nis"},"resourceURL":"https://api.orange.com/smsmessaging/v1/outbound/tel:+221773387902/requests/d02139be-8695-4967-9356-657667848079"}}'
2021-11-09 11:49:19 | numéro : 776483485 | resultat envoi : b'{"outboundSMSMessageRequest":{"address":["tel:+221776483485"],"senderAddress":"tel:+221773387902","senderName":"ipps","outboundSMSTextMessage":{"message":"Chers cat\xc3\xa9chistes\\nDimanche 14 nov. 21, nous aurons la messe d\xe2\x80\x99envoi des cat\xc3\xa9chistes \xc3\xa0 11h.\\nC\xe2\x80\x99est la messe d\xe2\x80\x99envoi au cours de laquelle le cur\xc3\xa9 donne pouvoir au cat\xc3\xa9chiste d\xe2\x80\x99enseigner la cat\xc3\xa9ch\xc3\xa8se sur sa paroisse.\\nVu l\xe2\x80\x99importance de cette c\xc3\xa9l\xc3\xa9bration, la pr\xc3\xa9sence de tous est obligatoire.\\n\\nNb: nous prions chacun de nous de se mettre en blanc, signe de la joie dans la mission\\nSoyez b\xc3\xa9nis"},"resourceURL":"https://api.orange.com/smsmessaging/v1/outbound/tel:+221773387902/requests/6744bf07-fc97-4960-8366-1a314fc66d98"}}'
2021-11-09 11:49:20 | numéro : 771561674 | resultat envoi : b'{"outboundSMSMessageRequest":{"address":["tel:+221771561674"],"senderAddress":"tel:+221773387902","senderName":"ipps","outboundSMSTextMessage":{"message":"Chers cat\xc3\xa9chistes\\nDimanche 14 nov. 21, nous aurons la messe d\xe2\x80\x99envoi des cat\xc3\xa9chistes \xc3\xa0 11h.\\nC\xe2\x80\x99est la messe d\xe2\x80\x99envoi au cours de laquelle le cur\xc3\xa9 donne pouvoir au cat\xc3\xa9chiste d\xe2\x80\x99enseigner la cat\xc3\xa9ch\xc3\xa8se sur sa paroisse.\\nVu l\xe2\x80\x99importance de cette c\xc3\xa9l\xc3\xa9bration, la pr\xc3\xa9sence de tous est obligatoire.\\n\\nNb: nous prions chacun de nous de se mettre en blanc, signe de la joie dans la mission\\nSoyez b\xc3\xa9nis"},"resourceURL":"https://api.orange.com/smsmessaging/v1/outbound/tel:+221773387902/requests/d36b1c40-d8ef-46d9-a841-b335a2a8df9e"}}'
2021-11-09 11:49:20 | numéro : 775782652 | resultat envoi : b'{"outboundSMSMessageRequest":{"address":["tel:+221775782652"],"senderAddress":"tel:+221773387902","senderName":"ipps","outboundSMSTextMessage":{"message":"Chers cat\xc3\xa9chistes\\nDimanche 14 nov. 21, nous aurons la messe d\xe2\x80\x99envoi des cat\xc3\xa9chistes \xc3\xa0 11h.\\nC\xe2\x80\x99est la messe d\xe2\x80\x99envoi au cours de laquelle le cur\xc3\xa9 donne pouvoir au cat\xc3\xa9chiste d\xe2\x80\x99enseigner la cat\xc3\xa9ch\xc3\xa8se sur sa paroisse.\\nVu l\xe2\x80\x99importance de cette c\xc3\xa9l\xc3\xa9bration, la pr\xc3\xa9sence de tous est obligatoire.\\n\\nNb: nous prions chacun de nous de se mettre en blanc, signe de la joie dans la mission\\nSoyez b\xc3\xa9nis"},"resourceURL":"https://api.orange.com/smsmessaging/v1/outbound/tel:+221773387902/requests/5164290a-e58b-41eb-a37c-29d445bd1a86"}}'
2021-11-09 11:49:20 | numéro : 773670365 | resultat envoi : b'{"outboundSMSMessageRequest":{"address":["tel:+221773670365"],"senderAddress":"tel:+221773387902","senderName":"ipps","outboundSMSTextMessage":{"message":"Chers cat\xc3\xa9chistes\\nDimanche 14 nov. 21, nous aurons la messe d\xe2\x80\x99envoi des cat\xc3\xa9chistes \xc3\xa0 11h.\\nC\xe2\x80\x99est la messe d\xe2\x80\x99envoi au cours de laquelle le cur\xc3\xa9 donne pouvoir au cat\xc3\xa9chiste d\xe2\x80\x99enseigner la cat\xc3\xa9ch\xc3\xa8se sur sa paroisse.\\nVu l\xe2\x80\x99importance de cette c\xc3\xa9l\xc3\xa9bration, la pr\xc3\xa9sence de tous est obligatoire.\\n\\nNb: nous prions chacun de nous de se mettre en blanc, signe de la joie dans la mission\\nSoyez b\xc3\xa9nis"},"resourceURL":"https://api.orange.com/smsmessaging/v1/outbound/tel:+221773387902/requests/e56b0c12-73c3-47bc-b9ec-a15572e901c9"}}'
2021-11-09 11:49:21 | numéro : 775452777 | resultat envoi : b'{"outboundSMSMessageRequest":{"address":["tel:+221775452777"],"senderAddress":"tel:+221773387902","senderName":"ipps","outboundSMSTextMessage":{"message":"Chers cat\xc3\xa9chistes\\nDimanche 14 nov. 21, nous aurons la messe d\xe2\x80\x99envoi des cat\xc3\xa9chistes \xc3\xa0 11h.\\nC\xe2\x80\x99est la messe d\xe2\x80\x99envoi au cours de laquelle le cur\xc3\xa9 donne pouvoir au cat\xc3\xa9chiste d\xe2\x80\x99enseigner la cat\xc3\xa9ch\xc3\xa8se sur sa paroisse.\\nVu l\xe2\x80\x99importance de cette c\xc3\xa9l\xc3\xa9bration, la pr\xc3\xa9sence de tous est obligatoire.\\n\\nNb: nous prions chacun de nous de se mettre en blanc, signe de la joie dans la mission\\nSoyez b\xc3\xa9nis"},"resourceURL":"https://api.orange.com/smsmessaging/v1/outbound/tel:+221773387902/requests/57b9a459-2dd5-4cfb-ae86-42fdaee717b7"}}'
2021-11-09 11:49:21 | numéro : 774095176 | resultat envoi : b'{"outboundSMSMessageRequest":{"address":["tel:+221774095176"],"senderAddress":"tel:+221773387902","senderName":"ipps","outboundSMSTextMessage":{"message":"Chers cat\xc3\xa9chistes\\nDimanche 14 nov. 21, nous aurons la messe d\xe2\x80\x99envoi des cat\xc3\xa9chistes \xc3\xa0 11h.\\nC\xe2\x80\x99est la messe d\xe2\x80\x99envoi au cours de laquelle le cur\xc3\xa9 donne pouvoir au cat\xc3\xa9chiste d\xe2\x80\x99enseigner la cat\xc3\xa9ch\xc3\xa8se sur sa paroisse.\\nVu l\xe2\x80\x99importance de cette c\xc3\xa9l\xc3\xa9bration, la pr\xc3\xa9sence de tous est obligatoire.\\n\\nNb: nous prions chacun de nous de se mettre en blanc, signe de la joie dans la mission\\nSoyez b\xc3\xa9nis"},"resourceURL":"https://api.orange.com/smsmessaging/v1/outbound/tel:+221773387902/requests/91d41998-2b7c-489b-99b9-91a3a5730fff"}}'
2021-11-09 11:49:22 | numéro : 776108894 | resultat envoi : b'{"outboundSMSMessageRequest":{"address":["tel:+221776108894"],"senderAddress":"tel:+221773387902","senderName":"ipps","outboundSMSTextMessage":{"message":"Chers cat\xc3\xa9chistes\\nDimanche 14 nov. 21, nous aurons la messe d\xe2\x80\x99envoi des cat\xc3\xa9chistes \xc3\xa0 11h.\\nC\xe2\x80\x99est la messe d\xe2\x80\x99envoi au cours de laquelle le cur\xc3\xa9 donne pouvoir au cat\xc3\xa9chiste d\xe2\x80\x99enseigner la cat\xc3\xa9ch\xc3\xa8se sur sa paroisse.\\nVu l\xe2\x80\x99importance de cette c\xc3\xa9l\xc3\xa9bration, la pr\xc3\xa9sence de tous est obligatoire.\\n\\nNb: nous prions chacun de nous de se mettre en blanc, signe de la joie dans la mission\\nSoyez b\xc3\xa9nis"},"resourceURL":"https://api.orange.com/smsmessaging/v1/outbound/tel:+221773387902/requests/4e764c5e-0f60-4bf5-a6c8-0558d99b7cc1"}}'
2021-11-09 11:49:22 | numéro : 778590854 | resultat envoi : b'{"outboundSMSMessageRequest":{"address":["tel:+221778590854"],"senderAddress":"tel:+221773387902","senderName":"ipps","outboundSMSTextMessage":{"message":"Chers cat\xc3\xa9chistes\\nDimanche 14 nov. 21, nous aurons la messe d\xe2\x80\x99envoi des cat\xc3\xa9chistes \xc3\xa0 11h.\\nC\xe2\x80\x99est la messe d\xe2\x80\x99envoi au cours de laquelle le cur\xc3\xa9 donne pouvoir au cat\xc3\xa9chiste d\xe2\x80\x99enseigner la cat\xc3\xa9ch\xc3\xa8se sur sa paroisse.\\nVu l\xe2\x80\x99importance de cette c\xc3\xa9l\xc3\xa9bration, la pr\xc3\xa9sence de tous est obligatoire.\\n\\nNb: nous prions chacun de nous de se mettre en blanc, signe de la joie dans la mission\\nSoyez b\xc3\xa9nis"},"resourceURL":"https://api.orange.com/smsmessaging/v1/outbound/tel:+221773387902/requests/5098b9d7-3d00-4667-b76c-f58ae87554fc"}}'
2021-11-09 11:49:22 | numéro : 765472363 | resultat envoi : b'{"outboundSMSMessageRequest":{"address":["tel:+221765472363"],"senderAddress":"tel:+221773387902","senderName":"ipps","outboundSMSTextMessage":{"message":"Chers cat\xc3\xa9chistes\\nDimanche 14 nov. 21, nous aurons la messe d\xe2\x80\x99envoi des cat\xc3\xa9chistes \xc3\xa0 11h.\\nC\xe2\x80\x99est la messe d\xe2\x80\x99envoi au cours de laquelle le cur\xc3\xa9 donne pouvoir au cat\xc3\xa9chiste d\xe2\x80\x99enseigner la cat\xc3\xa9ch\xc3\xa8se sur sa paroisse.\\nVu l\xe2\x80\x99importance de cette c\xc3\xa9l\xc3\xa9bration, la pr\xc3\xa9sence de tous est obligatoire.\\n\\nNb: nous prions chacun de nous de se mettre en blanc, signe de la joie dans la mission\\nSoyez b\xc3\xa9nis"},"resourceURL":"https://api.orange.com/smsmessaging/v1/outbound/tel:+221773387902/requests/cc941681-7eb2-4e5c-ae16-02f28a500cbe"}}'
2021-11-09 11:49:23 | numéro : 774444153 | resultat envoi : b'{"outboundSMSMessageRequest":{"address":["tel:+221774444153"],"senderAddress":"tel:+221773387902","senderName":"ipps","outboundSMSTextMessage":{"message":"Chers cat\xc3\xa9chistes\\nDimanche 14 nov. 21, nous aurons la messe d\xe2\x80\x99envoi des cat\xc3\xa9chistes \xc3\xa0 11h.\\nC\xe2\x80\x99est la messe d\xe2\x80\x99envoi au cours de laquelle le cur\xc3\xa9 donne pouvoir au cat\xc3\xa9chiste d\xe2\x80\x99enseigner la cat\xc3\xa9ch\xc3\xa8se sur sa paroisse.\\nVu l\xe2\x80\x99importance de cette c\xc3\xa9l\xc3\xa9bration, la pr\xc3\xa9sence de tous est obligatoire.\\n\\nNb: nous prions chacun de nous de se mettre en blanc, signe de la joie dans la mission\\nSoyez b\xc3\xa9nis"},"resourceURL":"https://api.orange.com/smsmessaging/v1/outbound/tel:+221773387902/requests/7a3244c9-0e93-40ab-bc6f-9ed9785ec59f"}}'
2021-11-09 11:49:23 | numéro : 771541666 | resultat envoi : b'{"outboundSMSMessageRequest":{"address":["tel:+221771541666"],"senderAddress":"tel:+221773387902","senderName":"ipps","outboundSMSTextMessage":{"message":"Chers cat\xc3\xa9chistes\\nDimanche 14 nov. 21, nous aurons la messe d\xe2\x80\x99envoi des cat\xc3\xa9chistes \xc3\xa0 11h.\\nC\xe2\x80\x99est la messe d\xe2\x80\x99envoi au cours de laquelle le cur\xc3\xa9 donne pouvoir au cat\xc3\xa9chiste d\xe2\x80\x99enseigner la cat\xc3\xa9ch\xc3\xa8se sur sa paroisse.\\nVu l\xe2\x80\x99importance de cette c\xc3\xa9l\xc3\xa9bration, la pr\xc3\xa9sence de tous est obligatoire.\\n\\nNb: nous prions chacun de nous de se mettre en blanc, signe de la joie dans la mission\\nSoyez b\xc3\xa9nis"},"resourceURL":"https://api.orange.com/smsmessaging/v1/outbound/tel:+221773387902/requests/5e3ee88b-5ae9-407d-bdc0-26e262bcf021"}}'
2021-11-09 11:49:26 | numéro : 775106381 | resultat envoi : b'{"outboundSMSMessageRequest":{"address":["tel:+221775106381"],"senderAddress":"tel:+221773387902","senderName":"ipps","outboundSMSTextMessage":{"message":"Chers cat\xc3\xa9chistes\\nDimanche 14 nov. 21, nous aurons la messe d\xe2\x80\x99envoi des cat\xc3\xa9chistes \xc3\xa0 11h.\\nC\xe2\x80\x99est la messe d\xe2\x80\x99envoi au cours de laquelle le cur\xc3\xa9 donne pouvoir au cat\xc3\xa9chiste d\xe2\x80\x99enseigner la cat\xc3\xa9ch\xc3\xa8se sur sa paroisse.\\nVu l\xe2\x80\x99importance de cette c\xc3\xa9l\xc3\xa9bration, la pr\xc3\xa9sence de tous est obligatoire.\\n\\nNb: nous prions chacun de nous de se mettre en blanc, signe de la joie dans la mission\\nSoyez b\xc3\xa9nis"},"resourceURL":"https://api.orange.com/smsmessaging/v1/outbound/tel:+221773387902/requests/11d95b84-f9b2-41cb-afa8-b119e65e8d59"}}'
2021-11-09 11:49:26 | numéro : 775484214 | resultat envoi : b'{"outboundSMSMessageRequest":{"address":["tel:+221775484214"],"senderAddress":"tel:+221773387902","senderName":"ipps","outboundSMSTextMessage":{"message":"Chers cat\xc3\xa9chistes\\nDimanche 14 nov. 21, nous aurons la messe d\xe2\x80\x99envoi des cat\xc3\xa9chistes \xc3\xa0 11h.\\nC\xe2\x80\x99est la messe d\xe2\x80\x99envoi au cours de laquelle le cur\xc3\xa9 donne pouvoir au cat\xc3\xa9chiste d\xe2\x80\x99enseigner la cat\xc3\xa9ch\xc3\xa8se sur sa paroisse.\\nVu l\xe2\x80\x99importance de cette c\xc3\xa9l\xc3\xa9bration, la pr\xc3\xa9sence de tous est obligatoire.\\n\\nNb: nous prions chacun de nous de se mettre en blanc, signe de la joie dans la mission\\nSoyez b\xc3\xa9nis"},"resourceURL":"https://api.orange.com/smsmessaging/v1/outbound/tel:+221773387902/requests/a6a31dc1-61ef-49d6-85aa-6f709ecdcdf5"}}'
2021-11-09 11:49:27 | numéro : 776567822 | resultat envoi : b'{"outboundSMSMessageRequest":{"address":["tel:+221776567822"],"senderAddress":"tel:+221773387902","senderName":"ipps","outboundSMSTextMessage":{"message":"Chers cat\xc3\xa9chistes\\nDimanche 14 nov. 21, nous aurons la messe d\xe2\x80\x99envoi des cat\xc3\xa9chistes \xc3\xa0 11h.\\nC\xe2\x80\x99est la messe d\xe2\x80\x99envoi au cours de laquelle le cur\xc3\xa9 donne pouvoir au cat\xc3\xa9chiste d\xe2\x80\x99enseigner la cat\xc3\xa9ch\xc3\xa8se sur sa paroisse.\\nVu l\xe2\x80\x99importance de cette c\xc3\xa9l\xc3\xa9bration, la pr\xc3\xa9sence de tous est obligatoire.\\n\\nNb: nous prions chacun de nous de se mettre en blanc, signe de la joie dans la mission\\nSoyez b\xc3\xa9nis"},"resourceURL":"https://api.orange.com/smsmessaging/v1/outbound/tel:+221773387902/requests/37e33948-8495-4bf6-8e15-efeadfee95bb"}}'
2021-11-09 11:49:28 | numéro : 776419216 | resultat envoi : b'{"outboundSMSMessageRequest":{"address":["tel:+221776419216"],"senderAddress":"tel:+221773387902","senderName":"ipps","outboundSMSTextMessage":{"message":"Chers cat\xc3\xa9chistes\\nDimanche 14 nov. 21, nous aurons la messe d\xe2\x80\x99envoi des cat\xc3\xa9chistes \xc3\xa0 11h.\\nC\xe2\x80\x99est la messe d\xe2\x80\x99envoi au cours de laquelle le cur\xc3\xa9 donne pouvoir au cat\xc3\xa9chiste d\xe2\x80\x99enseigner la cat\xc3\xa9ch\xc3\xa8se sur sa paroisse.\\nVu l\xe2\x80\x99importance de cette c\xc3\xa9l\xc3\xa9bration, la pr\xc3\xa9sence de tous est obligatoire.\\n\\nNb: nous prions chacun de nous de se mettre en blanc, signe de la joie dans la mission\\nSoyez b\xc3\xa9nis"},"resourceURL":"https://api.orange.com/smsmessaging/v1/outbound/tel:+221773387902/requests/76dadf5c-7ba5-4b61-bb2a-653f69c2e1e2"}}'
2021-11-09 11:49:29 | numéro : 776373107 | resultat envoi : b'{"outboundSMSMessageRequest":{"address":["tel:+221776373107"],"senderAddress":"tel:+221773387902","senderName":"ipps","outboundSMSTextMessage":{"message":"Chers cat\xc3\xa9chistes\\nDimanche 14 nov. 21, nous aurons la messe d\xe2\x80\x99envoi des cat\xc3\xa9chistes \xc3\xa0 11h.\\nC\xe2\x80\x99est la messe d\xe2\x80\x99envoi au cours de laquelle le cur\xc3\xa9 donne pouvoir au cat\xc3\xa9chiste d\xe2\x80\x99enseigner la cat\xc3\xa9ch\xc3\xa8se sur sa paroisse.\\nVu l\xe2\x80\x99importance de cette c\xc3\xa9l\xc3\xa9bration, la pr\xc3\xa9sence de tous est obligatoire.\\n\\nNb: nous prions chacun de nous de se mettre en blanc, signe de la joie dans la mission\\nSoyez b\xc3\xa9nis"},"resourceURL":"https://api.orange.com/smsmessaging/v1/outbound/tel:+221773387902/requests/76712082-9b73-4321-9158-ad6a97e654fc"}}'
2021-11-09 11:49:30 | numéro : 709745723 | resultat envoi : b'{"outboundSMSMessageRequest":{"address":["tel:+221709745723"],"senderAddress":"tel:+221773387902","senderName":"ipps","outboundSMSTextMessage":{"message":"Chers cat\xc3\xa9chistes\\nDimanche 14 nov. 21, nous aurons la messe d\xe2\x80\x99envoi des cat\xc3\xa9chistes \xc3\xa0 11h.\\nC\xe2\x80\x99est la messe d\xe2\x80\x99envoi au cours de laquelle le cur\xc3\xa9 donne pouvoir au cat\xc3\xa9chiste d\xe2\x80\x99enseigner la cat\xc3\xa9ch\xc3\xa8se sur sa paroisse.\\nVu l\xe2\x80\x99importance de cette c\xc3\xa9l\xc3\xa9bration, la pr\xc3\xa9sence de tous est obligatoire.\\n\\nNb: nous prions chacun de nous de se mettre en blanc, signe de la joie dans la mission\\nSoyez b\xc3\xa9nis"},"resourceURL":"https://api.orange.com/smsmessaging/v1/outbound/tel:+221773387902/requests/be493e22-7551-406a-90b2-b82cb99240d0"}}'
2021-11-09 11:49:31 | numéro : 766614352 | resultat envoi : b'{"outboundSMSMessageRequest":{"address":["tel:+221766614352"],"senderAddress":"tel:+221773387902","senderName":"ipps","outboundSMSTextMessage":{"message":"Chers cat\xc3\xa9chistes\\nDimanche 14 nov. 21, nous aurons la messe d\xe2\x80\x99envoi des cat\xc3\xa9chistes \xc3\xa0 11h.\\nC\xe2\x80\x99est la messe d\xe2\x80\x99envoi au cours de laquelle le cur\xc3\xa9 donne pouvoir au cat\xc3\xa9chiste d\xe2\x80\x99enseigner la cat\xc3\xa9ch\xc3\xa8se sur sa paroisse.\\nVu l\xe2\x80\x99importance de cette c\xc3\xa9l\xc3\xa9bration, la pr\xc3\xa9sence de tous est obligatoire.\\n\\nNb: nous prions chacun de nous de se mettre en blanc, signe de la joie dans la mission\\nSoyez b\xc3\xa9nis"},"resourceURL":"https://api.orange.com/smsmessaging/v1/outbound/tel:+221773387902/requests/77451c97-3bf9-41af-89fd-debab526c906"}}'
2021-11-09 11:49:31 | numéro : 776084967 | resultat envoi : b'{"outboundSMSMessageRequest":{"address":["tel:+221776084967"],"senderAddress":"tel:+221773387902","senderName":"ipps","outboundSMSTextMessage":{"message":"Chers cat\xc3\xa9chistes\\nDimanche 14 nov. 21, nous aurons la messe d\xe2\x80\x99envoi des cat\xc3\xa9chistes \xc3\xa0 11h.\\nC\xe2\x80\x99est la messe d\xe2\x80\x99envoi au cours de laquelle le cur\xc3\xa9 donne pouvoir au cat\xc3\xa9chiste d\xe2\x80\x99enseigner la cat\xc3\xa9ch\xc3\xa8se sur sa paroisse.\\nVu l\xe2\x80\x99importance de cette c\xc3\xa9l\xc3\xa9bration, la pr\xc3\xa9sence de tous est obligatoire.\\n\\nNb: nous prions chacun de nous de se mettre en blanc, signe de la joie dans la mission\\nSoyez b\xc3\xa9nis"},"resourceURL":"https://api.orange.com/smsmessaging/v1/outbound/tel:+221773387902/requests/66caeb4d-9b4c-44eb-ac2c-3496ee263739"}}'
2021-11-09 11:49:32 | numéro : 779051492 | resultat envoi : b'{"outboundSMSMessageRequest":{"address":["tel:+221779051492"],"senderAddress":"tel:+221773387902","senderName":"ipps","outboundSMSTextMessage":{"message":"Chers cat\xc3\xa9chistes\\nDimanche 14 nov. 21, nous aurons la messe d\xe2\x80\x99envoi des cat\xc3\xa9chistes \xc3\xa0 11h.\\nC\xe2\x80\x99est la messe d\xe2\x80\x99envoi au cours de laquelle le cur\xc3\xa9 donne pouvoir au cat\xc3\xa9chiste d\xe2\x80\x99enseigner la cat\xc3\xa9ch\xc3\xa8se sur sa paroisse.\\nVu l\xe2\x80\x99importance de cette c\xc3\xa9l\xc3\xa9bration, la pr\xc3\xa9sence de tous est obligatoire.\\n\\nNb: nous prions chacun de nous de se mettre en blanc, signe de la joie dans la mission\\nSoyez b\xc3\xa9nis"},"resourceURL":"https://api.orange.com/smsmessaging/v1/outbound/tel:+221773387902/requests/3e6dd33c-fc6e-4f73-986e-f57c119cc872"}}'
2021-11-09 11:49:32 | numéro : 775090971 | resultat envoi : b'{"outboundSMSMessageRequest":{"address":["tel:+221775090971"],"senderAddress":"tel:+221773387902","senderName":"ipps","outboundSMSTextMessage":{"message":"Chers cat\xc3\xa9chistes\\nDimanche 14 nov. 21, nous aurons la messe d\xe2\x80\x99envoi des cat\xc3\xa9chistes \xc3\xa0 11h.\\nC\xe2\x80\x99est la messe d\xe2\x80\x99envoi au cours de laquelle le cur\xc3\xa9 donne pouvoir au cat\xc3\xa9chiste d\xe2\x80\x99enseigner la cat\xc3\xa9ch\xc3\xa8se sur sa paroisse.\\nVu l\xe2\x80\x99importance de cette c\xc3\xa9l\xc3\xa9bration, la pr\xc3\xa9sence de tous est obligatoire.\\n\\nNb: nous prions chacun de nous de se mettre en blanc, signe de la joie dans la mission\\nSoyez b\xc3\xa9nis"},"resourceURL":"https://api.orange.com/smsmessaging/v1/outbound/tel:+221773387902/requests/9bec05ab-7654-469c-af94-5983fb34bd62"}}'
2021-11-09 11:49:33 | numéro : 778631439 | resultat envoi : b'{"outboundSMSMessageRequest":{"address":["tel:+221778631439"],"senderAddress":"tel:+221773387902","senderName":"ipps","outboundSMSTextMessage":{"message":"Chers cat\xc3\xa9chistes\\nDimanche 14 nov. 21, nous aurons la messe d\xe2\x80\x99envoi des cat\xc3\xa9chistes \xc3\xa0 11h.\\nC\xe2\x80\x99est la messe d\xe2\x80\x99envoi au cours de laquelle le cur\xc3\xa9 donne pouvoir au cat\xc3\xa9chiste d\xe2\x80\x99enseigner la cat\xc3\xa9ch\xc3\xa8se sur sa paroisse.\\nVu l\xe2\x80\x99importance de cette c\xc3\xa9l\xc3\xa9bration, la pr\xc3\xa9sence de tous est obligatoire.\\n\\nNb: nous prions chacun de nous de se mettre en blanc, signe de la joie dans la mission\\nSoyez b\xc3\xa9nis"},"resourceURL":"https://api.orange.com/smsmessaging/v1/outbound/tel:+221773387902/requests/8121eb14-ebfd-43bc-b6b5-2a24ecf71150"}}'
2021-11-09 11:49:33 | numéro : 775090971 | resultat envoi : b'{"outboundSMSMessageRequest":{"address":["tel:+221775090971"],"senderAddress":"tel:+221773387902","senderName":"ipps","outboundSMSTextMessage":{"message":"Chers cat\xc3\xa9chistes\\nDimanche 14 nov. 21, nous aurons la messe d\xe2\x80\x99envoi des cat\xc3\xa9chistes \xc3\xa0 11h.\\nC\xe2\x80\x99est la messe d\xe2\x80\x99envoi au cours de laquelle le cur\xc3\xa9 donne pouvoir au cat\xc3\xa9chiste d\xe2\x80\x99enseigner la cat\xc3\xa9ch\xc3\xa8se sur sa paroisse.\\nVu l\xe2\x80\x99importance de cette c\xc3\xa9l\xc3\xa9bration, la pr\xc3\xa9sence de tous est obligatoire.\\n\\nNb: nous prions chacun de nous de se mettre en blanc, signe de la joie dans la mission\\nSoyez b\xc3\xa9nis"},"resourceURL":"https://api.orange.com/smsmessaging/v1/outbound/tel:+221773387902/requests/f0ec6575-8984-44c6-9927-7f4150a68099"}}'
2021-11-09 11:49:35 | numéro : 778631439 | resultat envoi : b'{"outboundSMSMessageRequest":{"address":["tel:+221778631439"],"senderAddress":"tel:+221773387902","senderName":"ipps","outboundSMSTextMessage":{"message":"Chers cat\xc3\xa9chistes\\nDimanche 14 nov. 21, nous aurons la messe d\xe2\x80\x99envoi des cat\xc3\xa9chistes \xc3\xa0 11h.\\nC\xe2\x80\x99est la messe d\xe2\x80\x99envoi au cours de laquelle le cur\xc3\xa9 donne pouvoir au cat\xc3\xa9chiste d\xe2\x80\x99enseigner la cat\xc3\xa9ch\xc3\xa8se sur sa paroisse.\\nVu l\xe2\x80\x99importance de cette c\xc3\xa9l\xc3\xa9bration, la pr\xc3\xa9sence de tous est obligatoire.\\n\\nNb: nous prions chacun de nous de se mettre en blanc, signe de la joie dans la mission\\nSoyez b\xc3\xa9nis"},"resourceURL":"https://api.orange.com/smsmessaging/v1/outbound/tel:+221773387902/requests/1118cb23-d17f-452e-a07b-8d56e634f4fc"}}'
2021-11-09 11:49:35 | numéro : 775090971 | resultat envoi : b'{"outboundSMSMessageRequest":{"address":["tel:+221775090971"],"senderAddress":"tel:+221773387902","senderName":"ipps","outboundSMSTextMessage":{"message":"Chers cat\xc3\xa9chistes\\nDimanche 14 nov. 21, nous aurons la messe d\xe2\x80\x99envoi des cat\xc3\xa9chistes \xc3\xa0 11h.\\nC\xe2\x80\x99est la messe d\xe2\x80\x99envoi au cours de laquelle le cur\xc3\xa9 donne pouvoir au cat\xc3\xa9chiste d\xe2\x80\x99enseigner la cat\xc3\xa9ch\xc3\xa8se sur sa paroisse.\\nVu l\xe2\x80\x99importance de cette c\xc3\xa9l\xc3\xa9bration, la pr\xc3\xa9sence de tous est obligatoire.\\n\\nNb: nous prions chacun de nous de se mettre en blanc, signe de la joie dans la mission\\nSoyez b\xc3\xa9nis"},"resourceURL":"https://api.orange.com/smsmessaging/v1/outbound/tel:+221773387902/requests/eee94eaa-7732-4a8c-9a39-a1e9655fcb60"}}'
2021-11-09 11:49:35 | numéro : 778631439 | resultat envoi : b'{"outboundSMSMessageRequest":{"address":["tel:+221778631439"],"senderAddress":"tel:+221773387902","senderName":"ipps","outboundSMSTextMessage":{"message":"Chers cat\xc3\xa9chistes\\nDimanche 14 nov. 21, nous aurons la messe d\xe2\x80\x99envoi des cat\xc3\xa9chistes \xc3\xa0 11h.\\nC\xe2\x80\x99est la messe d\xe2\x80\x99envoi au cours de laquelle le cur\xc3\xa9 donne pouvoir au cat\xc3\xa9chiste d\xe2\x80\x99enseigner la cat\xc3\xa9ch\xc3\xa8se sur sa paroisse.\\nVu l\xe2\x80\x99importance de cette c\xc3\xa9l\xc3\xa9bration, la pr\xc3\xa9sence de tous est obligatoire.\\n\\nNb: nous prions chacun de nous de se mettre en blanc, signe de la joie dans la mission\\nSoyez b\xc3\xa9nis"},"resourceURL":"https://api.orange.com/smsmessaging/v1/outbound/tel:+221773387902/requests/1b16453e-f325-4085-b8b2-91540b1b7f13"}}'
2021-11-09 11:49:36 | numéro : 778631439 | resultat envoi : b'{"outboundSMSMessageRequest":{"address":["tel:+221778631439"],"senderAddress":"tel:+221773387902","senderName":"ipps","outboundSMSTextMessage":{"message":"Chers cat\xc3\xa9chistes\\nDimanche 14 nov. 21, nous aurons la messe d\xe2\x80\x99envoi des cat\xc3\xa9chistes \xc3\xa0 11h.\\nC\xe2\x80\x99est la messe d\xe2\x80\x99envoi au cours de laquelle le cur\xc3\xa9 donne pouvoir au cat\xc3\xa9chiste d\xe2\x80\x99enseigner la cat\xc3\xa9ch\xc3\xa8se sur sa paroisse.\\nVu l\xe2\x80\x99importance de cette c\xc3\xa9l\xc3\xa9bration, la pr\xc3\xa9sence de tous est obligatoire.\\n\\nNb: nous prions chacun de nous de se mettre en blanc, signe de la joie dans la mission\\nSoyez b\xc3\xa9nis"},"resourceURL":"https://api.orange.com/smsmessaging/v1/outbound/tel:+221773387902/requests/91011d06-2bd9-41d3-a10b-8644b29bdf08"}}'
2021-11-09 11:49:37 | numéro : 776423893 | resultat envoi : b'{"outboundSMSMessageRequest":{"address":["tel:+221776423893"],"senderAddress":"tel:+221773387902","senderName":"ipps","outboundSMSTextMessage":{"message":"Chers cat\xc3\xa9chistes\\nDimanche 14 nov. 21, nous aurons la messe d\xe2\x80\x99envoi des cat\xc3\xa9chistes \xc3\xa0 11h.\\nC\xe2\x80\x99est la messe d\xe2\x80\x99envoi au cours de laquelle le cur\xc3\xa9 donne pouvoir au cat\xc3\xa9chiste d\xe2\x80\x99enseigner la cat\xc3\xa9ch\xc3\xa8se sur sa paroisse.\\nVu l\xe2\x80\x99importance de cette c\xc3\xa9l\xc3\xa9bration, la pr\xc3\xa9sence de tous est obligatoire.\\n\\nNb: nous prions chacun de nous de se mettre en blanc, signe de la joie dans la mission\\nSoyez b\xc3\xa9nis"},"resourceURL":"https://api.orange.com/smsmessaging/v1/outbound/tel:+221773387902/requests/715eed6b-d3ba-4867-93ee-6fe95c423702"}}'
2021-11-09 11:49:37 | numéro : 778186880 | resultat envoi : b'{"outboundSMSMessageRequest":{"address":["tel:+221778186880"],"senderAddress":"tel:+221773387902","senderName":"ipps","outboundSMSTextMessage":{"message":"Chers cat\xc3\xa9chistes\\nDimanche 14 nov. 21, nous aurons la messe d\xe2\x80\x99envoi des cat\xc3\xa9chistes \xc3\xa0 11h.\\nC\xe2\x80\x99est la messe d\xe2\x80\x99envoi au cours de laquelle le cur\xc3\xa9 donne pouvoir au cat\xc3\xa9chiste d\xe2\x80\x99enseigner la cat\xc3\xa9ch\xc3\xa8se sur sa paroisse.\\nVu l\xe2\x80\x99importance de cette c\xc3\xa9l\xc3\xa9bration, la pr\xc3\xa9sence de tous est obligatoire.\\n\\nNb: nous prions chacun de nous de se mettre en blanc, signe de la joie dans la mission\\nSoyez b\xc3\xa9nis"},"resourceURL":"https://api.orange.com/smsmessaging/v1/outbound/tel:+221773387902/requests/f632f9b3-75ba-4127-84b8-d9152f17d21b"}}'
2021-11-09 11:49:38 | numéro : 774278168 | resultat envoi : b'{"outboundSMSMessageRequest":{"address":["tel:+221774278168"],"senderAddress":"tel:+221773387902","senderName":"ipps","outboundSMSTextMessage":{"message":"Chers cat\xc3\xa9chistes\\nDimanche 14 nov. 21, nous aurons la messe d\xe2\x80\x99envoi des cat\xc3\xa9chistes \xc3\xa0 11h.\\nC\xe2\x80\x99est la messe d\xe2\x80\x99envoi au cours de laquelle le cur\xc3\xa9 donne pouvoir au cat\xc3\xa9chiste d\xe2\x80\x99enseigner la cat\xc3\xa9ch\xc3\xa8se sur sa paroisse.\\nVu l\xe2\x80\x99importance de cette c\xc3\xa9l\xc3\xa9bration, la pr\xc3\xa9sence de tous est obligatoire.\\n\\nNb: nous prions chacun de nous de se mettre en blanc, signe de la joie dans la mission\\nSoyez b\xc3\xa9nis"},"resourceURL":"https://api.orange.com/smsmessaging/v1/outbound/tel:+221773387902/requests/a9c4cfc1-b14c-4c5b-98cd-143f887e0834"}}'
2021-11-09 11:49:40 | numéro : 775272339 | resultat envoi : b'{"outboundSMSMessageRequest":{"address":["tel:+221775272339"],"senderAddress":"tel:+221773387902","senderName":"ipps","outboundSMSTextMessage":{"message":"Chers cat\xc3\xa9chistes\\nDimanche 14 nov. 21, nous aurons la messe d\xe2\x80\x99envoi des cat\xc3\xa9chistes \xc3\xa0 11h.\\nC\xe2\x80\x99est la messe d\xe2\x80\x99envoi au cours de laquelle le cur\xc3\xa9 donne pouvoir au cat\xc3\xa9chiste d\xe2\x80\x99enseigner la cat\xc3\xa9ch\xc3\xa8se sur sa paroisse.\\nVu l\xe2\x80\x99importance de cette c\xc3\xa9l\xc3\xa9bration, la pr\xc3\xa9sence de tous est obligatoire.\\n\\nNb: nous prions chacun de nous de se mettre en blanc, signe de la joie dans la mission\\nSoyez b\xc3\xa9nis"},"resourceURL":"https://api.orange.com/smsmessaging/v1/outbound/tel:+221773387902/requests/78ae3444-1317-4f8a-b86a-e6586953e53d"}}'
2021-11-09 11:49:41 | numéro : 775949406 | resultat envoi : b'{"outboundSMSMessageRequest":{"address":["tel:+221775949406"],"senderAddress":"tel:+221773387902","senderName":"ipps","outboundSMSTextMessage":{"message":"Chers cat\xc3\xa9chistes\\nDimanche 14 nov. 21, nous aurons la messe d\xe2\x80\x99envoi des cat\xc3\xa9chistes \xc3\xa0 11h.\\nC\xe2\x80\x99est la messe d\xe2\x80\x99envoi au cours de laquelle le cur\xc3\xa9 donne pouvoir au cat\xc3\xa9chiste d\xe2\x80\x99enseigner la cat\xc3\xa9ch\xc3\xa8se sur sa paroisse.\\nVu l\xe2\x80\x99importance de cette c\xc3\xa9l\xc3\xa9bration, la pr\xc3\xa9sence de tous est obligatoire.\\n\\nNb: nous prions chacun de nous de se mettre en blanc, signe de la joie dans la mission\\nSoyez b\xc3\xa9nis"},"resourceURL":"https://api.orange.com/smsmessaging/v1/outbound/tel:+221773387902/requests/674f47ae-c793-48d3-98c9-0b3d21df84ea"}}'
2021-11-09 11:49:42 | numéro : 776533581 | resultat envoi : b'{"outboundSMSMessageRequest":{"address":["tel:+221776533581"],"senderAddress":"tel:+221773387902","senderName":"ipps","outboundSMSTextMessage":{"message":"Chers cat\xc3\xa9chistes\\nDimanche 14 nov. 21, nous aurons la messe d\xe2\x80\x99envoi des cat\xc3\xa9chistes \xc3\xa0 11h.\\nC\xe2\x80\x99est la messe d\xe2\x80\x99envoi au cours de laquelle le cur\xc3\xa9 donne pouvoir au cat\xc3\xa9chiste d\xe2\x80\x99enseigner la cat\xc3\xa9ch\xc3\xa8se sur sa paroisse.\\nVu l\xe2\x80\x99importance de cette c\xc3\xa9l\xc3\xa9bration, la pr\xc3\xa9sence de tous est obligatoire.\\n\\nNb: nous prions chacun de nous de se mettre en blanc, signe de la joie dans la mission\\nSoyez b\xc3\xa9nis"},"resourceURL":"https://api.orange.com/smsmessaging/v1/outbound/tel:+221773387902/requests/b55aa53b-1fb8-4dd4-90a8-ac775c7571e6"}}'
2021-11-09 11:49:42 | numéro : 784237451 | resultat envoi : b'{"outboundSMSMessageRequest":{"address":["tel:+221784237451"],"senderAddress":"tel:+221773387902","senderName":"ipps","outboundSMSTextMessage":{"message":"Chers cat\xc3\xa9chistes\\nDimanche 14 nov. 21, nous aurons la messe d\xe2\x80\x99envoi des cat\xc3\xa9chistes \xc3\xa0 11h.\\nC\xe2\x80\x99est la messe d\xe2\x80\x99envoi au cours de laquelle le cur\xc3\xa9 donne pouvoir au cat\xc3\xa9chiste d\xe2\x80\x99enseigner la cat\xc3\xa9ch\xc3\xa8se sur sa paroisse.\\nVu l\xe2\x80\x99importance de cette c\xc3\xa9l\xc3\xa9bration, la pr\xc3\xa9sence de tous est obligatoire.\\n\\nNb: nous prions chacun de nous de se mettre en blanc, signe de la joie dans la mission\\nSoyez b\xc3\xa9nis"},"resourceURL":"https://api.orange.com/smsmessaging/v1/outbound/tel:+221773387902/requests/e8d12ee5-c4a1-4c13-a9a4-72e0803e1235"}}'
2021-11-09 11:49:43 | numéro : 774561255 | resultat envoi : b'{"outboundSMSMessageRequest":{"address":["tel:+221774561255"],"senderAddress":"tel:+221773387902","senderName":"ipps","outboundSMSTextMessage":{"message":"Chers cat\xc3\xa9chistes\\nDimanche 14 nov. 21, nous aurons la messe d\xe2\x80\x99envoi des cat\xc3\xa9chistes \xc3\xa0 11h.\\nC\xe2\x80\x99est la messe d\xe2\x80\x99envoi au cours de laquelle le cur\xc3\xa9 donne pouvoir au cat\xc3\xa9chiste d\xe2\x80\x99enseigner la cat\xc3\xa9ch\xc3\xa8se sur sa paroisse.\\nVu l\xe2\x80\x99importance de cette c\xc3\xa9l\xc3\xa9bration, la pr\xc3\xa9sence de tous est obligatoire.\\n\\nNb: nous prions chacun de nous de se mettre en blanc, signe de la joie dans la mission\\nSoyez b\xc3\xa9nis"},"resourceURL":"https://api.orange.com/smsmessaging/v1/outbound/tel:+221773387902/requests/62f96182-4ca6-43df-b566-d6b44a012ca1"}}'
2021-11-09 11:49:43 | numéro : 776593275 | resultat envoi : b'{"outboundSMSMessageRequest":{"address":["tel:+221776593275"],"senderAddress":"tel:+221773387902","senderName":"ipps","outboundSMSTextMessage":{"message":"Chers cat\xc3\xa9chistes\\nDimanche 14 nov. 21, nous aurons la messe d\xe2\x80\x99envoi des cat\xc3\xa9chistes \xc3\xa0 11h.\\nC\xe2\x80\x99est la messe d\xe2\x80\x99envoi au cours de laquelle le cur\xc3\xa9 donne pouvoir au cat\xc3\xa9chiste d\xe2\x80\x99enseigner la cat\xc3\xa9ch\xc3\xa8se sur sa paroisse.\\nVu l\xe2\x80\x99importance de cette c\xc3\xa9l\xc3\xa9bration, la pr\xc3\xa9sence de tous est obligatoire.\\n\\nNb: nous prions chacun de nous de se mettre en blanc, signe de la joie dans la mission\\nSoyez b\xc3\xa9nis"},"resourceURL":"https://api.orange.com/smsmessaging/v1/outbound/tel:+221773387902/requests/562c0b30-ffc4-42d5-b7a8-87297a14bad1"}}'
2021-11-09 11:49:44 | numéro : 776368484 | resultat envoi : b'{"outboundSMSMessageRequest":{"address":["tel:+221776368484"],"senderAddress":"tel:+221773387902","senderName":"ipps","outboundSMSTextMessage":{"message":"Chers cat\xc3\xa9chistes\\nDimanche 14 nov. 21, nous aurons la messe d\xe2\x80\x99envoi des cat\xc3\xa9chistes \xc3\xa0 11h.\\nC\xe2\x80\x99est la messe d\xe2\x80\x99envoi au cours de laquelle le cur\xc3\xa9 donne pouvoir au cat\xc3\xa9chiste d\xe2\x80\x99enseigner la cat\xc3\xa9ch\xc3\xa8se sur sa paroisse.\\nVu l\xe2\x80\x99importance de cette c\xc3\xa9l\xc3\xa9bration, la pr\xc3\xa9sence de tous est obligatoire.\\n\\nNb: nous prions chacun de nous de se mettre en blanc, signe de la joie dans la mission\\nSoyez b\xc3\xa9nis"},"resourceURL":"https://api.orange.com/smsmessaging/v1/outbound/tel:+221773387902/requests/893b0953-5687-4f72-8967-e31d98c6f4e8"}}'
2021-11-09 11:49:44 | numéro : 778185656 | resultat envoi : b'{"outboundSMSMessageRequest":{"address":["tel:+221778185656"],"senderAddress":"tel:+221773387902","senderName":"ipps","outboundSMSTextMessage":{"message":"Chers cat\xc3\xa9chistes\\nDimanche 14 nov. 21, nous aurons la messe d\xe2\x80\x99envoi des cat\xc3\xa9chistes \xc3\xa0 11h.\\nC\xe2\x80\x99est la messe d\xe2\x80\x99envoi au cours de laquelle le cur\xc3\xa9 donne pouvoir au cat\xc3\xa9chiste d\xe2\x80\x99enseigner la cat\xc3\xa9ch\xc3\xa8se sur sa paroisse.\\nVu l\xe2\x80\x99importance de cette c\xc3\xa9l\xc3\xa9bration, la pr\xc3\xa9sence de tous est obligatoire.\\n\\nNb: nous prions chacun de nous de se mettre en blanc, signe de la joie dans la mission\\nSoyez b\xc3\xa9nis"},"resourceURL":"https://api.orange.com/smsmessaging/v1/outbound/tel:+221773387902/requests/c88d9f2d-ca66-4418-9a49-54ba7fefa38b"}}'
2021-11-09 11:49:44 | numéro : 764380570 | resultat envoi : b'{"outboundSMSMessageRequest":{"address":["tel:+221764380570"],"senderAddress":"tel:+221773387902","senderName":"ipps","outboundSMSTextMessage":{"message":"Chers cat\xc3\xa9chistes\\nDimanche 14 nov. 21, nous aurons la messe d\xe2\x80\x99envoi des cat\xc3\xa9chistes \xc3\xa0 11h.\\nC\xe2\x80\x99est la messe d\xe2\x80\x99envoi au cours de laquelle le cur\xc3\xa9 donne pouvoir au cat\xc3\xa9chiste d\xe2\x80\x99enseigner la cat\xc3\xa9ch\xc3\xa8se sur sa paroisse.\\nVu l\xe2\x80\x99importance de cette c\xc3\xa9l\xc3\xa9bration, la pr\xc3\xa9sence de tous est obligatoire.\\n\\nNb: nous prions chacun de nous de se mettre en blanc, signe de la joie dans la mission\\nSoyez b\xc3\xa9nis"},"resourceURL":"https://api.orange.com/smsmessaging/v1/outbound/tel:+221773387902/requests/3b4571b0-30a4-4c96-9bff-3a7f8314e8a3"}}'
2021-11-09 11:49:45 | numéro : 775325170 | resultat envoi : b'{"outboundSMSMessageRequest":{"address":["tel:+221775325170"],"senderAddress":"tel:+221773387902","senderName":"ipps","outboundSMSTextMessage":{"message":"Chers cat\xc3\xa9chistes\\nDimanche 14 nov. 21, nous aurons la messe d\xe2\x80\x99envoi des cat\xc3\xa9chistes \xc3\xa0 11h.\\nC\xe2\x80\x99est la messe d\xe2\x80\x99envoi au cours de laquelle le cur\xc3\xa9 donne pouvoir au cat\xc3\xa9chiste d\xe2\x80\x99enseigner la cat\xc3\xa9ch\xc3\xa8se sur sa paroisse.\\nVu l\xe2\x80\x99importance de cette c\xc3\xa9l\xc3\xa9bration, la pr\xc3\xa9sence de tous est obligatoire.\\n\\nNb: nous prions chacun de nous de se mettre en blanc, signe de la joie dans la mission\\nSoyez b\xc3\xa9nis"},"resourceURL":"https://api.orange.com/smsmessaging/v1/outbound/tel:+221773387902/requests/9f363dcb-213f-4cd0-a046-1bdbd4088257"}}'
2021-11-09 11:49:46 | numéro : 765005555 | resultat envoi : b'{"outboundSMSMessageRequest":{"address":["tel:+221765005555"],"senderAddress":"tel:+221773387902","senderName":"ipps","outboundSMSTextMessage":{"message":"Chers cat\xc3\xa9chistes\\nDimanche 14 nov. 21, nous aurons la messe d\xe2\x80\x99envoi des cat\xc3\xa9chistes \xc3\xa0 11h.\\nC\xe2\x80\x99est la messe d\xe2\x80\x99envoi au cours de laquelle le cur\xc3\xa9 donne pouvoir au cat\xc3\xa9chiste d\xe2\x80\x99enseigner la cat\xc3\xa9ch\xc3\xa8se sur sa paroisse.\\nVu l\xe2\x80\x99importance de cette c\xc3\xa9l\xc3\xa9bration, la pr\xc3\xa9sence de tous est obligatoire.\\n\\nNb: nous prions chacun de nous de se mettre en blanc, signe de la joie dans la mission\\nSoyez b\xc3\xa9nis"},"resourceURL":"https://api.orange.com/smsmessaging/v1/outbound/tel:+221773387902/requests/be7193a0-2c6c-4951-a96f-976a030e6743"}}'
2021-11-09 11:49:46 | balance 558 | fin envoi
