2022-05-20 03:09:31 | balance 1058 | debut envoi
2022-05-20 03:09:31 | numéro : 773387902 | resultat envoi : b'{"outboundSMSMessageRequest":{"address":["tel:+221773387902"],"senderAddress":"tel:+221773387902","senderName":"ipps","outboundSMSTextMessage":{"message":"un enfant qui ne respectera pas  les consignes ci dessus, se fera retirer du groupe.\\n*Prioriser le c\xc3\xb4t\xc3\xa9 simple afin d\xe2\x80\x99impr\xc3\xa9gner l\xe2\x80\x99enfant dans la gr\xc3\xa2ce de ce grand Sacrement*.\\n\\nLocation Aubes:\\n- 775138587 Mme Ndiaye\\n- 77 133 77 00/77 638 66 44 Mme Kantoussang\\n(Les contacter vite afin de faire les essayages \xc3\xa0 temps)\\n Pour les photos s\'inscrire en suivant ce lien : https://bit.ly/3G2U42U"},"resourceURL":"https://api.orange.com/smsmessaging/v1/outbound/tel:+221773387902/requests/007e1901-4193-458a-aa88-3425b8649842"}}'
2022-05-20 03:09:32 | numéro : 774507437 | resultat envoi : b'{"outboundSMSMessageRequest":{"address":["tel:+221774507437"],"senderAddress":"tel:+221773387902","senderName":"ipps","outboundSMSTextMessage":{"message":"un enfant qui ne respectera pas  les consignes ci dessus, se fera retirer du groupe.\\n*Prioriser le c\xc3\xb4t\xc3\xa9 simple afin d\xe2\x80\x99impr\xc3\xa9gner l\xe2\x80\x99enfant dans la gr\xc3\xa2ce de ce grand Sacrement*.\\n\\nLocation Aubes:\\n- 775138587 Mme Ndiaye\\n- 77 133 77 00/77 638 66 44 Mme Kantoussang\\n(Les contacter vite afin de faire les essayages \xc3\xa0 temps)\\n Pour les photos s\'inscrire en suivant ce lien : https://bit.ly/3G2U42U"},"resourceURL":"https://api.orange.com/smsmessaging/v1/outbound/tel:+221773387902/requests/d7946a99-00d3-41a6-9a0d-0a2214d203dc"}}'
2022-05-20 03:09:32 | numéro : 775089662 | resultat envoi : b'{"outboundSMSMessageRequest":{"address":["tel:+221775089662"],"senderAddress":"tel:+221773387902","senderName":"ipps","outboundSMSTextMessage":{"message":"un enfant qui ne respectera pas  les consignes ci dessus, se fera retirer du groupe.\\n*Prioriser le c\xc3\xb4t\xc3\xa9 simple afin d\xe2\x80\x99impr\xc3\xa9gner l\xe2\x80\x99enfant dans la gr\xc3\xa2ce de ce grand Sacrement*.\\n\\nLocation Aubes:\\n- 775138587 Mme Ndiaye\\n- 77 133 77 00/77 638 66 44 Mme Kantoussang\\n(Les contacter vite afin de faire les essayages \xc3\xa0 temps)\\n Pour les photos s\'inscrire en suivant ce lien : https://bit.ly/3G2U42U"},"resourceURL":"https://api.orange.com/smsmessaging/v1/outbound/tel:+221773387902/requests/a8693b7f-4cae-420a-9c54-0bfd269378c7"}}'
2022-05-20 03:09:32 | numéro : 775359092 | resultat envoi : b'{"outboundSMSMessageRequest":{"address":["tel:+221775359092"],"senderAddress":"tel:+221773387902","senderName":"ipps","outboundSMSTextMessage":{"message":"un enfant qui ne respectera pas  les consignes ci dessus, se fera retirer du groupe.\\n*Prioriser le c\xc3\xb4t\xc3\xa9 simple afin d\xe2\x80\x99impr\xc3\xa9gner l\xe2\x80\x99enfant dans la gr\xc3\xa2ce de ce grand Sacrement*.\\n\\nLocation Aubes:\\n- 775138587 Mme Ndiaye\\n- 77 133 77 00/77 638 66 44 Mme Kantoussang\\n(Les contacter vite afin de faire les essayages \xc3\xa0 temps)\\n Pour les photos s\'inscrire en suivant ce lien : https://bit.ly/3G2U42U"},"resourceURL":"https://api.orange.com/smsmessaging/v1/outbound/tel:+221773387902/requests/d0143e63-b470-481e-adcb-cfaa272a288f"}}'
2022-05-20 03:09:33 | numéro : 775672727 | resultat envoi : b'{"outboundSMSMessageRequest":{"address":["tel:+221775672727"],"senderAddress":"tel:+221773387902","senderName":"ipps","outboundSMSTextMessage":{"message":"un enfant qui ne respectera pas  les consignes ci dessus, se fera retirer du groupe.\\n*Prioriser le c\xc3\xb4t\xc3\xa9 simple afin d\xe2\x80\x99impr\xc3\xa9gner l\xe2\x80\x99enfant dans la gr\xc3\xa2ce de ce grand Sacrement*.\\n\\nLocation Aubes:\\n- 775138587 Mme Ndiaye\\n- 77 133 77 00/77 638 66 44 Mme Kantoussang\\n(Les contacter vite afin de faire les essayages \xc3\xa0 temps)\\n Pour les photos s\'inscrire en suivant ce lien : https://bit.ly/3G2U42U"},"resourceURL":"https://api.orange.com/smsmessaging/v1/outbound/tel:+221773387902/requests/63621d2d-cf1b-490c-9465-93170cc42e16"}}'
2022-05-20 03:09:33 | numéro : 775748741 | resultat envoi : b'{"outboundSMSMessageRequest":{"address":["tel:+221775748741"],"senderAddress":"tel:+221773387902","senderName":"ipps","outboundSMSTextMessage":{"message":"un enfant qui ne respectera pas  les consignes ci dessus, se fera retirer du groupe.\\n*Prioriser le c\xc3\xb4t\xc3\xa9 simple afin d\xe2\x80\x99impr\xc3\xa9gner l\xe2\x80\x99enfant dans la gr\xc3\xa2ce de ce grand Sacrement*.\\n\\nLocation Aubes:\\n- 775138587 Mme Ndiaye\\n- 77 133 77 00/77 638 66 44 Mme Kantoussang\\n(Les contacter vite afin de faire les essayages \xc3\xa0 temps)\\n Pour les photos s\'inscrire en suivant ce lien : https://bit.ly/3G2U42U"},"resourceURL":"https://api.orange.com/smsmessaging/v1/outbound/tel:+221773387902/requests/e606de65-e539-4398-b0ec-27ea16d1ca1d"}}'
2022-05-20 03:09:33 | numéro : 776509246 | resultat envoi : b'{"outboundSMSMessageRequest":{"address":["tel:+221776509246"],"senderAddress":"tel:+221773387902","senderName":"ipps","outboundSMSTextMessage":{"message":"un enfant qui ne respectera pas  les consignes ci dessus, se fera retirer du groupe.\\n*Prioriser le c\xc3\xb4t\xc3\xa9 simple afin d\xe2\x80\x99impr\xc3\xa9gner l\xe2\x80\x99enfant dans la gr\xc3\xa2ce de ce grand Sacrement*.\\n\\nLocation Aubes:\\n- 775138587 Mme Ndiaye\\n- 77 133 77 00/77 638 66 44 Mme Kantoussang\\n(Les contacter vite afin de faire les essayages \xc3\xa0 temps)\\n Pour les photos s\'inscrire en suivant ce lien : https://bit.ly/3G2U42U"},"resourceURL":"https://api.orange.com/smsmessaging/v1/outbound/tel:+221773387902/requests/14dca823-3b63-48f5-9141-61a568a90c78"}}'
2022-05-20 03:09:34 | numéro : 775398628 | resultat envoi : b'{"outboundSMSMessageRequest":{"address":["tel:+221775398628"],"senderAddress":"tel:+221773387902","senderName":"ipps","outboundSMSTextMessage":{"message":"un enfant qui ne respectera pas  les consignes ci dessus, se fera retirer du groupe.\\n*Prioriser le c\xc3\xb4t\xc3\xa9 simple afin d\xe2\x80\x99impr\xc3\xa9gner l\xe2\x80\x99enfant dans la gr\xc3\xa2ce de ce grand Sacrement*.\\n\\nLocation Aubes:\\n- 775138587 Mme Ndiaye\\n- 77 133 77 00/77 638 66 44 Mme Kantoussang\\n(Les contacter vite afin de faire les essayages \xc3\xa0 temps)\\n Pour les photos s\'inscrire en suivant ce lien : https://bit.ly/3G2U42U"},"resourceURL":"https://api.orange.com/smsmessaging/v1/outbound/tel:+221773387902/requests/36a51b6b-83c1-40bb-9f71-27bede8cdd90"}}'
2022-05-20 03:09:34 | numéro : 783069999 | resultat envoi : b'{"outboundSMSMessageRequest":{"address":["tel:+221783069999"],"senderAddress":"tel:+221773387902","senderName":"ipps","outboundSMSTextMessage":{"message":"un enfant qui ne respectera pas  les consignes ci dessus, se fera retirer du groupe.\\n*Prioriser le c\xc3\xb4t\xc3\xa9 simple afin d\xe2\x80\x99impr\xc3\xa9gner l\xe2\x80\x99enfant dans la gr\xc3\xa2ce de ce grand Sacrement*.\\n\\nLocation Aubes:\\n- 775138587 Mme Ndiaye\\n- 77 133 77 00/77 638 66 44 Mme Kantoussang\\n(Les contacter vite afin de faire les essayages \xc3\xa0 temps)\\n Pour les photos s\'inscrire en suivant ce lien : https://bit.ly/3G2U42U"},"resourceURL":"https://api.orange.com/smsmessaging/v1/outbound/tel:+221773387902/requests/4fa78d7a-ffa5-4a93-a9cc-76b4e38c1827"}}'
2022-05-20 03:09:34 | numéro : 774238040 | resultat envoi : b'{"outboundSMSMessageRequest":{"address":["tel:+221774238040"],"senderAddress":"tel:+221773387902","senderName":"ipps","outboundSMSTextMessage":{"message":"un enfant qui ne respectera pas  les consignes ci dessus, se fera retirer du groupe.\\n*Prioriser le c\xc3\xb4t\xc3\xa9 simple afin d\xe2\x80\x99impr\xc3\xa9gner l\xe2\x80\x99enfant dans la gr\xc3\xa2ce de ce grand Sacrement*.\\n\\nLocation Aubes:\\n- 775138587 Mme Ndiaye\\n- 77 133 77 00/77 638 66 44 Mme Kantoussang\\n(Les contacter vite afin de faire les essayages \xc3\xa0 temps)\\n Pour les photos s\'inscrire en suivant ce lien : https://bit.ly/3G2U42U"},"resourceURL":"https://api.orange.com/smsmessaging/v1/outbound/tel:+221773387902/requests/093e5341-c114-4578-9168-96b11b77b36e"}}'
2022-05-20 03:09:35 | numéro : 773591482 | resultat envoi : b'{"outboundSMSMessageRequest":{"address":["tel:+221773591482"],"senderAddress":"tel:+221773387902","senderName":"ipps","outboundSMSTextMessage":{"message":"un enfant qui ne respectera pas  les consignes ci dessus, se fera retirer du groupe.\\n*Prioriser le c\xc3\xb4t\xc3\xa9 simple afin d\xe2\x80\x99impr\xc3\xa9gner l\xe2\x80\x99enfant dans la gr\xc3\xa2ce de ce grand Sacrement*.\\n\\nLocation Aubes:\\n- 775138587 Mme Ndiaye\\n- 77 133 77 00/77 638 66 44 Mme Kantoussang\\n(Les contacter vite afin de faire les essayages \xc3\xa0 temps)\\n Pour les photos s\'inscrire en suivant ce lien : https://bit.ly/3G2U42U"},"resourceURL":"https://api.orange.com/smsmessaging/v1/outbound/tel:+221773387902/requests/4d546bcd-a3e2-4b41-a8d1-980014a6adde"}}'
2022-05-20 03:09:35 | numéro : 776507635 | resultat envoi : b'{"outboundSMSMessageRequest":{"address":["tel:+221776507635"],"senderAddress":"tel:+221773387902","senderName":"ipps","outboundSMSTextMessage":{"message":"un enfant qui ne respectera pas  les consignes ci dessus, se fera retirer du groupe.\\n*Prioriser le c\xc3\xb4t\xc3\xa9 simple afin d\xe2\x80\x99impr\xc3\xa9gner l\xe2\x80\x99enfant dans la gr\xc3\xa2ce de ce grand Sacrement*.\\n\\nLocation Aubes:\\n- 775138587 Mme Ndiaye\\n- 77 133 77 00/77 638 66 44 Mme Kantoussang\\n(Les contacter vite afin de faire les essayages \xc3\xa0 temps)\\n Pour les photos s\'inscrire en suivant ce lien : https://bit.ly/3G2U42U"},"resourceURL":"https://api.orange.com/smsmessaging/v1/outbound/tel:+221773387902/requests/4e9e1ed1-04d2-49f6-b280-20befacb1d66"}}'
2022-05-20 03:09:35 | numéro : 775605414 | resultat envoi : b'{"outboundSMSMessageRequest":{"address":["tel:+221775605414"],"senderAddress":"tel:+221773387902","senderName":"ipps","outboundSMSTextMessage":{"message":"un enfant qui ne respectera pas  les consignes ci dessus, se fera retirer du groupe.\\n*Prioriser le c\xc3\xb4t\xc3\xa9 simple afin d\xe2\x80\x99impr\xc3\xa9gner l\xe2\x80\x99enfant dans la gr\xc3\xa2ce de ce grand Sacrement*.\\n\\nLocation Aubes:\\n- 775138587 Mme Ndiaye\\n- 77 133 77 00/77 638 66 44 Mme Kantoussang\\n(Les contacter vite afin de faire les essayages \xc3\xa0 temps)\\n Pour les photos s\'inscrire en suivant ce lien : https://bit.ly/3G2U42U"},"resourceURL":"https://api.orange.com/smsmessaging/v1/outbound/tel:+221773387902/requests/c9612e48-8e67-4eb9-baf4-25b42cc052ca"}}'
2022-05-20 03:09:35 | numéro : 774408604 | resultat envoi : b'{"outboundSMSMessageRequest":{"address":["tel:+221774408604"],"senderAddress":"tel:+221773387902","senderName":"ipps","outboundSMSTextMessage":{"message":"un enfant qui ne respectera pas  les consignes ci dessus, se fera retirer du groupe.\\n*Prioriser le c\xc3\xb4t\xc3\xa9 simple afin d\xe2\x80\x99impr\xc3\xa9gner l\xe2\x80\x99enfant dans la gr\xc3\xa2ce de ce grand Sacrement*.\\n\\nLocation Aubes:\\n- 775138587 Mme Ndiaye\\n- 77 133 77 00/77 638 66 44 Mme Kantoussang\\n(Les contacter vite afin de faire les essayages \xc3\xa0 temps)\\n Pour les photos s\'inscrire en suivant ce lien : https://bit.ly/3G2U42U"},"resourceURL":"https://api.orange.com/smsmessaging/v1/outbound/tel:+221773387902/requests/62275522-57f6-4aba-9cce-f0093dcac9dc"}}'
2022-05-20 03:09:36 | numéro : 775325170 | resultat envoi : b'{"outboundSMSMessageRequest":{"address":["tel:+221775325170"],"senderAddress":"tel:+221773387902","senderName":"ipps","outboundSMSTextMessage":{"message":"un enfant qui ne respectera pas  les consignes ci dessus, se fera retirer du groupe.\\n*Prioriser le c\xc3\xb4t\xc3\xa9 simple afin d\xe2\x80\x99impr\xc3\xa9gner l\xe2\x80\x99enfant dans la gr\xc3\xa2ce de ce grand Sacrement*.\\n\\nLocation Aubes:\\n- 775138587 Mme Ndiaye\\n- 77 133 77 00/77 638 66 44 Mme Kantoussang\\n(Les contacter vite afin de faire les essayages \xc3\xa0 temps)\\n Pour les photos s\'inscrire en suivant ce lien : https://bit.ly/3G2U42U"},"resourceURL":"https://api.orange.com/smsmessaging/v1/outbound/tel:+221773387902/requests/211ae7e7-9133-478d-8354-2ecd9915ba91"}}'
2022-05-20 03:09:36 | numéro : 775240726 | resultat envoi : b'{"outboundSMSMessageRequest":{"address":["tel:+221775240726"],"senderAddress":"tel:+221773387902","senderName":"ipps","outboundSMSTextMessage":{"message":"un enfant qui ne respectera pas  les consignes ci dessus, se fera retirer du groupe.\\n*Prioriser le c\xc3\xb4t\xc3\xa9 simple afin d\xe2\x80\x99impr\xc3\xa9gner l\xe2\x80\x99enfant dans la gr\xc3\xa2ce de ce grand Sacrement*.\\n\\nLocation Aubes:\\n- 775138587 Mme Ndiaye\\n- 77 133 77 00/77 638 66 44 Mme Kantoussang\\n(Les contacter vite afin de faire les essayages \xc3\xa0 temps)\\n Pour les photos s\'inscrire en suivant ce lien : https://bit.ly/3G2U42U"},"resourceURL":"https://api.orange.com/smsmessaging/v1/outbound/tel:+221773387902/requests/fb35c4f7-971f-48be-9606-96134ae4f42f"}}'
2022-05-20 03:09:36 | numéro : 772505078 | resultat envoi : b'{"outboundSMSMessageRequest":{"address":["tel:+221772505078"],"senderAddress":"tel:+221773387902","senderName":"ipps","outboundSMSTextMessage":{"message":"un enfant qui ne respectera pas  les consignes ci dessus, se fera retirer du groupe.\\n*Prioriser le c\xc3\xb4t\xc3\xa9 simple afin d\xe2\x80\x99impr\xc3\xa9gner l\xe2\x80\x99enfant dans la gr\xc3\xa2ce de ce grand Sacrement*.\\n\\nLocation Aubes:\\n- 775138587 Mme Ndiaye\\n- 77 133 77 00/77 638 66 44 Mme Kantoussang\\n(Les contacter vite afin de faire les essayages \xc3\xa0 temps)\\n Pour les photos s\'inscrire en suivant ce lien : https://bit.ly/3G2U42U"},"resourceURL":"https://api.orange.com/smsmessaging/v1/outbound/tel:+221773387902/requests/416bae93-53c5-4d6e-a953-956cd6d92119"}}'
2022-05-20 03:09:36 | numéro : 775717070 | resultat envoi : b'{"outboundSMSMessageRequest":{"address":["tel:+221775717070"],"senderAddress":"tel:+221773387902","senderName":"ipps","outboundSMSTextMessage":{"message":"un enfant qui ne respectera pas  les consignes ci dessus, se fera retirer du groupe.\\n*Prioriser le c\xc3\xb4t\xc3\xa9 simple afin d\xe2\x80\x99impr\xc3\xa9gner l\xe2\x80\x99enfant dans la gr\xc3\xa2ce de ce grand Sacrement*.\\n\\nLocation Aubes:\\n- 775138587 Mme Ndiaye\\n- 77 133 77 00/77 638 66 44 Mme Kantoussang\\n(Les contacter vite afin de faire les essayages \xc3\xa0 temps)\\n Pour les photos s\'inscrire en suivant ce lien : https://bit.ly/3G2U42U"},"resourceURL":"https://api.orange.com/smsmessaging/v1/outbound/tel:+221773387902/requests/874c0dcb-ed46-47a6-bdaa-64ab43a164dd"}}'
2022-05-20 03:09:37 | numéro : 778275151 | resultat envoi : b'{"outboundSMSMessageRequest":{"address":["tel:+221778275151"],"senderAddress":"tel:+221773387902","senderName":"ipps","outboundSMSTextMessage":{"message":"un enfant qui ne respectera pas  les consignes ci dessus, se fera retirer du groupe.\\n*Prioriser le c\xc3\xb4t\xc3\xa9 simple afin d\xe2\x80\x99impr\xc3\xa9gner l\xe2\x80\x99enfant dans la gr\xc3\xa2ce de ce grand Sacrement*.\\n\\nLocation Aubes:\\n- 775138587 Mme Ndiaye\\n- 77 133 77 00/77 638 66 44 Mme Kantoussang\\n(Les contacter vite afin de faire les essayages \xc3\xa0 temps)\\n Pour les photos s\'inscrire en suivant ce lien : https://bit.ly/3G2U42U"},"resourceURL":"https://api.orange.com/smsmessaging/v1/outbound/tel:+221773387902/requests/c9579c47-baf1-4136-a501-ab3b92414790"}}'
2022-05-20 03:09:37 | numéro : 777338757 | resultat envoi : b'{"outboundSMSMessageRequest":{"address":["tel:+221777338757"],"senderAddress":"tel:+221773387902","senderName":"ipps","outboundSMSTextMessage":{"message":"un enfant qui ne respectera pas  les consignes ci dessus, se fera retirer du groupe.\\n*Prioriser le c\xc3\xb4t\xc3\xa9 simple afin d\xe2\x80\x99impr\xc3\xa9gner l\xe2\x80\x99enfant dans la gr\xc3\xa2ce de ce grand Sacrement*.\\n\\nLocation Aubes:\\n- 775138587 Mme Ndiaye\\n- 77 133 77 00/77 638 66 44 Mme Kantoussang\\n(Les contacter vite afin de faire les essayages \xc3\xa0 temps)\\n Pour les photos s\'inscrire en suivant ce lien : https://bit.ly/3G2U42U"},"resourceURL":"https://api.orange.com/smsmessaging/v1/outbound/tel:+221773387902/requests/a8e56f73-ef09-449a-bb07-1ad98795596d"}}'
2022-05-20 03:09:37 | numéro : 775313888 | resultat envoi : b'{"outboundSMSMessageRequest":{"address":["tel:+221775313888"],"senderAddress":"tel:+221773387902","senderName":"ipps","outboundSMSTextMessage":{"message":"un enfant qui ne respectera pas  les consignes ci dessus, se fera retirer du groupe.\\n*Prioriser le c\xc3\xb4t\xc3\xa9 simple afin d\xe2\x80\x99impr\xc3\xa9gner l\xe2\x80\x99enfant dans la gr\xc3\xa2ce de ce grand Sacrement*.\\n\\nLocation Aubes:\\n- 775138587 Mme Ndiaye\\n- 77 133 77 00/77 638 66 44 Mme Kantoussang\\n(Les contacter vite afin de faire les essayages \xc3\xa0 temps)\\n Pour les photos s\'inscrire en suivant ce lien : https://bit.ly/3G2U42U"},"resourceURL":"https://api.orange.com/smsmessaging/v1/outbound/tel:+221773387902/requests/d010e543-3647-4d90-b46e-182512724aed"}}'
2022-05-20 03:09:38 | numéro : 775313888 | resultat envoi : b'{"outboundSMSMessageRequest":{"address":["tel:+221775313888"],"senderAddress":"tel:+221773387902","senderName":"ipps","outboundSMSTextMessage":{"message":"un enfant qui ne respectera pas  les consignes ci dessus, se fera retirer du groupe.\\n*Prioriser le c\xc3\xb4t\xc3\xa9 simple afin d\xe2\x80\x99impr\xc3\xa9gner l\xe2\x80\x99enfant dans la gr\xc3\xa2ce de ce grand Sacrement*.\\n\\nLocation Aubes:\\n- 775138587 Mme Ndiaye\\n- 77 133 77 00/77 638 66 44 Mme Kantoussang\\n(Les contacter vite afin de faire les essayages \xc3\xa0 temps)\\n Pour les photos s\'inscrire en suivant ce lien : https://bit.ly/3G2U42U"},"resourceURL":"https://api.orange.com/smsmessaging/v1/outbound/tel:+221773387902/requests/cf12b7dc-d582-457b-8654-53047cdbd947"}}'
2022-05-20 03:09:38 | numéro : 776386644 | resultat envoi : b'{"outboundSMSMessageRequest":{"address":["tel:+221776386644"],"senderAddress":"tel:+221773387902","senderName":"ipps","outboundSMSTextMessage":{"message":"un enfant qui ne respectera pas  les consignes ci dessus, se fera retirer du groupe.\\n*Prioriser le c\xc3\xb4t\xc3\xa9 simple afin d\xe2\x80\x99impr\xc3\xa9gner l\xe2\x80\x99enfant dans la gr\xc3\xa2ce de ce grand Sacrement*.\\n\\nLocation Aubes:\\n- 775138587 Mme Ndiaye\\n- 77 133 77 00/77 638 66 44 Mme Kantoussang\\n(Les contacter vite afin de faire les essayages \xc3\xa0 temps)\\n Pour les photos s\'inscrire en suivant ce lien : https://bit.ly/3G2U42U"},"resourceURL":"https://api.orange.com/smsmessaging/v1/outbound/tel:+221773387902/requests/0ba3455f-d07c-4f7b-83cf-b933d39dee63"}}'
2022-05-20 03:09:38 | numéro : 776587031 | resultat envoi : b'{"outboundSMSMessageRequest":{"address":["tel:+221776587031"],"senderAddress":"tel:+221773387902","senderName":"ipps","outboundSMSTextMessage":{"message":"un enfant qui ne respectera pas  les consignes ci dessus, se fera retirer du groupe.\\n*Prioriser le c\xc3\xb4t\xc3\xa9 simple afin d\xe2\x80\x99impr\xc3\xa9gner l\xe2\x80\x99enfant dans la gr\xc3\xa2ce de ce grand Sacrement*.\\n\\nLocation Aubes:\\n- 775138587 Mme Ndiaye\\n- 77 133 77 00/77 638 66 44 Mme Kantoussang\\n(Les contacter vite afin de faire les essayages \xc3\xa0 temps)\\n Pour les photos s\'inscrire en suivant ce lien : https://bit.ly/3G2U42U"},"resourceURL":"https://api.orange.com/smsmessaging/v1/outbound/tel:+221773387902/requests/52863490-9110-4be9-a420-2d62a129567c"}}'
2022-05-20 03:09:38 | numéro : 776781505 | resultat envoi : b'{"outboundSMSMessageRequest":{"address":["tel:+221776781505"],"senderAddress":"tel:+221773387902","senderName":"ipps","outboundSMSTextMessage":{"message":"un enfant qui ne respectera pas  les consignes ci dessus, se fera retirer du groupe.\\n*Prioriser le c\xc3\xb4t\xc3\xa9 simple afin d\xe2\x80\x99impr\xc3\xa9gner l\xe2\x80\x99enfant dans la gr\xc3\xa2ce de ce grand Sacrement*.\\n\\nLocation Aubes:\\n- 775138587 Mme Ndiaye\\n- 77 133 77 00/77 638 66 44 Mme Kantoussang\\n(Les contacter vite afin de faire les essayages \xc3\xa0 temps)\\n Pour les photos s\'inscrire en suivant ce lien : https://bit.ly/3G2U42U"},"resourceURL":"https://api.orange.com/smsmessaging/v1/outbound/tel:+221773387902/requests/42401e9d-f085-4b8c-99f8-052ed6933b07"}}'
2022-05-20 03:09:39 | numéro : 777892124 | resultat envoi : b'{"outboundSMSMessageRequest":{"address":["tel:+221777892124"],"senderAddress":"tel:+221773387902","senderName":"ipps","outboundSMSTextMessage":{"message":"un enfant qui ne respectera pas  les consignes ci dessus, se fera retirer du groupe.\\n*Prioriser le c\xc3\xb4t\xc3\xa9 simple afin d\xe2\x80\x99impr\xc3\xa9gner l\xe2\x80\x99enfant dans la gr\xc3\xa2ce de ce grand Sacrement*.\\n\\nLocation Aubes:\\n- 775138587 Mme Ndiaye\\n- 77 133 77 00/77 638 66 44 Mme Kantoussang\\n(Les contacter vite afin de faire les essayages \xc3\xa0 temps)\\n Pour les photos s\'inscrire en suivant ce lien : https://bit.ly/3G2U42U"},"resourceURL":"https://api.orange.com/smsmessaging/v1/outbound/tel:+221773387902/requests/fa721531-1094-4914-80c8-9f867796d548"}}'
2022-05-20 03:09:39 | numéro : 775578617 | resultat envoi : b'{"outboundSMSMessageRequest":{"address":["tel:+221775578617"],"senderAddress":"tel:+221773387902","senderName":"ipps","outboundSMSTextMessage":{"message":"un enfant qui ne respectera pas  les consignes ci dessus, se fera retirer du groupe.\\n*Prioriser le c\xc3\xb4t\xc3\xa9 simple afin d\xe2\x80\x99impr\xc3\xa9gner l\xe2\x80\x99enfant dans la gr\xc3\xa2ce de ce grand Sacrement*.\\n\\nLocation Aubes:\\n- 775138587 Mme Ndiaye\\n- 77 133 77 00/77 638 66 44 Mme Kantoussang\\n(Les contacter vite afin de faire les essayages \xc3\xa0 temps)\\n Pour les photos s\'inscrire en suivant ce lien : https://bit.ly/3G2U42U"},"resourceURL":"https://api.orange.com/smsmessaging/v1/outbound/tel:+221773387902/requests/9d1439f9-527e-4348-ac61-8d4b47f478f9"}}'
2022-05-20 03:09:39 | numéro : 778170857 | resultat envoi : b'{"outboundSMSMessageRequest":{"address":["tel:+221778170857"],"senderAddress":"tel:+221773387902","senderName":"ipps","outboundSMSTextMessage":{"message":"un enfant qui ne respectera pas  les consignes ci dessus, se fera retirer du groupe.\\n*Prioriser le c\xc3\xb4t\xc3\xa9 simple afin d\xe2\x80\x99impr\xc3\xa9gner l\xe2\x80\x99enfant dans la gr\xc3\xa2ce de ce grand Sacrement*.\\n\\nLocation Aubes:\\n- 775138587 Mme Ndiaye\\n- 77 133 77 00/77 638 66 44 Mme Kantoussang\\n(Les contacter vite afin de faire les essayages \xc3\xa0 temps)\\n Pour les photos s\'inscrire en suivant ce lien : https://bit.ly/3G2U42U"},"resourceURL":"https://api.orange.com/smsmessaging/v1/outbound/tel:+221773387902/requests/63f60c66-09a5-41b2-bec0-8e8c1c0314df"}}'
2022-05-20 03:09:39 | numéro : 774461705 | resultat envoi : b'{"outboundSMSMessageRequest":{"address":["tel:+221774461705"],"senderAddress":"tel:+221773387902","senderName":"ipps","outboundSMSTextMessage":{"message":"un enfant qui ne respectera pas  les consignes ci dessus, se fera retirer du groupe.\\n*Prioriser le c\xc3\xb4t\xc3\xa9 simple afin d\xe2\x80\x99impr\xc3\xa9gner l\xe2\x80\x99enfant dans la gr\xc3\xa2ce de ce grand Sacrement*.\\n\\nLocation Aubes:\\n- 775138587 Mme Ndiaye\\n- 77 133 77 00/77 638 66 44 Mme Kantoussang\\n(Les contacter vite afin de faire les essayages \xc3\xa0 temps)\\n Pour les photos s\'inscrire en suivant ce lien : https://bit.ly/3G2U42U"},"resourceURL":"https://api.orange.com/smsmessaging/v1/outbound/tel:+221773387902/requests/6169722b-f366-4792-9ae5-4b5a6a5c99f3"}}'
2022-05-20 03:09:40 | numéro : 774238040 | resultat envoi : b'{"outboundSMSMessageRequest":{"address":["tel:+221774238040"],"senderAddress":"tel:+221773387902","senderName":"ipps","outboundSMSTextMessage":{"message":"un enfant qui ne respectera pas  les consignes ci dessus, se fera retirer du groupe.\\n*Prioriser le c\xc3\xb4t\xc3\xa9 simple afin d\xe2\x80\x99impr\xc3\xa9gner l\xe2\x80\x99enfant dans la gr\xc3\xa2ce de ce grand Sacrement*.\\n\\nLocation Aubes:\\n- 775138587 Mme Ndiaye\\n- 77 133 77 00/77 638 66 44 Mme Kantoussang\\n(Les contacter vite afin de faire les essayages \xc3\xa0 temps)\\n Pour les photos s\'inscrire en suivant ce lien : https://bit.ly/3G2U42U"},"resourceURL":"https://api.orange.com/smsmessaging/v1/outbound/tel:+221773387902/requests/1365f7db-4973-472e-a063-1f3c9526fed1"}}'
2022-05-20 03:09:40 | numéro : 773632643 | resultat envoi : b'{"outboundSMSMessageRequest":{"address":["tel:+221773632643"],"senderAddress":"tel:+221773387902","senderName":"ipps","outboundSMSTextMessage":{"message":"un enfant qui ne respectera pas  les consignes ci dessus, se fera retirer du groupe.\\n*Prioriser le c\xc3\xb4t\xc3\xa9 simple afin d\xe2\x80\x99impr\xc3\xa9gner l\xe2\x80\x99enfant dans la gr\xc3\xa2ce de ce grand Sacrement*.\\n\\nLocation Aubes:\\n- 775138587 Mme Ndiaye\\n- 77 133 77 00/77 638 66 44 Mme Kantoussang\\n(Les contacter vite afin de faire les essayages \xc3\xa0 temps)\\n Pour les photos s\'inscrire en suivant ce lien : https://bit.ly/3G2U42U"},"resourceURL":"https://api.orange.com/smsmessaging/v1/outbound/tel:+221773387902/requests/2b16e15a-0db5-4af7-b420-dca6939f2f26"}}'
2022-05-20 03:09:40 | numéro : 772000618 | resultat envoi : b'{"outboundSMSMessageRequest":{"address":["tel:+221772000618"],"senderAddress":"tel:+221773387902","senderName":"ipps","outboundSMSTextMessage":{"message":"un enfant qui ne respectera pas  les consignes ci dessus, se fera retirer du groupe.\\n*Prioriser le c\xc3\xb4t\xc3\xa9 simple afin d\xe2\x80\x99impr\xc3\xa9gner l\xe2\x80\x99enfant dans la gr\xc3\xa2ce de ce grand Sacrement*.\\n\\nLocation Aubes:\\n- 775138587 Mme Ndiaye\\n- 77 133 77 00/77 638 66 44 Mme Kantoussang\\n(Les contacter vite afin de faire les essayages \xc3\xa0 temps)\\n Pour les photos s\'inscrire en suivant ce lien : https://bit.ly/3G2U42U"},"resourceURL":"https://api.orange.com/smsmessaging/v1/outbound/tel:+221773387902/requests/f8b0632a-0405-453a-be82-f28138585e17"}}'
2022-05-20 03:09:41 | numéro : 772000618 | resultat envoi : b'{"outboundSMSMessageRequest":{"address":["tel:+221772000618"],"senderAddress":"tel:+221773387902","senderName":"ipps","outboundSMSTextMessage":{"message":"un enfant qui ne respectera pas  les consignes ci dessus, se fera retirer du groupe.\\n*Prioriser le c\xc3\xb4t\xc3\xa9 simple afin d\xe2\x80\x99impr\xc3\xa9gner l\xe2\x80\x99enfant dans la gr\xc3\xa2ce de ce grand Sacrement*.\\n\\nLocation Aubes:\\n- 775138587 Mme Ndiaye\\n- 77 133 77 00/77 638 66 44 Mme Kantoussang\\n(Les contacter vite afin de faire les essayages \xc3\xa0 temps)\\n Pour les photos s\'inscrire en suivant ce lien : https://bit.ly/3G2U42U"},"resourceURL":"https://api.orange.com/smsmessaging/v1/outbound/tel:+221773387902/requests/61fe84d0-6052-423c-b4fb-a3010f740253"}}'
2022-05-20 03:09:41 | numéro : 784641693 | resultat envoi : b'{"outboundSMSMessageRequest":{"address":["tel:+221784641693"],"senderAddress":"tel:+221773387902","senderName":"ipps","outboundSMSTextMessage":{"message":"un enfant qui ne respectera pas  les consignes ci dessus, se fera retirer du groupe.\\n*Prioriser le c\xc3\xb4t\xc3\xa9 simple afin d\xe2\x80\x99impr\xc3\xa9gner l\xe2\x80\x99enfant dans la gr\xc3\xa2ce de ce grand Sacrement*.\\n\\nLocation Aubes:\\n- 775138587 Mme Ndiaye\\n- 77 133 77 00/77 638 66 44 Mme Kantoussang\\n(Les contacter vite afin de faire les essayages \xc3\xa0 temps)\\n Pour les photos s\'inscrire en suivant ce lien : https://bit.ly/3G2U42U"},"resourceURL":"https://api.orange.com/smsmessaging/v1/outbound/tel:+221773387902/requests/c56b0103-3247-4981-a06f-95fc800d3f7d"}}'
2022-05-20 03:09:41 | numéro : 772669929 | resultat envoi : b'{"outboundSMSMessageRequest":{"address":["tel:+221772669929"],"senderAddress":"tel:+221773387902","senderName":"ipps","outboundSMSTextMessage":{"message":"un enfant qui ne respectera pas  les consignes ci dessus, se fera retirer du groupe.\\n*Prioriser le c\xc3\xb4t\xc3\xa9 simple afin d\xe2\x80\x99impr\xc3\xa9gner l\xe2\x80\x99enfant dans la gr\xc3\xa2ce de ce grand Sacrement*.\\n\\nLocation Aubes:\\n- 775138587 Mme Ndiaye\\n- 77 133 77 00/77 638 66 44 Mme Kantoussang\\n(Les contacter vite afin de faire les essayages \xc3\xa0 temps)\\n Pour les photos s\'inscrire en suivant ce lien : https://bit.ly/3G2U42U"},"resourceURL":"https://api.orange.com/smsmessaging/v1/outbound/tel:+221773387902/requests/122d1b16-1efa-4ae6-87e0-846686157d71"}}'
2022-05-20 03:09:41 | numéro : 778116032 | resultat envoi : b'{"outboundSMSMessageRequest":{"address":["tel:+221778116032"],"senderAddress":"tel:+221773387902","senderName":"ipps","outboundSMSTextMessage":{"message":"un enfant qui ne respectera pas  les consignes ci dessus, se fera retirer du groupe.\\n*Prioriser le c\xc3\xb4t\xc3\xa9 simple afin d\xe2\x80\x99impr\xc3\xa9gner l\xe2\x80\x99enfant dans la gr\xc3\xa2ce de ce grand Sacrement*.\\n\\nLocation Aubes:\\n- 775138587 Mme Ndiaye\\n- 77 133 77 00/77 638 66 44 Mme Kantoussang\\n(Les contacter vite afin de faire les essayages \xc3\xa0 temps)\\n Pour les photos s\'inscrire en suivant ce lien : https://bit.ly/3G2U42U"},"resourceURL":"https://api.orange.com/smsmessaging/v1/outbound/tel:+221773387902/requests/e36ad482-fa39-46c1-b8fe-e6b33b18c419"}}'
2022-05-20 03:09:42 | numéro : 774670742 | resultat envoi : b'{"outboundSMSMessageRequest":{"address":["tel:+221774670742"],"senderAddress":"tel:+221773387902","senderName":"ipps","outboundSMSTextMessage":{"message":"un enfant qui ne respectera pas  les consignes ci dessus, se fera retirer du groupe.\\n*Prioriser le c\xc3\xb4t\xc3\xa9 simple afin d\xe2\x80\x99impr\xc3\xa9gner l\xe2\x80\x99enfant dans la gr\xc3\xa2ce de ce grand Sacrement*.\\n\\nLocation Aubes:\\n- 775138587 Mme Ndiaye\\n- 77 133 77 00/77 638 66 44 Mme Kantoussang\\n(Les contacter vite afin de faire les essayages \xc3\xa0 temps)\\n Pour les photos s\'inscrire en suivant ce lien : https://bit.ly/3G2U42U"},"resourceURL":"https://api.orange.com/smsmessaging/v1/outbound/tel:+221773387902/requests/d29be0f8-01db-4a09-908e-2e8c8a3bef01"}}'
2022-05-20 03:09:42 | numéro : 775395349 | resultat envoi : b'{"outboundSMSMessageRequest":{"address":["tel:+221775395349"],"senderAddress":"tel:+221773387902","senderName":"ipps","outboundSMSTextMessage":{"message":"un enfant qui ne respectera pas  les consignes ci dessus, se fera retirer du groupe.\\n*Prioriser le c\xc3\xb4t\xc3\xa9 simple afin d\xe2\x80\x99impr\xc3\xa9gner l\xe2\x80\x99enfant dans la gr\xc3\xa2ce de ce grand Sacrement*.\\n\\nLocation Aubes:\\n- 775138587 Mme Ndiaye\\n- 77 133 77 00/77 638 66 44 Mme Kantoussang\\n(Les contacter vite afin de faire les essayages \xc3\xa0 temps)\\n Pour les photos s\'inscrire en suivant ce lien : https://bit.ly/3G2U42U"},"resourceURL":"https://api.orange.com/smsmessaging/v1/outbound/tel:+221773387902/requests/5971c87a-16ba-42fe-8820-c2a5375f0fcf"}}'
2022-05-20 03:09:42 | numéro : 776556463 | resultat envoi : b'{"outboundSMSMessageRequest":{"address":["tel:+221776556463"],"senderAddress":"tel:+221773387902","senderName":"ipps","outboundSMSTextMessage":{"message":"un enfant qui ne respectera pas  les consignes ci dessus, se fera retirer du groupe.\\n*Prioriser le c\xc3\xb4t\xc3\xa9 simple afin d\xe2\x80\x99impr\xc3\xa9gner l\xe2\x80\x99enfant dans la gr\xc3\xa2ce de ce grand Sacrement*.\\n\\nLocation Aubes:\\n- 775138587 Mme Ndiaye\\n- 77 133 77 00/77 638 66 44 Mme Kantoussang\\n(Les contacter vite afin de faire les essayages \xc3\xa0 temps)\\n Pour les photos s\'inscrire en suivant ce lien : https://bit.ly/3G2U42U"},"resourceURL":"https://api.orange.com/smsmessaging/v1/outbound/tel:+221773387902/requests/e504f420-cb64-4bb4-bdd1-47980fecbc87"}}'
2022-05-20 03:09:43 | numéro : 776177154 | resultat envoi : b'{"outboundSMSMessageRequest":{"address":["tel:+221776177154"],"senderAddress":"tel:+221773387902","senderName":"ipps","outboundSMSTextMessage":{"message":"un enfant qui ne respectera pas  les consignes ci dessus, se fera retirer du groupe.\\n*Prioriser le c\xc3\xb4t\xc3\xa9 simple afin d\xe2\x80\x99impr\xc3\xa9gner l\xe2\x80\x99enfant dans la gr\xc3\xa2ce de ce grand Sacrement*.\\n\\nLocation Aubes:\\n- 775138587 Mme Ndiaye\\n- 77 133 77 00/77 638 66 44 Mme Kantoussang\\n(Les contacter vite afin de faire les essayages \xc3\xa0 temps)\\n Pour les photos s\'inscrire en suivant ce lien : https://bit.ly/3G2U42U"},"resourceURL":"https://api.orange.com/smsmessaging/v1/outbound/tel:+221773387902/requests/52a2ec6f-d9d9-4519-8078-f9486aaed4f8"}}'
2022-05-20 03:09:43 | numéro : 775712727 | resultat envoi : b'{"outboundSMSMessageRequest":{"address":["tel:+221775712727"],"senderAddress":"tel:+221773387902","senderName":"ipps","outboundSMSTextMessage":{"message":"un enfant qui ne respectera pas  les consignes ci dessus, se fera retirer du groupe.\\n*Prioriser le c\xc3\xb4t\xc3\xa9 simple afin d\xe2\x80\x99impr\xc3\xa9gner l\xe2\x80\x99enfant dans la gr\xc3\xa2ce de ce grand Sacrement*.\\n\\nLocation Aubes:\\n- 775138587 Mme Ndiaye\\n- 77 133 77 00/77 638 66 44 Mme Kantoussang\\n(Les contacter vite afin de faire les essayages \xc3\xa0 temps)\\n Pour les photos s\'inscrire en suivant ce lien : https://bit.ly/3G2U42U"},"resourceURL":"https://api.orange.com/smsmessaging/v1/outbound/tel:+221773387902/requests/e49e5419-1f9d-4be6-86a7-cd7f481fb575"}}'
2022-05-20 03:09:43 | numéro : 775492796 | resultat envoi : b'{"outboundSMSMessageRequest":{"address":["tel:+221775492796"],"senderAddress":"tel:+221773387902","senderName":"ipps","outboundSMSTextMessage":{"message":"un enfant qui ne respectera pas  les consignes ci dessus, se fera retirer du groupe.\\n*Prioriser le c\xc3\xb4t\xc3\xa9 simple afin d\xe2\x80\x99impr\xc3\xa9gner l\xe2\x80\x99enfant dans la gr\xc3\xa2ce de ce grand Sacrement*.\\n\\nLocation Aubes:\\n- 775138587 Mme Ndiaye\\n- 77 133 77 00/77 638 66 44 Mme Kantoussang\\n(Les contacter vite afin de faire les essayages \xc3\xa0 temps)\\n Pour les photos s\'inscrire en suivant ce lien : https://bit.ly/3G2U42U"},"resourceURL":"https://api.orange.com/smsmessaging/v1/outbound/tel:+221773387902/requests/38952d8b-751b-4b87-998c-d6e10f4f63b6"}}'
2022-05-20 03:09:43 | numéro : 770577086 | resultat envoi : b'{"outboundSMSMessageRequest":{"address":["tel:+221770577086"],"senderAddress":"tel:+221773387902","senderName":"ipps","outboundSMSTextMessage":{"message":"un enfant qui ne respectera pas  les consignes ci dessus, se fera retirer du groupe.\\n*Prioriser le c\xc3\xb4t\xc3\xa9 simple afin d\xe2\x80\x99impr\xc3\xa9gner l\xe2\x80\x99enfant dans la gr\xc3\xa2ce de ce grand Sacrement*.\\n\\nLocation Aubes:\\n- 775138587 Mme Ndiaye\\n- 77 133 77 00/77 638 66 44 Mme Kantoussang\\n(Les contacter vite afin de faire les essayages \xc3\xa0 temps)\\n Pour les photos s\'inscrire en suivant ce lien : https://bit.ly/3G2U42U"},"resourceURL":"https://api.orange.com/smsmessaging/v1/outbound/tel:+221773387902/requests/827af04d-4bd2-46ba-8d76-4c079f7e9a7f"}}'
2022-05-20 03:09:44 | numéro : 775949406 | resultat envoi : b'{"outboundSMSMessageRequest":{"address":["tel:+221775949406"],"senderAddress":"tel:+221773387902","senderName":"ipps","outboundSMSTextMessage":{"message":"un enfant qui ne respectera pas  les consignes ci dessus, se fera retirer du groupe.\\n*Prioriser le c\xc3\xb4t\xc3\xa9 simple afin d\xe2\x80\x99impr\xc3\xa9gner l\xe2\x80\x99enfant dans la gr\xc3\xa2ce de ce grand Sacrement*.\\n\\nLocation Aubes:\\n- 775138587 Mme Ndiaye\\n- 77 133 77 00/77 638 66 44 Mme Kantoussang\\n(Les contacter vite afin de faire les essayages \xc3\xa0 temps)\\n Pour les photos s\'inscrire en suivant ce lien : https://bit.ly/3G2U42U"},"resourceURL":"https://api.orange.com/smsmessaging/v1/outbound/tel:+221773387902/requests/30da18db-c9ef-4b0a-9c5a-8a40e750b54e"}}'
2022-05-20 03:09:44 | numéro : 775168038 | resultat envoi : b'{"outboundSMSMessageRequest":{"address":["tel:+221775168038"],"senderAddress":"tel:+221773387902","senderName":"ipps","outboundSMSTextMessage":{"message":"un enfant qui ne respectera pas  les consignes ci dessus, se fera retirer du groupe.\\n*Prioriser le c\xc3\xb4t\xc3\xa9 simple afin d\xe2\x80\x99impr\xc3\xa9gner l\xe2\x80\x99enfant dans la gr\xc3\xa2ce de ce grand Sacrement*.\\n\\nLocation Aubes:\\n- 775138587 Mme Ndiaye\\n- 77 133 77 00/77 638 66 44 Mme Kantoussang\\n(Les contacter vite afin de faire les essayages \xc3\xa0 temps)\\n Pour les photos s\'inscrire en suivant ce lien : https://bit.ly/3G2U42U"},"resourceURL":"https://api.orange.com/smsmessaging/v1/outbound/tel:+221773387902/requests/dcd629da-0775-4f50-95c1-a65d9243e1f0"}}'
2022-05-20 03:09:44 | numéro : 775918410 | resultat envoi : b'{"outboundSMSMessageRequest":{"address":["tel:+221775918410"],"senderAddress":"tel:+221773387902","senderName":"ipps","outboundSMSTextMessage":{"message":"un enfant qui ne respectera pas  les consignes ci dessus, se fera retirer du groupe.\\n*Prioriser le c\xc3\xb4t\xc3\xa9 simple afin d\xe2\x80\x99impr\xc3\xa9gner l\xe2\x80\x99enfant dans la gr\xc3\xa2ce de ce grand Sacrement*.\\n\\nLocation Aubes:\\n- 775138587 Mme Ndiaye\\n- 77 133 77 00/77 638 66 44 Mme Kantoussang\\n(Les contacter vite afin de faire les essayages \xc3\xa0 temps)\\n Pour les photos s\'inscrire en suivant ce lien : https://bit.ly/3G2U42U"},"resourceURL":"https://api.orange.com/smsmessaging/v1/outbound/tel:+221773387902/requests/606bf5b7-2b52-4c05-8d60-26da0a50ea2c"}}'
2022-05-20 03:09:44 | numéro : 775711415 | resultat envoi : b'{"outboundSMSMessageRequest":{"address":["tel:+221775711415"],"senderAddress":"tel:+221773387902","senderName":"ipps","outboundSMSTextMessage":{"message":"un enfant qui ne respectera pas  les consignes ci dessus, se fera retirer du groupe.\\n*Prioriser le c\xc3\xb4t\xc3\xa9 simple afin d\xe2\x80\x99impr\xc3\xa9gner l\xe2\x80\x99enfant dans la gr\xc3\xa2ce de ce grand Sacrement*.\\n\\nLocation Aubes:\\n- 775138587 Mme Ndiaye\\n- 77 133 77 00/77 638 66 44 Mme Kantoussang\\n(Les contacter vite afin de faire les essayages \xc3\xa0 temps)\\n Pour les photos s\'inscrire en suivant ce lien : https://bit.ly/3G2U42U"},"resourceURL":"https://api.orange.com/smsmessaging/v1/outbound/tel:+221773387902/requests/fe7b0d11-fe7d-48c3-80ac-7e6de5ae76c2"}}'
2022-05-20 03:09:45 | numéro : 773210720 | resultat envoi : b'{"outboundSMSMessageRequest":{"address":["tel:+221773210720"],"senderAddress":"tel:+221773387902","senderName":"ipps","outboundSMSTextMessage":{"message":"un enfant qui ne respectera pas  les consignes ci dessus, se fera retirer du groupe.\\n*Prioriser le c\xc3\xb4t\xc3\xa9 simple afin d\xe2\x80\x99impr\xc3\xa9gner l\xe2\x80\x99enfant dans la gr\xc3\xa2ce de ce grand Sacrement*.\\n\\nLocation Aubes:\\n- 775138587 Mme Ndiaye\\n- 77 133 77 00/77 638 66 44 Mme Kantoussang\\n(Les contacter vite afin de faire les essayages \xc3\xa0 temps)\\n Pour les photos s\'inscrire en suivant ce lien : https://bit.ly/3G2U42U"},"resourceURL":"https://api.orange.com/smsmessaging/v1/outbound/tel:+221773387902/requests/7734d0b7-e58c-4c9d-bdfa-66cd5750ca66"}}'
2022-05-20 03:09:45 | numéro : 778590854 | resultat envoi : b'{"outboundSMSMessageRequest":{"address":["tel:+221778590854"],"senderAddress":"tel:+221773387902","senderName":"ipps","outboundSMSTextMessage":{"message":"un enfant qui ne respectera pas  les consignes ci dessus, se fera retirer du groupe.\\n*Prioriser le c\xc3\xb4t\xc3\xa9 simple afin d\xe2\x80\x99impr\xc3\xa9gner l\xe2\x80\x99enfant dans la gr\xc3\xa2ce de ce grand Sacrement*.\\n\\nLocation Aubes:\\n- 775138587 Mme Ndiaye\\n- 77 133 77 00/77 638 66 44 Mme Kantoussang\\n(Les contacter vite afin de faire les essayages \xc3\xa0 temps)\\n Pour les photos s\'inscrire en suivant ce lien : https://bit.ly/3G2U42U"},"resourceURL":"https://api.orange.com/smsmessaging/v1/outbound/tel:+221773387902/requests/2246a594-45ed-4b0f-b43c-f0344df63295"}}'
2022-05-20 03:09:45 | numéro : 772187390 | resultat envoi : b'{"outboundSMSMessageRequest":{"address":["tel:+221772187390"],"senderAddress":"tel:+221773387902","senderName":"ipps","outboundSMSTextMessage":{"message":"un enfant qui ne respectera pas  les consignes ci dessus, se fera retirer du groupe.\\n*Prioriser le c\xc3\xb4t\xc3\xa9 simple afin d\xe2\x80\x99impr\xc3\xa9gner l\xe2\x80\x99enfant dans la gr\xc3\xa2ce de ce grand Sacrement*.\\n\\nLocation Aubes:\\n- 775138587 Mme Ndiaye\\n- 77 133 77 00/77 638 66 44 Mme Kantoussang\\n(Les contacter vite afin de faire les essayages \xc3\xa0 temps)\\n Pour les photos s\'inscrire en suivant ce lien : https://bit.ly/3G2U42U"},"resourceURL":"https://api.orange.com/smsmessaging/v1/outbound/tel:+221773387902/requests/b7399235-5325-4276-880e-51e3b5d03fae"}}'
2022-05-20 03:09:46 | numéro : 766466094 | resultat envoi : b'{"outboundSMSMessageRequest":{"address":["tel:+221766466094"],"senderAddress":"tel:+221773387902","senderName":"ipps","outboundSMSTextMessage":{"message":"un enfant qui ne respectera pas  les consignes ci dessus, se fera retirer du groupe.\\n*Prioriser le c\xc3\xb4t\xc3\xa9 simple afin d\xe2\x80\x99impr\xc3\xa9gner l\xe2\x80\x99enfant dans la gr\xc3\xa2ce de ce grand Sacrement*.\\n\\nLocation Aubes:\\n- 775138587 Mme Ndiaye\\n- 77 133 77 00/77 638 66 44 Mme Kantoussang\\n(Les contacter vite afin de faire les essayages \xc3\xa0 temps)\\n Pour les photos s\'inscrire en suivant ce lien : https://bit.ly/3G2U42U"},"resourceURL":"https://api.orange.com/smsmessaging/v1/outbound/tel:+221773387902/requests/77257b26-9b1b-4e13-bb1e-f50611859b21"}}'
2022-05-20 03:09:46 | numéro : 774229107 | resultat envoi : b'{"outboundSMSMessageRequest":{"address":["tel:+221774229107"],"senderAddress":"tel:+221773387902","senderName":"ipps","outboundSMSTextMessage":{"message":"un enfant qui ne respectera pas  les consignes ci dessus, se fera retirer du groupe.\\n*Prioriser le c\xc3\xb4t\xc3\xa9 simple afin d\xe2\x80\x99impr\xc3\xa9gner l\xe2\x80\x99enfant dans la gr\xc3\xa2ce de ce grand Sacrement*.\\n\\nLocation Aubes:\\n- 775138587 Mme Ndiaye\\n- 77 133 77 00/77 638 66 44 Mme Kantoussang\\n(Les contacter vite afin de faire les essayages \xc3\xa0 temps)\\n Pour les photos s\'inscrire en suivant ce lien : https://bit.ly/3G2U42U"},"resourceURL":"https://api.orange.com/smsmessaging/v1/outbound/tel:+221773387902/requests/f64b7bcc-1ed0-4991-b148-ca2bb38f8e33"}}'
2022-05-20 03:09:46 | numéro : 765005555 | resultat envoi : b'{"outboundSMSMessageRequest":{"address":["tel:+221765005555"],"senderAddress":"tel:+221773387902","senderName":"ipps","outboundSMSTextMessage":{"message":"un enfant qui ne respectera pas  les consignes ci dessus, se fera retirer du groupe.\\n*Prioriser le c\xc3\xb4t\xc3\xa9 simple afin d\xe2\x80\x99impr\xc3\xa9gner l\xe2\x80\x99enfant dans la gr\xc3\xa2ce de ce grand Sacrement*.\\n\\nLocation Aubes:\\n- 775138587 Mme Ndiaye\\n- 77 133 77 00/77 638 66 44 Mme Kantoussang\\n(Les contacter vite afin de faire les essayages \xc3\xa0 temps)\\n Pour les photos s\'inscrire en suivant ce lien : https://bit.ly/3G2U42U"},"resourceURL":"https://api.orange.com/smsmessaging/v1/outbound/tel:+221773387902/requests/1eaf1e9c-c532-4ee9-aeeb-691ab2b728e6"}}'
2022-05-20 03:09:46 | balance 1058 | fin envoi
