2022-08-31 17:01:58 | balance 161 | debut envoi
2022-08-31 17:01:58 | numéro : 771766736 | resultat envoi : b'{"outboundSMSMessageRequest":{"address":["tel:+221771766736"],"senderAddress":"tel:+221773387902","senderName":"ipps","outboundSMSTextMessage":{"message":"Shalom famille! \\nSp\xc3\xa9cial programme du 02 au 04 sept. 2022 \xc3\xa0 Monteiro. \\nTheme: Les th\xc3\xa9raphim de Laban.\\nNe manquez pas ce rendez-vous du proph\xc3\xa9tique, des d\xc3\xa9livrances, J\xc3\x89SUS sera glorifi\xc3\xa9. Ne venez pas seul.\\nDieu vous b\xc3\xa9nisse \\uD83D\\uDE4F\\uD83C\\uDFFE\xe2\x9d\xa4\xef\xb8\x8f\\nInfos:bit.ly/3dZDH9B\\nStop les SMS: bit.ly/3vXGHx1"},"resourceURL":"https://api.orange.com/smsmessaging/v1/outbound/tel:+221773387902/requests/201847a1-f7bb-4bfe-ae21-88299e77fed9"}}'
2022-08-31 17:01:58 | numéro : 771766739 | resultat envoi : b'{"outboundSMSMessageRequest":{"address":["tel:+221771766739"],"senderAddress":"tel:+221773387902","senderName":"ipps","outboundSMSTextMessage":{"message":"Shalom famille! \\nSp\xc3\xa9cial programme du 02 au 04 sept. 2022 \xc3\xa0 Monteiro. \\nTheme: Les th\xc3\xa9raphim de Laban.\\nNe manquez pas ce rendez-vous du proph\xc3\xa9tique, des d\xc3\xa9livrances, J\xc3\x89SUS sera glorifi\xc3\xa9. Ne venez pas seul.\\nDieu vous b\xc3\xa9nisse \\uD83D\\uDE4F\\uD83C\\uDFFE\xe2\x9d\xa4\xef\xb8\x8f\\nInfos:bit.ly/3dZDH9B\\nStop les SMS: bit.ly/3vXGHx1"},"resourceURL":"https://api.orange.com/smsmessaging/v1/outbound/tel:+221773387902/requests/ae6cced9-682f-4a37-a22a-1bb317c535bb"}}'
2022-08-31 17:01:59 | numéro : 771774360 | resultat envoi : b'{"outboundSMSMessageRequest":{"address":["tel:+221771774360"],"senderAddress":"tel:+221773387902","senderName":"ipps","outboundSMSTextMessage":{"message":"Shalom famille! \\nSp\xc3\xa9cial programme du 02 au 04 sept. 2022 \xc3\xa0 Monteiro. \\nTheme: Les th\xc3\xa9raphim de Laban.\\nNe manquez pas ce rendez-vous du proph\xc3\xa9tique, des d\xc3\xa9livrances, J\xc3\x89SUS sera glorifi\xc3\xa9. Ne venez pas seul.\\nDieu vous b\xc3\xa9nisse \\uD83D\\uDE4F\\uD83C\\uDFFE\xe2\x9d\xa4\xef\xb8\x8f\\nInfos:bit.ly/3dZDH9B\\nStop les SMS: bit.ly/3vXGHx1"},"resourceURL":"https://api.orange.com/smsmessaging/v1/outbound/tel:+221773387902/requests/4f4d70f1-b380-4ce0-8c93-84af73d60967"}}'
2022-08-31 17:02:00 | numéro : 771782540 | resultat envoi : b'{"outboundSMSMessageRequest":{"address":["tel:+221771782540"],"senderAddress":"tel:+221773387902","senderName":"ipps","outboundSMSTextMessage":{"message":"Shalom famille! \\nSp\xc3\xa9cial programme du 02 au 04 sept. 2022 \xc3\xa0 Monteiro. \\nTheme: Les th\xc3\xa9raphim de Laban.\\nNe manquez pas ce rendez-vous du proph\xc3\xa9tique, des d\xc3\xa9livrances, J\xc3\x89SUS sera glorifi\xc3\xa9. Ne venez pas seul.\\nDieu vous b\xc3\xa9nisse \\uD83D\\uDE4F\\uD83C\\uDFFE\xe2\x9d\xa4\xef\xb8\x8f\\nInfos:bit.ly/3dZDH9B\\nStop les SMS: bit.ly/3vXGHx1"},"resourceURL":"https://api.orange.com/smsmessaging/v1/outbound/tel:+221773387902/requests/9c790fc2-ef49-4986-bc49-123992ac6994"}}'
2022-08-31 17:02:00 | numéro : 771784376 | resultat envoi : b'{"outboundSMSMessageRequest":{"address":["tel:+221771784376"],"senderAddress":"tel:+221773387902","senderName":"ipps","outboundSMSTextMessage":{"message":"Shalom famille! \\nSp\xc3\xa9cial programme du 02 au 04 sept. 2022 \xc3\xa0 Monteiro. \\nTheme: Les th\xc3\xa9raphim de Laban.\\nNe manquez pas ce rendez-vous du proph\xc3\xa9tique, des d\xc3\xa9livrances, J\xc3\x89SUS sera glorifi\xc3\xa9. Ne venez pas seul.\\nDieu vous b\xc3\xa9nisse \\uD83D\\uDE4F\\uD83C\\uDFFE\xe2\x9d\xa4\xef\xb8\x8f\\nInfos:bit.ly/3dZDH9B\\nStop les SMS: bit.ly/3vXGHx1"},"resourceURL":"https://api.orange.com/smsmessaging/v1/outbound/tel:+221773387902/requests/c366de32-d3d8-400b-927f-347e2886d3d2"}}'
2022-08-31 17:02:01 | numéro : 771785310 | resultat envoi : b'{"outboundSMSMessageRequest":{"address":["tel:+221771785310"],"senderAddress":"tel:+221773387902","senderName":"ipps","outboundSMSTextMessage":{"message":"Shalom famille! \\nSp\xc3\xa9cial programme du 02 au 04 sept. 2022 \xc3\xa0 Monteiro. \\nTheme: Les th\xc3\xa9raphim de Laban.\\nNe manquez pas ce rendez-vous du proph\xc3\xa9tique, des d\xc3\xa9livrances, J\xc3\x89SUS sera glorifi\xc3\xa9. Ne venez pas seul.\\nDieu vous b\xc3\xa9nisse \\uD83D\\uDE4F\\uD83C\\uDFFE\xe2\x9d\xa4\xef\xb8\x8f\\nInfos:bit.ly/3dZDH9B\\nStop les SMS: bit.ly/3vXGHx1"},"resourceURL":"https://api.orange.com/smsmessaging/v1/outbound/tel:+221773387902/requests/5b2e5bb3-b9b8-4842-8b18-f9ce13d13d77"}}'
2022-08-31 17:02:01 | numéro : 771785321 | resultat envoi : b'{"outboundSMSMessageRequest":{"address":["tel:+221771785321"],"senderAddress":"tel:+221773387902","senderName":"ipps","outboundSMSTextMessage":{"message":"Shalom famille! \\nSp\xc3\xa9cial programme du 02 au 04 sept. 2022 \xc3\xa0 Monteiro. \\nTheme: Les th\xc3\xa9raphim de Laban.\\nNe manquez pas ce rendez-vous du proph\xc3\xa9tique, des d\xc3\xa9livrances, J\xc3\x89SUS sera glorifi\xc3\xa9. Ne venez pas seul.\\nDieu vous b\xc3\xa9nisse \\uD83D\\uDE4F\\uD83C\\uDFFE\xe2\x9d\xa4\xef\xb8\x8f\\nInfos:bit.ly/3dZDH9B\\nStop les SMS: bit.ly/3vXGHx1"},"resourceURL":"https://api.orange.com/smsmessaging/v1/outbound/tel:+221773387902/requests/d09cf3c2-2069-4804-a73c-bad17a73cf8a"}}'
2022-08-31 17:02:01 | numéro : 771785530 | resultat envoi : b'{"outboundSMSMessageRequest":{"address":["tel:+221771785530"],"senderAddress":"tel:+221773387902","senderName":"ipps","outboundSMSTextMessage":{"message":"Shalom famille! \\nSp\xc3\xa9cial programme du 02 au 04 sept. 2022 \xc3\xa0 Monteiro. \\nTheme: Les th\xc3\xa9raphim de Laban.\\nNe manquez pas ce rendez-vous du proph\xc3\xa9tique, des d\xc3\xa9livrances, J\xc3\x89SUS sera glorifi\xc3\xa9. Ne venez pas seul.\\nDieu vous b\xc3\xa9nisse \\uD83D\\uDE4F\\uD83C\\uDFFE\xe2\x9d\xa4\xef\xb8\x8f\\nInfos:bit.ly/3dZDH9B\\nStop les SMS: bit.ly/3vXGHx1"},"resourceURL":"https://api.orange.com/smsmessaging/v1/outbound/tel:+221773387902/requests/d46fb2f7-c395-4499-8f11-cdf9fb2cb34c"}}'
2022-08-31 17:02:02 | numéro : 771790070 | resultat envoi : b'{"outboundSMSMessageRequest":{"address":["tel:+221771790070"],"senderAddress":"tel:+221773387902","senderName":"ipps","outboundSMSTextMessage":{"message":"Shalom famille! \\nSp\xc3\xa9cial programme du 02 au 04 sept. 2022 \xc3\xa0 Monteiro. \\nTheme: Les th\xc3\xa9raphim de Laban.\\nNe manquez pas ce rendez-vous du proph\xc3\xa9tique, des d\xc3\xa9livrances, J\xc3\x89SUS sera glorifi\xc3\xa9. Ne venez pas seul.\\nDieu vous b\xc3\xa9nisse \\uD83D\\uDE4F\\uD83C\\uDFFE\xe2\x9d\xa4\xef\xb8\x8f\\nInfos:bit.ly/3dZDH9B\\nStop les SMS: bit.ly/3vXGHx1"},"resourceURL":"https://api.orange.com/smsmessaging/v1/outbound/tel:+221773387902/requests/eeef7530-8a79-46fe-9d8c-42f2489d6057"}}'
2022-08-31 17:02:02 | numéro : 771790597 | resultat envoi : b'{"outboundSMSMessageRequest":{"address":["tel:+221771790597"],"senderAddress":"tel:+221773387902","senderName":"ipps","outboundSMSTextMessage":{"message":"Shalom famille! \\nSp\xc3\xa9cial programme du 02 au 04 sept. 2022 \xc3\xa0 Monteiro. \\nTheme: Les th\xc3\xa9raphim de Laban.\\nNe manquez pas ce rendez-vous du proph\xc3\xa9tique, des d\xc3\xa9livrances, J\xc3\x89SUS sera glorifi\xc3\xa9. Ne venez pas seul.\\nDieu vous b\xc3\xa9nisse \\uD83D\\uDE4F\\uD83C\\uDFFE\xe2\x9d\xa4\xef\xb8\x8f\\nInfos:bit.ly/3dZDH9B\\nStop les SMS: bit.ly/3vXGHx1"},"resourceURL":"https://api.orange.com/smsmessaging/v1/outbound/tel:+221773387902/requests/fc512533-1ea5-41be-93c4-b5d0b5106451"}}'
2022-08-31 17:02:03 | numéro : 771812805 | resultat envoi : b'{"outboundSMSMessageRequest":{"address":["tel:+221771812805"],"senderAddress":"tel:+221773387902","senderName":"ipps","outboundSMSTextMessage":{"message":"Shalom famille! \\nSp\xc3\xa9cial programme du 02 au 04 sept. 2022 \xc3\xa0 Monteiro. \\nTheme: Les th\xc3\xa9raphim de Laban.\\nNe manquez pas ce rendez-vous du proph\xc3\xa9tique, des d\xc3\xa9livrances, J\xc3\x89SUS sera glorifi\xc3\xa9. Ne venez pas seul.\\nDieu vous b\xc3\xa9nisse \\uD83D\\uDE4F\\uD83C\\uDFFE\xe2\x9d\xa4\xef\xb8\x8f\\nInfos:bit.ly/3dZDH9B\\nStop les SMS: bit.ly/3vXGHx1"},"resourceURL":"https://api.orange.com/smsmessaging/v1/outbound/tel:+221773387902/requests/82e0cffd-1b8f-419b-b2ea-d52c83da095e"}}'
2022-08-31 17:02:03 | numéro : 771817110 | resultat envoi : b'{"outboundSMSMessageRequest":{"address":["tel:+221771817110"],"senderAddress":"tel:+221773387902","senderName":"ipps","outboundSMSTextMessage":{"message":"Shalom famille! \\nSp\xc3\xa9cial programme du 02 au 04 sept. 2022 \xc3\xa0 Monteiro. \\nTheme: Les th\xc3\xa9raphim de Laban.\\nNe manquez pas ce rendez-vous du proph\xc3\xa9tique, des d\xc3\xa9livrances, J\xc3\x89SUS sera glorifi\xc3\xa9. Ne venez pas seul.\\nDieu vous b\xc3\xa9nisse \\uD83D\\uDE4F\\uD83C\\uDFFE\xe2\x9d\xa4\xef\xb8\x8f\\nInfos:bit.ly/3dZDH9B\\nStop les SMS: bit.ly/3vXGHx1"},"resourceURL":"https://api.orange.com/smsmessaging/v1/outbound/tel:+221773387902/requests/1d6fa855-0eeb-4f40-8077-e5160660a6b5"}}'
2022-08-31 17:02:04 | numéro : 771820438 | resultat envoi : b'{"outboundSMSMessageRequest":{"address":["tel:+221771820438"],"senderAddress":"tel:+221773387902","senderName":"ipps","outboundSMSTextMessage":{"message":"Shalom famille! \\nSp\xc3\xa9cial programme du 02 au 04 sept. 2022 \xc3\xa0 Monteiro. \\nTheme: Les th\xc3\xa9raphim de Laban.\\nNe manquez pas ce rendez-vous du proph\xc3\xa9tique, des d\xc3\xa9livrances, J\xc3\x89SUS sera glorifi\xc3\xa9. Ne venez pas seul.\\nDieu vous b\xc3\xa9nisse \\uD83D\\uDE4F\\uD83C\\uDFFE\xe2\x9d\xa4\xef\xb8\x8f\\nInfos:bit.ly/3dZDH9B\\nStop les SMS: bit.ly/3vXGHx1"},"resourceURL":"https://api.orange.com/smsmessaging/v1/outbound/tel:+221773387902/requests/caaf228e-d652-4e2a-adad-fa4d369eb784"}}'
2022-08-31 17:02:04 | numéro : 771827907 | resultat envoi : b'{"outboundSMSMessageRequest":{"address":["tel:+221771827907"],"senderAddress":"tel:+221773387902","senderName":"ipps","outboundSMSTextMessage":{"message":"Shalom famille! \\nSp\xc3\xa9cial programme du 02 au 04 sept. 2022 \xc3\xa0 Monteiro. \\nTheme: Les th\xc3\xa9raphim de Laban.\\nNe manquez pas ce rendez-vous du proph\xc3\xa9tique, des d\xc3\xa9livrances, J\xc3\x89SUS sera glorifi\xc3\xa9. Ne venez pas seul.\\nDieu vous b\xc3\xa9nisse \\uD83D\\uDE4F\\uD83C\\uDFFE\xe2\x9d\xa4\xef\xb8\x8f\\nInfos:bit.ly/3dZDH9B\\nStop les SMS: bit.ly/3vXGHx1"},"resourceURL":"https://api.orange.com/smsmessaging/v1/outbound/tel:+221773387902/requests/96205724-4667-40a9-8907-c59244e72ab7"}}'
2022-08-31 17:02:05 | numéro : 771832914 | resultat envoi : b'{"outboundSMSMessageRequest":{"address":["tel:+221771832914"],"senderAddress":"tel:+221773387902","senderName":"ipps","outboundSMSTextMessage":{"message":"Shalom famille! \\nSp\xc3\xa9cial programme du 02 au 04 sept. 2022 \xc3\xa0 Monteiro. \\nTheme: Les th\xc3\xa9raphim de Laban.\\nNe manquez pas ce rendez-vous du proph\xc3\xa9tique, des d\xc3\xa9livrances, J\xc3\x89SUS sera glorifi\xc3\xa9. Ne venez pas seul.\\nDieu vous b\xc3\xa9nisse \\uD83D\\uDE4F\\uD83C\\uDFFE\xe2\x9d\xa4\xef\xb8\x8f\\nInfos:bit.ly/3dZDH9B\\nStop les SMS: bit.ly/3vXGHx1"},"resourceURL":"https://api.orange.com/smsmessaging/v1/outbound/tel:+221773387902/requests/78a6563f-ca54-4796-a9f1-734e314af0af"}}'
2022-08-31 17:02:06 | numéro : 771850844 | resultat envoi : b'{"outboundSMSMessageRequest":{"address":["tel:+221771850844"],"senderAddress":"tel:+221773387902","senderName":"ipps","outboundSMSTextMessage":{"message":"Shalom famille! \\nSp\xc3\xa9cial programme du 02 au 04 sept. 2022 \xc3\xa0 Monteiro. \\nTheme: Les th\xc3\xa9raphim de Laban.\\nNe manquez pas ce rendez-vous du proph\xc3\xa9tique, des d\xc3\xa9livrances, J\xc3\x89SUS sera glorifi\xc3\xa9. Ne venez pas seul.\\nDieu vous b\xc3\xa9nisse \\uD83D\\uDE4F\\uD83C\\uDFFE\xe2\x9d\xa4\xef\xb8\x8f\\nInfos:bit.ly/3dZDH9B\\nStop les SMS: bit.ly/3vXGHx1"},"resourceURL":"https://api.orange.com/smsmessaging/v1/outbound/tel:+221773387902/requests/07900713-a368-4bce-8f14-202ff119a340"}}'
2022-08-31 17:02:07 | numéro : 771854966 | resultat envoi : b'{"outboundSMSMessageRequest":{"address":["tel:+221771854966"],"senderAddress":"tel:+221773387902","senderName":"ipps","outboundSMSTextMessage":{"message":"Shalom famille! \\nSp\xc3\xa9cial programme du 02 au 04 sept. 2022 \xc3\xa0 Monteiro. \\nTheme: Les th\xc3\xa9raphim de Laban.\\nNe manquez pas ce rendez-vous du proph\xc3\xa9tique, des d\xc3\xa9livrances, J\xc3\x89SUS sera glorifi\xc3\xa9. Ne venez pas seul.\\nDieu vous b\xc3\xa9nisse \\uD83D\\uDE4F\\uD83C\\uDFFE\xe2\x9d\xa4\xef\xb8\x8f\\nInfos:bit.ly/3dZDH9B\\nStop les SMS: bit.ly/3vXGHx1"},"resourceURL":"https://api.orange.com/smsmessaging/v1/outbound/tel:+221773387902/requests/49f28c71-825e-4746-8480-d96800c0e3ba"}}'
2022-08-31 17:02:07 | numéro : 771859143 | resultat envoi : b'{"outboundSMSMessageRequest":{"address":["tel:+221771859143"],"senderAddress":"tel:+221773387902","senderName":"ipps","outboundSMSTextMessage":{"message":"Shalom famille! \\nSp\xc3\xa9cial programme du 02 au 04 sept. 2022 \xc3\xa0 Monteiro. \\nTheme: Les th\xc3\xa9raphim de Laban.\\nNe manquez pas ce rendez-vous du proph\xc3\xa9tique, des d\xc3\xa9livrances, J\xc3\x89SUS sera glorifi\xc3\xa9. Ne venez pas seul.\\nDieu vous b\xc3\xa9nisse \\uD83D\\uDE4F\\uD83C\\uDFFE\xe2\x9d\xa4\xef\xb8\x8f\\nInfos:bit.ly/3dZDH9B\\nStop les SMS: bit.ly/3vXGHx1"},"resourceURL":"https://api.orange.com/smsmessaging/v1/outbound/tel:+221773387902/requests/7fb30508-2450-4218-b89b-4e253e3dcfcf"}}'
2022-08-31 17:02:08 | numéro : 771860786 | resultat envoi : b'{"outboundSMSMessageRequest":{"address":["tel:+221771860786"],"senderAddress":"tel:+221773387902","senderName":"ipps","outboundSMSTextMessage":{"message":"Shalom famille! \\nSp\xc3\xa9cial programme du 02 au 04 sept. 2022 \xc3\xa0 Monteiro. \\nTheme: Les th\xc3\xa9raphim de Laban.\\nNe manquez pas ce rendez-vous du proph\xc3\xa9tique, des d\xc3\xa9livrances, J\xc3\x89SUS sera glorifi\xc3\xa9. Ne venez pas seul.\\nDieu vous b\xc3\xa9nisse \\uD83D\\uDE4F\\uD83C\\uDFFE\xe2\x9d\xa4\xef\xb8\x8f\\nInfos:bit.ly/3dZDH9B\\nStop les SMS: bit.ly/3vXGHx1"},"resourceURL":"https://api.orange.com/smsmessaging/v1/outbound/tel:+221773387902/requests/c802367e-ab9b-44a2-b493-47f921908944"}}'
2022-08-31 17:02:08 | numéro : 771861456 | resultat envoi : b'{"outboundSMSMessageRequest":{"address":["tel:+221771861456"],"senderAddress":"tel:+221773387902","senderName":"ipps","outboundSMSTextMessage":{"message":"Shalom famille! \\nSp\xc3\xa9cial programme du 02 au 04 sept. 2022 \xc3\xa0 Monteiro. \\nTheme: Les th\xc3\xa9raphim de Laban.\\nNe manquez pas ce rendez-vous du proph\xc3\xa9tique, des d\xc3\xa9livrances, J\xc3\x89SUS sera glorifi\xc3\xa9. Ne venez pas seul.\\nDieu vous b\xc3\xa9nisse \\uD83D\\uDE4F\\uD83C\\uDFFE\xe2\x9d\xa4\xef\xb8\x8f\\nInfos:bit.ly/3dZDH9B\\nStop les SMS: bit.ly/3vXGHx1"},"resourceURL":"https://api.orange.com/smsmessaging/v1/outbound/tel:+221773387902/requests/4074b1d5-a43a-414f-a0a0-8b4861f90d0e"}}'
2022-08-31 17:02:09 | numéro : 771871585 | resultat envoi : b'{"outboundSMSMessageRequest":{"address":["tel:+221771871585"],"senderAddress":"tel:+221773387902","senderName":"ipps","outboundSMSTextMessage":{"message":"Shalom famille! \\nSp\xc3\xa9cial programme du 02 au 04 sept. 2022 \xc3\xa0 Monteiro. \\nTheme: Les th\xc3\xa9raphim de Laban.\\nNe manquez pas ce rendez-vous du proph\xc3\xa9tique, des d\xc3\xa9livrances, J\xc3\x89SUS sera glorifi\xc3\xa9. Ne venez pas seul.\\nDieu vous b\xc3\xa9nisse \\uD83D\\uDE4F\\uD83C\\uDFFE\xe2\x9d\xa4\xef\xb8\x8f\\nInfos:bit.ly/3dZDH9B\\nStop les SMS: bit.ly/3vXGHx1"},"resourceURL":"https://api.orange.com/smsmessaging/v1/outbound/tel:+221773387902/requests/fa94b9e2-f84c-41b5-b93b-cd320494d321"}}'
2022-08-31 17:02:09 | numéro : 771902162 | resultat envoi : b'{"outboundSMSMessageRequest":{"address":["tel:+221771902162"],"senderAddress":"tel:+221773387902","senderName":"ipps","outboundSMSTextMessage":{"message":"Shalom famille! \\nSp\xc3\xa9cial programme du 02 au 04 sept. 2022 \xc3\xa0 Monteiro. \\nTheme: Les th\xc3\xa9raphim de Laban.\\nNe manquez pas ce rendez-vous du proph\xc3\xa9tique, des d\xc3\xa9livrances, J\xc3\x89SUS sera glorifi\xc3\xa9. Ne venez pas seul.\\nDieu vous b\xc3\xa9nisse \\uD83D\\uDE4F\\uD83C\\uDFFE\xe2\x9d\xa4\xef\xb8\x8f\\nInfos:bit.ly/3dZDH9B\\nStop les SMS: bit.ly/3vXGHx1"},"resourceURL":"https://api.orange.com/smsmessaging/v1/outbound/tel:+221773387902/requests/5d43fa07-5d6e-479f-8e19-16fb939c415e"}}'
2022-08-31 17:02:10 | numéro : 771927884 | resultat envoi : b'{"outboundSMSMessageRequest":{"address":["tel:+221771927884"],"senderAddress":"tel:+221773387902","senderName":"ipps","outboundSMSTextMessage":{"message":"Shalom famille! \\nSp\xc3\xa9cial programme du 02 au 04 sept. 2022 \xc3\xa0 Monteiro. \\nTheme: Les th\xc3\xa9raphim de Laban.\\nNe manquez pas ce rendez-vous du proph\xc3\xa9tique, des d\xc3\xa9livrances, J\xc3\x89SUS sera glorifi\xc3\xa9. Ne venez pas seul.\\nDieu vous b\xc3\xa9nisse \\uD83D\\uDE4F\\uD83C\\uDFFE\xe2\x9d\xa4\xef\xb8\x8f\\nInfos:bit.ly/3dZDH9B\\nStop les SMS: bit.ly/3vXGHx1"},"resourceURL":"https://api.orange.com/smsmessaging/v1/outbound/tel:+221773387902/requests/071a7317-59a2-4731-8ade-d28cc10275aa"}}'
2022-08-31 17:02:10 | numéro : 771966513 | resultat envoi : b'{"outboundSMSMessageRequest":{"address":["tel:+221771966513"],"senderAddress":"tel:+221773387902","senderName":"ipps","outboundSMSTextMessage":{"message":"Shalom famille! \\nSp\xc3\xa9cial programme du 02 au 04 sept. 2022 \xc3\xa0 Monteiro. \\nTheme: Les th\xc3\xa9raphim de Laban.\\nNe manquez pas ce rendez-vous du proph\xc3\xa9tique, des d\xc3\xa9livrances, J\xc3\x89SUS sera glorifi\xc3\xa9. Ne venez pas seul.\\nDieu vous b\xc3\xa9nisse \\uD83D\\uDE4F\\uD83C\\uDFFE\xe2\x9d\xa4\xef\xb8\x8f\\nInfos:bit.ly/3dZDH9B\\nStop les SMS: bit.ly/3vXGHx1"},"resourceURL":"https://api.orange.com/smsmessaging/v1/outbound/tel:+221773387902/requests/b24a7a03-08c8-43f8-9db8-ce1fde6c6dd4"}}'
2022-08-31 17:02:11 | numéro : 771992842 | resultat envoi : b'{"outboundSMSMessageRequest":{"address":["tel:+221771992842"],"senderAddress":"tel:+221773387902","senderName":"ipps","outboundSMSTextMessage":{"message":"Shalom famille! \\nSp\xc3\xa9cial programme du 02 au 04 sept. 2022 \xc3\xa0 Monteiro. \\nTheme: Les th\xc3\xa9raphim de Laban.\\nNe manquez pas ce rendez-vous du proph\xc3\xa9tique, des d\xc3\xa9livrances, J\xc3\x89SUS sera glorifi\xc3\xa9. Ne venez pas seul.\\nDieu vous b\xc3\xa9nisse \\uD83D\\uDE4F\\uD83C\\uDFFE\xe2\x9d\xa4\xef\xb8\x8f\\nInfos:bit.ly/3dZDH9B\\nStop les SMS: bit.ly/3vXGHx1"},"resourceURL":"https://api.orange.com/smsmessaging/v1/outbound/tel:+221773387902/requests/0f1ccf7b-7a4a-44b9-8956-603b7c39da4a"}}'
2022-08-31 17:02:12 | numéro : 771994203 | resultat envoi : b'{"outboundSMSMessageRequest":{"address":["tel:+221771994203"],"senderAddress":"tel:+221773387902","senderName":"ipps","outboundSMSTextMessage":{"message":"Shalom famille! \\nSp\xc3\xa9cial programme du 02 au 04 sept. 2022 \xc3\xa0 Monteiro. \\nTheme: Les th\xc3\xa9raphim de Laban.\\nNe manquez pas ce rendez-vous du proph\xc3\xa9tique, des d\xc3\xa9livrances, J\xc3\x89SUS sera glorifi\xc3\xa9. Ne venez pas seul.\\nDieu vous b\xc3\xa9nisse \\uD83D\\uDE4F\\uD83C\\uDFFE\xe2\x9d\xa4\xef\xb8\x8f\\nInfos:bit.ly/3dZDH9B\\nStop les SMS: bit.ly/3vXGHx1"},"resourceURL":"https://api.orange.com/smsmessaging/v1/outbound/tel:+221773387902/requests/a3f58d8d-1ddf-4ed4-9820-86c153ac5b4c"}}'
2022-08-31 17:02:12 | numéro : 771996711 | resultat envoi : b'{"outboundSMSMessageRequest":{"address":["tel:+221771996711"],"senderAddress":"tel:+221773387902","senderName":"ipps","outboundSMSTextMessage":{"message":"Shalom famille! \\nSp\xc3\xa9cial programme du 02 au 04 sept. 2022 \xc3\xa0 Monteiro. \\nTheme: Les th\xc3\xa9raphim de Laban.\\nNe manquez pas ce rendez-vous du proph\xc3\xa9tique, des d\xc3\xa9livrances, J\xc3\x89SUS sera glorifi\xc3\xa9. Ne venez pas seul.\\nDieu vous b\xc3\xa9nisse \\uD83D\\uDE4F\\uD83C\\uDFFE\xe2\x9d\xa4\xef\xb8\x8f\\nInfos:bit.ly/3dZDH9B\\nStop les SMS: bit.ly/3vXGHx1"},"resourceURL":"https://api.orange.com/smsmessaging/v1/outbound/tel:+221773387902/requests/3d20a2ee-770f-432b-af17-4a178fbdfe84"}}'
2022-08-31 17:02:13 | numéro : 772000618 | resultat envoi : b'{"outboundSMSMessageRequest":{"address":["tel:+221772000618"],"senderAddress":"tel:+221773387902","senderName":"ipps","outboundSMSTextMessage":{"message":"Shalom famille! \\nSp\xc3\xa9cial programme du 02 au 04 sept. 2022 \xc3\xa0 Monteiro. \\nTheme: Les th\xc3\xa9raphim de Laban.\\nNe manquez pas ce rendez-vous du proph\xc3\xa9tique, des d\xc3\xa9livrances, J\xc3\x89SUS sera glorifi\xc3\xa9. Ne venez pas seul.\\nDieu vous b\xc3\xa9nisse \\uD83D\\uDE4F\\uD83C\\uDFFE\xe2\x9d\xa4\xef\xb8\x8f\\nInfos:bit.ly/3dZDH9B\\nStop les SMS: bit.ly/3vXGHx1"},"resourceURL":"https://api.orange.com/smsmessaging/v1/outbound/tel:+221773387902/requests/159baa15-13d0-4cbe-9db4-ebb2a02ccf68"}}'
2022-08-31 17:02:13 | numéro : 772000746 | resultat envoi : b'{"outboundSMSMessageRequest":{"address":["tel:+221772000746"],"senderAddress":"tel:+221773387902","senderName":"ipps","outboundSMSTextMessage":{"message":"Shalom famille! \\nSp\xc3\xa9cial programme du 02 au 04 sept. 2022 \xc3\xa0 Monteiro. \\nTheme: Les th\xc3\xa9raphim de Laban.\\nNe manquez pas ce rendez-vous du proph\xc3\xa9tique, des d\xc3\xa9livrances, J\xc3\x89SUS sera glorifi\xc3\xa9. Ne venez pas seul.\\nDieu vous b\xc3\xa9nisse \\uD83D\\uDE4F\\uD83C\\uDFFE\xe2\x9d\xa4\xef\xb8\x8f\\nInfos:bit.ly/3dZDH9B\\nStop les SMS: bit.ly/3vXGHx1"},"resourceURL":"https://api.orange.com/smsmessaging/v1/outbound/tel:+221773387902/requests/ca26e3ff-4193-4d38-806c-79de46576e0d"}}'
2022-08-31 17:02:13 | numéro : 772015978 | resultat envoi : b'{"outboundSMSMessageRequest":{"address":["tel:+221772015978"],"senderAddress":"tel:+221773387902","senderName":"ipps","outboundSMSTextMessage":{"message":"Shalom famille! \\nSp\xc3\xa9cial programme du 02 au 04 sept. 2022 \xc3\xa0 Monteiro. \\nTheme: Les th\xc3\xa9raphim de Laban.\\nNe manquez pas ce rendez-vous du proph\xc3\xa9tique, des d\xc3\xa9livrances, J\xc3\x89SUS sera glorifi\xc3\xa9. Ne venez pas seul.\\nDieu vous b\xc3\xa9nisse \\uD83D\\uDE4F\\uD83C\\uDFFE\xe2\x9d\xa4\xef\xb8\x8f\\nInfos:bit.ly/3dZDH9B\\nStop les SMS: bit.ly/3vXGHx1"},"resourceURL":"https://api.orange.com/smsmessaging/v1/outbound/tel:+221773387902/requests/fbe2f2db-e8ed-438f-80f8-49925c12ccdf"}}'
2022-08-31 17:02:14 | numéro : 772017016 | resultat envoi : b'{"outboundSMSMessageRequest":{"address":["tel:+221772017016"],"senderAddress":"tel:+221773387902","senderName":"ipps","outboundSMSTextMessage":{"message":"Shalom famille! \\nSp\xc3\xa9cial programme du 02 au 04 sept. 2022 \xc3\xa0 Monteiro. \\nTheme: Les th\xc3\xa9raphim de Laban.\\nNe manquez pas ce rendez-vous du proph\xc3\xa9tique, des d\xc3\xa9livrances, J\xc3\x89SUS sera glorifi\xc3\xa9. Ne venez pas seul.\\nDieu vous b\xc3\xa9nisse \\uD83D\\uDE4F\\uD83C\\uDFFE\xe2\x9d\xa4\xef\xb8\x8f\\nInfos:bit.ly/3dZDH9B\\nStop les SMS: bit.ly/3vXGHx1"},"resourceURL":"https://api.orange.com/smsmessaging/v1/outbound/tel:+221773387902/requests/36369478-f46b-4470-aee8-fb958cdcc2d3"}}'
2022-08-31 17:02:14 | numéro : 772029113 | resultat envoi : b'{"requestError":{"policyException":{"messageId":"POL0001","text":"A policy error occurred. Error code is %1","variables":["Not enough credit"]}}}'
2022-08-31 17:02:14 | numéro : 772032756 | resultat envoi : b'{"requestError":{"policyException":{"messageId":"POL0001","text":"A policy error occurred. Error code is %1","variables":["Not enough credit"]}}}'
2022-08-31 17:02:16 | numéro : 772035479 | resultat envoi : b'{"outboundSMSMessageRequest":{"address":["tel:+221772035479"],"senderAddress":"tel:+221773387902","senderName":"ipps","outboundSMSTextMessage":{"message":"Shalom famille! \\nSp\xc3\xa9cial programme du 02 au 04 sept. 2022 \xc3\xa0 Monteiro. \\nTheme: Les th\xc3\xa9raphim de Laban.\\nNe manquez pas ce rendez-vous du proph\xc3\xa9tique, des d\xc3\xa9livrances, J\xc3\x89SUS sera glorifi\xc3\xa9. Ne venez pas seul.\\nDieu vous b\xc3\xa9nisse \\uD83D\\uDE4F\\uD83C\\uDFFE\xe2\x9d\xa4\xef\xb8\x8f\\nInfos:bit.ly/3dZDH9B\\nStop les SMS: bit.ly/3vXGHx1"},"resourceURL":"https://api.orange.com/smsmessaging/v1/outbound/tel:+221773387902/requests/b5e2f73c-1f41-490f-bbc1-628d9972a994"}}'
2022-08-31 17:02:16 | numéro : 772037852 | resultat envoi : b'{"requestError":{"policyException":{"messageId":"POL0001","text":"A policy error occurred. Error code is %1","variables":["Not enough credit"]}}}'
2022-08-31 17:02:16 | numéro : 772040036 | resultat envoi : b'{"outboundSMSMessageRequest":{"address":["tel:+221772040036"],"senderAddress":"tel:+221773387902","senderName":"ipps","outboundSMSTextMessage":{"message":"Shalom famille! \\nSp\xc3\xa9cial programme du 02 au 04 sept. 2022 \xc3\xa0 Monteiro. \\nTheme: Les th\xc3\xa9raphim de Laban.\\nNe manquez pas ce rendez-vous du proph\xc3\xa9tique, des d\xc3\xa9livrances, J\xc3\x89SUS sera glorifi\xc3\xa9. Ne venez pas seul.\\nDieu vous b\xc3\xa9nisse \\uD83D\\uDE4F\\uD83C\\uDFFE\xe2\x9d\xa4\xef\xb8\x8f\\nInfos:bit.ly/3dZDH9B\\nStop les SMS: bit.ly/3vXGHx1"},"resourceURL":"https://api.orange.com/smsmessaging/v1/outbound/tel:+221773387902/requests/8b0c23f6-c0af-4444-a532-6ce645d25ce2"}}'
2022-08-31 17:02:18 | numéro : 772040968 | resultat envoi : b'{"requestError":{"policyException":{"messageId":"POL0001","text":"A policy error occurred. Error code is %1","variables":["Not enough credit"]}}}'
2022-08-31 17:02:18 | numéro : 772043294 | resultat envoi : b'{"requestError":{"policyException":{"messageId":"POL0001","text":"A policy error occurred. Error code is %1","variables":["Not enough credit"]}}}'
2022-08-31 17:02:18 | numéro : 772047788 | resultat envoi : b'{"requestError":{"policyException":{"messageId":"POL0001","text":"A policy error occurred. Error code is %1","variables":["Not enough credit"]}}}'
2022-08-31 17:02:19 | numéro : 772057128 | resultat envoi : b'{"requestError":{"policyException":{"messageId":"POL0001","text":"A policy error occurred. Error code is %1","variables":["Not enough credit"]}}}'
2022-08-31 17:02:19 | numéro : 772062068 | resultat envoi : b'{"requestError":{"policyException":{"messageId":"POL0001","text":"A policy error occurred. Error code is %1","variables":["Not enough credit"]}}}'
2022-08-31 17:02:20 | numéro : 772073777 | resultat envoi : b'{"outboundSMSMessageRequest":{"address":["tel:+221772073777"],"senderAddress":"tel:+221773387902","senderName":"ipps","outboundSMSTextMessage":{"message":"Shalom famille! \\nSp\xc3\xa9cial programme du 02 au 04 sept. 2022 \xc3\xa0 Monteiro. \\nTheme: Les th\xc3\xa9raphim de Laban.\\nNe manquez pas ce rendez-vous du proph\xc3\xa9tique, des d\xc3\xa9livrances, J\xc3\x89SUS sera glorifi\xc3\xa9. Ne venez pas seul.\\nDieu vous b\xc3\xa9nisse \\uD83D\\uDE4F\\uD83C\\uDFFE\xe2\x9d\xa4\xef\xb8\x8f\\nInfos:bit.ly/3dZDH9B\\nStop les SMS: bit.ly/3vXGHx1"},"resourceURL":"https://api.orange.com/smsmessaging/v1/outbound/tel:+221773387902/requests/f2d3f91b-5939-4659-adda-11dd7a1197d5"}}'
2022-08-31 17:02:21 | numéro : 772080146 | resultat envoi : b'{"requestError":{"policyException":{"messageId":"POL0001","text":"A policy error occurred. Error code is %1","variables":["Not enough credit"]}}}'
2022-08-31 17:02:21 | numéro : 772096289 | resultat envoi : b'{"outboundSMSMessageRequest":{"address":["tel:+221772096289"],"senderAddress":"tel:+221773387902","senderName":"ipps","outboundSMSTextMessage":{"message":"Shalom famille! \\nSp\xc3\xa9cial programme du 02 au 04 sept. 2022 \xc3\xa0 Monteiro. \\nTheme: Les th\xc3\xa9raphim de Laban.\\nNe manquez pas ce rendez-vous du proph\xc3\xa9tique, des d\xc3\xa9livrances, J\xc3\x89SUS sera glorifi\xc3\xa9. Ne venez pas seul.\\nDieu vous b\xc3\xa9nisse \\uD83D\\uDE4F\\uD83C\\uDFFE\xe2\x9d\xa4\xef\xb8\x8f\\nInfos:bit.ly/3dZDH9B\\nStop les SMS: bit.ly/3vXGHx1"},"resourceURL":"https://api.orange.com/smsmessaging/v1/outbound/tel:+221773387902/requests/86ebd5bb-fcd0-4735-92bc-ab38111cecce"}}'
2022-08-31 17:02:22 | numéro : 772125291 | resultat envoi : b'{"requestError":{"policyException":{"messageId":"POL0001","text":"A policy error occurred. Error code is %1","variables":["Not enough credit"]}}}'
2022-08-31 17:02:22 | numéro : 772127075 | resultat envoi : b'{"requestError":{"policyException":{"messageId":"POL0001","text":"A policy error occurred. Error code is %1","variables":["Not enough credit"]}}}'
2022-08-31 17:02:24 | numéro : 772134477 | resultat envoi : b'{"requestError":{"policyException":{"messageId":"POL0001","text":"A policy error occurred. Error code is %1","variables":["Not enough credit"]}}}'
2022-08-31 17:02:25 | numéro : 772137523 | resultat envoi : b'{"requestError":{"policyException":{"messageId":"POL0001","text":"A policy error occurred. Error code is %1","variables":["Not enough credit"]}}}'
2022-08-31 17:02:25 | numéro : 772145118 | resultat envoi : b'{"requestError":{"policyException":{"messageId":"POL0001","text":"A policy error occurred. Error code is %1","variables":["Not enough credit"]}}}'
2022-08-31 17:02:25 | numéro : 772149718 | resultat envoi : b'{"requestError":{"policyException":{"messageId":"POL0001","text":"A policy error occurred. Error code is %1","variables":["Not enough credit"]}}}'
2022-08-31 17:02:26 | numéro : 772161686 | resultat envoi : b'{"requestError":{"policyException":{"messageId":"POL0001","text":"A policy error occurred. Error code is %1","variables":["Not enough credit"]}}}'
2022-08-31 17:02:26 | numéro : 772163882 | resultat envoi : b'{"outboundSMSMessageRequest":{"address":["tel:+221772163882"],"senderAddress":"tel:+221773387902","senderName":"ipps","outboundSMSTextMessage":{"message":"Shalom famille! \\nSp\xc3\xa9cial programme du 02 au 04 sept. 2022 \xc3\xa0 Monteiro. \\nTheme: Les th\xc3\xa9raphim de Laban.\\nNe manquez pas ce rendez-vous du proph\xc3\xa9tique, des d\xc3\xa9livrances, J\xc3\x89SUS sera glorifi\xc3\xa9. Ne venez pas seul.\\nDieu vous b\xc3\xa9nisse \\uD83D\\uDE4F\\uD83C\\uDFFE\xe2\x9d\xa4\xef\xb8\x8f\\nInfos:bit.ly/3dZDH9B\\nStop les SMS: bit.ly/3vXGHx1"},"resourceURL":"https://api.orange.com/smsmessaging/v1/outbound/tel:+221773387902/requests/91373ad3-3477-4bf6-8910-70a045df4819"}}'
2022-08-31 17:02:26 | numéro : 772163926 | resultat envoi : b'{"requestError":{"policyException":{"messageId":"POL0001","text":"A policy error occurred. Error code is %1","variables":["Not enough credit"]}}}'
2022-08-31 17:02:27 | numéro : 772166893 | resultat envoi : b'{"requestError":{"policyException":{"messageId":"POL0001","text":"A policy error occurred. Error code is %1","variables":["Not enough credit"]}}}'
2022-08-31 17:02:27 | numéro : 772172000 | resultat envoi : b'{"outboundSMSMessageRequest":{"address":["tel:+221772172000"],"senderAddress":"tel:+221773387902","senderName":"ipps","outboundSMSTextMessage":{"message":"Shalom famille! \\nSp\xc3\xa9cial programme du 02 au 04 sept. 2022 \xc3\xa0 Monteiro. \\nTheme: Les th\xc3\xa9raphim de Laban.\\nNe manquez pas ce rendez-vous du proph\xc3\xa9tique, des d\xc3\xa9livrances, J\xc3\x89SUS sera glorifi\xc3\xa9. Ne venez pas seul.\\nDieu vous b\xc3\xa9nisse \\uD83D\\uDE4F\\uD83C\\uDFFE\xe2\x9d\xa4\xef\xb8\x8f\\nInfos:bit.ly/3dZDH9B\\nStop les SMS: bit.ly/3vXGHx1"},"resourceURL":"https://api.orange.com/smsmessaging/v1/outbound/tel:+221773387902/requests/4f5f1286-9406-4d58-886d-17b0ac5aafb0"}}'
2022-08-31 17:02:28 | numéro : 772172163 | resultat envoi : b'{"requestError":{"policyException":{"messageId":"POL0001","text":"A policy error occurred. Error code is %1","variables":["Not enough credit"]}}}'
2022-08-31 17:02:29 | numéro : 772178584 | resultat envoi : b'{"requestError":{"policyException":{"messageId":"POL0001","text":"A policy error occurred. Error code is %1","variables":["Not enough credit"]}}}'
2022-08-31 17:02:30 | numéro : 772189113 | resultat envoi : b'{"requestError":{"policyException":{"messageId":"POL0001","text":"A policy error occurred. Error code is %1","variables":["Not enough credit"]}}}'
2022-08-31 17:02:30 | numéro : 772197711 | resultat envoi : b'{"requestError":{"policyException":{"messageId":"POL0001","text":"A policy error occurred. Error code is %1","variables":["Not enough credit"]}}}'
2022-08-31 17:02:31 | numéro : 772197875 | resultat envoi : b'{"requestError":{"policyException":{"messageId":"POL0001","text":"A policy error occurred. Error code is %1","variables":["Not enough credit"]}}}'
2022-08-31 17:02:31 | numéro : 772200022 | resultat envoi : b'{"outboundSMSMessageRequest":{"address":["tel:+221772200022"],"senderAddress":"tel:+221773387902","senderName":"ipps","outboundSMSTextMessage":{"message":"Shalom famille! \\nSp\xc3\xa9cial programme du 02 au 04 sept. 2022 \xc3\xa0 Monteiro. \\nTheme: Les th\xc3\xa9raphim de Laban.\\nNe manquez pas ce rendez-vous du proph\xc3\xa9tique, des d\xc3\xa9livrances, J\xc3\x89SUS sera glorifi\xc3\xa9. Ne venez pas seul.\\nDieu vous b\xc3\xa9nisse \\uD83D\\uDE4F\\uD83C\\uDFFE\xe2\x9d\xa4\xef\xb8\x8f\\nInfos:bit.ly/3dZDH9B\\nStop les SMS: bit.ly/3vXGHx1"},"resourceURL":"https://api.orange.com/smsmessaging/v1/outbound/tel:+221773387902/requests/92d41783-cb0f-4a4c-94e4-f62a9caf2048"}}'
2022-08-31 17:02:32 | numéro : 772208484 | resultat envoi : b'{"outboundSMSMessageRequest":{"address":["tel:+221772208484"],"senderAddress":"tel:+221773387902","senderName":"ipps","outboundSMSTextMessage":{"message":"Shalom famille! \\nSp\xc3\xa9cial programme du 02 au 04 sept. 2022 \xc3\xa0 Monteiro. \\nTheme: Les th\xc3\xa9raphim de Laban.\\nNe manquez pas ce rendez-vous du proph\xc3\xa9tique, des d\xc3\xa9livrances, J\xc3\x89SUS sera glorifi\xc3\xa9. Ne venez pas seul.\\nDieu vous b\xc3\xa9nisse \\uD83D\\uDE4F\\uD83C\\uDFFE\xe2\x9d\xa4\xef\xb8\x8f\\nInfos:bit.ly/3dZDH9B\\nStop les SMS: bit.ly/3vXGHx1"},"resourceURL":"https://api.orange.com/smsmessaging/v1/outbound/tel:+221773387902/requests/372f9611-bda2-4a49-b271-bde8cbce47c3"}}'
2022-08-31 17:02:32 | numéro : 772222324 | resultat envoi : b'{"requestError":{"policyException":{"messageId":"POL0001","text":"A policy error occurred. Error code is %1","variables":["Not enough credit"]}}}'
2022-08-31 17:02:32 | numéro : 772233641 | resultat envoi : b'{"outboundSMSMessageRequest":{"address":["tel:+221772233641"],"senderAddress":"tel:+221773387902","senderName":"ipps","outboundSMSTextMessage":{"message":"Shalom famille! \\nSp\xc3\xa9cial programme du 02 au 04 sept. 2022 \xc3\xa0 Monteiro. \\nTheme: Les th\xc3\xa9raphim de Laban.\\nNe manquez pas ce rendez-vous du proph\xc3\xa9tique, des d\xc3\xa9livrances, J\xc3\x89SUS sera glorifi\xc3\xa9. Ne venez pas seul.\\nDieu vous b\xc3\xa9nisse \\uD83D\\uDE4F\\uD83C\\uDFFE\xe2\x9d\xa4\xef\xb8\x8f\\nInfos:bit.ly/3dZDH9B\\nStop les SMS: bit.ly/3vXGHx1"},"resourceURL":"https://api.orange.com/smsmessaging/v1/outbound/tel:+221773387902/requests/72d83622-23b8-4e73-b015-a9146a049a81"}}'
2022-08-31 17:02:34 | numéro : 772233942 | resultat envoi : b'{"requestError":{"policyException":{"messageId":"POL0001","text":"A policy error occurred. Error code is %1","variables":["Not enough credit"]}}}'
2022-08-31 17:02:34 | numéro : 772234787 | resultat envoi : b'{"requestError":{"policyException":{"messageId":"POL0001","text":"A policy error occurred. Error code is %1","variables":["Not enough credit"]}}}'
2022-08-31 17:02:35 | numéro : 772243050 | resultat envoi : b'{"requestError":{"policyException":{"messageId":"POL0001","text":"A policy error occurred. Error code is %1","variables":["Not enough credit"]}}}'
2022-08-31 17:02:35 | numéro : 772247092 | resultat envoi : b'{"outboundSMSMessageRequest":{"address":["tel:+221772247092"],"senderAddress":"tel:+221773387902","senderName":"ipps","outboundSMSTextMessage":{"message":"Shalom famille! \\nSp\xc3\xa9cial programme du 02 au 04 sept. 2022 \xc3\xa0 Monteiro. \\nTheme: Les th\xc3\xa9raphim de Laban.\\nNe manquez pas ce rendez-vous du proph\xc3\xa9tique, des d\xc3\xa9livrances, J\xc3\x89SUS sera glorifi\xc3\xa9. Ne venez pas seul.\\nDieu vous b\xc3\xa9nisse \\uD83D\\uDE4F\\uD83C\\uDFFE\xe2\x9d\xa4\xef\xb8\x8f\\nInfos:bit.ly/3dZDH9B\\nStop les SMS: bit.ly/3vXGHx1"},"resourceURL":"https://api.orange.com/smsmessaging/v1/outbound/tel:+221773387902/requests/b7f74116-8b69-4ee2-9e52-4f2ba400b14b"}}'
2022-08-31 17:02:36 | numéro : 772250905 | resultat envoi : b'{"requestError":{"policyException":{"messageId":"POL0001","text":"A policy error occurred. Error code is %1","variables":["Not enough credit"]}}}'
2022-08-31 17:02:37 | numéro : 772251401 | resultat envoi : b'{"requestError":{"policyException":{"messageId":"POL0001","text":"A policy error occurred. Error code is %1","variables":["Not enough credit"]}}}'
2022-08-31 17:02:37 | numéro : 772265661 | resultat envoi : b'{"outboundSMSMessageRequest":{"address":["tel:+221772265661"],"senderAddress":"tel:+221773387902","senderName":"ipps","outboundSMSTextMessage":{"message":"Shalom famille! \\nSp\xc3\xa9cial programme du 02 au 04 sept. 2022 \xc3\xa0 Monteiro. \\nTheme: Les th\xc3\xa9raphim de Laban.\\nNe manquez pas ce rendez-vous du proph\xc3\xa9tique, des d\xc3\xa9livrances, J\xc3\x89SUS sera glorifi\xc3\xa9. Ne venez pas seul.\\nDieu vous b\xc3\xa9nisse \\uD83D\\uDE4F\\uD83C\\uDFFE\xe2\x9d\xa4\xef\xb8\x8f\\nInfos:bit.ly/3dZDH9B\\nStop les SMS: bit.ly/3vXGHx1"},"resourceURL":"https://api.orange.com/smsmessaging/v1/outbound/tel:+221773387902/requests/094e1b51-3728-4e67-bd65-a5f9f45f2fcd"}}'
2022-08-31 17:02:38 | numéro : 772279049 | resultat envoi : b'{"outboundSMSMessageRequest":{"address":["tel:+221772279049"],"senderAddress":"tel:+221773387902","senderName":"ipps","outboundSMSTextMessage":{"message":"Shalom famille! \\nSp\xc3\xa9cial programme du 02 au 04 sept. 2022 \xc3\xa0 Monteiro. \\nTheme: Les th\xc3\xa9raphim de Laban.\\nNe manquez pas ce rendez-vous du proph\xc3\xa9tique, des d\xc3\xa9livrances, J\xc3\x89SUS sera glorifi\xc3\xa9. Ne venez pas seul.\\nDieu vous b\xc3\xa9nisse \\uD83D\\uDE4F\\uD83C\\uDFFE\xe2\x9d\xa4\xef\xb8\x8f\\nInfos:bit.ly/3dZDH9B\\nStop les SMS: bit.ly/3vXGHx1"},"resourceURL":"https://api.orange.com/smsmessaging/v1/outbound/tel:+221773387902/requests/0e74219f-e0b8-4a59-9eb9-7f6e18fb7ab5"}}'
2022-08-31 17:02:38 | numéro : 772280318 | resultat envoi : b'{"outboundSMSMessageRequest":{"address":["tel:+221772280318"],"senderAddress":"tel:+221773387902","senderName":"ipps","outboundSMSTextMessage":{"message":"Shalom famille! \\nSp\xc3\xa9cial programme du 02 au 04 sept. 2022 \xc3\xa0 Monteiro. \\nTheme: Les th\xc3\xa9raphim de Laban.\\nNe manquez pas ce rendez-vous du proph\xc3\xa9tique, des d\xc3\xa9livrances, J\xc3\x89SUS sera glorifi\xc3\xa9. Ne venez pas seul.\\nDieu vous b\xc3\xa9nisse \\uD83D\\uDE4F\\uD83C\\uDFFE\xe2\x9d\xa4\xef\xb8\x8f\\nInfos:bit.ly/3dZDH9B\\nStop les SMS: bit.ly/3vXGHx1"},"resourceURL":"https://api.orange.com/smsmessaging/v1/outbound/tel:+221773387902/requests/d01e76bf-2d4f-42e0-8f9c-7df2ec14ecf9"}}'
2022-08-31 17:02:40 | numéro : 772284399 | resultat envoi : b'{"requestError":{"policyException":{"messageId":"POL0001","text":"A policy error occurred. Error code is %1","variables":["Not enough credit"]}}}'
2022-08-31 17:02:41 | numéro : 772286318 | resultat envoi : b'{"requestError":{"policyException":{"messageId":"POL0001","text":"A policy error occurred. Error code is %1","variables":["Not enough credit"]}}}'
2022-08-31 17:02:42 | numéro : 772290925 | resultat envoi : b'{"requestError":{"policyException":{"messageId":"POL0001","text":"A policy error occurred. Error code is %1","variables":["Not enough credit"]}}}'
2022-08-31 17:02:42 | numéro : 772297334 | resultat envoi : b'{"requestError":{"policyException":{"messageId":"POL0001","text":"A policy error occurred. Error code is %1","variables":["Not enough credit"]}}}'
2022-08-31 17:02:42 | numéro : 772302714 | resultat envoi : b'{"requestError":{"policyException":{"messageId":"POL0001","text":"A policy error occurred. Error code is %1","variables":["Not enough credit"]}}}'
2022-08-31 17:02:43 | numéro : 772304001 | resultat envoi : b'{"outboundSMSMessageRequest":{"address":["tel:+221772304001"],"senderAddress":"tel:+221773387902","senderName":"ipps","outboundSMSTextMessage":{"message":"Shalom famille! \\nSp\xc3\xa9cial programme du 02 au 04 sept. 2022 \xc3\xa0 Monteiro. \\nTheme: Les th\xc3\xa9raphim de Laban.\\nNe manquez pas ce rendez-vous du proph\xc3\xa9tique, des d\xc3\xa9livrances, J\xc3\x89SUS sera glorifi\xc3\xa9. Ne venez pas seul.\\nDieu vous b\xc3\xa9nisse \\uD83D\\uDE4F\\uD83C\\uDFFE\xe2\x9d\xa4\xef\xb8\x8f\\nInfos:bit.ly/3dZDH9B\\nStop les SMS: bit.ly/3vXGHx1"},"resourceURL":"https://api.orange.com/smsmessaging/v1/outbound/tel:+221773387902/requests/a8af5200-e8d6-4225-8464-90a720ad1bfb"}}'
2022-08-31 17:02:44 | numéro : 772309773 | resultat envoi : b'{"requestError":{"policyException":{"messageId":"POL0001","text":"A policy error occurred. Error code is %1","variables":["Not enough credit"]}}}'
2022-08-31 17:02:45 | numéro : 772310947 | resultat envoi : b'{"requestError":{"policyException":{"messageId":"POL0001","text":"A policy error occurred. Error code is %1","variables":["Not enough credit"]}}}'
2022-08-31 17:02:45 | numéro : 772322406 | resultat envoi : b'{"outboundSMSMessageRequest":{"address":["tel:+221772322406"],"senderAddress":"tel:+221773387902","senderName":"ipps","outboundSMSTextMessage":{"message":"Shalom famille! \\nSp\xc3\xa9cial programme du 02 au 04 sept. 2022 \xc3\xa0 Monteiro. \\nTheme: Les th\xc3\xa9raphim de Laban.\\nNe manquez pas ce rendez-vous du proph\xc3\xa9tique, des d\xc3\xa9livrances, J\xc3\x89SUS sera glorifi\xc3\xa9. Ne venez pas seul.\\nDieu vous b\xc3\xa9nisse \\uD83D\\uDE4F\\uD83C\\uDFFE\xe2\x9d\xa4\xef\xb8\x8f\\nInfos:bit.ly/3dZDH9B\\nStop les SMS: bit.ly/3vXGHx1"},"resourceURL":"https://api.orange.com/smsmessaging/v1/outbound/tel:+221773387902/requests/fffebbb6-0585-4e43-bed5-74c23801ee64"}}'
2022-08-31 17:02:45 | numéro : 772322772 | resultat envoi : b'{"requestError":{"policyException":{"messageId":"POL0001","text":"A policy error occurred. Error code is %1","variables":["Not enough credit"]}}}'
2022-08-31 17:02:47 | numéro : 772333129 | resultat envoi : b'{"requestError":{"policyException":{"messageId":"POL0001","text":"A policy error occurred. Error code is %1","variables":["Not enough credit"]}}}'
2022-08-31 17:02:48 | numéro : 772336739 | resultat envoi : b'{"requestError":{"policyException":{"messageId":"POL0001","text":"A policy error occurred. Error code is %1","variables":["Not enough credit"]}}}'
2022-08-31 17:02:48 | numéro : 772337872 | resultat envoi : b'{"outboundSMSMessageRequest":{"address":["tel:+221772337872"],"senderAddress":"tel:+221773387902","senderName":"ipps","outboundSMSTextMessage":{"message":"Shalom famille! \\nSp\xc3\xa9cial programme du 02 au 04 sept. 2022 \xc3\xa0 Monteiro. \\nTheme: Les th\xc3\xa9raphim de Laban.\\nNe manquez pas ce rendez-vous du proph\xc3\xa9tique, des d\xc3\xa9livrances, J\xc3\x89SUS sera glorifi\xc3\xa9. Ne venez pas seul.\\nDieu vous b\xc3\xa9nisse \\uD83D\\uDE4F\\uD83C\\uDFFE\xe2\x9d\xa4\xef\xb8\x8f\\nInfos:bit.ly/3dZDH9B\\nStop les SMS: bit.ly/3vXGHx1"},"resourceURL":"https://api.orange.com/smsmessaging/v1/outbound/tel:+221773387902/requests/0332e8be-a846-4a32-b39f-d9af771d3a32"}}'
2022-08-31 17:02:49 | numéro : 772338808 | resultat envoi : b'{"requestError":{"policyException":{"messageId":"POL0001","text":"A policy error occurred. Error code is %1","variables":["Not enough credit"]}}}'
2022-08-31 17:02:49 | numéro : 772339508 | resultat envoi : b'{"requestError":{"policyException":{"messageId":"POL0001","text":"A policy error occurred. Error code is %1","variables":["Not enough credit"]}}}'
2022-08-31 17:02:50 | numéro : 772340739 | resultat envoi : b'{"requestError":{"policyException":{"messageId":"POL0001","text":"A policy error occurred. Error code is %1","variables":["Not enough credit"]}}}'
2022-08-31 17:02:50 | numéro : 772340939 | resultat envoi : b'{"requestError":{"policyException":{"messageId":"POL0001","text":"A policy error occurred. Error code is %1","variables":["Not enough credit"]}}}'
2022-08-31 17:02:50 | numéro : 772344707 | resultat envoi : b'{"outboundSMSMessageRequest":{"address":["tel:+221772344707"],"senderAddress":"tel:+221773387902","senderName":"ipps","outboundSMSTextMessage":{"message":"Shalom famille! \\nSp\xc3\xa9cial programme du 02 au 04 sept. 2022 \xc3\xa0 Monteiro. \\nTheme: Les th\xc3\xa9raphim de Laban.\\nNe manquez pas ce rendez-vous du proph\xc3\xa9tique, des d\xc3\xa9livrances, J\xc3\x89SUS sera glorifi\xc3\xa9. Ne venez pas seul.\\nDieu vous b\xc3\xa9nisse \\uD83D\\uDE4F\\uD83C\\uDFFE\xe2\x9d\xa4\xef\xb8\x8f\\nInfos:bit.ly/3dZDH9B\\nStop les SMS: bit.ly/3vXGHx1"},"resourceURL":"https://api.orange.com/smsmessaging/v1/outbound/tel:+221773387902/requests/b38f25a0-0358-4e64-aacc-50c488e91df2"}}'
2022-08-31 17:02:50 | numéro : 772349816 | resultat envoi : b'{"outboundSMSMessageRequest":{"address":["tel:+221772349816"],"senderAddress":"tel:+221773387902","senderName":"ipps","outboundSMSTextMessage":{"message":"Shalom famille! \\nSp\xc3\xa9cial programme du 02 au 04 sept. 2022 \xc3\xa0 Monteiro. \\nTheme: Les th\xc3\xa9raphim de Laban.\\nNe manquez pas ce rendez-vous du proph\xc3\xa9tique, des d\xc3\xa9livrances, J\xc3\x89SUS sera glorifi\xc3\xa9. Ne venez pas seul.\\nDieu vous b\xc3\xa9nisse \\uD83D\\uDE4F\\uD83C\\uDFFE\xe2\x9d\xa4\xef\xb8\x8f\\nInfos:bit.ly/3dZDH9B\\nStop les SMS: bit.ly/3vXGHx1"},"resourceURL":"https://api.orange.com/smsmessaging/v1/outbound/tel:+221773387902/requests/4c94cc52-8c60-4808-9818-bc3ab7daf2e8"}}'
2022-08-31 17:02:51 | numéro : 772362346 | resultat envoi : b'{"requestError":{"policyException":{"messageId":"POL0001","text":"A policy error occurred. Error code is %1","variables":["Not enough credit"]}}}'
2022-08-31 17:02:51 | numéro : 772365273 | resultat envoi : b'{"requestError":{"policyException":{"messageId":"POL0001","text":"A policy error occurred. Error code is %1","variables":["Not enough credit"]}}}'
2022-08-31 17:02:51 | numéro : 772369912 | resultat envoi : b'{"outboundSMSMessageRequest":{"address":["tel:+221772369912"],"senderAddress":"tel:+221773387902","senderName":"ipps","outboundSMSTextMessage":{"message":"Shalom famille! \\nSp\xc3\xa9cial programme du 02 au 04 sept. 2022 \xc3\xa0 Monteiro. \\nTheme: Les th\xc3\xa9raphim de Laban.\\nNe manquez pas ce rendez-vous du proph\xc3\xa9tique, des d\xc3\xa9livrances, J\xc3\x89SUS sera glorifi\xc3\xa9. Ne venez pas seul.\\nDieu vous b\xc3\xa9nisse \\uD83D\\uDE4F\\uD83C\\uDFFE\xe2\x9d\xa4\xef\xb8\x8f\\nInfos:bit.ly/3dZDH9B\\nStop les SMS: bit.ly/3vXGHx1"},"resourceURL":"https://api.orange.com/smsmessaging/v1/outbound/tel:+221773387902/requests/47132a44-8d5d-4521-92d5-10b2125bf651"}}'
2022-08-31 17:02:51 | numéro : 772370012 | resultat envoi : b'{"requestError":{"policyException":{"messageId":"POL0001","text":"A policy error occurred. Error code is %1","variables":["Not enough credit"]}}}'
2022-08-31 17:02:52 | numéro : 772374694 | resultat envoi : b'{"requestError":{"policyException":{"messageId":"POL0001","text":"A policy error occurred. Error code is %1","variables":["Not enough credit"]}}}'
2022-08-31 17:02:52 | numéro : 772375184 | resultat envoi : b'{"requestError":{"policyException":{"messageId":"POL0001","text":"A policy error occurred. Error code is %1","variables":["Not enough credit"]}}}'
2022-08-31 17:02:53 | numéro : 772378528 | resultat envoi : b'{"requestError":{"policyException":{"messageId":"POL0001","text":"A policy error occurred. Error code is %1","variables":["Not enough credit"]}}}'
2022-08-31 17:02:53 | numéro : 772384026 | resultat envoi : b'{"requestError":{"policyException":{"messageId":"POL0001","text":"A policy error occurred. Error code is %1","variables":["Not enough credit"]}}}'
2022-08-31 17:02:53 | numéro : 772386083 | resultat envoi : b'{"requestError":{"policyException":{"messageId":"POL0001","text":"A policy error occurred. Error code is %1","variables":["Not enough credit"]}}}'
2022-08-31 17:02:54 | numéro : 772386265 | resultat envoi : b'{"requestError":{"policyException":{"messageId":"POL0001","text":"A policy error occurred. Error code is %1","variables":["Not enough credit"]}}}'
2022-08-31 17:02:54 | numéro : 772387326 | resultat envoi : b'{"requestError":{"policyException":{"messageId":"POL0001","text":"A policy error occurred. Error code is %1","variables":["Not enough credit"]}}}'
2022-08-31 17:02:55 | numéro : 772387483 | resultat envoi : b'{"outboundSMSMessageRequest":{"address":["tel:+221772387483"],"senderAddress":"tel:+221773387902","senderName":"ipps","outboundSMSTextMessage":{"message":"Shalom famille! \\nSp\xc3\xa9cial programme du 02 au 04 sept. 2022 \xc3\xa0 Monteiro. \\nTheme: Les th\xc3\xa9raphim de Laban.\\nNe manquez pas ce rendez-vous du proph\xc3\xa9tique, des d\xc3\xa9livrances, J\xc3\x89SUS sera glorifi\xc3\xa9. Ne venez pas seul.\\nDieu vous b\xc3\xa9nisse \\uD83D\\uDE4F\\uD83C\\uDFFE\xe2\x9d\xa4\xef\xb8\x8f\\nInfos:bit.ly/3dZDH9B\\nStop les SMS: bit.ly/3vXGHx1"},"resourceURL":"https://api.orange.com/smsmessaging/v1/outbound/tel:+221773387902/requests/6db2a0d0-e65e-454c-894b-c04981f4fb3b"}}'
2022-08-31 17:02:55 | numéro : 772388255 | resultat envoi : b'{"requestError":{"policyException":{"messageId":"POL0001","text":"A policy error occurred. Error code is %1","variables":["Not enough credit"]}}}'
2022-08-31 17:02:56 | numéro : 772408452 | resultat envoi : b'{"outboundSMSMessageRequest":{"address":["tel:+221772408452"],"senderAddress":"tel:+221773387902","senderName":"ipps","outboundSMSTextMessage":{"message":"Shalom famille! \\nSp\xc3\xa9cial programme du 02 au 04 sept. 2022 \xc3\xa0 Monteiro. \\nTheme: Les th\xc3\xa9raphim de Laban.\\nNe manquez pas ce rendez-vous du proph\xc3\xa9tique, des d\xc3\xa9livrances, J\xc3\x89SUS sera glorifi\xc3\xa9. Ne venez pas seul.\\nDieu vous b\xc3\xa9nisse \\uD83D\\uDE4F\\uD83C\\uDFFE\xe2\x9d\xa4\xef\xb8\x8f\\nInfos:bit.ly/3dZDH9B\\nStop les SMS: bit.ly/3vXGHx1"},"resourceURL":"https://api.orange.com/smsmessaging/v1/outbound/tel:+221773387902/requests/228d299b-91e1-412a-b676-dd819f6880a3"}}'
2022-08-31 17:02:56 | numéro : 772409425 | resultat envoi : b'{"requestError":{"policyException":{"messageId":"POL0001","text":"A policy error occurred. Error code is %1","variables":["Not enough credit"]}}}'
2022-08-31 17:02:56 | numéro : 772416048 | resultat envoi : b'{"requestError":{"policyException":{"messageId":"POL0001","text":"A policy error occurred. Error code is %1","variables":["Not enough credit"]}}}'
2022-08-31 17:02:56 | numéro : 772420960 | resultat envoi : b'{"requestError":{"policyException":{"messageId":"POL0001","text":"A policy error occurred. Error code is %1","variables":["Not enough credit"]}}}'
2022-08-31 17:02:57 | numéro : 772421253 | resultat envoi : b'{"outboundSMSMessageRequest":{"address":["tel:+221772421253"],"senderAddress":"tel:+221773387902","senderName":"ipps","outboundSMSTextMessage":{"message":"Shalom famille! \\nSp\xc3\xa9cial programme du 02 au 04 sept. 2022 \xc3\xa0 Monteiro. \\nTheme: Les th\xc3\xa9raphim de Laban.\\nNe manquez pas ce rendez-vous du proph\xc3\xa9tique, des d\xc3\xa9livrances, J\xc3\x89SUS sera glorifi\xc3\xa9. Ne venez pas seul.\\nDieu vous b\xc3\xa9nisse \\uD83D\\uDE4F\\uD83C\\uDFFE\xe2\x9d\xa4\xef\xb8\x8f\\nInfos:bit.ly/3dZDH9B\\nStop les SMS: bit.ly/3vXGHx1"},"resourceURL":"https://api.orange.com/smsmessaging/v1/outbound/tel:+221773387902/requests/c00496ad-615e-485b-a19f-29a7d395b7bd"}}'
2022-08-31 17:02:57 | numéro : 772422687 | resultat envoi : b'{"outboundSMSMessageRequest":{"address":["tel:+221772422687"],"senderAddress":"tel:+221773387902","senderName":"ipps","outboundSMSTextMessage":{"message":"Shalom famille! \\nSp\xc3\xa9cial programme du 02 au 04 sept. 2022 \xc3\xa0 Monteiro. \\nTheme: Les th\xc3\xa9raphim de Laban.\\nNe manquez pas ce rendez-vous du proph\xc3\xa9tique, des d\xc3\xa9livrances, J\xc3\x89SUS sera glorifi\xc3\xa9. Ne venez pas seul.\\nDieu vous b\xc3\xa9nisse \\uD83D\\uDE4F\\uD83C\\uDFFE\xe2\x9d\xa4\xef\xb8\x8f\\nInfos:bit.ly/3dZDH9B\\nStop les SMS: bit.ly/3vXGHx1"},"resourceURL":"https://api.orange.com/smsmessaging/v1/outbound/tel:+221773387902/requests/87dcbb3b-589d-460b-8a0d-69ec6889b3e3"}}'
2022-08-31 17:02:57 | numéro : 772429332 | resultat envoi : b'{"requestError":{"policyException":{"messageId":"POL0001","text":"A policy error occurred. Error code is %1","variables":["Not enough credit"]}}}'
2022-08-31 17:02:58 | numéro : 772430279 | resultat envoi : b'{"requestError":{"policyException":{"messageId":"POL0001","text":"A policy error occurred. Error code is %1","variables":["Not enough credit"]}}}'
2022-08-31 17:02:58 | numéro : 772437434 | resultat envoi : b'{"requestError":{"policyException":{"messageId":"POL0001","text":"A policy error occurred. Error code is %1","variables":["Not enough credit"]}}}'
2022-08-31 17:02:58 | numéro : 772448220 | resultat envoi : b'{"outboundSMSMessageRequest":{"address":["tel:+221772448220"],"senderAddress":"tel:+221773387902","senderName":"ipps","outboundSMSTextMessage":{"message":"Shalom famille! \\nSp\xc3\xa9cial programme du 02 au 04 sept. 2022 \xc3\xa0 Monteiro. \\nTheme: Les th\xc3\xa9raphim de Laban.\\nNe manquez pas ce rendez-vous du proph\xc3\xa9tique, des d\xc3\xa9livrances, J\xc3\x89SUS sera glorifi\xc3\xa9. Ne venez pas seul.\\nDieu vous b\xc3\xa9nisse \\uD83D\\uDE4F\\uD83C\\uDFFE\xe2\x9d\xa4\xef\xb8\x8f\\nInfos:bit.ly/3dZDH9B\\nStop les SMS: bit.ly/3vXGHx1"},"resourceURL":"https://api.orange.com/smsmessaging/v1/outbound/tel:+221773387902/requests/ccde41b0-8be0-431e-8f9e-3bc374ec5f5e"}}'
2022-08-31 17:02:59 | numéro : 772454923 | resultat envoi : b'{"outboundSMSMessageRequest":{"address":["tel:+221772454923"],"senderAddress":"tel:+221773387902","senderName":"ipps","outboundSMSTextMessage":{"message":"Shalom famille! \\nSp\xc3\xa9cial programme du 02 au 04 sept. 2022 \xc3\xa0 Monteiro. \\nTheme: Les th\xc3\xa9raphim de Laban.\\nNe manquez pas ce rendez-vous du proph\xc3\xa9tique, des d\xc3\xa9livrances, J\xc3\x89SUS sera glorifi\xc3\xa9. Ne venez pas seul.\\nDieu vous b\xc3\xa9nisse \\uD83D\\uDE4F\\uD83C\\uDFFE\xe2\x9d\xa4\xef\xb8\x8f\\nInfos:bit.ly/3dZDH9B\\nStop les SMS: bit.ly/3vXGHx1"},"resourceURL":"https://api.orange.com/smsmessaging/v1/outbound/tel:+221773387902/requests/9cbc9369-1420-4130-af6d-ac0da19b08c7"}}'
2022-08-31 17:02:59 | numéro : 772455331 | resultat envoi : b'{"requestError":{"policyException":{"messageId":"POL0001","text":"A policy error occurred. Error code is %1","variables":["Not enough credit"]}}}'
2022-08-31 17:03:00 | numéro : 772465697 | resultat envoi : b'{"outboundSMSMessageRequest":{"address":["tel:+221772465697"],"senderAddress":"tel:+221773387902","senderName":"ipps","outboundSMSTextMessage":{"message":"Shalom famille! \\nSp\xc3\xa9cial programme du 02 au 04 sept. 2022 \xc3\xa0 Monteiro. \\nTheme: Les th\xc3\xa9raphim de Laban.\\nNe manquez pas ce rendez-vous du proph\xc3\xa9tique, des d\xc3\xa9livrances, J\xc3\x89SUS sera glorifi\xc3\xa9. Ne venez pas seul.\\nDieu vous b\xc3\xa9nisse \\uD83D\\uDE4F\\uD83C\\uDFFE\xe2\x9d\xa4\xef\xb8\x8f\\nInfos:bit.ly/3dZDH9B\\nStop les SMS: bit.ly/3vXGHx1"},"resourceURL":"https://api.orange.com/smsmessaging/v1/outbound/tel:+221773387902/requests/4d733da3-9965-451f-8ab8-3c607bc7dc15"}}'
2022-08-31 17:03:00 | numéro : 772483428 | resultat envoi : b'{"outboundSMSMessageRequest":{"address":["tel:+221772483428"],"senderAddress":"tel:+221773387902","senderName":"ipps","outboundSMSTextMessage":{"message":"Shalom famille! \\nSp\xc3\xa9cial programme du 02 au 04 sept. 2022 \xc3\xa0 Monteiro. \\nTheme: Les th\xc3\xa9raphim de Laban.\\nNe manquez pas ce rendez-vous du proph\xc3\xa9tique, des d\xc3\xa9livrances, J\xc3\x89SUS sera glorifi\xc3\xa9. Ne venez pas seul.\\nDieu vous b\xc3\xa9nisse \\uD83D\\uDE4F\\uD83C\\uDFFE\xe2\x9d\xa4\xef\xb8\x8f\\nInfos:bit.ly/3dZDH9B\\nStop les SMS: bit.ly/3vXGHx1"},"resourceURL":"https://api.orange.com/smsmessaging/v1/outbound/tel:+221773387902/requests/7fdea81f-c705-42c8-bd20-42e5cab351ba"}}'
2022-08-31 17:03:01 | numéro : 772494914 | resultat envoi : b'{"outboundSMSMessageRequest":{"address":["tel:+221772494914"],"senderAddress":"tel:+221773387902","senderName":"ipps","outboundSMSTextMessage":{"message":"Shalom famille! \\nSp\xc3\xa9cial programme du 02 au 04 sept. 2022 \xc3\xa0 Monteiro. \\nTheme: Les th\xc3\xa9raphim de Laban.\\nNe manquez pas ce rendez-vous du proph\xc3\xa9tique, des d\xc3\xa9livrances, J\xc3\x89SUS sera glorifi\xc3\xa9. Ne venez pas seul.\\nDieu vous b\xc3\xa9nisse \\uD83D\\uDE4F\\uD83C\\uDFFE\xe2\x9d\xa4\xef\xb8\x8f\\nInfos:bit.ly/3dZDH9B\\nStop les SMS: bit.ly/3vXGHx1"},"resourceURL":"https://api.orange.com/smsmessaging/v1/outbound/tel:+221773387902/requests/2e7b1f43-6169-4a1e-ab12-1441bf8b6f6b"}}'
2022-08-31 17:03:01 | balance 33 | fin envoi
