2021-06-23 12:02:00 | balance 815 | debut envoi
2021-06-23 12:02:00 | numéro : 776483485 | resultat envoi : b'{"outboundSMSMessageRequest":{"address":["tel:+221776483485"],"senderAddress":"tel:+221773387902","senderName":"ipps","outboundSMSTextMessage":{"message":"Chers cat\xc3\xa9chistes,\\nPour rester fid\xc3\xa8les \xc3\xa0 notre engagement de solidarit\xc3\xa9 pour nos soeurs et fr\xc3\xa8res dans la douleur ou dans un heureux \xc3\xa9v\xc3\xa8nement, nous vous sollicitons pour une collecte, montant \xc3\xa0 votre discretion, pour un geste symbolique pour chaqu\'un d\'eux avant la fin de la cat\xc3\xa9ch\xc3\xa8se.\\nA envoyer \xc3\xa0 Mme Bocand\xc3\xa9 au 77 645 89 71.\\nQue Dieu vous b\xc3\xa9nisse.\\n\\nLe bureau de la cat\xc3\xa9ch\xc3\xa8se."},"resourceURL":"https://api.orange.com/smsmessaging/v1/outbound/tel:+221773387902/requests/f93f39c3-b929-4f01-a546-2a2f10bbc332"}}'
2021-06-23 12:02:01 | numéro : 776458971 | resultat envoi : b'{"outboundSMSMessageRequest":{"address":["tel:+221776458971"],"senderAddress":"tel:+221773387902","senderName":"ipps","outboundSMSTextMessage":{"message":"Chers cat\xc3\xa9chistes,\\nPour rester fid\xc3\xa8les \xc3\xa0 notre engagement de solidarit\xc3\xa9 pour nos soeurs et fr\xc3\xa8res dans la douleur ou dans un heureux \xc3\xa9v\xc3\xa8nement, nous vous sollicitons pour une collecte, montant \xc3\xa0 votre discretion, pour un geste symbolique pour chaqu\'un d\'eux avant la fin de la cat\xc3\xa9ch\xc3\xa8se.\\nA envoyer \xc3\xa0 Mme Bocand\xc3\xa9 au 77 645 89 71.\\nQue Dieu vous b\xc3\xa9nisse.\\n\\nLe bureau de la cat\xc3\xa9ch\xc3\xa8se."},"resourceURL":"https://api.orange.com/smsmessaging/v1/outbound/tel:+221773387902/requests/72421770-00d6-48de-960a-e536f7f3c7f7"}}'
2021-06-23 12:02:01 | numéro : 775782652 | resultat envoi : b'{"outboundSMSMessageRequest":{"address":["tel:+221775782652"],"senderAddress":"tel:+221773387902","senderName":"ipps","outboundSMSTextMessage":{"message":"Chers cat\xc3\xa9chistes,\\nPour rester fid\xc3\xa8les \xc3\xa0 notre engagement de solidarit\xc3\xa9 pour nos soeurs et fr\xc3\xa8res dans la douleur ou dans un heureux \xc3\xa9v\xc3\xa8nement, nous vous sollicitons pour une collecte, montant \xc3\xa0 votre discretion, pour un geste symbolique pour chaqu\'un d\'eux avant la fin de la cat\xc3\xa9ch\xc3\xa8se.\\nA envoyer \xc3\xa0 Mme Bocand\xc3\xa9 au 77 645 89 71.\\nQue Dieu vous b\xc3\xa9nisse.\\n\\nLe bureau de la cat\xc3\xa9ch\xc3\xa8se."},"resourceURL":"https://api.orange.com/smsmessaging/v1/outbound/tel:+221773387902/requests/a5905f0c-c3e5-444c-b309-131437cb3ccc"}}'
2021-06-23 12:02:01 | numéro : 773670365 | resultat envoi : b'{"outboundSMSMessageRequest":{"address":["tel:+221773670365"],"senderAddress":"tel:+221773387902","senderName":"ipps","outboundSMSTextMessage":{"message":"Chers cat\xc3\xa9chistes,\\nPour rester fid\xc3\xa8les \xc3\xa0 notre engagement de solidarit\xc3\xa9 pour nos soeurs et fr\xc3\xa8res dans la douleur ou dans un heureux \xc3\xa9v\xc3\xa8nement, nous vous sollicitons pour une collecte, montant \xc3\xa0 votre discretion, pour un geste symbolique pour chaqu\'un d\'eux avant la fin de la cat\xc3\xa9ch\xc3\xa8se.\\nA envoyer \xc3\xa0 Mme Bocand\xc3\xa9 au 77 645 89 71.\\nQue Dieu vous b\xc3\xa9nisse.\\n\\nLe bureau de la cat\xc3\xa9ch\xc3\xa8se."},"resourceURL":"https://api.orange.com/smsmessaging/v1/outbound/tel:+221773387902/requests/866b04bd-a742-4354-b7ee-1b96efb53580"}}'
2021-06-23 12:02:01 | numéro : 775452777 | resultat envoi : b'{"outboundSMSMessageRequest":{"address":["tel:+221775452777"],"senderAddress":"tel:+221773387902","senderName":"ipps","outboundSMSTextMessage":{"message":"Chers cat\xc3\xa9chistes,\\nPour rester fid\xc3\xa8les \xc3\xa0 notre engagement de solidarit\xc3\xa9 pour nos soeurs et fr\xc3\xa8res dans la douleur ou dans un heureux \xc3\xa9v\xc3\xa8nement, nous vous sollicitons pour une collecte, montant \xc3\xa0 votre discretion, pour un geste symbolique pour chaqu\'un d\'eux avant la fin de la cat\xc3\xa9ch\xc3\xa8se.\\nA envoyer \xc3\xa0 Mme Bocand\xc3\xa9 au 77 645 89 71.\\nQue Dieu vous b\xc3\xa9nisse.\\n\\nLe bureau de la cat\xc3\xa9ch\xc3\xa8se."},"resourceURL":"https://api.orange.com/smsmessaging/v1/outbound/tel:+221773387902/requests/fc04d95b-b9cd-45df-afd5-8cbe244d66b1"}}'
2021-06-23 12:02:02 | numéro : 774095176 | resultat envoi : b'{"outboundSMSMessageRequest":{"address":["tel:+221774095176"],"senderAddress":"tel:+221773387902","senderName":"ipps","outboundSMSTextMessage":{"message":"Chers cat\xc3\xa9chistes,\\nPour rester fid\xc3\xa8les \xc3\xa0 notre engagement de solidarit\xc3\xa9 pour nos soeurs et fr\xc3\xa8res dans la douleur ou dans un heureux \xc3\xa9v\xc3\xa8nement, nous vous sollicitons pour une collecte, montant \xc3\xa0 votre discretion, pour un geste symbolique pour chaqu\'un d\'eux avant la fin de la cat\xc3\xa9ch\xc3\xa8se.\\nA envoyer \xc3\xa0 Mme Bocand\xc3\xa9 au 77 645 89 71.\\nQue Dieu vous b\xc3\xa9nisse.\\n\\nLe bureau de la cat\xc3\xa9ch\xc3\xa8se."},"resourceURL":"https://api.orange.com/smsmessaging/v1/outbound/tel:+221773387902/requests/66ee8392-fadf-4417-9a72-3cb0e1507c41"}}'
2021-06-23 12:02:02 | numéro : 776108894 | resultat envoi : b'{"outboundSMSMessageRequest":{"address":["tel:+221776108894"],"senderAddress":"tel:+221773387902","senderName":"ipps","outboundSMSTextMessage":{"message":"Chers cat\xc3\xa9chistes,\\nPour rester fid\xc3\xa8les \xc3\xa0 notre engagement de solidarit\xc3\xa9 pour nos soeurs et fr\xc3\xa8res dans la douleur ou dans un heureux \xc3\xa9v\xc3\xa8nement, nous vous sollicitons pour une collecte, montant \xc3\xa0 votre discretion, pour un geste symbolique pour chaqu\'un d\'eux avant la fin de la cat\xc3\xa9ch\xc3\xa8se.\\nA envoyer \xc3\xa0 Mme Bocand\xc3\xa9 au 77 645 89 71.\\nQue Dieu vous b\xc3\xa9nisse.\\n\\nLe bureau de la cat\xc3\xa9ch\xc3\xa8se."},"resourceURL":"https://api.orange.com/smsmessaging/v1/outbound/tel:+221773387902/requests/e335f9d8-76c9-436a-92d7-a942f4e62402"}}'
2021-06-23 12:02:02 | numéro : 765005555 | resultat envoi : b'{"outboundSMSMessageRequest":{"address":["tel:+221765005555"],"senderAddress":"tel:+221773387902","senderName":"ipps","outboundSMSTextMessage":{"message":"Chers cat\xc3\xa9chistes,\\nPour rester fid\xc3\xa8les \xc3\xa0 notre engagement de solidarit\xc3\xa9 pour nos soeurs et fr\xc3\xa8res dans la douleur ou dans un heureux \xc3\xa9v\xc3\xa8nement, nous vous sollicitons pour une collecte, montant \xc3\xa0 votre discretion, pour un geste symbolique pour chaqu\'un d\'eux avant la fin de la cat\xc3\xa9ch\xc3\xa8se.\\nA envoyer \xc3\xa0 Mme Bocand\xc3\xa9 au 77 645 89 71.\\nQue Dieu vous b\xc3\xa9nisse.\\n\\nLe bureau de la cat\xc3\xa9ch\xc3\xa8se."},"resourceURL":"https://api.orange.com/smsmessaging/v1/outbound/tel:+221773387902/requests/6b507b27-4bbf-4899-8815-39a59a4a31c5"}}'
2021-06-23 12:02:02 | numéro : 778590854 | resultat envoi : b'{"outboundSMSMessageRequest":{"address":["tel:+221778590854"],"senderAddress":"tel:+221773387902","senderName":"ipps","outboundSMSTextMessage":{"message":"Chers cat\xc3\xa9chistes,\\nPour rester fid\xc3\xa8les \xc3\xa0 notre engagement de solidarit\xc3\xa9 pour nos soeurs et fr\xc3\xa8res dans la douleur ou dans un heureux \xc3\xa9v\xc3\xa8nement, nous vous sollicitons pour une collecte, montant \xc3\xa0 votre discretion, pour un geste symbolique pour chaqu\'un d\'eux avant la fin de la cat\xc3\xa9ch\xc3\xa8se.\\nA envoyer \xc3\xa0 Mme Bocand\xc3\xa9 au 77 645 89 71.\\nQue Dieu vous b\xc3\xa9nisse.\\n\\nLe bureau de la cat\xc3\xa9ch\xc3\xa8se."},"resourceURL":"https://api.orange.com/smsmessaging/v1/outbound/tel:+221773387902/requests/de962222-e9e2-425c-a6d0-db1b7635c627"}}'
2021-06-23 12:02:03 | numéro : 775126906 | resultat envoi : b'{"outboundSMSMessageRequest":{"address":["tel:+221775126906"],"senderAddress":"tel:+221773387902","senderName":"ipps","outboundSMSTextMessage":{"message":"Chers cat\xc3\xa9chistes,\\nPour rester fid\xc3\xa8les \xc3\xa0 notre engagement de solidarit\xc3\xa9 pour nos soeurs et fr\xc3\xa8res dans la douleur ou dans un heureux \xc3\xa9v\xc3\xa8nement, nous vous sollicitons pour une collecte, montant \xc3\xa0 votre discretion, pour un geste symbolique pour chaqu\'un d\'eux avant la fin de la cat\xc3\xa9ch\xc3\xa8se.\\nA envoyer \xc3\xa0 Mme Bocand\xc3\xa9 au 77 645 89 71.\\nQue Dieu vous b\xc3\xa9nisse.\\n\\nLe bureau de la cat\xc3\xa9ch\xc3\xa8se."},"resourceURL":"https://api.orange.com/smsmessaging/v1/outbound/tel:+221773387902/requests/94e1ac2b-feeb-4c9f-8616-03023f2b367b"}}'
2021-06-23 12:02:03 | numéro : 765472363 | resultat envoi : b'{"outboundSMSMessageRequest":{"address":["tel:+221765472363"],"senderAddress":"tel:+221773387902","senderName":"ipps","outboundSMSTextMessage":{"message":"Chers cat\xc3\xa9chistes,\\nPour rester fid\xc3\xa8les \xc3\xa0 notre engagement de solidarit\xc3\xa9 pour nos soeurs et fr\xc3\xa8res dans la douleur ou dans un heureux \xc3\xa9v\xc3\xa8nement, nous vous sollicitons pour une collecte, montant \xc3\xa0 votre discretion, pour un geste symbolique pour chaqu\'un d\'eux avant la fin de la cat\xc3\xa9ch\xc3\xa8se.\\nA envoyer \xc3\xa0 Mme Bocand\xc3\xa9 au 77 645 89 71.\\nQue Dieu vous b\xc3\xa9nisse.\\n\\nLe bureau de la cat\xc3\xa9ch\xc3\xa8se."},"resourceURL":"https://api.orange.com/smsmessaging/v1/outbound/tel:+221773387902/requests/61993f44-b913-4fa8-8645-4b1379ffb44f"}}'
2021-06-23 12:02:03 | numéro : 774444153 | resultat envoi : b'{"outboundSMSMessageRequest":{"address":["tel:+221774444153"],"senderAddress":"tel:+221773387902","senderName":"ipps","outboundSMSTextMessage":{"message":"Chers cat\xc3\xa9chistes,\\nPour rester fid\xc3\xa8les \xc3\xa0 notre engagement de solidarit\xc3\xa9 pour nos soeurs et fr\xc3\xa8res dans la douleur ou dans un heureux \xc3\xa9v\xc3\xa8nement, nous vous sollicitons pour une collecte, montant \xc3\xa0 votre discretion, pour un geste symbolique pour chaqu\'un d\'eux avant la fin de la cat\xc3\xa9ch\xc3\xa8se.\\nA envoyer \xc3\xa0 Mme Bocand\xc3\xa9 au 77 645 89 71.\\nQue Dieu vous b\xc3\xa9nisse.\\n\\nLe bureau de la cat\xc3\xa9ch\xc3\xa8se."},"resourceURL":"https://api.orange.com/smsmessaging/v1/outbound/tel:+221773387902/requests/f7cdb529-a716-4ef1-980a-13f6273ef157"}}'
2021-06-23 12:02:04 | numéro : 775264921 | resultat envoi : b'{"outboundSMSMessageRequest":{"address":["tel:+221775264921"],"senderAddress":"tel:+221773387902","senderName":"ipps","outboundSMSTextMessage":{"message":"Chers cat\xc3\xa9chistes,\\nPour rester fid\xc3\xa8les \xc3\xa0 notre engagement de solidarit\xc3\xa9 pour nos soeurs et fr\xc3\xa8res dans la douleur ou dans un heureux \xc3\xa9v\xc3\xa8nement, nous vous sollicitons pour une collecte, montant \xc3\xa0 votre discretion, pour un geste symbolique pour chaqu\'un d\'eux avant la fin de la cat\xc3\xa9ch\xc3\xa8se.\\nA envoyer \xc3\xa0 Mme Bocand\xc3\xa9 au 77 645 89 71.\\nQue Dieu vous b\xc3\xa9nisse.\\n\\nLe bureau de la cat\xc3\xa9ch\xc3\xa8se."},"resourceURL":"https://api.orange.com/smsmessaging/v1/outbound/tel:+221773387902/requests/78dce994-cd81-45a0-b2c3-e03d0228d306"}}'
2021-06-23 12:02:04 | numéro : 771541666 | resultat envoi : b'{"outboundSMSMessageRequest":{"address":["tel:+221771541666"],"senderAddress":"tel:+221773387902","senderName":"ipps","outboundSMSTextMessage":{"message":"Chers cat\xc3\xa9chistes,\\nPour rester fid\xc3\xa8les \xc3\xa0 notre engagement de solidarit\xc3\xa9 pour nos soeurs et fr\xc3\xa8res dans la douleur ou dans un heureux \xc3\xa9v\xc3\xa8nement, nous vous sollicitons pour une collecte, montant \xc3\xa0 votre discretion, pour un geste symbolique pour chaqu\'un d\'eux avant la fin de la cat\xc3\xa9ch\xc3\xa8se.\\nA envoyer \xc3\xa0 Mme Bocand\xc3\xa9 au 77 645 89 71.\\nQue Dieu vous b\xc3\xa9nisse.\\n\\nLe bureau de la cat\xc3\xa9ch\xc3\xa8se."},"resourceURL":"https://api.orange.com/smsmessaging/v1/outbound/tel:+221773387902/requests/d3ef341d-59f2-4e96-9f94-fc11f64e78ed"}}'
2021-06-23 12:02:04 | numéro : 775106381 | resultat envoi : b'{"outboundSMSMessageRequest":{"address":["tel:+221775106381"],"senderAddress":"tel:+221773387902","senderName":"ipps","outboundSMSTextMessage":{"message":"Chers cat\xc3\xa9chistes,\\nPour rester fid\xc3\xa8les \xc3\xa0 notre engagement de solidarit\xc3\xa9 pour nos soeurs et fr\xc3\xa8res dans la douleur ou dans un heureux \xc3\xa9v\xc3\xa8nement, nous vous sollicitons pour une collecte, montant \xc3\xa0 votre discretion, pour un geste symbolique pour chaqu\'un d\'eux avant la fin de la cat\xc3\xa9ch\xc3\xa8se.\\nA envoyer \xc3\xa0 Mme Bocand\xc3\xa9 au 77 645 89 71.\\nQue Dieu vous b\xc3\xa9nisse.\\n\\nLe bureau de la cat\xc3\xa9ch\xc3\xa8se."},"resourceURL":"https://api.orange.com/smsmessaging/v1/outbound/tel:+221773387902/requests/6c5fc256-ed39-4d82-8dbc-717dc628cc34"}}'
2021-06-23 12:02:05 | numéro : 775484214 | resultat envoi : b'{"outboundSMSMessageRequest":{"address":["tel:+221775484214"],"senderAddress":"tel:+221773387902","senderName":"ipps","outboundSMSTextMessage":{"message":"Chers cat\xc3\xa9chistes,\\nPour rester fid\xc3\xa8les \xc3\xa0 notre engagement de solidarit\xc3\xa9 pour nos soeurs et fr\xc3\xa8res dans la douleur ou dans un heureux \xc3\xa9v\xc3\xa8nement, nous vous sollicitons pour une collecte, montant \xc3\xa0 votre discretion, pour un geste symbolique pour chaqu\'un d\'eux avant la fin de la cat\xc3\xa9ch\xc3\xa8se.\\nA envoyer \xc3\xa0 Mme Bocand\xc3\xa9 au 77 645 89 71.\\nQue Dieu vous b\xc3\xa9nisse.\\n\\nLe bureau de la cat\xc3\xa9ch\xc3\xa8se."},"resourceURL":"https://api.orange.com/smsmessaging/v1/outbound/tel:+221773387902/requests/bb865258-d018-4b4d-b839-181b8b7f9e16"}}'
2021-06-23 12:02:06 | numéro : 776567822 | resultat envoi : b'{"outboundSMSMessageRequest":{"address":["tel:+221776567822"],"senderAddress":"tel:+221773387902","senderName":"ipps","outboundSMSTextMessage":{"message":"Chers cat\xc3\xa9chistes,\\nPour rester fid\xc3\xa8les \xc3\xa0 notre engagement de solidarit\xc3\xa9 pour nos soeurs et fr\xc3\xa8res dans la douleur ou dans un heureux \xc3\xa9v\xc3\xa8nement, nous vous sollicitons pour une collecte, montant \xc3\xa0 votre discretion, pour un geste symbolique pour chaqu\'un d\'eux avant la fin de la cat\xc3\xa9ch\xc3\xa8se.\\nA envoyer \xc3\xa0 Mme Bocand\xc3\xa9 au 77 645 89 71.\\nQue Dieu vous b\xc3\xa9nisse.\\n\\nLe bureau de la cat\xc3\xa9ch\xc3\xa8se."},"resourceURL":"https://api.orange.com/smsmessaging/v1/outbound/tel:+221773387902/requests/21e57da6-5cf4-45c6-99d5-a8bf6d80bd64"}}'
2021-06-23 12:02:06 | numéro : 776419216 | resultat envoi : b'{"outboundSMSMessageRequest":{"address":["tel:+221776419216"],"senderAddress":"tel:+221773387902","senderName":"ipps","outboundSMSTextMessage":{"message":"Chers cat\xc3\xa9chistes,\\nPour rester fid\xc3\xa8les \xc3\xa0 notre engagement de solidarit\xc3\xa9 pour nos soeurs et fr\xc3\xa8res dans la douleur ou dans un heureux \xc3\xa9v\xc3\xa8nement, nous vous sollicitons pour une collecte, montant \xc3\xa0 votre discretion, pour un geste symbolique pour chaqu\'un d\'eux avant la fin de la cat\xc3\xa9ch\xc3\xa8se.\\nA envoyer \xc3\xa0 Mme Bocand\xc3\xa9 au 77 645 89 71.\\nQue Dieu vous b\xc3\xa9nisse.\\n\\nLe bureau de la cat\xc3\xa9ch\xc3\xa8se."},"resourceURL":"https://api.orange.com/smsmessaging/v1/outbound/tel:+221773387902/requests/d1958bba-5f82-4844-8b22-92426525aea9"}}'
2021-06-23 12:02:06 | numéro : 776373107 | resultat envoi : b'{"outboundSMSMessageRequest":{"address":["tel:+221776373107"],"senderAddress":"tel:+221773387902","senderName":"ipps","outboundSMSTextMessage":{"message":"Chers cat\xc3\xa9chistes,\\nPour rester fid\xc3\xa8les \xc3\xa0 notre engagement de solidarit\xc3\xa9 pour nos soeurs et fr\xc3\xa8res dans la douleur ou dans un heureux \xc3\xa9v\xc3\xa8nement, nous vous sollicitons pour une collecte, montant \xc3\xa0 votre discretion, pour un geste symbolique pour chaqu\'un d\'eux avant la fin de la cat\xc3\xa9ch\xc3\xa8se.\\nA envoyer \xc3\xa0 Mme Bocand\xc3\xa9 au 77 645 89 71.\\nQue Dieu vous b\xc3\xa9nisse.\\n\\nLe bureau de la cat\xc3\xa9ch\xc3\xa8se."},"resourceURL":"https://api.orange.com/smsmessaging/v1/outbound/tel:+221773387902/requests/9c67afe5-b2f8-4940-9fb2-55b11f7a90f7"}}'
2021-06-23 12:02:07 | numéro : 766614352 | resultat envoi : b'{"outboundSMSMessageRequest":{"address":["tel:+221766614352"],"senderAddress":"tel:+221773387902","senderName":"ipps","outboundSMSTextMessage":{"message":"Chers cat\xc3\xa9chistes,\\nPour rester fid\xc3\xa8les \xc3\xa0 notre engagement de solidarit\xc3\xa9 pour nos soeurs et fr\xc3\xa8res dans la douleur ou dans un heureux \xc3\xa9v\xc3\xa8nement, nous vous sollicitons pour une collecte, montant \xc3\xa0 votre discretion, pour un geste symbolique pour chaqu\'un d\'eux avant la fin de la cat\xc3\xa9ch\xc3\xa8se.\\nA envoyer \xc3\xa0 Mme Bocand\xc3\xa9 au 77 645 89 71.\\nQue Dieu vous b\xc3\xa9nisse.\\n\\nLe bureau de la cat\xc3\xa9ch\xc3\xa8se."},"resourceURL":"https://api.orange.com/smsmessaging/v1/outbound/tel:+221773387902/requests/02e6df64-de8a-4fbb-b793-64ce46437657"}}'
2021-06-23 12:02:07 | numéro : 776084967 | resultat envoi : b'{"outboundSMSMessageRequest":{"address":["tel:+221776084967"],"senderAddress":"tel:+221773387902","senderName":"ipps","outboundSMSTextMessage":{"message":"Chers cat\xc3\xa9chistes,\\nPour rester fid\xc3\xa8les \xc3\xa0 notre engagement de solidarit\xc3\xa9 pour nos soeurs et fr\xc3\xa8res dans la douleur ou dans un heureux \xc3\xa9v\xc3\xa8nement, nous vous sollicitons pour une collecte, montant \xc3\xa0 votre discretion, pour un geste symbolique pour chaqu\'un d\'eux avant la fin de la cat\xc3\xa9ch\xc3\xa8se.\\nA envoyer \xc3\xa0 Mme Bocand\xc3\xa9 au 77 645 89 71.\\nQue Dieu vous b\xc3\xa9nisse.\\n\\nLe bureau de la cat\xc3\xa9ch\xc3\xa8se."},"resourceURL":"https://api.orange.com/smsmessaging/v1/outbound/tel:+221773387902/requests/a14a5c2c-f922-4aee-86e9-20e983195611"}}'
2021-06-23 12:02:07 | numéro : 775090971 | resultat envoi : b'{"outboundSMSMessageRequest":{"address":["tel:+221775090971"],"senderAddress":"tel:+221773387902","senderName":"ipps","outboundSMSTextMessage":{"message":"Chers cat\xc3\xa9chistes,\\nPour rester fid\xc3\xa8les \xc3\xa0 notre engagement de solidarit\xc3\xa9 pour nos soeurs et fr\xc3\xa8res dans la douleur ou dans un heureux \xc3\xa9v\xc3\xa8nement, nous vous sollicitons pour une collecte, montant \xc3\xa0 votre discretion, pour un geste symbolique pour chaqu\'un d\'eux avant la fin de la cat\xc3\xa9ch\xc3\xa8se.\\nA envoyer \xc3\xa0 Mme Bocand\xc3\xa9 au 77 645 89 71.\\nQue Dieu vous b\xc3\xa9nisse.\\n\\nLe bureau de la cat\xc3\xa9ch\xc3\xa8se."},"resourceURL":"https://api.orange.com/smsmessaging/v1/outbound/tel:+221773387902/requests/76152e3c-6e0d-43bc-8372-9f66711f207d"}}'
2021-06-23 12:02:08 | numéro : 778631439 | resultat envoi : b'{"outboundSMSMessageRequest":{"address":["tel:+221778631439"],"senderAddress":"tel:+221773387902","senderName":"ipps","outboundSMSTextMessage":{"message":"Chers cat\xc3\xa9chistes,\\nPour rester fid\xc3\xa8les \xc3\xa0 notre engagement de solidarit\xc3\xa9 pour nos soeurs et fr\xc3\xa8res dans la douleur ou dans un heureux \xc3\xa9v\xc3\xa8nement, nous vous sollicitons pour une collecte, montant \xc3\xa0 votre discretion, pour un geste symbolique pour chaqu\'un d\'eux avant la fin de la cat\xc3\xa9ch\xc3\xa8se.\\nA envoyer \xc3\xa0 Mme Bocand\xc3\xa9 au 77 645 89 71.\\nQue Dieu vous b\xc3\xa9nisse.\\n\\nLe bureau de la cat\xc3\xa9ch\xc3\xa8se."},"resourceURL":"https://api.orange.com/smsmessaging/v1/outbound/tel:+221773387902/requests/46a7119a-7684-45d4-8884-6f1e5bc87093"}}'
2021-06-23 12:02:08 | numéro : 775090971 | resultat envoi : b'{"outboundSMSMessageRequest":{"address":["tel:+221775090971"],"senderAddress":"tel:+221773387902","senderName":"ipps","outboundSMSTextMessage":{"message":"Chers cat\xc3\xa9chistes,\\nPour rester fid\xc3\xa8les \xc3\xa0 notre engagement de solidarit\xc3\xa9 pour nos soeurs et fr\xc3\xa8res dans la douleur ou dans un heureux \xc3\xa9v\xc3\xa8nement, nous vous sollicitons pour une collecte, montant \xc3\xa0 votre discretion, pour un geste symbolique pour chaqu\'un d\'eux avant la fin de la cat\xc3\xa9ch\xc3\xa8se.\\nA envoyer \xc3\xa0 Mme Bocand\xc3\xa9 au 77 645 89 71.\\nQue Dieu vous b\xc3\xa9nisse.\\n\\nLe bureau de la cat\xc3\xa9ch\xc3\xa8se."},"resourceURL":"https://api.orange.com/smsmessaging/v1/outbound/tel:+221773387902/requests/93a052cc-05dd-43d3-8f41-c78fc9f66dc9"}}'
2021-06-23 12:02:08 | numéro : 778631439 | resultat envoi : b'{"outboundSMSMessageRequest":{"address":["tel:+221778631439"],"senderAddress":"tel:+221773387902","senderName":"ipps","outboundSMSTextMessage":{"message":"Chers cat\xc3\xa9chistes,\\nPour rester fid\xc3\xa8les \xc3\xa0 notre engagement de solidarit\xc3\xa9 pour nos soeurs et fr\xc3\xa8res dans la douleur ou dans un heureux \xc3\xa9v\xc3\xa8nement, nous vous sollicitons pour une collecte, montant \xc3\xa0 votre discretion, pour un geste symbolique pour chaqu\'un d\'eux avant la fin de la cat\xc3\xa9ch\xc3\xa8se.\\nA envoyer \xc3\xa0 Mme Bocand\xc3\xa9 au 77 645 89 71.\\nQue Dieu vous b\xc3\xa9nisse.\\n\\nLe bureau de la cat\xc3\xa9ch\xc3\xa8se."},"resourceURL":"https://api.orange.com/smsmessaging/v1/outbound/tel:+221773387902/requests/112d50e0-00c5-4291-b600-989e1212d19e"}}'
2021-06-23 12:02:09 | numéro : 775090971 | resultat envoi : b'{"outboundSMSMessageRequest":{"address":["tel:+221775090971"],"senderAddress":"tel:+221773387902","senderName":"ipps","outboundSMSTextMessage":{"message":"Chers cat\xc3\xa9chistes,\\nPour rester fid\xc3\xa8les \xc3\xa0 notre engagement de solidarit\xc3\xa9 pour nos soeurs et fr\xc3\xa8res dans la douleur ou dans un heureux \xc3\xa9v\xc3\xa8nement, nous vous sollicitons pour une collecte, montant \xc3\xa0 votre discretion, pour un geste symbolique pour chaqu\'un d\'eux avant la fin de la cat\xc3\xa9ch\xc3\xa8se.\\nA envoyer \xc3\xa0 Mme Bocand\xc3\xa9 au 77 645 89 71.\\nQue Dieu vous b\xc3\xa9nisse.\\n\\nLe bureau de la cat\xc3\xa9ch\xc3\xa8se."},"resourceURL":"https://api.orange.com/smsmessaging/v1/outbound/tel:+221773387902/requests/e43006b6-563c-42a4-a1e0-f2a7672885b0"}}'
2021-06-23 12:02:09 | numéro : 778631439 | resultat envoi : b'{"outboundSMSMessageRequest":{"address":["tel:+221778631439"],"senderAddress":"tel:+221773387902","senderName":"ipps","outboundSMSTextMessage":{"message":"Chers cat\xc3\xa9chistes,\\nPour rester fid\xc3\xa8les \xc3\xa0 notre engagement de solidarit\xc3\xa9 pour nos soeurs et fr\xc3\xa8res dans la douleur ou dans un heureux \xc3\xa9v\xc3\xa8nement, nous vous sollicitons pour une collecte, montant \xc3\xa0 votre discretion, pour un geste symbolique pour chaqu\'un d\'eux avant la fin de la cat\xc3\xa9ch\xc3\xa8se.\\nA envoyer \xc3\xa0 Mme Bocand\xc3\xa9 au 77 645 89 71.\\nQue Dieu vous b\xc3\xa9nisse.\\n\\nLe bureau de la cat\xc3\xa9ch\xc3\xa8se."},"resourceURL":"https://api.orange.com/smsmessaging/v1/outbound/tel:+221773387902/requests/c4f4c681-f5d6-4826-bd61-2999c25917db"}}'
2021-06-23 12:02:09 | numéro : 778631439 | resultat envoi : b'{"outboundSMSMessageRequest":{"address":["tel:+221778631439"],"senderAddress":"tel:+221773387902","senderName":"ipps","outboundSMSTextMessage":{"message":"Chers cat\xc3\xa9chistes,\\nPour rester fid\xc3\xa8les \xc3\xa0 notre engagement de solidarit\xc3\xa9 pour nos soeurs et fr\xc3\xa8res dans la douleur ou dans un heureux \xc3\xa9v\xc3\xa8nement, nous vous sollicitons pour une collecte, montant \xc3\xa0 votre discretion, pour un geste symbolique pour chaqu\'un d\'eux avant la fin de la cat\xc3\xa9ch\xc3\xa8se.\\nA envoyer \xc3\xa0 Mme Bocand\xc3\xa9 au 77 645 89 71.\\nQue Dieu vous b\xc3\xa9nisse.\\n\\nLe bureau de la cat\xc3\xa9ch\xc3\xa8se."},"resourceURL":"https://api.orange.com/smsmessaging/v1/outbound/tel:+221773387902/requests/86f55e07-1465-42da-ba85-b0dac7aaa09a"}}'
2021-06-23 12:02:24 | numéro : 776423893 | resultat envoi : b'{"outboundSMSMessageRequest":{"address":["tel:+221776423893"],"senderAddress":"tel:+221773387902","senderName":"ipps","outboundSMSTextMessage":{"message":"Chers cat\xc3\xa9chistes,\\nPour rester fid\xc3\xa8les \xc3\xa0 notre engagement de solidarit\xc3\xa9 pour nos soeurs et fr\xc3\xa8res dans la douleur ou dans un heureux \xc3\xa9v\xc3\xa8nement, nous vous sollicitons pour une collecte, montant \xc3\xa0 votre discretion, pour un geste symbolique pour chaqu\'un d\'eux avant la fin de la cat\xc3\xa9ch\xc3\xa8se.\\nA envoyer \xc3\xa0 Mme Bocand\xc3\xa9 au 77 645 89 71.\\nQue Dieu vous b\xc3\xa9nisse.\\n\\nLe bureau de la cat\xc3\xa9ch\xc3\xa8se."},"resourceURL":"https://api.orange.com/smsmessaging/v1/outbound/tel:+221773387902/requests/085ba1c6-4fc8-419e-b193-7304c39cd672"}}'
2021-06-23 12:02:40 | numéro : 778186880 | resultat envoi : b'{"outboundSMSMessageRequest":{"address":["tel:+221778186880"],"senderAddress":"tel:+221773387902","senderName":"ipps","outboundSMSTextMessage":{"message":"Chers cat\xc3\xa9chistes,\\nPour rester fid\xc3\xa8les \xc3\xa0 notre engagement de solidarit\xc3\xa9 pour nos soeurs et fr\xc3\xa8res dans la douleur ou dans un heureux \xc3\xa9v\xc3\xa8nement, nous vous sollicitons pour une collecte, montant \xc3\xa0 votre discretion, pour un geste symbolique pour chaqu\'un d\'eux avant la fin de la cat\xc3\xa9ch\xc3\xa8se.\\nA envoyer \xc3\xa0 Mme Bocand\xc3\xa9 au 77 645 89 71.\\nQue Dieu vous b\xc3\xa9nisse.\\n\\nLe bureau de la cat\xc3\xa9ch\xc3\xa8se."},"resourceURL":"https://api.orange.com/smsmessaging/v1/outbound/tel:+221773387902/requests/6309f8a8-bea0-4dc2-a0d5-5e502a7827eb"}}'
2021-06-23 12:02:40 | numéro : 774278168 | resultat envoi : b'{"outboundSMSMessageRequest":{"address":["tel:+221774278168"],"senderAddress":"tel:+221773387902","senderName":"ipps","outboundSMSTextMessage":{"message":"Chers cat\xc3\xa9chistes,\\nPour rester fid\xc3\xa8les \xc3\xa0 notre engagement de solidarit\xc3\xa9 pour nos soeurs et fr\xc3\xa8res dans la douleur ou dans un heureux \xc3\xa9v\xc3\xa8nement, nous vous sollicitons pour une collecte, montant \xc3\xa0 votre discretion, pour un geste symbolique pour chaqu\'un d\'eux avant la fin de la cat\xc3\xa9ch\xc3\xa8se.\\nA envoyer \xc3\xa0 Mme Bocand\xc3\xa9 au 77 645 89 71.\\nQue Dieu vous b\xc3\xa9nisse.\\n\\nLe bureau de la cat\xc3\xa9ch\xc3\xa8se."},"resourceURL":"https://api.orange.com/smsmessaging/v1/outbound/tel:+221773387902/requests/bbc84524-dd55-4d5e-88de-dfc52f50c6ca"}}'
2021-06-23 12:02:40 | numéro : 775272339 | resultat envoi : b'{"outboundSMSMessageRequest":{"address":["tel:+221775272339"],"senderAddress":"tel:+221773387902","senderName":"ipps","outboundSMSTextMessage":{"message":"Chers cat\xc3\xa9chistes,\\nPour rester fid\xc3\xa8les \xc3\xa0 notre engagement de solidarit\xc3\xa9 pour nos soeurs et fr\xc3\xa8res dans la douleur ou dans un heureux \xc3\xa9v\xc3\xa8nement, nous vous sollicitons pour une collecte, montant \xc3\xa0 votre discretion, pour un geste symbolique pour chaqu\'un d\'eux avant la fin de la cat\xc3\xa9ch\xc3\xa8se.\\nA envoyer \xc3\xa0 Mme Bocand\xc3\xa9 au 77 645 89 71.\\nQue Dieu vous b\xc3\xa9nisse.\\n\\nLe bureau de la cat\xc3\xa9ch\xc3\xa8se."},"resourceURL":"https://api.orange.com/smsmessaging/v1/outbound/tel:+221773387902/requests/da5fcb25-5de0-4099-a602-aef86aad4474"}}'
2021-06-23 12:02:41 | numéro : 775949406 | resultat envoi : b'{"outboundSMSMessageRequest":{"address":["tel:+221775949406"],"senderAddress":"tel:+221773387902","senderName":"ipps","outboundSMSTextMessage":{"message":"Chers cat\xc3\xa9chistes,\\nPour rester fid\xc3\xa8les \xc3\xa0 notre engagement de solidarit\xc3\xa9 pour nos soeurs et fr\xc3\xa8res dans la douleur ou dans un heureux \xc3\xa9v\xc3\xa8nement, nous vous sollicitons pour une collecte, montant \xc3\xa0 votre discretion, pour un geste symbolique pour chaqu\'un d\'eux avant la fin de la cat\xc3\xa9ch\xc3\xa8se.\\nA envoyer \xc3\xa0 Mme Bocand\xc3\xa9 au 77 645 89 71.\\nQue Dieu vous b\xc3\xa9nisse.\\n\\nLe bureau de la cat\xc3\xa9ch\xc3\xa8se."},"resourceURL":"https://api.orange.com/smsmessaging/v1/outbound/tel:+221773387902/requests/c9bf6a9a-0a7a-49e4-8135-ea2d47e1aad0"}}'
2021-06-23 12:02:41 | numéro : 776533581 | resultat envoi : b'{"outboundSMSMessageRequest":{"address":["tel:+221776533581"],"senderAddress":"tel:+221773387902","senderName":"ipps","outboundSMSTextMessage":{"message":"Chers cat\xc3\xa9chistes,\\nPour rester fid\xc3\xa8les \xc3\xa0 notre engagement de solidarit\xc3\xa9 pour nos soeurs et fr\xc3\xa8res dans la douleur ou dans un heureux \xc3\xa9v\xc3\xa8nement, nous vous sollicitons pour une collecte, montant \xc3\xa0 votre discretion, pour un geste symbolique pour chaqu\'un d\'eux avant la fin de la cat\xc3\xa9ch\xc3\xa8se.\\nA envoyer \xc3\xa0 Mme Bocand\xc3\xa9 au 77 645 89 71.\\nQue Dieu vous b\xc3\xa9nisse.\\n\\nLe bureau de la cat\xc3\xa9ch\xc3\xa8se."},"resourceURL":"https://api.orange.com/smsmessaging/v1/outbound/tel:+221773387902/requests/64cc4ce8-d579-4f27-aa2f-4f79b9de8af5"}}'
2021-06-23 12:02:41 | numéro : 784237451 | resultat envoi : b'{"outboundSMSMessageRequest":{"address":["tel:+221784237451"],"senderAddress":"tel:+221773387902","senderName":"ipps","outboundSMSTextMessage":{"message":"Chers cat\xc3\xa9chistes,\\nPour rester fid\xc3\xa8les \xc3\xa0 notre engagement de solidarit\xc3\xa9 pour nos soeurs et fr\xc3\xa8res dans la douleur ou dans un heureux \xc3\xa9v\xc3\xa8nement, nous vous sollicitons pour une collecte, montant \xc3\xa0 votre discretion, pour un geste symbolique pour chaqu\'un d\'eux avant la fin de la cat\xc3\xa9ch\xc3\xa8se.\\nA envoyer \xc3\xa0 Mme Bocand\xc3\xa9 au 77 645 89 71.\\nQue Dieu vous b\xc3\xa9nisse.\\n\\nLe bureau de la cat\xc3\xa9ch\xc3\xa8se."},"resourceURL":"https://api.orange.com/smsmessaging/v1/outbound/tel:+221773387902/requests/92294c54-60ec-4c2c-af5a-72f6ab9a53d5"}}'
2021-06-23 12:02:41 | balance 395 | fin envoi
