2021-05-21 12:17:02 | balance 337 | debut envoi
2021-05-21 12:17:02 | numéro : 771490977 | resultat envoi : b'{"outboundSMSMessageRequest":{"address":["tel:+221771490977"],"senderAddress":"tel:+221773387902","senderName":"ipps","outboundSMSTextMessage":{"message":"Chers parents,\\nComme annonc\xc3\xa9, les photos et vid\xc3\xa9os dans l\'\xc3\xa9glise seront exclusivement g\xc3\xa9r\xc3\xa9es par la cat\xc3\xa9ch\xc3\xa8se. Vous pouvez vous inscrire en suivant ce lien pour la communion et verser d\'avance le prix des photos/vid\xc3\xa9os : https://bit.ly/3hHMKQ4\\n\\nLe bureau de la cat\xc3\xa9ch\xc3\xa8se."},"resourceURL":"https://api.orange.com/smsmessaging/v1/outbound/tel:+221773387902/requests/ac71f13d-d12a-4da2-8e60-69985b3187e2"}}'
2021-05-21 12:17:03 | numéro : 771661816 | resultat envoi : b'{"outboundSMSMessageRequest":{"address":["tel:+221771661816"],"senderAddress":"tel:+221773387902","senderName":"ipps","outboundSMSTextMessage":{"message":"Chers parents,\\nComme annonc\xc3\xa9, les photos et vid\xc3\xa9os dans l\'\xc3\xa9glise seront exclusivement g\xc3\xa9r\xc3\xa9es par la cat\xc3\xa9ch\xc3\xa8se. Vous pouvez vous inscrire en suivant ce lien pour la communion et verser d\'avance le prix des photos/vid\xc3\xa9os : https://bit.ly/3hHMKQ4\\n\\nLe bureau de la cat\xc3\xa9ch\xc3\xa8se."},"resourceURL":"https://api.orange.com/smsmessaging/v1/outbound/tel:+221773387902/requests/8380e1dc-0548-4405-aa20-da93aca014c9"}}'
2021-05-21 12:17:03 | numéro : 776499719 | resultat envoi : b'{"outboundSMSMessageRequest":{"address":["tel:+221776499719"],"senderAddress":"tel:+221773387902","senderName":"ipps","outboundSMSTextMessage":{"message":"Chers parents,\\nComme annonc\xc3\xa9, les photos et vid\xc3\xa9os dans l\'\xc3\xa9glise seront exclusivement g\xc3\xa9r\xc3\xa9es par la cat\xc3\xa9ch\xc3\xa8se. Vous pouvez vous inscrire en suivant ce lien pour la communion et verser d\'avance le prix des photos/vid\xc3\xa9os : https://bit.ly/3hHMKQ4\\n\\nLe bureau de la cat\xc3\xa9ch\xc3\xa8se."},"resourceURL":"https://api.orange.com/smsmessaging/v1/outbound/tel:+221773387902/requests/d728f464-5314-4533-ad93-9efcee1ef54a"}}'
2021-05-21 12:17:04 | numéro : 779242942 | resultat envoi : b'{"outboundSMSMessageRequest":{"address":["tel:+221779242942"],"senderAddress":"tel:+221773387902","senderName":"ipps","outboundSMSTextMessage":{"message":"Chers parents,\\nComme annonc\xc3\xa9, les photos et vid\xc3\xa9os dans l\'\xc3\xa9glise seront exclusivement g\xc3\xa9r\xc3\xa9es par la cat\xc3\xa9ch\xc3\xa8se. Vous pouvez vous inscrire en suivant ce lien pour la communion et verser d\'avance le prix des photos/vid\xc3\xa9os : https://bit.ly/3hHMKQ4\\n\\nLe bureau de la cat\xc3\xa9ch\xc3\xa8se."},"resourceURL":"https://api.orange.com/smsmessaging/v1/outbound/tel:+221773387902/requests/a48e4791-f021-40e6-b0c8-f4f958f6eff8"}}'
2021-05-21 12:17:05 | numéro : 773796203 | resultat envoi : b'{"outboundSMSMessageRequest":{"address":["tel:+221773796203"],"senderAddress":"tel:+221773387902","senderName":"ipps","outboundSMSTextMessage":{"message":"Chers parents,\\nComme annonc\xc3\xa9, les photos et vid\xc3\xa9os dans l\'\xc3\xa9glise seront exclusivement g\xc3\xa9r\xc3\xa9es par la cat\xc3\xa9ch\xc3\xa8se. Vous pouvez vous inscrire en suivant ce lien pour la communion et verser d\'avance le prix des photos/vid\xc3\xa9os : https://bit.ly/3hHMKQ4\\n\\nLe bureau de la cat\xc3\xa9ch\xc3\xa8se."},"resourceURL":"https://api.orange.com/smsmessaging/v1/outbound/tel:+221773387902/requests/3b9cbd25-ffb3-4373-8dee-4ca2d97266c6"}}'
2021-05-21 12:17:06 | numéro : 772753360 | resultat envoi : b'{"outboundSMSMessageRequest":{"address":["tel:+221772753360"],"senderAddress":"tel:+221773387902","senderName":"ipps","outboundSMSTextMessage":{"message":"Chers parents,\\nComme annonc\xc3\xa9, les photos et vid\xc3\xa9os dans l\'\xc3\xa9glise seront exclusivement g\xc3\xa9r\xc3\xa9es par la cat\xc3\xa9ch\xc3\xa8se. Vous pouvez vous inscrire en suivant ce lien pour la communion et verser d\'avance le prix des photos/vid\xc3\xa9os : https://bit.ly/3hHMKQ4\\n\\nLe bureau de la cat\xc3\xa9ch\xc3\xa8se."},"resourceURL":"https://api.orange.com/smsmessaging/v1/outbound/tel:+221773387902/requests/c3cc326a-5e67-41aa-b33b-32aace526d2a"}}'
2021-05-21 12:17:06 | numéro : 778942582 | resultat envoi : b'{"outboundSMSMessageRequest":{"address":["tel:+221778942582"],"senderAddress":"tel:+221773387902","senderName":"ipps","outboundSMSTextMessage":{"message":"Chers parents,\\nComme annonc\xc3\xa9, les photos et vid\xc3\xa9os dans l\'\xc3\xa9glise seront exclusivement g\xc3\xa9r\xc3\xa9es par la cat\xc3\xa9ch\xc3\xa8se. Vous pouvez vous inscrire en suivant ce lien pour la communion et verser d\'avance le prix des photos/vid\xc3\xa9os : https://bit.ly/3hHMKQ4\\n\\nLe bureau de la cat\xc3\xa9ch\xc3\xa8se."},"resourceURL":"https://api.orange.com/smsmessaging/v1/outbound/tel:+221773387902/requests/e4b9fcd7-cfd7-4935-a16b-ff65a3906d22"}}'
2021-05-21 12:17:07 | numéro : 775653895 | resultat envoi : b'{"outboundSMSMessageRequest":{"address":["tel:+221775653895"],"senderAddress":"tel:+221773387902","senderName":"ipps","outboundSMSTextMessage":{"message":"Chers parents,\\nComme annonc\xc3\xa9, les photos et vid\xc3\xa9os dans l\'\xc3\xa9glise seront exclusivement g\xc3\xa9r\xc3\xa9es par la cat\xc3\xa9ch\xc3\xa8se. Vous pouvez vous inscrire en suivant ce lien pour la communion et verser d\'avance le prix des photos/vid\xc3\xa9os : https://bit.ly/3hHMKQ4\\n\\nLe bureau de la cat\xc3\xa9ch\xc3\xa8se."},"resourceURL":"https://api.orange.com/smsmessaging/v1/outbound/tel:+221773387902/requests/c08d13f9-36a2-4c2f-b8cb-6c61c6ceb6cd"}}'
2021-05-21 12:17:07 | numéro : 777931080 | resultat envoi : b'{"outboundSMSMessageRequest":{"address":["tel:+221777931080"],"senderAddress":"tel:+221773387902","senderName":"ipps","outboundSMSTextMessage":{"message":"Chers parents,\\nComme annonc\xc3\xa9, les photos et vid\xc3\xa9os dans l\'\xc3\xa9glise seront exclusivement g\xc3\xa9r\xc3\xa9es par la cat\xc3\xa9ch\xc3\xa8se. Vous pouvez vous inscrire en suivant ce lien pour la communion et verser d\'avance le prix des photos/vid\xc3\xa9os : https://bit.ly/3hHMKQ4\\n\\nLe bureau de la cat\xc3\xa9ch\xc3\xa8se."},"resourceURL":"https://api.orange.com/smsmessaging/v1/outbound/tel:+221773387902/requests/0f23cd9e-667c-4b19-a19d-db034bca1509"}}'
2021-05-21 12:17:08 | numéro : 774782486 | resultat envoi : b'{"outboundSMSMessageRequest":{"address":["tel:+221774782486"],"senderAddress":"tel:+221773387902","senderName":"ipps","outboundSMSTextMessage":{"message":"Chers parents,\\nComme annonc\xc3\xa9, les photos et vid\xc3\xa9os dans l\'\xc3\xa9glise seront exclusivement g\xc3\xa9r\xc3\xa9es par la cat\xc3\xa9ch\xc3\xa8se. Vous pouvez vous inscrire en suivant ce lien pour la communion et verser d\'avance le prix des photos/vid\xc3\xa9os : https://bit.ly/3hHMKQ4\\n\\nLe bureau de la cat\xc3\xa9ch\xc3\xa8se."},"resourceURL":"https://api.orange.com/smsmessaging/v1/outbound/tel:+221773387902/requests/43131824-f120-4d64-ac6e-b41768b59902"}}'
2021-05-21 12:17:08 | numéro : 776587031 | resultat envoi : b'{"outboundSMSMessageRequest":{"address":["tel:+221776587031"],"senderAddress":"tel:+221773387902","senderName":"ipps","outboundSMSTextMessage":{"message":"Chers parents,\\nComme annonc\xc3\xa9, les photos et vid\xc3\xa9os dans l\'\xc3\xa9glise seront exclusivement g\xc3\xa9r\xc3\xa9es par la cat\xc3\xa9ch\xc3\xa8se. Vous pouvez vous inscrire en suivant ce lien pour la communion et verser d\'avance le prix des photos/vid\xc3\xa9os : https://bit.ly/3hHMKQ4\\n\\nLe bureau de la cat\xc3\xa9ch\xc3\xa8se."},"resourceURL":"https://api.orange.com/smsmessaging/v1/outbound/tel:+221773387902/requests/b0bb220a-4b9a-4ccd-969b-08e6dd43a921"}}'
2021-05-21 12:17:09 | numéro : 775963859 | resultat envoi : b'{"outboundSMSMessageRequest":{"address":["tel:+221775963859"],"senderAddress":"tel:+221773387902","senderName":"ipps","outboundSMSTextMessage":{"message":"Chers parents,\\nComme annonc\xc3\xa9, les photos et vid\xc3\xa9os dans l\'\xc3\xa9glise seront exclusivement g\xc3\xa9r\xc3\xa9es par la cat\xc3\xa9ch\xc3\xa8se. Vous pouvez vous inscrire en suivant ce lien pour la communion et verser d\'avance le prix des photos/vid\xc3\xa9os : https://bit.ly/3hHMKQ4\\n\\nLe bureau de la cat\xc3\xa9ch\xc3\xa8se."},"resourceURL":"https://api.orange.com/smsmessaging/v1/outbound/tel:+221773387902/requests/2fe68948-c80e-47cc-9308-cb0241a3d000"}}'
2021-05-21 12:17:09 | numéro : 781455015 | resultat envoi : b'{"outboundSMSMessageRequest":{"address":["tel:+221781455015"],"senderAddress":"tel:+221773387902","senderName":"ipps","outboundSMSTextMessage":{"message":"Chers parents,\\nComme annonc\xc3\xa9, les photos et vid\xc3\xa9os dans l\'\xc3\xa9glise seront exclusivement g\xc3\xa9r\xc3\xa9es par la cat\xc3\xa9ch\xc3\xa8se. Vous pouvez vous inscrire en suivant ce lien pour la communion et verser d\'avance le prix des photos/vid\xc3\xa9os : https://bit.ly/3hHMKQ4\\n\\nLe bureau de la cat\xc3\xa9ch\xc3\xa8se."},"resourceURL":"https://api.orange.com/smsmessaging/v1/outbound/tel:+221773387902/requests/fec1e145-89b1-4d6d-872a-5e874123249c"}}'
2021-05-21 12:17:10 | numéro : 781785100 | resultat envoi : b'{"outboundSMSMessageRequest":{"address":["tel:+221781785100"],"senderAddress":"tel:+221773387902","senderName":"ipps","outboundSMSTextMessage":{"message":"Chers parents,\\nComme annonc\xc3\xa9, les photos et vid\xc3\xa9os dans l\'\xc3\xa9glise seront exclusivement g\xc3\xa9r\xc3\xa9es par la cat\xc3\xa9ch\xc3\xa8se. Vous pouvez vous inscrire en suivant ce lien pour la communion et verser d\'avance le prix des photos/vid\xc3\xa9os : https://bit.ly/3hHMKQ4\\n\\nLe bureau de la cat\xc3\xa9ch\xc3\xa8se."},"resourceURL":"https://api.orange.com/smsmessaging/v1/outbound/tel:+221773387902/requests/dfc23c11-5ebb-4f08-940f-4e325fc6c15d"}}'
2021-05-21 12:17:11 | numéro : 775484330 | resultat envoi : b'{"outboundSMSMessageRequest":{"address":["tel:+221775484330"],"senderAddress":"tel:+221773387902","senderName":"ipps","outboundSMSTextMessage":{"message":"Chers parents,\\nComme annonc\xc3\xa9, les photos et vid\xc3\xa9os dans l\'\xc3\xa9glise seront exclusivement g\xc3\xa9r\xc3\xa9es par la cat\xc3\xa9ch\xc3\xa8se. Vous pouvez vous inscrire en suivant ce lien pour la communion et verser d\'avance le prix des photos/vid\xc3\xa9os : https://bit.ly/3hHMKQ4\\n\\nLe bureau de la cat\xc3\xa9ch\xc3\xa8se."},"resourceURL":"https://api.orange.com/smsmessaging/v1/outbound/tel:+221773387902/requests/c5753342-cbe4-496f-a862-5fc567ac9432"}}'
2021-05-21 12:17:13 | numéro : 771332447 | resultat envoi : b'{"outboundSMSMessageRequest":{"address":["tel:+221771332447"],"senderAddress":"tel:+221773387902","senderName":"ipps","outboundSMSTextMessage":{"message":"Chers parents,\\nComme annonc\xc3\xa9, les photos et vid\xc3\xa9os dans l\'\xc3\xa9glise seront exclusivement g\xc3\xa9r\xc3\xa9es par la cat\xc3\xa9ch\xc3\xa8se. Vous pouvez vous inscrire en suivant ce lien pour la communion et verser d\'avance le prix des photos/vid\xc3\xa9os : https://bit.ly/3hHMKQ4\\n\\nLe bureau de la cat\xc3\xa9ch\xc3\xa8se."},"resourceURL":"https://api.orange.com/smsmessaging/v1/outbound/tel:+221773387902/requests/f902f221-2136-461b-a459-114b876a084c"}}'
2021-05-21 12:17:14 | numéro : 773353028 | resultat envoi : b'{"outboundSMSMessageRequest":{"address":["tel:+221773353028"],"senderAddress":"tel:+221773387902","senderName":"ipps","outboundSMSTextMessage":{"message":"Chers parents,\\nComme annonc\xc3\xa9, les photos et vid\xc3\xa9os dans l\'\xc3\xa9glise seront exclusivement g\xc3\xa9r\xc3\xa9es par la cat\xc3\xa9ch\xc3\xa8se. Vous pouvez vous inscrire en suivant ce lien pour la communion et verser d\'avance le prix des photos/vid\xc3\xa9os : https://bit.ly/3hHMKQ4\\n\\nLe bureau de la cat\xc3\xa9ch\xc3\xa8se."},"resourceURL":"https://api.orange.com/smsmessaging/v1/outbound/tel:+221773387902/requests/7a4dd0e3-9d6b-4232-aae1-aec462356bb5"}}'
2021-05-21 12:17:15 | numéro : 772361598 | resultat envoi : b'{"outboundSMSMessageRequest":{"address":["tel:+221772361598"],"senderAddress":"tel:+221773387902","senderName":"ipps","outboundSMSTextMessage":{"message":"Chers parents,\\nComme annonc\xc3\xa9, les photos et vid\xc3\xa9os dans l\'\xc3\xa9glise seront exclusivement g\xc3\xa9r\xc3\xa9es par la cat\xc3\xa9ch\xc3\xa8se. Vous pouvez vous inscrire en suivant ce lien pour la communion et verser d\'avance le prix des photos/vid\xc3\xa9os : https://bit.ly/3hHMKQ4\\n\\nLe bureau de la cat\xc3\xa9ch\xc3\xa8se."},"resourceURL":"https://api.orange.com/smsmessaging/v1/outbound/tel:+221773387902/requests/7e69a6f7-3f49-4f7d-ab90-65db76b2a9f6"}}'
2021-05-21 12:17:15 | numéro : 775764412 | resultat envoi : b'{"outboundSMSMessageRequest":{"address":["tel:+221775764412"],"senderAddress":"tel:+221773387902","senderName":"ipps","outboundSMSTextMessage":{"message":"Chers parents,\\nComme annonc\xc3\xa9, les photos et vid\xc3\xa9os dans l\'\xc3\xa9glise seront exclusivement g\xc3\xa9r\xc3\xa9es par la cat\xc3\xa9ch\xc3\xa8se. Vous pouvez vous inscrire en suivant ce lien pour la communion et verser d\'avance le prix des photos/vid\xc3\xa9os : https://bit.ly/3hHMKQ4\\n\\nLe bureau de la cat\xc3\xa9ch\xc3\xa8se."},"resourceURL":"https://api.orange.com/smsmessaging/v1/outbound/tel:+221773387902/requests/15a60daa-c777-477f-a926-eea45ee6032c"}}'
2021-05-21 12:17:16 | numéro : 776513054 | resultat envoi : b'{"outboundSMSMessageRequest":{"address":["tel:+221776513054"],"senderAddress":"tel:+221773387902","senderName":"ipps","outboundSMSTextMessage":{"message":"Chers parents,\\nComme annonc\xc3\xa9, les photos et vid\xc3\xa9os dans l\'\xc3\xa9glise seront exclusivement g\xc3\xa9r\xc3\xa9es par la cat\xc3\xa9ch\xc3\xa8se. Vous pouvez vous inscrire en suivant ce lien pour la communion et verser d\'avance le prix des photos/vid\xc3\xa9os : https://bit.ly/3hHMKQ4\\n\\nLe bureau de la cat\xc3\xa9ch\xc3\xa8se."},"resourceURL":"https://api.orange.com/smsmessaging/v1/outbound/tel:+221773387902/requests/a332d13a-50b0-4806-9598-559dc5d9b4b2"}}'
2021-05-21 12:17:17 | numéro : 783361123 | resultat envoi : b'{"outboundSMSMessageRequest":{"address":["tel:+221783361123"],"senderAddress":"tel:+221773387902","senderName":"ipps","outboundSMSTextMessage":{"message":"Chers parents,\\nComme annonc\xc3\xa9, les photos et vid\xc3\xa9os dans l\'\xc3\xa9glise seront exclusivement g\xc3\xa9r\xc3\xa9es par la cat\xc3\xa9ch\xc3\xa8se. Vous pouvez vous inscrire en suivant ce lien pour la communion et verser d\'avance le prix des photos/vid\xc3\xa9os : https://bit.ly/3hHMKQ4\\n\\nLe bureau de la cat\xc3\xa9ch\xc3\xa8se."},"resourceURL":"https://api.orange.com/smsmessaging/v1/outbound/tel:+221773387902/requests/adf817ec-0330-49cf-ba72-251b862df60e"}}'
2021-05-21 12:17:17 | numéro : 777199496 | resultat envoi : b'{"outboundSMSMessageRequest":{"address":["tel:+221777199496"],"senderAddress":"tel:+221773387902","senderName":"ipps","outboundSMSTextMessage":{"message":"Chers parents,\\nComme annonc\xc3\xa9, les photos et vid\xc3\xa9os dans l\'\xc3\xa9glise seront exclusivement g\xc3\xa9r\xc3\xa9es par la cat\xc3\xa9ch\xc3\xa8se. Vous pouvez vous inscrire en suivant ce lien pour la communion et verser d\'avance le prix des photos/vid\xc3\xa9os : https://bit.ly/3hHMKQ4\\n\\nLe bureau de la cat\xc3\xa9ch\xc3\xa8se."},"resourceURL":"https://api.orange.com/smsmessaging/v1/outbound/tel:+221773387902/requests/c7fb9bdf-5313-462e-b13f-e723bf0f0834"}}'
2021-05-21 12:17:19 | numéro : 773260947 | resultat envoi : b'{"outboundSMSMessageRequest":{"address":["tel:+221773260947"],"senderAddress":"tel:+221773387902","senderName":"ipps","outboundSMSTextMessage":{"message":"Chers parents,\\nComme annonc\xc3\xa9, les photos et vid\xc3\xa9os dans l\'\xc3\xa9glise seront exclusivement g\xc3\xa9r\xc3\xa9es par la cat\xc3\xa9ch\xc3\xa8se. Vous pouvez vous inscrire en suivant ce lien pour la communion et verser d\'avance le prix des photos/vid\xc3\xa9os : https://bit.ly/3hHMKQ4\\n\\nLe bureau de la cat\xc3\xa9ch\xc3\xa8se."},"resourceURL":"https://api.orange.com/smsmessaging/v1/outbound/tel:+221773387902/requests/89b367ad-00fc-4351-ad46-9ec35774e3e7"}}'
2021-05-21 12:17:20 | numéro : 774581844 | resultat envoi : b'{"outboundSMSMessageRequest":{"address":["tel:+221774581844"],"senderAddress":"tel:+221773387902","senderName":"ipps","outboundSMSTextMessage":{"message":"Chers parents,\\nComme annonc\xc3\xa9, les photos et vid\xc3\xa9os dans l\'\xc3\xa9glise seront exclusivement g\xc3\xa9r\xc3\xa9es par la cat\xc3\xa9ch\xc3\xa8se. Vous pouvez vous inscrire en suivant ce lien pour la communion et verser d\'avance le prix des photos/vid\xc3\xa9os : https://bit.ly/3hHMKQ4\\n\\nLe bureau de la cat\xc3\xa9ch\xc3\xa8se."},"resourceURL":"https://api.orange.com/smsmessaging/v1/outbound/tel:+221773387902/requests/77afdb55-320a-40ee-91b8-d88d53d57fcf"}}'
2021-05-21 12:17:21 | numéro : 775522148 | resultat envoi : b'{"outboundSMSMessageRequest":{"address":["tel:+221775522148"],"senderAddress":"tel:+221773387902","senderName":"ipps","outboundSMSTextMessage":{"message":"Chers parents,\\nComme annonc\xc3\xa9, les photos et vid\xc3\xa9os dans l\'\xc3\xa9glise seront exclusivement g\xc3\xa9r\xc3\xa9es par la cat\xc3\xa9ch\xc3\xa8se. Vous pouvez vous inscrire en suivant ce lien pour la communion et verser d\'avance le prix des photos/vid\xc3\xa9os : https://bit.ly/3hHMKQ4\\n\\nLe bureau de la cat\xc3\xa9ch\xc3\xa8se."},"resourceURL":"https://api.orange.com/smsmessaging/v1/outbound/tel:+221773387902/requests/b5b015a1-d719-481d-9998-8819c5a0275b"}}'
2021-05-21 12:17:22 | numéro : 772932492 | resultat envoi : b'{"outboundSMSMessageRequest":{"address":["tel:+221772932492"],"senderAddress":"tel:+221773387902","senderName":"ipps","outboundSMSTextMessage":{"message":"Chers parents,\\nComme annonc\xc3\xa9, les photos et vid\xc3\xa9os dans l\'\xc3\xa9glise seront exclusivement g\xc3\xa9r\xc3\xa9es par la cat\xc3\xa9ch\xc3\xa8se. Vous pouvez vous inscrire en suivant ce lien pour la communion et verser d\'avance le prix des photos/vid\xc3\xa9os : https://bit.ly/3hHMKQ4\\n\\nLe bureau de la cat\xc3\xa9ch\xc3\xa8se."},"resourceURL":"https://api.orange.com/smsmessaging/v1/outbound/tel:+221773387902/requests/825fb1de-a06f-40d1-b20f-7b0a4ac7c476"}}'
2021-05-21 12:17:23 | numéro : 772931538 | resultat envoi : b'{"outboundSMSMessageRequest":{"address":["tel:+221772931538"],"senderAddress":"tel:+221773387902","senderName":"ipps","outboundSMSTextMessage":{"message":"Chers parents,\\nComme annonc\xc3\xa9, les photos et vid\xc3\xa9os dans l\'\xc3\xa9glise seront exclusivement g\xc3\xa9r\xc3\xa9es par la cat\xc3\xa9ch\xc3\xa8se. Vous pouvez vous inscrire en suivant ce lien pour la communion et verser d\'avance le prix des photos/vid\xc3\xa9os : https://bit.ly/3hHMKQ4\\n\\nLe bureau de la cat\xc3\xa9ch\xc3\xa8se."},"resourceURL":"https://api.orange.com/smsmessaging/v1/outbound/tel:+221773387902/requests/a023b9fd-2af0-45e1-b7b8-e43da3b99f3a"}}'
2021-05-21 12:17:24 | numéro : 776130535 | resultat envoi : b'{"outboundSMSMessageRequest":{"address":["tel:+221776130535"],"senderAddress":"tel:+221773387902","senderName":"ipps","outboundSMSTextMessage":{"message":"Chers parents,\\nComme annonc\xc3\xa9, les photos et vid\xc3\xa9os dans l\'\xc3\xa9glise seront exclusivement g\xc3\xa9r\xc3\xa9es par la cat\xc3\xa9ch\xc3\xa8se. Vous pouvez vous inscrire en suivant ce lien pour la communion et verser d\'avance le prix des photos/vid\xc3\xa9os : https://bit.ly/3hHMKQ4\\n\\nLe bureau de la cat\xc3\xa9ch\xc3\xa8se."},"resourceURL":"https://api.orange.com/smsmessaging/v1/outbound/tel:+221773387902/requests/c2776f31-4b3b-42ef-a902-3eeff625c57f"}}'
2021-05-21 12:17:25 | numéro : 771732310 | resultat envoi : b'{"outboundSMSMessageRequest":{"address":["tel:+221771732310"],"senderAddress":"tel:+221773387902","senderName":"ipps","outboundSMSTextMessage":{"message":"Chers parents,\\nComme annonc\xc3\xa9, les photos et vid\xc3\xa9os dans l\'\xc3\xa9glise seront exclusivement g\xc3\xa9r\xc3\xa9es par la cat\xc3\xa9ch\xc3\xa8se. Vous pouvez vous inscrire en suivant ce lien pour la communion et verser d\'avance le prix des photos/vid\xc3\xa9os : https://bit.ly/3hHMKQ4\\n\\nLe bureau de la cat\xc3\xa9ch\xc3\xa8se."},"resourceURL":"https://api.orange.com/smsmessaging/v1/outbound/tel:+221773387902/requests/00342ae3-abc5-47e8-9580-af757faac1dc"}}'
2021-05-21 12:17:25 | numéro : 776457989 | resultat envoi : b'{"outboundSMSMessageRequest":{"address":["tel:+221776457989"],"senderAddress":"tel:+221773387902","senderName":"ipps","outboundSMSTextMessage":{"message":"Chers parents,\\nComme annonc\xc3\xa9, les photos et vid\xc3\xa9os dans l\'\xc3\xa9glise seront exclusivement g\xc3\xa9r\xc3\xa9es par la cat\xc3\xa9ch\xc3\xa8se. Vous pouvez vous inscrire en suivant ce lien pour la communion et verser d\'avance le prix des photos/vid\xc3\xa9os : https://bit.ly/3hHMKQ4\\n\\nLe bureau de la cat\xc3\xa9ch\xc3\xa8se."},"resourceURL":"https://api.orange.com/smsmessaging/v1/outbound/tel:+221773387902/requests/14e8756d-03fe-419b-8a9d-d35d53522570"}}'
2021-05-21 12:17:26 | numéro : 775428173 | resultat envoi : b'{"outboundSMSMessageRequest":{"address":["tel:+221775428173"],"senderAddress":"tel:+221773387902","senderName":"ipps","outboundSMSTextMessage":{"message":"Chers parents,\\nComme annonc\xc3\xa9, les photos et vid\xc3\xa9os dans l\'\xc3\xa9glise seront exclusivement g\xc3\xa9r\xc3\xa9es par la cat\xc3\xa9ch\xc3\xa8se. Vous pouvez vous inscrire en suivant ce lien pour la communion et verser d\'avance le prix des photos/vid\xc3\xa9os : https://bit.ly/3hHMKQ4\\n\\nLe bureau de la cat\xc3\xa9ch\xc3\xa8se."},"resourceURL":"https://api.orange.com/smsmessaging/v1/outbound/tel:+221773387902/requests/04abcb73-520c-4b26-b50c-f82282a4a6ff"}}'
2021-05-21 12:17:26 | numéro : 781440170 | resultat envoi : b'{"outboundSMSMessageRequest":{"address":["tel:+221781440170"],"senderAddress":"tel:+221773387902","senderName":"ipps","outboundSMSTextMessage":{"message":"Chers parents,\\nComme annonc\xc3\xa9, les photos et vid\xc3\xa9os dans l\'\xc3\xa9glise seront exclusivement g\xc3\xa9r\xc3\xa9es par la cat\xc3\xa9ch\xc3\xa8se. Vous pouvez vous inscrire en suivant ce lien pour la communion et verser d\'avance le prix des photos/vid\xc3\xa9os : https://bit.ly/3hHMKQ4\\n\\nLe bureau de la cat\xc3\xa9ch\xc3\xa8se."},"resourceURL":"https://api.orange.com/smsmessaging/v1/outbound/tel:+221773387902/requests/c73c620e-60cd-4311-bf68-f975f6e38717"}}'
2021-05-21 12:17:26 | numéro : 774501240 | resultat envoi : b'{"outboundSMSMessageRequest":{"address":["tel:+221774501240"],"senderAddress":"tel:+221773387902","senderName":"ipps","outboundSMSTextMessage":{"message":"Chers parents,\\nComme annonc\xc3\xa9, les photos et vid\xc3\xa9os dans l\'\xc3\xa9glise seront exclusivement g\xc3\xa9r\xc3\xa9es par la cat\xc3\xa9ch\xc3\xa8se. Vous pouvez vous inscrire en suivant ce lien pour la communion et verser d\'avance le prix des photos/vid\xc3\xa9os : https://bit.ly/3hHMKQ4\\n\\nLe bureau de la cat\xc3\xa9ch\xc3\xa8se."},"resourceURL":"https://api.orange.com/smsmessaging/v1/outbound/tel:+221773387902/requests/f0055c92-823a-4317-b60c-1e4ac3835494"}}'
2021-05-21 12:17:27 | numéro : 779430351 | resultat envoi : b'{"outboundSMSMessageRequest":{"address":["tel:+221779430351"],"senderAddress":"tel:+221773387902","senderName":"ipps","outboundSMSTextMessage":{"message":"Chers parents,\\nComme annonc\xc3\xa9, les photos et vid\xc3\xa9os dans l\'\xc3\xa9glise seront exclusivement g\xc3\xa9r\xc3\xa9es par la cat\xc3\xa9ch\xc3\xa8se. Vous pouvez vous inscrire en suivant ce lien pour la communion et verser d\'avance le prix des photos/vid\xc3\xa9os : https://bit.ly/3hHMKQ4\\n\\nLe bureau de la cat\xc3\xa9ch\xc3\xa8se."},"resourceURL":"https://api.orange.com/smsmessaging/v1/outbound/tel:+221773387902/requests/0685bc70-2252-4d12-bcbe-e6787f904c13"}}'
2021-05-21 12:17:27 | numéro : 776477735 | resultat envoi : b'{"outboundSMSMessageRequest":{"address":["tel:+221776477735"],"senderAddress":"tel:+221773387902","senderName":"ipps","outboundSMSTextMessage":{"message":"Chers parents,\\nComme annonc\xc3\xa9, les photos et vid\xc3\xa9os dans l\'\xc3\xa9glise seront exclusivement g\xc3\xa9r\xc3\xa9es par la cat\xc3\xa9ch\xc3\xa8se. Vous pouvez vous inscrire en suivant ce lien pour la communion et verser d\'avance le prix des photos/vid\xc3\xa9os : https://bit.ly/3hHMKQ4\\n\\nLe bureau de la cat\xc3\xa9ch\xc3\xa8se."},"resourceURL":"https://api.orange.com/smsmessaging/v1/outbound/tel:+221773387902/requests/4a826876-7c20-4245-980f-14ef6cf78b05"}}'
2021-05-21 12:17:27 | numéro : 775409935 | resultat envoi : b'{"outboundSMSMessageRequest":{"address":["tel:+221775409935"],"senderAddress":"tel:+221773387902","senderName":"ipps","outboundSMSTextMessage":{"message":"Chers parents,\\nComme annonc\xc3\xa9, les photos et vid\xc3\xa9os dans l\'\xc3\xa9glise seront exclusivement g\xc3\xa9r\xc3\xa9es par la cat\xc3\xa9ch\xc3\xa8se. Vous pouvez vous inscrire en suivant ce lien pour la communion et verser d\'avance le prix des photos/vid\xc3\xa9os : https://bit.ly/3hHMKQ4\\n\\nLe bureau de la cat\xc3\xa9ch\xc3\xa8se."},"resourceURL":"https://api.orange.com/smsmessaging/v1/outbound/tel:+221773387902/requests/dd9f533f-c162-4817-bc28-2c9c6dbbb141"}}'
2021-05-21 12:17:28 | numéro : 778033346 | resultat envoi : b'{"outboundSMSMessageRequest":{"address":["tel:+221778033346"],"senderAddress":"tel:+221773387902","senderName":"ipps","outboundSMSTextMessage":{"message":"Chers parents,\\nComme annonc\xc3\xa9, les photos et vid\xc3\xa9os dans l\'\xc3\xa9glise seront exclusivement g\xc3\xa9r\xc3\xa9es par la cat\xc3\xa9ch\xc3\xa8se. Vous pouvez vous inscrire en suivant ce lien pour la communion et verser d\'avance le prix des photos/vid\xc3\xa9os : https://bit.ly/3hHMKQ4\\n\\nLe bureau de la cat\xc3\xa9ch\xc3\xa8se."},"resourceURL":"https://api.orange.com/smsmessaging/v1/outbound/tel:+221773387902/requests/cb242ef7-f55c-4844-bfdb-51b491c9f691"}}'
2021-05-21 12:17:28 | numéro : 772000618 | resultat envoi : b'{"outboundSMSMessageRequest":{"address":["tel:+221772000618"],"senderAddress":"tel:+221773387902","senderName":"ipps","outboundSMSTextMessage":{"message":"Chers parents,\\nComme annonc\xc3\xa9, les photos et vid\xc3\xa9os dans l\'\xc3\xa9glise seront exclusivement g\xc3\xa9r\xc3\xa9es par la cat\xc3\xa9ch\xc3\xa8se. Vous pouvez vous inscrire en suivant ce lien pour la communion et verser d\'avance le prix des photos/vid\xc3\xa9os : https://bit.ly/3hHMKQ4\\n\\nLe bureau de la cat\xc3\xa9ch\xc3\xa8se."},"resourceURL":"https://api.orange.com/smsmessaging/v1/outbound/tel:+221773387902/requests/8414d8ec-b251-4185-873e-4429b06dcb84"}}'
2021-05-21 12:17:29 | numéro : 775212029 | resultat envoi : b'{"outboundSMSMessageRequest":{"address":["tel:+221775212029"],"senderAddress":"tel:+221773387902","senderName":"ipps","outboundSMSTextMessage":{"message":"Chers parents,\\nComme annonc\xc3\xa9, les photos et vid\xc3\xa9os dans l\'\xc3\xa9glise seront exclusivement g\xc3\xa9r\xc3\xa9es par la cat\xc3\xa9ch\xc3\xa8se. Vous pouvez vous inscrire en suivant ce lien pour la communion et verser d\'avance le prix des photos/vid\xc3\xa9os : https://bit.ly/3hHMKQ4\\n\\nLe bureau de la cat\xc3\xa9ch\xc3\xa8se."},"resourceURL":"https://api.orange.com/smsmessaging/v1/outbound/tel:+221773387902/requests/e59f7988-0d8e-4b74-a3d3-4397c78d6965"}}'
2021-05-21 12:17:30 | numéro : 777133003 | resultat envoi : b'{"outboundSMSMessageRequest":{"address":["tel:+221777133003"],"senderAddress":"tel:+221773387902","senderName":"ipps","outboundSMSTextMessage":{"message":"Chers parents,\\nComme annonc\xc3\xa9, les photos et vid\xc3\xa9os dans l\'\xc3\xa9glise seront exclusivement g\xc3\xa9r\xc3\xa9es par la cat\xc3\xa9ch\xc3\xa8se. Vous pouvez vous inscrire en suivant ce lien pour la communion et verser d\'avance le prix des photos/vid\xc3\xa9os : https://bit.ly/3hHMKQ4\\n\\nLe bureau de la cat\xc3\xa9ch\xc3\xa8se."},"resourceURL":"https://api.orange.com/smsmessaging/v1/outbound/tel:+221773387902/requests/be461942-655e-4489-ad75-1fffa58f583b"}}'
2021-05-21 12:17:31 | numéro : 775116324 | resultat envoi : b'{"outboundSMSMessageRequest":{"address":["tel:+221775116324"],"senderAddress":"tel:+221773387902","senderName":"ipps","outboundSMSTextMessage":{"message":"Chers parents,\\nComme annonc\xc3\xa9, les photos et vid\xc3\xa9os dans l\'\xc3\xa9glise seront exclusivement g\xc3\xa9r\xc3\xa9es par la cat\xc3\xa9ch\xc3\xa8se. Vous pouvez vous inscrire en suivant ce lien pour la communion et verser d\'avance le prix des photos/vid\xc3\xa9os : https://bit.ly/3hHMKQ4\\n\\nLe bureau de la cat\xc3\xa9ch\xc3\xa8se."},"resourceURL":"https://api.orange.com/smsmessaging/v1/outbound/tel:+221773387902/requests/daa3b1db-09ba-4667-896e-1b8e81a137d8"}}'
2021-05-21 12:17:31 | numéro : 776458971 | resultat envoi : b'{"outboundSMSMessageRequest":{"address":["tel:+221776458971"],"senderAddress":"tel:+221773387902","senderName":"ipps","outboundSMSTextMessage":{"message":"Chers parents,\\nComme annonc\xc3\xa9, les photos et vid\xc3\xa9os dans l\'\xc3\xa9glise seront exclusivement g\xc3\xa9r\xc3\xa9es par la cat\xc3\xa9ch\xc3\xa8se. Vous pouvez vous inscrire en suivant ce lien pour la communion et verser d\'avance le prix des photos/vid\xc3\xa9os : https://bit.ly/3hHMKQ4\\n\\nLe bureau de la cat\xc3\xa9ch\xc3\xa8se."},"resourceURL":"https://api.orange.com/smsmessaging/v1/outbound/tel:+221773387902/requests/1b0f89e0-67ea-4c1a-8041-c6996546a067"}}'
2021-05-21 12:17:32 | numéro : 775313888 | resultat envoi : b'{"outboundSMSMessageRequest":{"address":["tel:+221775313888"],"senderAddress":"tel:+221773387902","senderName":"ipps","outboundSMSTextMessage":{"message":"Chers parents,\\nComme annonc\xc3\xa9, les photos et vid\xc3\xa9os dans l\'\xc3\xa9glise seront exclusivement g\xc3\xa9r\xc3\xa9es par la cat\xc3\xa9ch\xc3\xa8se. Vous pouvez vous inscrire en suivant ce lien pour la communion et verser d\'avance le prix des photos/vid\xc3\xa9os : https://bit.ly/3hHMKQ4\\n\\nLe bureau de la cat\xc3\xa9ch\xc3\xa8se."},"resourceURL":"https://api.orange.com/smsmessaging/v1/outbound/tel:+221773387902/requests/990305c8-1a50-4f90-992f-e7a62f07be75"}}'
2021-05-21 12:17:33 | numéro : 772754360 | resultat envoi : b'{"outboundSMSMessageRequest":{"address":["tel:+221772754360"],"senderAddress":"tel:+221773387902","senderName":"ipps","outboundSMSTextMessage":{"message":"Chers parents,\\nComme annonc\xc3\xa9, les photos et vid\xc3\xa9os dans l\'\xc3\xa9glise seront exclusivement g\xc3\xa9r\xc3\xa9es par la cat\xc3\xa9ch\xc3\xa8se. Vous pouvez vous inscrire en suivant ce lien pour la communion et verser d\'avance le prix des photos/vid\xc3\xa9os : https://bit.ly/3hHMKQ4\\n\\nLe bureau de la cat\xc3\xa9ch\xc3\xa8se."},"resourceURL":"https://api.orange.com/smsmessaging/v1/outbound/tel:+221773387902/requests/2fa73cc0-33ef-43c9-b034-ef6c3706e132"}}'
2021-05-21 12:17:33 | numéro : 774133658 | resultat envoi : b'{"outboundSMSMessageRequest":{"address":["tel:+221774133658"],"senderAddress":"tel:+221773387902","senderName":"ipps","outboundSMSTextMessage":{"message":"Chers parents,\\nComme annonc\xc3\xa9, les photos et vid\xc3\xa9os dans l\'\xc3\xa9glise seront exclusivement g\xc3\xa9r\xc3\xa9es par la cat\xc3\xa9ch\xc3\xa8se. Vous pouvez vous inscrire en suivant ce lien pour la communion et verser d\'avance le prix des photos/vid\xc3\xa9os : https://bit.ly/3hHMKQ4\\n\\nLe bureau de la cat\xc3\xa9ch\xc3\xa8se."},"resourceURL":"https://api.orange.com/smsmessaging/v1/outbound/tel:+221773387902/requests/b6c586ff-b229-4208-98fe-01750e7d8669"}}'
2021-05-21 12:17:33 | numéro : 779325273 | resultat envoi : b'{"outboundSMSMessageRequest":{"address":["tel:+221779325273"],"senderAddress":"tel:+221773387902","senderName":"ipps","outboundSMSTextMessage":{"message":"Chers parents,\\nComme annonc\xc3\xa9, les photos et vid\xc3\xa9os dans l\'\xc3\xa9glise seront exclusivement g\xc3\xa9r\xc3\xa9es par la cat\xc3\xa9ch\xc3\xa8se. Vous pouvez vous inscrire en suivant ce lien pour la communion et verser d\'avance le prix des photos/vid\xc3\xa9os : https://bit.ly/3hHMKQ4\\n\\nLe bureau de la cat\xc3\xa9ch\xc3\xa8se."},"resourceURL":"https://api.orange.com/smsmessaging/v1/outbound/tel:+221773387902/requests/10f45934-c3b0-4569-bd99-f83c38ad3e54"}}'
2021-05-21 12:17:34 | numéro : 776556519 | resultat envoi : b'{"outboundSMSMessageRequest":{"address":["tel:+221776556519"],"senderAddress":"tel:+221773387902","senderName":"ipps","outboundSMSTextMessage":{"message":"Chers parents,\\nComme annonc\xc3\xa9, les photos et vid\xc3\xa9os dans l\'\xc3\xa9glise seront exclusivement g\xc3\xa9r\xc3\xa9es par la cat\xc3\xa9ch\xc3\xa8se. Vous pouvez vous inscrire en suivant ce lien pour la communion et verser d\'avance le prix des photos/vid\xc3\xa9os : https://bit.ly/3hHMKQ4\\n\\nLe bureau de la cat\xc3\xa9ch\xc3\xa8se."},"resourceURL":"https://api.orange.com/smsmessaging/v1/outbound/tel:+221773387902/requests/74af120f-70c1-4fec-b124-3bc3663c27d5"}}'
2021-05-21 12:17:34 | numéro : 774287075 | resultat envoi : b'{"outboundSMSMessageRequest":{"address":["tel:+221774287075"],"senderAddress":"tel:+221773387902","senderName":"ipps","outboundSMSTextMessage":{"message":"Chers parents,\\nComme annonc\xc3\xa9, les photos et vid\xc3\xa9os dans l\'\xc3\xa9glise seront exclusivement g\xc3\xa9r\xc3\xa9es par la cat\xc3\xa9ch\xc3\xa8se. Vous pouvez vous inscrire en suivant ce lien pour la communion et verser d\'avance le prix des photos/vid\xc3\xa9os : https://bit.ly/3hHMKQ4\\n\\nLe bureau de la cat\xc3\xa9ch\xc3\xa8se."},"resourceURL":"https://api.orange.com/smsmessaging/v1/outbound/tel:+221773387902/requests/9b281197-f47d-49a8-b4d6-131c41985348"}}'
2021-05-21 12:17:35 | numéro : 775647216 | resultat envoi : b'{"outboundSMSMessageRequest":{"address":["tel:+221775647216"],"senderAddress":"tel:+221773387902","senderName":"ipps","outboundSMSTextMessage":{"message":"Chers parents,\\nComme annonc\xc3\xa9, les photos et vid\xc3\xa9os dans l\'\xc3\xa9glise seront exclusivement g\xc3\xa9r\xc3\xa9es par la cat\xc3\xa9ch\xc3\xa8se. Vous pouvez vous inscrire en suivant ce lien pour la communion et verser d\'avance le prix des photos/vid\xc3\xa9os : https://bit.ly/3hHMKQ4\\n\\nLe bureau de la cat\xc3\xa9ch\xc3\xa8se."},"resourceURL":"https://api.orange.com/smsmessaging/v1/outbound/tel:+221773387902/requests/2679e8b3-2880-4198-aec3-a17b9fd6ab57"}}'
2021-05-21 12:17:35 | numéro : 777133603 | resultat envoi : b'{"outboundSMSMessageRequest":{"address":["tel:+221777133603"],"senderAddress":"tel:+221773387902","senderName":"ipps","outboundSMSTextMessage":{"message":"Chers parents,\\nComme annonc\xc3\xa9, les photos et vid\xc3\xa9os dans l\'\xc3\xa9glise seront exclusivement g\xc3\xa9r\xc3\xa9es par la cat\xc3\xa9ch\xc3\xa8se. Vous pouvez vous inscrire en suivant ce lien pour la communion et verser d\'avance le prix des photos/vid\xc3\xa9os : https://bit.ly/3hHMKQ4\\n\\nLe bureau de la cat\xc3\xa9ch\xc3\xa8se."},"resourceURL":"https://api.orange.com/smsmessaging/v1/outbound/tel:+221773387902/requests/89034379-7a42-4ca9-8466-ab084329a0ad"}}'
2021-05-21 12:17:35 | numéro : 777931493 | resultat envoi : b'{"outboundSMSMessageRequest":{"address":["tel:+221777931493"],"senderAddress":"tel:+221773387902","senderName":"ipps","outboundSMSTextMessage":{"message":"Chers parents,\\nComme annonc\xc3\xa9, les photos et vid\xc3\xa9os dans l\'\xc3\xa9glise seront exclusivement g\xc3\xa9r\xc3\xa9es par la cat\xc3\xa9ch\xc3\xa8se. Vous pouvez vous inscrire en suivant ce lien pour la communion et verser d\'avance le prix des photos/vid\xc3\xa9os : https://bit.ly/3hHMKQ4\\n\\nLe bureau de la cat\xc3\xa9ch\xc3\xa8se."},"resourceURL":"https://api.orange.com/smsmessaging/v1/outbound/tel:+221773387902/requests/72ec3ca3-790a-4216-a06c-2b5bbbdd760b"}}'
2021-05-21 12:17:35 | numéro : 778170857 | resultat envoi : b'{"outboundSMSMessageRequest":{"address":["tel:+221778170857"],"senderAddress":"tel:+221773387902","senderName":"ipps","outboundSMSTextMessage":{"message":"Chers parents,\\nComme annonc\xc3\xa9, les photos et vid\xc3\xa9os dans l\'\xc3\xa9glise seront exclusivement g\xc3\xa9r\xc3\xa9es par la cat\xc3\xa9ch\xc3\xa8se. Vous pouvez vous inscrire en suivant ce lien pour la communion et verser d\'avance le prix des photos/vid\xc3\xa9os : https://bit.ly/3hHMKQ4\\n\\nLe bureau de la cat\xc3\xa9ch\xc3\xa8se."},"resourceURL":"https://api.orange.com/smsmessaging/v1/outbound/tel:+221773387902/requests/4594fafa-089c-4dac-a667-d193257403e4"}}'
2021-05-21 12:17:36 | numéro : 778590854 | resultat envoi : b'{"outboundSMSMessageRequest":{"address":["tel:+221778590854"],"senderAddress":"tel:+221773387902","senderName":"ipps","outboundSMSTextMessage":{"message":"Chers parents,\\nComme annonc\xc3\xa9, les photos et vid\xc3\xa9os dans l\'\xc3\xa9glise seront exclusivement g\xc3\xa9r\xc3\xa9es par la cat\xc3\xa9ch\xc3\xa8se. Vous pouvez vous inscrire en suivant ce lien pour la communion et verser d\'avance le prix des photos/vid\xc3\xa9os : https://bit.ly/3hHMKQ4\\n\\nLe bureau de la cat\xc3\xa9ch\xc3\xa8se."},"resourceURL":"https://api.orange.com/smsmessaging/v1/outbound/tel:+221773387902/requests/b979b7cc-174d-47c2-ba26-6c78e7b296fa"}}'
2021-05-21 12:17:36 | numéro : 782916195 | resultat envoi : b'{"outboundSMSMessageRequest":{"address":["tel:+221782916195"],"senderAddress":"tel:+221773387902","senderName":"ipps","outboundSMSTextMessage":{"message":"Chers parents,\\nComme annonc\xc3\xa9, les photos et vid\xc3\xa9os dans l\'\xc3\xa9glise seront exclusivement g\xc3\xa9r\xc3\xa9es par la cat\xc3\xa9ch\xc3\xa8se. Vous pouvez vous inscrire en suivant ce lien pour la communion et verser d\'avance le prix des photos/vid\xc3\xa9os : https://bit.ly/3hHMKQ4\\n\\nLe bureau de la cat\xc3\xa9ch\xc3\xa8se."},"resourceURL":"https://api.orange.com/smsmessaging/v1/outbound/tel:+221773387902/requests/caf8ad59-0a2a-409b-be4c-2d66e7fad7b4"}}'
2021-05-21 12:17:36 | numéro : 773387902 | resultat envoi : b'{"outboundSMSMessageRequest":{"address":["tel:+221773387902"],"senderAddress":"tel:+221773387902","senderName":"ipps","outboundSMSTextMessage":{"message":"Chers parents,\\nComme annonc\xc3\xa9, les photos et vid\xc3\xa9os dans l\'\xc3\xa9glise seront exclusivement g\xc3\xa9r\xc3\xa9es par la cat\xc3\xa9ch\xc3\xa8se. Vous pouvez vous inscrire en suivant ce lien pour la communion et verser d\'avance le prix des photos/vid\xc3\xa9os : https://bit.ly/3hHMKQ4\\n\\nLe bureau de la cat\xc3\xa9ch\xc3\xa8se."},"resourceURL":"https://api.orange.com/smsmessaging/v1/outbound/tel:+221773387902/requests/c32ee0e3-3897-41bd-aaed-8625df4cee3d"}}'
2021-05-21 12:17:36 | balance 41 | fin envoi
