2021-04-15 11:44:23 | balance 4617 | debut envoi
2021-04-15 11:44:23 | numéro : 765005555 | resultat envoi : b'{"outboundSMSMessageRequest":{"address":["tel:+221765005555"],"senderAddress":"tel:+221773387902","senderName":"ipps","outboundSMSTextMessage":{"message":"[CHFA] Bonjour team de valeur, nous avons remis 250.000F pour les programmes et 100.000F \xc3\xa0 Papa par la gr\xc3\xa2ce de Dieu. Plus d\'infos ici : https://bit.ly/3wV02Ol"},"resourceURL":"https://api.orange.com/smsmessaging/v1/outbound/tel:+221773387902/requests/eddf4fca-3f75-4754-93be-ab1a4cc4664c"}}'
2021-04-15 11:44:23 | balance 4547 | fin envoi
