2021-06-26 12:23:49 | balance 96 | debut envoi
2021-06-26 12:23:49 | numéro : 771490977 | resultat envoi : b'{"outboundSMSMessageRequest":{"address":["tel:+221771490977"],"senderAddress":"tel:+221773387902","senderName":"ipps","outboundSMSTextMessage":{"message":"Chers parents, le contro\xc3\xb4le ne concerne pas les classes de sacrement quand bien m\xc3\xaame les enfants sont attendus ce jour. Merci\\n\\nLe bureau de la cat\xc3\xa9ch\xc3\xa8se."},"resourceURL":"https://api.orange.com/smsmessaging/v1/outbound/tel:+221773387902/requests/2f18c656-b557-4f51-86ab-e3c896855fdc"}}'
2021-06-26 12:23:49 | numéro : 771661816 | resultat envoi : b'{"outboundSMSMessageRequest":{"address":["tel:+221771661816"],"senderAddress":"tel:+221773387902","senderName":"ipps","outboundSMSTextMessage":{"message":"Chers parents, le contro\xc3\xb4le ne concerne pas les classes de sacrement quand bien m\xc3\xaame les enfants sont attendus ce jour. Merci\\n\\nLe bureau de la cat\xc3\xa9ch\xc3\xa8se."},"resourceURL":"https://api.orange.com/smsmessaging/v1/outbound/tel:+221773387902/requests/7e49bfe1-1dbe-4719-9d3f-3322884de867"}}'
2021-06-26 12:23:50 | numéro : 776499719 | resultat envoi : b'{"outboundSMSMessageRequest":{"address":["tel:+221776499719"],"senderAddress":"tel:+221773387902","senderName":"ipps","outboundSMSTextMessage":{"message":"Chers parents, le contro\xc3\xb4le ne concerne pas les classes de sacrement quand bien m\xc3\xaame les enfants sont attendus ce jour. Merci\\n\\nLe bureau de la cat\xc3\xa9ch\xc3\xa8se."},"resourceURL":"https://api.orange.com/smsmessaging/v1/outbound/tel:+221773387902/requests/c9969a1e-578a-4824-8000-fc7a8240fcc0"}}'
2021-06-26 12:23:50 | numéro : 779242942 | resultat envoi : b'{"outboundSMSMessageRequest":{"address":["tel:+221779242942"],"senderAddress":"tel:+221773387902","senderName":"ipps","outboundSMSTextMessage":{"message":"Chers parents, le contro\xc3\xb4le ne concerne pas les classes de sacrement quand bien m\xc3\xaame les enfants sont attendus ce jour. Merci\\n\\nLe bureau de la cat\xc3\xa9ch\xc3\xa8se."},"resourceURL":"https://api.orange.com/smsmessaging/v1/outbound/tel:+221773387902/requests/709f1242-1f40-4198-a92b-6a811078e66e"}}'
2021-06-26 12:23:50 | numéro : 773796203 | resultat envoi : b'{"outboundSMSMessageRequest":{"address":["tel:+221773796203"],"senderAddress":"tel:+221773387902","senderName":"ipps","outboundSMSTextMessage":{"message":"Chers parents, le contro\xc3\xb4le ne concerne pas les classes de sacrement quand bien m\xc3\xaame les enfants sont attendus ce jour. Merci\\n\\nLe bureau de la cat\xc3\xa9ch\xc3\xa8se."},"resourceURL":"https://api.orange.com/smsmessaging/v1/outbound/tel:+221773387902/requests/ceb56d71-8a51-46d5-967c-7d1a4dd4429f"}}'
2021-06-26 12:23:51 | numéro : 772753360 | resultat envoi : b'{"outboundSMSMessageRequest":{"address":["tel:+221772753360"],"senderAddress":"tel:+221773387902","senderName":"ipps","outboundSMSTextMessage":{"message":"Chers parents, le contro\xc3\xb4le ne concerne pas les classes de sacrement quand bien m\xc3\xaame les enfants sont attendus ce jour. Merci\\n\\nLe bureau de la cat\xc3\xa9ch\xc3\xa8se."},"resourceURL":"https://api.orange.com/smsmessaging/v1/outbound/tel:+221773387902/requests/bdec62f5-060c-4af5-b681-ae4ff2d03a8e"}}'
2021-06-26 12:23:51 | numéro : 778942582 | resultat envoi : b'{"outboundSMSMessageRequest":{"address":["tel:+221778942582"],"senderAddress":"tel:+221773387902","senderName":"ipps","outboundSMSTextMessage":{"message":"Chers parents, le contro\xc3\xb4le ne concerne pas les classes de sacrement quand bien m\xc3\xaame les enfants sont attendus ce jour. Merci\\n\\nLe bureau de la cat\xc3\xa9ch\xc3\xa8se."},"resourceURL":"https://api.orange.com/smsmessaging/v1/outbound/tel:+221773387902/requests/2a82423d-fa8f-4389-88f2-ca42d8ff7f61"}}'
2021-06-26 12:23:51 | numéro : 775653895 | resultat envoi : b'{"outboundSMSMessageRequest":{"address":["tel:+221775653895"],"senderAddress":"tel:+221773387902","senderName":"ipps","outboundSMSTextMessage":{"message":"Chers parents, le contro\xc3\xb4le ne concerne pas les classes de sacrement quand bien m\xc3\xaame les enfants sont attendus ce jour. Merci\\n\\nLe bureau de la cat\xc3\xa9ch\xc3\xa8se."},"resourceURL":"https://api.orange.com/smsmessaging/v1/outbound/tel:+221773387902/requests/f879a945-9419-4cbe-a02e-43ef019fe3cc"}}'
2021-06-26 12:23:51 | numéro : 777931080 | resultat envoi : b'{"outboundSMSMessageRequest":{"address":["tel:+221777931080"],"senderAddress":"tel:+221773387902","senderName":"ipps","outboundSMSTextMessage":{"message":"Chers parents, le contro\xc3\xb4le ne concerne pas les classes de sacrement quand bien m\xc3\xaame les enfants sont attendus ce jour. Merci\\n\\nLe bureau de la cat\xc3\xa9ch\xc3\xa8se."},"resourceURL":"https://api.orange.com/smsmessaging/v1/outbound/tel:+221773387902/requests/f7ae7b99-c366-4d6d-8ff7-73fbf0187a62"}}'
2021-06-26 12:23:52 | numéro : 774782486 | resultat envoi : b'{"outboundSMSMessageRequest":{"address":["tel:+221774782486"],"senderAddress":"tel:+221773387902","senderName":"ipps","outboundSMSTextMessage":{"message":"Chers parents, le contro\xc3\xb4le ne concerne pas les classes de sacrement quand bien m\xc3\xaame les enfants sont attendus ce jour. Merci\\n\\nLe bureau de la cat\xc3\xa9ch\xc3\xa8se."},"resourceURL":"https://api.orange.com/smsmessaging/v1/outbound/tel:+221773387902/requests/4b835bdc-10ea-4307-ac5f-e8512a88fa4a"}}'
2021-06-26 12:23:52 | numéro : 776587031 | resultat envoi : b'{"outboundSMSMessageRequest":{"address":["tel:+221776587031"],"senderAddress":"tel:+221773387902","senderName":"ipps","outboundSMSTextMessage":{"message":"Chers parents, le contro\xc3\xb4le ne concerne pas les classes de sacrement quand bien m\xc3\xaame les enfants sont attendus ce jour. Merci\\n\\nLe bureau de la cat\xc3\xa9ch\xc3\xa8se."},"resourceURL":"https://api.orange.com/smsmessaging/v1/outbound/tel:+221773387902/requests/8343f05e-f5b4-4d85-8dad-8994e3b54f8b"}}'
2021-06-26 12:23:52 | numéro : 775963859 | resultat envoi : b'{"outboundSMSMessageRequest":{"address":["tel:+221775963859"],"senderAddress":"tel:+221773387902","senderName":"ipps","outboundSMSTextMessage":{"message":"Chers parents, le contro\xc3\xb4le ne concerne pas les classes de sacrement quand bien m\xc3\xaame les enfants sont attendus ce jour. Merci\\n\\nLe bureau de la cat\xc3\xa9ch\xc3\xa8se."},"resourceURL":"https://api.orange.com/smsmessaging/v1/outbound/tel:+221773387902/requests/6b7eecd9-12ec-43c5-959f-e12fab8e6e52"}}'
2021-06-26 12:23:53 | numéro : 781455015 | resultat envoi : b'{"outboundSMSMessageRequest":{"address":["tel:+221781455015"],"senderAddress":"tel:+221773387902","senderName":"ipps","outboundSMSTextMessage":{"message":"Chers parents, le contro\xc3\xb4le ne concerne pas les classes de sacrement quand bien m\xc3\xaame les enfants sont attendus ce jour. Merci\\n\\nLe bureau de la cat\xc3\xa9ch\xc3\xa8se."},"resourceURL":"https://api.orange.com/smsmessaging/v1/outbound/tel:+221773387902/requests/4b2225ae-9f7e-436e-a9cf-19e045233a41"}}'
2021-06-26 12:23:53 | numéro : 781785100 | resultat envoi : b'{"outboundSMSMessageRequest":{"address":["tel:+221781785100"],"senderAddress":"tel:+221773387902","senderName":"ipps","outboundSMSTextMessage":{"message":"Chers parents, le contro\xc3\xb4le ne concerne pas les classes de sacrement quand bien m\xc3\xaame les enfants sont attendus ce jour. Merci\\n\\nLe bureau de la cat\xc3\xa9ch\xc3\xa8se."},"resourceURL":"https://api.orange.com/smsmessaging/v1/outbound/tel:+221773387902/requests/f56b1865-6bc6-4dad-8939-5fa583aab602"}}'
2021-06-26 12:23:53 | numéro : 775484330 | resultat envoi : b'{"outboundSMSMessageRequest":{"address":["tel:+221775484330"],"senderAddress":"tel:+221773387902","senderName":"ipps","outboundSMSTextMessage":{"message":"Chers parents, le contro\xc3\xb4le ne concerne pas les classes de sacrement quand bien m\xc3\xaame les enfants sont attendus ce jour. Merci\\n\\nLe bureau de la cat\xc3\xa9ch\xc3\xa8se."},"resourceURL":"https://api.orange.com/smsmessaging/v1/outbound/tel:+221773387902/requests/261fa66a-a908-483e-8033-6edfc5a792c4"}}'
2021-06-26 12:23:54 | numéro : 771332447 | resultat envoi : b'{"outboundSMSMessageRequest":{"address":["tel:+221771332447"],"senderAddress":"tel:+221773387902","senderName":"ipps","outboundSMSTextMessage":{"message":"Chers parents, le contro\xc3\xb4le ne concerne pas les classes de sacrement quand bien m\xc3\xaame les enfants sont attendus ce jour. Merci\\n\\nLe bureau de la cat\xc3\xa9ch\xc3\xa8se."},"resourceURL":"https://api.orange.com/smsmessaging/v1/outbound/tel:+221773387902/requests/871b81f0-428c-49ff-b9da-4ab8c598c8ac"}}'
2021-06-26 12:23:54 | numéro : 773353028 | resultat envoi : b'{"outboundSMSMessageRequest":{"address":["tel:+221773353028"],"senderAddress":"tel:+221773387902","senderName":"ipps","outboundSMSTextMessage":{"message":"Chers parents, le contro\xc3\xb4le ne concerne pas les classes de sacrement quand bien m\xc3\xaame les enfants sont attendus ce jour. Merci\\n\\nLe bureau de la cat\xc3\xa9ch\xc3\xa8se."},"resourceURL":"https://api.orange.com/smsmessaging/v1/outbound/tel:+221773387902/requests/e67b6516-0c9f-4a16-9488-215cceb34ed3"}}'
2021-06-26 12:23:54 | numéro : 772361598 | resultat envoi : b'{"outboundSMSMessageRequest":{"address":["tel:+221772361598"],"senderAddress":"tel:+221773387902","senderName":"ipps","outboundSMSTextMessage":{"message":"Chers parents, le contro\xc3\xb4le ne concerne pas les classes de sacrement quand bien m\xc3\xaame les enfants sont attendus ce jour. Merci\\n\\nLe bureau de la cat\xc3\xa9ch\xc3\xa8se."},"resourceURL":"https://api.orange.com/smsmessaging/v1/outbound/tel:+221773387902/requests/416e3611-6567-45c6-8cfc-5436f57b161f"}}'
2021-06-26 12:23:55 | numéro : 775764412 | resultat envoi : b'{"outboundSMSMessageRequest":{"address":["tel:+221775764412"],"senderAddress":"tel:+221773387902","senderName":"ipps","outboundSMSTextMessage":{"message":"Chers parents, le contro\xc3\xb4le ne concerne pas les classes de sacrement quand bien m\xc3\xaame les enfants sont attendus ce jour. Merci\\n\\nLe bureau de la cat\xc3\xa9ch\xc3\xa8se."},"resourceURL":"https://api.orange.com/smsmessaging/v1/outbound/tel:+221773387902/requests/f16b713c-27b4-4548-982f-927556ed9186"}}'
2021-06-26 12:23:56 | numéro : 776513054 | resultat envoi : b'{"outboundSMSMessageRequest":{"address":["tel:+221776513054"],"senderAddress":"tel:+221773387902","senderName":"ipps","outboundSMSTextMessage":{"message":"Chers parents, le contro\xc3\xb4le ne concerne pas les classes de sacrement quand bien m\xc3\xaame les enfants sont attendus ce jour. Merci\\n\\nLe bureau de la cat\xc3\xa9ch\xc3\xa8se."},"resourceURL":"https://api.orange.com/smsmessaging/v1/outbound/tel:+221773387902/requests/df394b81-e8ac-410a-af97-885c6fd105e1"}}'
2021-06-26 12:23:56 | numéro : 783361123 | resultat envoi : b'{"outboundSMSMessageRequest":{"address":["tel:+221783361123"],"senderAddress":"tel:+221773387902","senderName":"ipps","outboundSMSTextMessage":{"message":"Chers parents, le contro\xc3\xb4le ne concerne pas les classes de sacrement quand bien m\xc3\xaame les enfants sont attendus ce jour. Merci\\n\\nLe bureau de la cat\xc3\xa9ch\xc3\xa8se."},"resourceURL":"https://api.orange.com/smsmessaging/v1/outbound/tel:+221773387902/requests/19445db5-23b2-4abe-bb7f-509315e334cb"}}'
2021-06-26 12:23:57 | numéro : 777199496 | resultat envoi : b'{"outboundSMSMessageRequest":{"address":["tel:+221777199496"],"senderAddress":"tel:+221773387902","senderName":"ipps","outboundSMSTextMessage":{"message":"Chers parents, le contro\xc3\xb4le ne concerne pas les classes de sacrement quand bien m\xc3\xaame les enfants sont attendus ce jour. Merci\\n\\nLe bureau de la cat\xc3\xa9ch\xc3\xa8se."},"resourceURL":"https://api.orange.com/smsmessaging/v1/outbound/tel:+221773387902/requests/cd74de5c-102f-4efd-9dbd-172226118cca"}}'
2021-06-26 12:23:57 | numéro : 773260947 | resultat envoi : b'{"outboundSMSMessageRequest":{"address":["tel:+221773260947"],"senderAddress":"tel:+221773387902","senderName":"ipps","outboundSMSTextMessage":{"message":"Chers parents, le contro\xc3\xb4le ne concerne pas les classes de sacrement quand bien m\xc3\xaame les enfants sont attendus ce jour. Merci\\n\\nLe bureau de la cat\xc3\xa9ch\xc3\xa8se."},"resourceURL":"https://api.orange.com/smsmessaging/v1/outbound/tel:+221773387902/requests/536dd0ff-3a78-410d-81b9-e52ec9cdb31e"}}'
2021-06-26 12:23:58 | numéro : 774581844 | resultat envoi : b'{"outboundSMSMessageRequest":{"address":["tel:+221774581844"],"senderAddress":"tel:+221773387902","senderName":"ipps","outboundSMSTextMessage":{"message":"Chers parents, le contro\xc3\xb4le ne concerne pas les classes de sacrement quand bien m\xc3\xaame les enfants sont attendus ce jour. Merci\\n\\nLe bureau de la cat\xc3\xa9ch\xc3\xa8se."},"resourceURL":"https://api.orange.com/smsmessaging/v1/outbound/tel:+221773387902/requests/6022336b-4405-45f2-9041-fad707fdaa97"}}'
2021-06-26 12:23:58 | numéro : 775522148 | resultat envoi : b'{"outboundSMSMessageRequest":{"address":["tel:+221775522148"],"senderAddress":"tel:+221773387902","senderName":"ipps","outboundSMSTextMessage":{"message":"Chers parents, le contro\xc3\xb4le ne concerne pas les classes de sacrement quand bien m\xc3\xaame les enfants sont attendus ce jour. Merci\\n\\nLe bureau de la cat\xc3\xa9ch\xc3\xa8se."},"resourceURL":"https://api.orange.com/smsmessaging/v1/outbound/tel:+221773387902/requests/7d43a759-7dd0-4216-9165-6ba0ddfa7fc4"}}'
2021-06-26 12:23:59 | numéro : 772932492 | resultat envoi : b'{"outboundSMSMessageRequest":{"address":["tel:+221772932492"],"senderAddress":"tel:+221773387902","senderName":"ipps","outboundSMSTextMessage":{"message":"Chers parents, le contro\xc3\xb4le ne concerne pas les classes de sacrement quand bien m\xc3\xaame les enfants sont attendus ce jour. Merci\\n\\nLe bureau de la cat\xc3\xa9ch\xc3\xa8se."},"resourceURL":"https://api.orange.com/smsmessaging/v1/outbound/tel:+221773387902/requests/0fbbc42f-e7af-4c48-bb72-5facdc2f9b5c"}}'
2021-06-26 12:23:59 | numéro : 772931538 | resultat envoi : b'{"outboundSMSMessageRequest":{"address":["tel:+221772931538"],"senderAddress":"tel:+221773387902","senderName":"ipps","outboundSMSTextMessage":{"message":"Chers parents, le contro\xc3\xb4le ne concerne pas les classes de sacrement quand bien m\xc3\xaame les enfants sont attendus ce jour. Merci\\n\\nLe bureau de la cat\xc3\xa9ch\xc3\xa8se."},"resourceURL":"https://api.orange.com/smsmessaging/v1/outbound/tel:+221773387902/requests/9f3c8a54-40dd-4eaf-b6b5-e9165b8b9cfe"}}'
2021-06-26 12:24:00 | numéro : 776130535 | resultat envoi : b'{"outboundSMSMessageRequest":{"address":["tel:+221776130535"],"senderAddress":"tel:+221773387902","senderName":"ipps","outboundSMSTextMessage":{"message":"Chers parents, le contro\xc3\xb4le ne concerne pas les classes de sacrement quand bien m\xc3\xaame les enfants sont attendus ce jour. Merci\\n\\nLe bureau de la cat\xc3\xa9ch\xc3\xa8se."},"resourceURL":"https://api.orange.com/smsmessaging/v1/outbound/tel:+221773387902/requests/8d7e8786-7bdb-46f9-a634-526de0eba2d2"}}'
2021-06-26 12:24:01 | numéro : 771732310 | resultat envoi : b'{"outboundSMSMessageRequest":{"address":["tel:+221771732310"],"senderAddress":"tel:+221773387902","senderName":"ipps","outboundSMSTextMessage":{"message":"Chers parents, le contro\xc3\xb4le ne concerne pas les classes de sacrement quand bien m\xc3\xaame les enfants sont attendus ce jour. Merci\\n\\nLe bureau de la cat\xc3\xa9ch\xc3\xa8se."},"resourceURL":"https://api.orange.com/smsmessaging/v1/outbound/tel:+221773387902/requests/525616d8-1c59-47b6-aab4-7358ca4f5f08"}}'
2021-06-26 12:24:01 | numéro : 776457989 | resultat envoi : b'{"outboundSMSMessageRequest":{"address":["tel:+221776457989"],"senderAddress":"tel:+221773387902","senderName":"ipps","outboundSMSTextMessage":{"message":"Chers parents, le contro\xc3\xb4le ne concerne pas les classes de sacrement quand bien m\xc3\xaame les enfants sont attendus ce jour. Merci\\n\\nLe bureau de la cat\xc3\xa9ch\xc3\xa8se."},"resourceURL":"https://api.orange.com/smsmessaging/v1/outbound/tel:+221773387902/requests/9b2d42a1-cb76-46f6-b80e-3f751b05a01d"}}'
2021-06-26 12:24:02 | numéro : 775428173 | resultat envoi : b'{"outboundSMSMessageRequest":{"address":["tel:+221775428173"],"senderAddress":"tel:+221773387902","senderName":"ipps","outboundSMSTextMessage":{"message":"Chers parents, le contro\xc3\xb4le ne concerne pas les classes de sacrement quand bien m\xc3\xaame les enfants sont attendus ce jour. Merci\\n\\nLe bureau de la cat\xc3\xa9ch\xc3\xa8se."},"resourceURL":"https://api.orange.com/smsmessaging/v1/outbound/tel:+221773387902/requests/076d1c0a-ed85-47a9-95e4-478e631b791d"}}'
2021-06-26 12:24:02 | numéro : 781440170 | resultat envoi : b'{"outboundSMSMessageRequest":{"address":["tel:+221781440170"],"senderAddress":"tel:+221773387902","senderName":"ipps","outboundSMSTextMessage":{"message":"Chers parents, le contro\xc3\xb4le ne concerne pas les classes de sacrement quand bien m\xc3\xaame les enfants sont attendus ce jour. Merci\\n\\nLe bureau de la cat\xc3\xa9ch\xc3\xa8se."},"resourceURL":"https://api.orange.com/smsmessaging/v1/outbound/tel:+221773387902/requests/bc20b012-ad29-4c29-8be9-90e46635844e"}}'
2021-06-26 12:24:03 | numéro : 774501240 | resultat envoi : b'{"outboundSMSMessageRequest":{"address":["tel:+221774501240"],"senderAddress":"tel:+221773387902","senderName":"ipps","outboundSMSTextMessage":{"message":"Chers parents, le contro\xc3\xb4le ne concerne pas les classes de sacrement quand bien m\xc3\xaame les enfants sont attendus ce jour. Merci\\n\\nLe bureau de la cat\xc3\xa9ch\xc3\xa8se."},"resourceURL":"https://api.orange.com/smsmessaging/v1/outbound/tel:+221773387902/requests/70ba01c2-4800-42ca-8795-8e5cbd5509c0"}}'
2021-06-26 12:24:04 | numéro : 779430351 | resultat envoi : b'{"requestError":{"policyException":{"messageId":"POL0001","text":"A policy error occurred. Error code is %1","variables":["Not enough credit"]}}}'
2021-06-26 12:24:04 | numéro : 776477735 | resultat envoi : b'{"requestError":{"policyException":{"messageId":"POL0001","text":"A policy error occurred. Error code is %1","variables":["Not enough credit"]}}}'
2021-06-26 12:24:05 | numéro : 775409935 | resultat envoi : b'{"requestError":{"policyException":{"messageId":"POL0001","text":"A policy error occurred. Error code is %1","variables":["Not enough credit"]}}}'
2021-06-26 12:24:08 | numéro : 778033346 | resultat envoi : b'{"requestError":{"policyException":{"messageId":"POL0001","text":"A policy error occurred. Error code is %1","variables":["Not enough credit"]}}}'
2021-06-26 12:24:08 | numéro : 772000618 | resultat envoi : b'{"requestError":{"policyException":{"messageId":"POL0001","text":"A policy error occurred. Error code is %1","variables":["Not enough credit"]}}}'
2021-06-26 12:24:08 | numéro : 775212029 | resultat envoi : b'{"requestError":{"policyException":{"messageId":"POL0001","text":"A policy error occurred. Error code is %1","variables":["Not enough credit"]}}}'
2021-06-26 12:24:09 | numéro : 777133003 | resultat envoi : b'{"requestError":{"policyException":{"messageId":"POL0001","text":"A policy error occurred. Error code is %1","variables":["Not enough credit"]}}}'
2021-06-26 12:24:09 | numéro : 775116324 | resultat envoi : b'{"requestError":{"policyException":{"messageId":"POL0001","text":"A policy error occurred. Error code is %1","variables":["Not enough credit"]}}}'
2021-06-26 12:24:09 | numéro : 776458971 | resultat envoi : b'{"requestError":{"policyException":{"messageId":"POL0001","text":"A policy error occurred. Error code is %1","variables":["Not enough credit"]}}}'
2021-06-26 12:24:11 | numéro : 775313888 | resultat envoi : b'{"requestError":{"policyException":{"messageId":"POL0001","text":"A policy error occurred. Error code is %1","variables":["Not enough credit"]}}}'
2021-06-26 12:24:11 | numéro : 772754360 | resultat envoi : b'{"requestError":{"policyException":{"messageId":"POL0001","text":"A policy error occurred. Error code is %1","variables":["Not enough credit"]}}}'
2021-06-26 12:24:12 | numéro : 774133658 | resultat envoi : b'{"outboundSMSMessageRequest":{"address":["tel:+221774133658"],"senderAddress":"tel:+221773387902","senderName":"ipps","outboundSMSTextMessage":{"message":"Chers parents, le contro\xc3\xb4le ne concerne pas les classes de sacrement quand bien m\xc3\xaame les enfants sont attendus ce jour. Merci\\n\\nLe bureau de la cat\xc3\xa9ch\xc3\xa8se."},"resourceURL":"https://api.orange.com/smsmessaging/v1/outbound/tel:+221773387902/requests/8cb6fa9e-8cfd-4a1c-b39b-8ffd6500305c"}}'
2021-06-26 12:24:13 | numéro : 779325273 | resultat envoi : b'{"outboundSMSMessageRequest":{"address":["tel:+221779325273"],"senderAddress":"tel:+221773387902","senderName":"ipps","outboundSMSTextMessage":{"message":"Chers parents, le contro\xc3\xb4le ne concerne pas les classes de sacrement quand bien m\xc3\xaame les enfants sont attendus ce jour. Merci\\n\\nLe bureau de la cat\xc3\xa9ch\xc3\xa8se."},"resourceURL":"https://api.orange.com/smsmessaging/v1/outbound/tel:+221773387902/requests/15bef9e9-83ae-4499-801b-ccc8eb18f586"}}'
2021-06-26 12:24:13 | numéro : 776556519 | resultat envoi : b'{"outboundSMSMessageRequest":{"address":["tel:+221776556519"],"senderAddress":"tel:+221773387902","senderName":"ipps","outboundSMSTextMessage":{"message":"Chers parents, le contro\xc3\xb4le ne concerne pas les classes de sacrement quand bien m\xc3\xaame les enfants sont attendus ce jour. Merci\\n\\nLe bureau de la cat\xc3\xa9ch\xc3\xa8se."},"resourceURL":"https://api.orange.com/smsmessaging/v1/outbound/tel:+221773387902/requests/752f4ae3-955e-4397-9c19-750fba4719a7"}}'
2021-06-26 12:24:14 | numéro : 774287075 | resultat envoi : b'{"outboundSMSMessageRequest":{"address":["tel:+221774287075"],"senderAddress":"tel:+221773387902","senderName":"ipps","outboundSMSTextMessage":{"message":"Chers parents, le contro\xc3\xb4le ne concerne pas les classes de sacrement quand bien m\xc3\xaame les enfants sont attendus ce jour. Merci\\n\\nLe bureau de la cat\xc3\xa9ch\xc3\xa8se."},"resourceURL":"https://api.orange.com/smsmessaging/v1/outbound/tel:+221773387902/requests/aed69709-9b68-4f0e-bf0a-382ab3d7379b"}}'
2021-06-26 12:24:14 | numéro : 775647216 | resultat envoi : b'{"outboundSMSMessageRequest":{"address":["tel:+221775647216"],"senderAddress":"tel:+221773387902","senderName":"ipps","outboundSMSTextMessage":{"message":"Chers parents, le contro\xc3\xb4le ne concerne pas les classes de sacrement quand bien m\xc3\xaame les enfants sont attendus ce jour. Merci\\n\\nLe bureau de la cat\xc3\xa9ch\xc3\xa8se."},"resourceURL":"https://api.orange.com/smsmessaging/v1/outbound/tel:+221773387902/requests/a2ac4ae1-cfc8-4fe9-a14e-2d9ebd2b954e"}}'
2021-06-26 12:24:15 | numéro : 777133603 | resultat envoi : b'{"outboundSMSMessageRequest":{"address":["tel:+221777133603"],"senderAddress":"tel:+221773387902","senderName":"ipps","outboundSMSTextMessage":{"message":"Chers parents, le contro\xc3\xb4le ne concerne pas les classes de sacrement quand bien m\xc3\xaame les enfants sont attendus ce jour. Merci\\n\\nLe bureau de la cat\xc3\xa9ch\xc3\xa8se."},"resourceURL":"https://api.orange.com/smsmessaging/v1/outbound/tel:+221773387902/requests/8d35684a-d522-4f9e-96e0-8bcf692305c2"}}'
2021-06-26 12:24:15 | numéro : 777931493 | resultat envoi : b'{"outboundSMSMessageRequest":{"address":["tel:+221777931493"],"senderAddress":"tel:+221773387902","senderName":"ipps","outboundSMSTextMessage":{"message":"Chers parents, le contro\xc3\xb4le ne concerne pas les classes de sacrement quand bien m\xc3\xaame les enfants sont attendus ce jour. Merci\\n\\nLe bureau de la cat\xc3\xa9ch\xc3\xa8se."},"resourceURL":"https://api.orange.com/smsmessaging/v1/outbound/tel:+221773387902/requests/970800ec-9d31-4909-a209-ce6129da8c8f"}}'
2021-06-26 12:24:15 | numéro : 778170857 | resultat envoi : b'{"outboundSMSMessageRequest":{"address":["tel:+221778170857"],"senderAddress":"tel:+221773387902","senderName":"ipps","outboundSMSTextMessage":{"message":"Chers parents, le contro\xc3\xb4le ne concerne pas les classes de sacrement quand bien m\xc3\xaame les enfants sont attendus ce jour. Merci\\n\\nLe bureau de la cat\xc3\xa9ch\xc3\xa8se."},"resourceURL":"https://api.orange.com/smsmessaging/v1/outbound/tel:+221773387902/requests/e04f13cd-9425-4673-86e9-fcce0377aaaa"}}'
2021-06-26 12:24:15 | numéro : 778590854 | resultat envoi : b'{"outboundSMSMessageRequest":{"address":["tel:+221778590854"],"senderAddress":"tel:+221773387902","senderName":"ipps","outboundSMSTextMessage":{"message":"Chers parents, le contro\xc3\xb4le ne concerne pas les classes de sacrement quand bien m\xc3\xaame les enfants sont attendus ce jour. Merci\\n\\nLe bureau de la cat\xc3\xa9ch\xc3\xa8se."},"resourceURL":"https://api.orange.com/smsmessaging/v1/outbound/tel:+221773387902/requests/d5e231c0-0657-431c-b733-2d8c8d196c4c"}}'
2021-06-26 12:24:16 | numéro : 782916195 | resultat envoi : b'{"outboundSMSMessageRequest":{"address":["tel:+221782916195"],"senderAddress":"tel:+221773387902","senderName":"ipps","outboundSMSTextMessage":{"message":"Chers parents, le contro\xc3\xb4le ne concerne pas les classes de sacrement quand bien m\xc3\xaame les enfants sont attendus ce jour. Merci\\n\\nLe bureau de la cat\xc3\xa9ch\xc3\xa8se."},"resourceURL":"https://api.orange.com/smsmessaging/v1/outbound/tel:+221773387902/requests/d67e2618-e350-4e94-9e32-0236c10890e6"}}'
2021-06-26 12:24:16 | numéro : 773387902 | resultat envoi : b'{"outboundSMSMessageRequest":{"address":["tel:+221773387902"],"senderAddress":"tel:+221773387902","senderName":"ipps","outboundSMSTextMessage":{"message":"Chers parents, le contro\xc3\xb4le ne concerne pas les classes de sacrement quand bien m\xc3\xaame les enfants sont attendus ce jour. Merci\\n\\nLe bureau de la cat\xc3\xa9ch\xc3\xa8se."},"resourceURL":"https://api.orange.com/smsmessaging/v1/outbound/tel:+221773387902/requests/1240b9d5-12d9-46c6-9d6d-fe8945a4e991"}}'
2021-06-26 12:24:17 | numéro : 779646193 | resultat envoi : b'{"outboundSMSMessageRequest":{"address":["tel:+221779646193"],"senderAddress":"tel:+221773387902","senderName":"ipps","outboundSMSTextMessage":{"message":"Chers parents, le contro\xc3\xb4le ne concerne pas les classes de sacrement quand bien m\xc3\xaame les enfants sont attendus ce jour. Merci\\n\\nLe bureau de la cat\xc3\xa9ch\xc3\xa8se."},"resourceURL":"https://api.orange.com/smsmessaging/v1/outbound/tel:+221773387902/requests/a8ad8feb-1c3c-4970-9f19-6a95e3e6fdeb"}}'
2021-06-26 12:24:17 | balance 51 | fin envoi
