2021-05-27 20:25:40 | balance 247 | debut envoi
2021-05-27 20:25:40 | numéro : 771490977 | resultat envoi : b'{"outboundSMSMessageRequest":{"address":["tel:+221771490977"],"senderAddress":"tel:+221773387902","senderName":"ipps","outboundSMSTextMessage":{"message":"Il y aura la derni\xc3\xa8re r\xc3\xa9p\xc3\xa9tition apr\xc3\xa8s les confessions.\\n les enfants finiront un peu plus tard que d\'habitude.\\nMerci par avance pour votre compr\xc3\xa9hension.\\n\\nLe bureau de la cat\xc3\xa9ch\xc3\xa8se."},"resourceURL":"https://api.orange.com/smsmessaging/v1/outbound/tel:+221773387902/requests/8c211630-4ce2-46ec-91a7-02903cfb597e"}}'
2021-05-27 20:25:41 | numéro : 771661816 | resultat envoi : b'{"outboundSMSMessageRequest":{"address":["tel:+221771661816"],"senderAddress":"tel:+221773387902","senderName":"ipps","outboundSMSTextMessage":{"message":"Il y aura la derni\xc3\xa8re r\xc3\xa9p\xc3\xa9tition apr\xc3\xa8s les confessions.\\n les enfants finiront un peu plus tard que d\'habitude.\\nMerci par avance pour votre compr\xc3\xa9hension.\\n\\nLe bureau de la cat\xc3\xa9ch\xc3\xa8se."},"resourceURL":"https://api.orange.com/smsmessaging/v1/outbound/tel:+221773387902/requests/6ef22dcb-9637-44f4-ae14-ac581c1cc7ea"}}'
2021-05-27 20:25:41 | numéro : 776499719 | resultat envoi : b'{"outboundSMSMessageRequest":{"address":["tel:+221776499719"],"senderAddress":"tel:+221773387902","senderName":"ipps","outboundSMSTextMessage":{"message":"Il y aura la derni\xc3\xa8re r\xc3\xa9p\xc3\xa9tition apr\xc3\xa8s les confessions.\\n les enfants finiront un peu plus tard que d\'habitude.\\nMerci par avance pour votre compr\xc3\xa9hension.\\n\\nLe bureau de la cat\xc3\xa9ch\xc3\xa8se."},"resourceURL":"https://api.orange.com/smsmessaging/v1/outbound/tel:+221773387902/requests/91fc2cbd-9205-4991-b358-6cbb79b02c13"}}'
2021-05-27 20:25:41 | numéro : 779242942 | resultat envoi : b'{"outboundSMSMessageRequest":{"address":["tel:+221779242942"],"senderAddress":"tel:+221773387902","senderName":"ipps","outboundSMSTextMessage":{"message":"Il y aura la derni\xc3\xa8re r\xc3\xa9p\xc3\xa9tition apr\xc3\xa8s les confessions.\\n les enfants finiront un peu plus tard que d\'habitude.\\nMerci par avance pour votre compr\xc3\xa9hension.\\n\\nLe bureau de la cat\xc3\xa9ch\xc3\xa8se."},"resourceURL":"https://api.orange.com/smsmessaging/v1/outbound/tel:+221773387902/requests/0324f7d5-0a04-4f02-b719-dab9e70189f4"}}'
2021-05-27 20:25:43 | numéro : 773796203 | resultat envoi : b'{"outboundSMSMessageRequest":{"address":["tel:+221773796203"],"senderAddress":"tel:+221773387902","senderName":"ipps","outboundSMSTextMessage":{"message":"Il y aura la derni\xc3\xa8re r\xc3\xa9p\xc3\xa9tition apr\xc3\xa8s les confessions.\\n les enfants finiront un peu plus tard que d\'habitude.\\nMerci par avance pour votre compr\xc3\xa9hension.\\n\\nLe bureau de la cat\xc3\xa9ch\xc3\xa8se."},"resourceURL":"https://api.orange.com/smsmessaging/v1/outbound/tel:+221773387902/requests/1a578d89-baf5-406b-b62b-0e427746acd6"}}'
2021-05-27 20:25:43 | numéro : 772753360 | resultat envoi : b'{"outboundSMSMessageRequest":{"address":["tel:+221772753360"],"senderAddress":"tel:+221773387902","senderName":"ipps","outboundSMSTextMessage":{"message":"Il y aura la derni\xc3\xa8re r\xc3\xa9p\xc3\xa9tition apr\xc3\xa8s les confessions.\\n les enfants finiront un peu plus tard que d\'habitude.\\nMerci par avance pour votre compr\xc3\xa9hension.\\n\\nLe bureau de la cat\xc3\xa9ch\xc3\xa8se."},"resourceURL":"https://api.orange.com/smsmessaging/v1/outbound/tel:+221773387902/requests/f60b8ca8-b050-4a5c-83be-5f257a86c00d"}}'
2021-05-27 20:25:44 | numéro : 778942582 | resultat envoi : b'{"outboundSMSMessageRequest":{"address":["tel:+221778942582"],"senderAddress":"tel:+221773387902","senderName":"ipps","outboundSMSTextMessage":{"message":"Il y aura la derni\xc3\xa8re r\xc3\xa9p\xc3\xa9tition apr\xc3\xa8s les confessions.\\n les enfants finiront un peu plus tard que d\'habitude.\\nMerci par avance pour votre compr\xc3\xa9hension.\\n\\nLe bureau de la cat\xc3\xa9ch\xc3\xa8se."},"resourceURL":"https://api.orange.com/smsmessaging/v1/outbound/tel:+221773387902/requests/137c280e-7b7b-446a-9a46-f39aad2d3a9c"}}'
2021-05-27 20:25:44 | numéro : 775653895 | resultat envoi : b'{"outboundSMSMessageRequest":{"address":["tel:+221775653895"],"senderAddress":"tel:+221773387902","senderName":"ipps","outboundSMSTextMessage":{"message":"Il y aura la derni\xc3\xa8re r\xc3\xa9p\xc3\xa9tition apr\xc3\xa8s les confessions.\\n les enfants finiront un peu plus tard que d\'habitude.\\nMerci par avance pour votre compr\xc3\xa9hension.\\n\\nLe bureau de la cat\xc3\xa9ch\xc3\xa8se."},"resourceURL":"https://api.orange.com/smsmessaging/v1/outbound/tel:+221773387902/requests/4b61b813-5e1a-440b-9c02-9e9dad2b2ce7"}}'
2021-05-27 20:25:44 | numéro : 777931080 | resultat envoi : b'{"outboundSMSMessageRequest":{"address":["tel:+221777931080"],"senderAddress":"tel:+221773387902","senderName":"ipps","outboundSMSTextMessage":{"message":"Il y aura la derni\xc3\xa8re r\xc3\xa9p\xc3\xa9tition apr\xc3\xa8s les confessions.\\n les enfants finiront un peu plus tard que d\'habitude.\\nMerci par avance pour votre compr\xc3\xa9hension.\\n\\nLe bureau de la cat\xc3\xa9ch\xc3\xa8se."},"resourceURL":"https://api.orange.com/smsmessaging/v1/outbound/tel:+221773387902/requests/6985b1ba-d178-487f-8876-7ce810751dd1"}}'
2021-05-27 20:25:45 | numéro : 774782486 | resultat envoi : b'{"outboundSMSMessageRequest":{"address":["tel:+221774782486"],"senderAddress":"tel:+221773387902","senderName":"ipps","outboundSMSTextMessage":{"message":"Il y aura la derni\xc3\xa8re r\xc3\xa9p\xc3\xa9tition apr\xc3\xa8s les confessions.\\n les enfants finiront un peu plus tard que d\'habitude.\\nMerci par avance pour votre compr\xc3\xa9hension.\\n\\nLe bureau de la cat\xc3\xa9ch\xc3\xa8se."},"resourceURL":"https://api.orange.com/smsmessaging/v1/outbound/tel:+221773387902/requests/06e53517-32e9-4cc4-9f8e-7b03313dbc02"}}'
2021-05-27 20:25:46 | numéro : 776587031 | resultat envoi : b'{"outboundSMSMessageRequest":{"address":["tel:+221776587031"],"senderAddress":"tel:+221773387902","senderName":"ipps","outboundSMSTextMessage":{"message":"Il y aura la derni\xc3\xa8re r\xc3\xa9p\xc3\xa9tition apr\xc3\xa8s les confessions.\\n les enfants finiront un peu plus tard que d\'habitude.\\nMerci par avance pour votre compr\xc3\xa9hension.\\n\\nLe bureau de la cat\xc3\xa9ch\xc3\xa8se."},"resourceURL":"https://api.orange.com/smsmessaging/v1/outbound/tel:+221773387902/requests/dbc00dd4-053a-4b61-8b48-2720667e9345"}}'
2021-05-27 20:25:47 | numéro : 775963859 | resultat envoi : b'{"outboundSMSMessageRequest":{"address":["tel:+221775963859"],"senderAddress":"tel:+221773387902","senderName":"ipps","outboundSMSTextMessage":{"message":"Il y aura la derni\xc3\xa8re r\xc3\xa9p\xc3\xa9tition apr\xc3\xa8s les confessions.\\n les enfants finiront un peu plus tard que d\'habitude.\\nMerci par avance pour votre compr\xc3\xa9hension.\\n\\nLe bureau de la cat\xc3\xa9ch\xc3\xa8se."},"resourceURL":"https://api.orange.com/smsmessaging/v1/outbound/tel:+221773387902/requests/7106617d-3272-4dd0-80c7-4e3f480f49f2"}}'
2021-05-27 20:25:47 | numéro : 781455015 | resultat envoi : b'{"outboundSMSMessageRequest":{"address":["tel:+221781455015"],"senderAddress":"tel:+221773387902","senderName":"ipps","outboundSMSTextMessage":{"message":"Il y aura la derni\xc3\xa8re r\xc3\xa9p\xc3\xa9tition apr\xc3\xa8s les confessions.\\n les enfants finiront un peu plus tard que d\'habitude.\\nMerci par avance pour votre compr\xc3\xa9hension.\\n\\nLe bureau de la cat\xc3\xa9ch\xc3\xa8se."},"resourceURL":"https://api.orange.com/smsmessaging/v1/outbound/tel:+221773387902/requests/a76174ed-7bb3-44d1-a89a-65e4ccf87eb5"}}'
2021-05-27 20:25:47 | numéro : 781785100 | resultat envoi : b'{"outboundSMSMessageRequest":{"address":["tel:+221781785100"],"senderAddress":"tel:+221773387902","senderName":"ipps","outboundSMSTextMessage":{"message":"Il y aura la derni\xc3\xa8re r\xc3\xa9p\xc3\xa9tition apr\xc3\xa8s les confessions.\\n les enfants finiront un peu plus tard que d\'habitude.\\nMerci par avance pour votre compr\xc3\xa9hension.\\n\\nLe bureau de la cat\xc3\xa9ch\xc3\xa8se."},"resourceURL":"https://api.orange.com/smsmessaging/v1/outbound/tel:+221773387902/requests/42e8361d-e115-418b-900e-8e5b20e1df0b"}}'
2021-05-27 20:25:48 | numéro : 775484330 | resultat envoi : b'{"outboundSMSMessageRequest":{"address":["tel:+221775484330"],"senderAddress":"tel:+221773387902","senderName":"ipps","outboundSMSTextMessage":{"message":"Il y aura la derni\xc3\xa8re r\xc3\xa9p\xc3\xa9tition apr\xc3\xa8s les confessions.\\n les enfants finiront un peu plus tard que d\'habitude.\\nMerci par avance pour votre compr\xc3\xa9hension.\\n\\nLe bureau de la cat\xc3\xa9ch\xc3\xa8se."},"resourceURL":"https://api.orange.com/smsmessaging/v1/outbound/tel:+221773387902/requests/0b554fe2-f57a-4b2c-96b1-19cc6ef84c87"}}'
2021-05-27 20:25:48 | numéro : 771332447 | resultat envoi : b'{"outboundSMSMessageRequest":{"address":["tel:+221771332447"],"senderAddress":"tel:+221773387902","senderName":"ipps","outboundSMSTextMessage":{"message":"Il y aura la derni\xc3\xa8re r\xc3\xa9p\xc3\xa9tition apr\xc3\xa8s les confessions.\\n les enfants finiront un peu plus tard que d\'habitude.\\nMerci par avance pour votre compr\xc3\xa9hension.\\n\\nLe bureau de la cat\xc3\xa9ch\xc3\xa8se."},"resourceURL":"https://api.orange.com/smsmessaging/v1/outbound/tel:+221773387902/requests/cdab0148-b8d5-4899-aba0-b2ae100c9768"}}'
2021-05-27 20:25:48 | numéro : 773353028 | resultat envoi : b'{"outboundSMSMessageRequest":{"address":["tel:+221773353028"],"senderAddress":"tel:+221773387902","senderName":"ipps","outboundSMSTextMessage":{"message":"Il y aura la derni\xc3\xa8re r\xc3\xa9p\xc3\xa9tition apr\xc3\xa8s les confessions.\\n les enfants finiront un peu plus tard que d\'habitude.\\nMerci par avance pour votre compr\xc3\xa9hension.\\n\\nLe bureau de la cat\xc3\xa9ch\xc3\xa8se."},"resourceURL":"https://api.orange.com/smsmessaging/v1/outbound/tel:+221773387902/requests/46f8ba45-8c7d-4e79-a19a-c293c3156e36"}}'
2021-05-27 20:25:49 | numéro : 772361598 | resultat envoi : b'{"outboundSMSMessageRequest":{"address":["tel:+221772361598"],"senderAddress":"tel:+221773387902","senderName":"ipps","outboundSMSTextMessage":{"message":"Il y aura la derni\xc3\xa8re r\xc3\xa9p\xc3\xa9tition apr\xc3\xa8s les confessions.\\n les enfants finiront un peu plus tard que d\'habitude.\\nMerci par avance pour votre compr\xc3\xa9hension.\\n\\nLe bureau de la cat\xc3\xa9ch\xc3\xa8se."},"resourceURL":"https://api.orange.com/smsmessaging/v1/outbound/tel:+221773387902/requests/cdab3bdc-5676-4dd6-aded-95330ef83949"}}'
2021-05-27 20:25:49 | numéro : 775764412 | resultat envoi : b'{"outboundSMSMessageRequest":{"address":["tel:+221775764412"],"senderAddress":"tel:+221773387902","senderName":"ipps","outboundSMSTextMessage":{"message":"Il y aura la derni\xc3\xa8re r\xc3\xa9p\xc3\xa9tition apr\xc3\xa8s les confessions.\\n les enfants finiront un peu plus tard que d\'habitude.\\nMerci par avance pour votre compr\xc3\xa9hension.\\n\\nLe bureau de la cat\xc3\xa9ch\xc3\xa8se."},"resourceURL":"https://api.orange.com/smsmessaging/v1/outbound/tel:+221773387902/requests/89dceb5c-28bf-41f7-a09a-c4e22c057581"}}'
2021-05-27 20:25:50 | numéro : 776513054 | resultat envoi : b'{"outboundSMSMessageRequest":{"address":["tel:+221776513054"],"senderAddress":"tel:+221773387902","senderName":"ipps","outboundSMSTextMessage":{"message":"Il y aura la derni\xc3\xa8re r\xc3\xa9p\xc3\xa9tition apr\xc3\xa8s les confessions.\\n les enfants finiront un peu plus tard que d\'habitude.\\nMerci par avance pour votre compr\xc3\xa9hension.\\n\\nLe bureau de la cat\xc3\xa9ch\xc3\xa8se."},"resourceURL":"https://api.orange.com/smsmessaging/v1/outbound/tel:+221773387902/requests/077d06dd-56d1-4a20-a147-d20f80abf605"}}'
2021-05-27 20:25:50 | numéro : 783361123 | resultat envoi : b'{"outboundSMSMessageRequest":{"address":["tel:+221783361123"],"senderAddress":"tel:+221773387902","senderName":"ipps","outboundSMSTextMessage":{"message":"Il y aura la derni\xc3\xa8re r\xc3\xa9p\xc3\xa9tition apr\xc3\xa8s les confessions.\\n les enfants finiront un peu plus tard que d\'habitude.\\nMerci par avance pour votre compr\xc3\xa9hension.\\n\\nLe bureau de la cat\xc3\xa9ch\xc3\xa8se."},"resourceURL":"https://api.orange.com/smsmessaging/v1/outbound/tel:+221773387902/requests/b9136b66-ab5d-4b13-b329-363fd79e0f56"}}'
2021-05-27 20:25:50 | numéro : 777199496 | resultat envoi : b'{"outboundSMSMessageRequest":{"address":["tel:+221777199496"],"senderAddress":"tel:+221773387902","senderName":"ipps","outboundSMSTextMessage":{"message":"Il y aura la derni\xc3\xa8re r\xc3\xa9p\xc3\xa9tition apr\xc3\xa8s les confessions.\\n les enfants finiront un peu plus tard que d\'habitude.\\nMerci par avance pour votre compr\xc3\xa9hension.\\n\\nLe bureau de la cat\xc3\xa9ch\xc3\xa8se."},"resourceURL":"https://api.orange.com/smsmessaging/v1/outbound/tel:+221773387902/requests/87d69a50-ca5e-4e4c-a7bc-847495df9e68"}}'
2021-05-27 20:25:51 | numéro : 773260947 | resultat envoi : b'{"outboundSMSMessageRequest":{"address":["tel:+221773260947"],"senderAddress":"tel:+221773387902","senderName":"ipps","outboundSMSTextMessage":{"message":"Il y aura la derni\xc3\xa8re r\xc3\xa9p\xc3\xa9tition apr\xc3\xa8s les confessions.\\n les enfants finiront un peu plus tard que d\'habitude.\\nMerci par avance pour votre compr\xc3\xa9hension.\\n\\nLe bureau de la cat\xc3\xa9ch\xc3\xa8se."},"resourceURL":"https://api.orange.com/smsmessaging/v1/outbound/tel:+221773387902/requests/173f6111-10af-44d7-95b5-a7423acdfce4"}}'
2021-05-27 20:25:51 | numéro : 774581844 | resultat envoi : b'{"outboundSMSMessageRequest":{"address":["tel:+221774581844"],"senderAddress":"tel:+221773387902","senderName":"ipps","outboundSMSTextMessage":{"message":"Il y aura la derni\xc3\xa8re r\xc3\xa9p\xc3\xa9tition apr\xc3\xa8s les confessions.\\n les enfants finiront un peu plus tard que d\'habitude.\\nMerci par avance pour votre compr\xc3\xa9hension.\\n\\nLe bureau de la cat\xc3\xa9ch\xc3\xa8se."},"resourceURL":"https://api.orange.com/smsmessaging/v1/outbound/tel:+221773387902/requests/1b1f7ebd-4f00-4ded-99f5-10e63f860bf1"}}'
2021-05-27 20:25:51 | numéro : 775522148 | resultat envoi : b'{"outboundSMSMessageRequest":{"address":["tel:+221775522148"],"senderAddress":"tel:+221773387902","senderName":"ipps","outboundSMSTextMessage":{"message":"Il y aura la derni\xc3\xa8re r\xc3\xa9p\xc3\xa9tition apr\xc3\xa8s les confessions.\\n les enfants finiront un peu plus tard que d\'habitude.\\nMerci par avance pour votre compr\xc3\xa9hension.\\n\\nLe bureau de la cat\xc3\xa9ch\xc3\xa8se."},"resourceURL":"https://api.orange.com/smsmessaging/v1/outbound/tel:+221773387902/requests/fe7aec46-a7d2-44ec-aeb2-964894d10c74"}}'
2021-05-27 20:25:51 | numéro : 772932492 | resultat envoi : b'{"outboundSMSMessageRequest":{"address":["tel:+221772932492"],"senderAddress":"tel:+221773387902","senderName":"ipps","outboundSMSTextMessage":{"message":"Il y aura la derni\xc3\xa8re r\xc3\xa9p\xc3\xa9tition apr\xc3\xa8s les confessions.\\n les enfants finiront un peu plus tard que d\'habitude.\\nMerci par avance pour votre compr\xc3\xa9hension.\\n\\nLe bureau de la cat\xc3\xa9ch\xc3\xa8se."},"resourceURL":"https://api.orange.com/smsmessaging/v1/outbound/tel:+221773387902/requests/1a564480-d956-4054-8872-1cbacd968af4"}}'
2021-05-27 20:25:52 | numéro : 772931538 | resultat envoi : b'{"outboundSMSMessageRequest":{"address":["tel:+221772931538"],"senderAddress":"tel:+221773387902","senderName":"ipps","outboundSMSTextMessage":{"message":"Il y aura la derni\xc3\xa8re r\xc3\xa9p\xc3\xa9tition apr\xc3\xa8s les confessions.\\n les enfants finiront un peu plus tard que d\'habitude.\\nMerci par avance pour votre compr\xc3\xa9hension.\\n\\nLe bureau de la cat\xc3\xa9ch\xc3\xa8se."},"resourceURL":"https://api.orange.com/smsmessaging/v1/outbound/tel:+221773387902/requests/3cb42e93-da00-4dc6-9c09-142c0043d9c0"}}'
2021-05-27 20:25:52 | numéro : 776130535 | resultat envoi : b'{"outboundSMSMessageRequest":{"address":["tel:+221776130535"],"senderAddress":"tel:+221773387902","senderName":"ipps","outboundSMSTextMessage":{"message":"Il y aura la derni\xc3\xa8re r\xc3\xa9p\xc3\xa9tition apr\xc3\xa8s les confessions.\\n les enfants finiront un peu plus tard que d\'habitude.\\nMerci par avance pour votre compr\xc3\xa9hension.\\n\\nLe bureau de la cat\xc3\xa9ch\xc3\xa8se."},"resourceURL":"https://api.orange.com/smsmessaging/v1/outbound/tel:+221773387902/requests/e2633ded-93d3-4759-974b-799bd0762dff"}}'
2021-05-27 20:25:53 | numéro : 771732310 | resultat envoi : b'{"outboundSMSMessageRequest":{"address":["tel:+221771732310"],"senderAddress":"tel:+221773387902","senderName":"ipps","outboundSMSTextMessage":{"message":"Il y aura la derni\xc3\xa8re r\xc3\xa9p\xc3\xa9tition apr\xc3\xa8s les confessions.\\n les enfants finiront un peu plus tard que d\'habitude.\\nMerci par avance pour votre compr\xc3\xa9hension.\\n\\nLe bureau de la cat\xc3\xa9ch\xc3\xa8se."},"resourceURL":"https://api.orange.com/smsmessaging/v1/outbound/tel:+221773387902/requests/90b9ba99-e736-4b4a-bb1d-ce5cdceee694"}}'
2021-05-27 20:25:53 | numéro : 776457989 | resultat envoi : b'{"outboundSMSMessageRequest":{"address":["tel:+221776457989"],"senderAddress":"tel:+221773387902","senderName":"ipps","outboundSMSTextMessage":{"message":"Il y aura la derni\xc3\xa8re r\xc3\xa9p\xc3\xa9tition apr\xc3\xa8s les confessions.\\n les enfants finiront un peu plus tard que d\'habitude.\\nMerci par avance pour votre compr\xc3\xa9hension.\\n\\nLe bureau de la cat\xc3\xa9ch\xc3\xa8se."},"resourceURL":"https://api.orange.com/smsmessaging/v1/outbound/tel:+221773387902/requests/d93370ce-2966-4583-a460-b0d076eafd58"}}'
2021-05-27 20:25:53 | numéro : 775428173 | resultat envoi : b'{"outboundSMSMessageRequest":{"address":["tel:+221775428173"],"senderAddress":"tel:+221773387902","senderName":"ipps","outboundSMSTextMessage":{"message":"Il y aura la derni\xc3\xa8re r\xc3\xa9p\xc3\xa9tition apr\xc3\xa8s les confessions.\\n les enfants finiront un peu plus tard que d\'habitude.\\nMerci par avance pour votre compr\xc3\xa9hension.\\n\\nLe bureau de la cat\xc3\xa9ch\xc3\xa8se."},"resourceURL":"https://api.orange.com/smsmessaging/v1/outbound/tel:+221773387902/requests/89cb5307-67c3-450c-98bc-db97c551a8a6"}}'
2021-05-27 20:25:53 | numéro : 781440170 | resultat envoi : b'{"outboundSMSMessageRequest":{"address":["tel:+221781440170"],"senderAddress":"tel:+221773387902","senderName":"ipps","outboundSMSTextMessage":{"message":"Il y aura la derni\xc3\xa8re r\xc3\xa9p\xc3\xa9tition apr\xc3\xa8s les confessions.\\n les enfants finiront un peu plus tard que d\'habitude.\\nMerci par avance pour votre compr\xc3\xa9hension.\\n\\nLe bureau de la cat\xc3\xa9ch\xc3\xa8se."},"resourceURL":"https://api.orange.com/smsmessaging/v1/outbound/tel:+221773387902/requests/1ac63102-4f15-46db-853f-646c98f18926"}}'
2021-05-27 20:25:54 | numéro : 774501240 | resultat envoi : b'{"outboundSMSMessageRequest":{"address":["tel:+221774501240"],"senderAddress":"tel:+221773387902","senderName":"ipps","outboundSMSTextMessage":{"message":"Il y aura la derni\xc3\xa8re r\xc3\xa9p\xc3\xa9tition apr\xc3\xa8s les confessions.\\n les enfants finiront un peu plus tard que d\'habitude.\\nMerci par avance pour votre compr\xc3\xa9hension.\\n\\nLe bureau de la cat\xc3\xa9ch\xc3\xa8se."},"resourceURL":"https://api.orange.com/smsmessaging/v1/outbound/tel:+221773387902/requests/9aecf74b-352b-42cf-abee-bc54e934e97d"}}'
2021-05-27 20:25:54 | numéro : 779430351 | resultat envoi : b'{"outboundSMSMessageRequest":{"address":["tel:+221779430351"],"senderAddress":"tel:+221773387902","senderName":"ipps","outboundSMSTextMessage":{"message":"Il y aura la derni\xc3\xa8re r\xc3\xa9p\xc3\xa9tition apr\xc3\xa8s les confessions.\\n les enfants finiront un peu plus tard que d\'habitude.\\nMerci par avance pour votre compr\xc3\xa9hension.\\n\\nLe bureau de la cat\xc3\xa9ch\xc3\xa8se."},"resourceURL":"https://api.orange.com/smsmessaging/v1/outbound/tel:+221773387902/requests/2eea1cfb-f010-4ab2-a225-f7fbd68fae9b"}}'
2021-05-27 20:25:54 | numéro : 776477735 | resultat envoi : b'{"outboundSMSMessageRequest":{"address":["tel:+221776477735"],"senderAddress":"tel:+221773387902","senderName":"ipps","outboundSMSTextMessage":{"message":"Il y aura la derni\xc3\xa8re r\xc3\xa9p\xc3\xa9tition apr\xc3\xa8s les confessions.\\n les enfants finiront un peu plus tard que d\'habitude.\\nMerci par avance pour votre compr\xc3\xa9hension.\\n\\nLe bureau de la cat\xc3\xa9ch\xc3\xa8se."},"resourceURL":"https://api.orange.com/smsmessaging/v1/outbound/tel:+221773387902/requests/b53826ab-d53f-499f-8ec8-d4171a6afc20"}}'
2021-05-27 20:25:54 | numéro : 775409935 | resultat envoi : b'{"outboundSMSMessageRequest":{"address":["tel:+221775409935"],"senderAddress":"tel:+221773387902","senderName":"ipps","outboundSMSTextMessage":{"message":"Il y aura la derni\xc3\xa8re r\xc3\xa9p\xc3\xa9tition apr\xc3\xa8s les confessions.\\n les enfants finiront un peu plus tard que d\'habitude.\\nMerci par avance pour votre compr\xc3\xa9hension.\\n\\nLe bureau de la cat\xc3\xa9ch\xc3\xa8se."},"resourceURL":"https://api.orange.com/smsmessaging/v1/outbound/tel:+221773387902/requests/d942044a-e715-4c44-894d-f609e31107f5"}}'
2021-05-27 20:25:55 | numéro : 778033346 | resultat envoi : b'{"outboundSMSMessageRequest":{"address":["tel:+221778033346"],"senderAddress":"tel:+221773387902","senderName":"ipps","outboundSMSTextMessage":{"message":"Il y aura la derni\xc3\xa8re r\xc3\xa9p\xc3\xa9tition apr\xc3\xa8s les confessions.\\n les enfants finiront un peu plus tard que d\'habitude.\\nMerci par avance pour votre compr\xc3\xa9hension.\\n\\nLe bureau de la cat\xc3\xa9ch\xc3\xa8se."},"resourceURL":"https://api.orange.com/smsmessaging/v1/outbound/tel:+221773387902/requests/333b3b4e-1ea1-4877-85f2-54d208abbf32"}}'
2021-05-27 20:25:55 | numéro : 772000618 | resultat envoi : b'{"outboundSMSMessageRequest":{"address":["tel:+221772000618"],"senderAddress":"tel:+221773387902","senderName":"ipps","outboundSMSTextMessage":{"message":"Il y aura la derni\xc3\xa8re r\xc3\xa9p\xc3\xa9tition apr\xc3\xa8s les confessions.\\n les enfants finiront un peu plus tard que d\'habitude.\\nMerci par avance pour votre compr\xc3\xa9hension.\\n\\nLe bureau de la cat\xc3\xa9ch\xc3\xa8se."},"resourceURL":"https://api.orange.com/smsmessaging/v1/outbound/tel:+221773387902/requests/d5273948-03f4-4ed4-bf02-2985db3ba1a4"}}'
2021-05-27 20:25:55 | numéro : 775212029 | resultat envoi : b'{"outboundSMSMessageRequest":{"address":["tel:+221775212029"],"senderAddress":"tel:+221773387902","senderName":"ipps","outboundSMSTextMessage":{"message":"Il y aura la derni\xc3\xa8re r\xc3\xa9p\xc3\xa9tition apr\xc3\xa8s les confessions.\\n les enfants finiront un peu plus tard que d\'habitude.\\nMerci par avance pour votre compr\xc3\xa9hension.\\n\\nLe bureau de la cat\xc3\xa9ch\xc3\xa8se."},"resourceURL":"https://api.orange.com/smsmessaging/v1/outbound/tel:+221773387902/requests/050ce2e7-5e7e-4c46-9444-27bfe265840f"}}'
2021-05-27 20:25:56 | numéro : 777133003 | resultat envoi : b'{"outboundSMSMessageRequest":{"address":["tel:+221777133003"],"senderAddress":"tel:+221773387902","senderName":"ipps","outboundSMSTextMessage":{"message":"Il y aura la derni\xc3\xa8re r\xc3\xa9p\xc3\xa9tition apr\xc3\xa8s les confessions.\\n les enfants finiront un peu plus tard que d\'habitude.\\nMerci par avance pour votre compr\xc3\xa9hension.\\n\\nLe bureau de la cat\xc3\xa9ch\xc3\xa8se."},"resourceURL":"https://api.orange.com/smsmessaging/v1/outbound/tel:+221773387902/requests/097230f4-fba3-4ebe-8ac8-3828c846e409"}}'
2021-05-27 20:25:56 | numéro : 775116324 | resultat envoi : b'{"outboundSMSMessageRequest":{"address":["tel:+221775116324"],"senderAddress":"tel:+221773387902","senderName":"ipps","outboundSMSTextMessage":{"message":"Il y aura la derni\xc3\xa8re r\xc3\xa9p\xc3\xa9tition apr\xc3\xa8s les confessions.\\n les enfants finiront un peu plus tard que d\'habitude.\\nMerci par avance pour votre compr\xc3\xa9hension.\\n\\nLe bureau de la cat\xc3\xa9ch\xc3\xa8se."},"resourceURL":"https://api.orange.com/smsmessaging/v1/outbound/tel:+221773387902/requests/5d9fd4d1-e706-4fac-9090-9d1e668b3a97"}}'
2021-05-27 20:25:56 | numéro : 776458971 | resultat envoi : b'{"outboundSMSMessageRequest":{"address":["tel:+221776458971"],"senderAddress":"tel:+221773387902","senderName":"ipps","outboundSMSTextMessage":{"message":"Il y aura la derni\xc3\xa8re r\xc3\xa9p\xc3\xa9tition apr\xc3\xa8s les confessions.\\n les enfants finiront un peu plus tard que d\'habitude.\\nMerci par avance pour votre compr\xc3\xa9hension.\\n\\nLe bureau de la cat\xc3\xa9ch\xc3\xa8se."},"resourceURL":"https://api.orange.com/smsmessaging/v1/outbound/tel:+221773387902/requests/c6872daf-9e95-427f-aad3-88d88c5ea783"}}'
2021-05-27 20:25:57 | numéro : 775313888 | resultat envoi : b'{"outboundSMSMessageRequest":{"address":["tel:+221775313888"],"senderAddress":"tel:+221773387902","senderName":"ipps","outboundSMSTextMessage":{"message":"Il y aura la derni\xc3\xa8re r\xc3\xa9p\xc3\xa9tition apr\xc3\xa8s les confessions.\\n les enfants finiront un peu plus tard que d\'habitude.\\nMerci par avance pour votre compr\xc3\xa9hension.\\n\\nLe bureau de la cat\xc3\xa9ch\xc3\xa8se."},"resourceURL":"https://api.orange.com/smsmessaging/v1/outbound/tel:+221773387902/requests/400ec1dc-0abf-4ca0-b60b-747f41c32744"}}'
2021-05-27 20:25:57 | numéro : 772754360 | resultat envoi : b'{"outboundSMSMessageRequest":{"address":["tel:+221772754360"],"senderAddress":"tel:+221773387902","senderName":"ipps","outboundSMSTextMessage":{"message":"Il y aura la derni\xc3\xa8re r\xc3\xa9p\xc3\xa9tition apr\xc3\xa8s les confessions.\\n les enfants finiront un peu plus tard que d\'habitude.\\nMerci par avance pour votre compr\xc3\xa9hension.\\n\\nLe bureau de la cat\xc3\xa9ch\xc3\xa8se."},"resourceURL":"https://api.orange.com/smsmessaging/v1/outbound/tel:+221773387902/requests/7f2618a7-9faa-4784-9eb7-2364615392d2"}}'
2021-05-27 20:25:57 | numéro : 774133658 | resultat envoi : b'{"outboundSMSMessageRequest":{"address":["tel:+221774133658"],"senderAddress":"tel:+221773387902","senderName":"ipps","outboundSMSTextMessage":{"message":"Il y aura la derni\xc3\xa8re r\xc3\xa9p\xc3\xa9tition apr\xc3\xa8s les confessions.\\n les enfants finiront un peu plus tard que d\'habitude.\\nMerci par avance pour votre compr\xc3\xa9hension.\\n\\nLe bureau de la cat\xc3\xa9ch\xc3\xa8se."},"resourceURL":"https://api.orange.com/smsmessaging/v1/outbound/tel:+221773387902/requests/a9bffb0f-22b5-4b07-a211-38717b705174"}}'
2021-05-27 20:25:58 | numéro : 779325273 | resultat envoi : b'{"outboundSMSMessageRequest":{"address":["tel:+221779325273"],"senderAddress":"tel:+221773387902","senderName":"ipps","outboundSMSTextMessage":{"message":"Il y aura la derni\xc3\xa8re r\xc3\xa9p\xc3\xa9tition apr\xc3\xa8s les confessions.\\n les enfants finiront un peu plus tard que d\'habitude.\\nMerci par avance pour votre compr\xc3\xa9hension.\\n\\nLe bureau de la cat\xc3\xa9ch\xc3\xa8se."},"resourceURL":"https://api.orange.com/smsmessaging/v1/outbound/tel:+221773387902/requests/10132329-8106-465b-9239-8a181bb96a49"}}'
2021-05-27 20:25:58 | numéro : 776556519 | resultat envoi : b'{"outboundSMSMessageRequest":{"address":["tel:+221776556519"],"senderAddress":"tel:+221773387902","senderName":"ipps","outboundSMSTextMessage":{"message":"Il y aura la derni\xc3\xa8re r\xc3\xa9p\xc3\xa9tition apr\xc3\xa8s les confessions.\\n les enfants finiront un peu plus tard que d\'habitude.\\nMerci par avance pour votre compr\xc3\xa9hension.\\n\\nLe bureau de la cat\xc3\xa9ch\xc3\xa8se."},"resourceURL":"https://api.orange.com/smsmessaging/v1/outbound/tel:+221773387902/requests/350720f6-6929-4553-81fa-d2564bca9c9b"}}'
2021-05-27 20:25:59 | numéro : 774287075 | resultat envoi : b'{"outboundSMSMessageRequest":{"address":["tel:+221774287075"],"senderAddress":"tel:+221773387902","senderName":"ipps","outboundSMSTextMessage":{"message":"Il y aura la derni\xc3\xa8re r\xc3\xa9p\xc3\xa9tition apr\xc3\xa8s les confessions.\\n les enfants finiront un peu plus tard que d\'habitude.\\nMerci par avance pour votre compr\xc3\xa9hension.\\n\\nLe bureau de la cat\xc3\xa9ch\xc3\xa8se."},"resourceURL":"https://api.orange.com/smsmessaging/v1/outbound/tel:+221773387902/requests/9b8b8843-48ac-4bd6-861b-0f02c011bfa9"}}'
2021-05-27 20:25:59 | numéro : 775647216 | resultat envoi : b'{"outboundSMSMessageRequest":{"address":["tel:+221775647216"],"senderAddress":"tel:+221773387902","senderName":"ipps","outboundSMSTextMessage":{"message":"Il y aura la derni\xc3\xa8re r\xc3\xa9p\xc3\xa9tition apr\xc3\xa8s les confessions.\\n les enfants finiront un peu plus tard que d\'habitude.\\nMerci par avance pour votre compr\xc3\xa9hension.\\n\\nLe bureau de la cat\xc3\xa9ch\xc3\xa8se."},"resourceURL":"https://api.orange.com/smsmessaging/v1/outbound/tel:+221773387902/requests/6009a1c8-7c52-4580-9c42-44b940c601cc"}}'
2021-05-27 20:26:00 | numéro : 777133603 | resultat envoi : b'{"outboundSMSMessageRequest":{"address":["tel:+221777133603"],"senderAddress":"tel:+221773387902","senderName":"ipps","outboundSMSTextMessage":{"message":"Il y aura la derni\xc3\xa8re r\xc3\xa9p\xc3\xa9tition apr\xc3\xa8s les confessions.\\n les enfants finiront un peu plus tard que d\'habitude.\\nMerci par avance pour votre compr\xc3\xa9hension.\\n\\nLe bureau de la cat\xc3\xa9ch\xc3\xa8se."},"resourceURL":"https://api.orange.com/smsmessaging/v1/outbound/tel:+221773387902/requests/ca18349b-db73-4582-bfc8-aa4aab7ec149"}}'
2021-05-27 20:26:00 | numéro : 777931493 | resultat envoi : b'{"outboundSMSMessageRequest":{"address":["tel:+221777931493"],"senderAddress":"tel:+221773387902","senderName":"ipps","outboundSMSTextMessage":{"message":"Il y aura la derni\xc3\xa8re r\xc3\xa9p\xc3\xa9tition apr\xc3\xa8s les confessions.\\n les enfants finiront un peu plus tard que d\'habitude.\\nMerci par avance pour votre compr\xc3\xa9hension.\\n\\nLe bureau de la cat\xc3\xa9ch\xc3\xa8se."},"resourceURL":"https://api.orange.com/smsmessaging/v1/outbound/tel:+221773387902/requests/4974edb1-68de-4028-8ad3-5c2ee88fc847"}}'
2021-05-27 20:26:01 | numéro : 778170857 | resultat envoi : b'{"outboundSMSMessageRequest":{"address":["tel:+221778170857"],"senderAddress":"tel:+221773387902","senderName":"ipps","outboundSMSTextMessage":{"message":"Il y aura la derni\xc3\xa8re r\xc3\xa9p\xc3\xa9tition apr\xc3\xa8s les confessions.\\n les enfants finiront un peu plus tard que d\'habitude.\\nMerci par avance pour votre compr\xc3\xa9hension.\\n\\nLe bureau de la cat\xc3\xa9ch\xc3\xa8se."},"resourceURL":"https://api.orange.com/smsmessaging/v1/outbound/tel:+221773387902/requests/02821519-b8ef-45bf-b266-ec5f514b93c7"}}'
2021-05-27 20:26:01 | numéro : 778590854 | resultat envoi : b'{"outboundSMSMessageRequest":{"address":["tel:+221778590854"],"senderAddress":"tel:+221773387902","senderName":"ipps","outboundSMSTextMessage":{"message":"Il y aura la derni\xc3\xa8re r\xc3\xa9p\xc3\xa9tition apr\xc3\xa8s les confessions.\\n les enfants finiront un peu plus tard que d\'habitude.\\nMerci par avance pour votre compr\xc3\xa9hension.\\n\\nLe bureau de la cat\xc3\xa9ch\xc3\xa8se."},"resourceURL":"https://api.orange.com/smsmessaging/v1/outbound/tel:+221773387902/requests/6f0b2b74-757e-4852-a90b-fa8e844fd00a"}}'
2021-05-27 20:26:01 | numéro : 782916195 | resultat envoi : b'{"outboundSMSMessageRequest":{"address":["tel:+221782916195"],"senderAddress":"tel:+221773387902","senderName":"ipps","outboundSMSTextMessage":{"message":"Il y aura la derni\xc3\xa8re r\xc3\xa9p\xc3\xa9tition apr\xc3\xa8s les confessions.\\n les enfants finiront un peu plus tard que d\'habitude.\\nMerci par avance pour votre compr\xc3\xa9hension.\\n\\nLe bureau de la cat\xc3\xa9ch\xc3\xa8se."},"resourceURL":"https://api.orange.com/smsmessaging/v1/outbound/tel:+221773387902/requests/b1445caa-a5a9-44fb-806b-ba6d955ca750"}}'
2021-05-27 20:26:02 | numéro : 773387902 | resultat envoi : b'{"outboundSMSMessageRequest":{"address":["tel:+221773387902"],"senderAddress":"tel:+221773387902","senderName":"ipps","outboundSMSTextMessage":{"message":"Il y aura la derni\xc3\xa8re r\xc3\xa9p\xc3\xa9tition apr\xc3\xa8s les confessions.\\n les enfants finiront un peu plus tard que d\'habitude.\\nMerci par avance pour votre compr\xc3\xa9hension.\\n\\nLe bureau de la cat\xc3\xa9ch\xc3\xa8se."},"resourceURL":"https://api.orange.com/smsmessaging/v1/outbound/tel:+221773387902/requests/be7e06e0-c83e-4ec2-a073-98073aea34d2"}}'
2021-05-27 20:26:03 | numéro : 779646193 | resultat envoi : b'{"outboundSMSMessageRequest":{"address":["tel:+221779646193"],"senderAddress":"tel:+221773387902","senderName":"ipps","outboundSMSTextMessage":{"message":"Il y aura la derni\xc3\xa8re r\xc3\xa9p\xc3\xa9tition apr\xc3\xa8s les confessions.\\n les enfants finiront un peu plus tard que d\'habitude.\\nMerci par avance pour votre compr\xc3\xa9hension.\\n\\nLe bureau de la cat\xc3\xa9ch\xc3\xa8se."},"resourceURL":"https://api.orange.com/smsmessaging/v1/outbound/tel:+221773387902/requests/86470869-f024-4550-a4ba-29494e242a5b"}}'
2021-05-27 20:26:03 | balance 64 | fin envoi
