2022-06-17 10:10:20 | balance 859 | debut envoi
2022-06-17 10:10:20 | numéro : 773387902 | resultat envoi : b'{"outboundSMSMessageRequest":{"address":["tel:+221773387902"],"senderAddress":"tel:+221773387902","senderName":"ipps","outboundSMSTextMessage":{"message":"Chers Parents,\\nla f\xc3\xaate du Saint-Sacrement(f\xc3\xaate-Dieu) est une solennit\xc3\xa9.\\nCeci devient une seconde f\xc3\xaate pour les nouveaux communi\xc3\xa9s. \\nUne procession aura lieu apr\xc3\xa8s la messe de 11h avec le St Sacrement dans le quartier.\\nNous vous demandons de laisser vos enfants venir dans les habits de la 1ere Communion et dans une ambiance de joie et de"},"resourceURL":"https://api.orange.com/smsmessaging/v1/outbound/tel:+221773387902/requests/c71c923e-6fb6-4fcf-90df-19883ef9a332"}}'
2022-06-17 10:10:21 | numéro : 778170857 | resultat envoi : b'{"outboundSMSMessageRequest":{"address":["tel:+221778170857"],"senderAddress":"tel:+221773387902","senderName":"ipps","outboundSMSTextMessage":{"message":"Chers Parents,\\nla f\xc3\xaate du Saint-Sacrement(f\xc3\xaate-Dieu) est une solennit\xc3\xa9.\\nCeci devient une seconde f\xc3\xaate pour les nouveaux communi\xc3\xa9s. \\nUne procession aura lieu apr\xc3\xa8s la messe de 11h avec le St Sacrement dans le quartier.\\nNous vous demandons de laisser vos enfants venir dans les habits de la 1ere Communion et dans une ambiance de joie et de"},"resourceURL":"https://api.orange.com/smsmessaging/v1/outbound/tel:+221773387902/requests/b3c53c8d-cc01-4979-a06b-06dc7a26a3e6"}}'
2022-06-17 10:10:23 | numéro : 707171591 | resultat envoi : b'{"outboundSMSMessageRequest":{"address":["tel:+221707171591"],"senderAddress":"tel:+221773387902","senderName":"ipps","outboundSMSTextMessage":{"message":"Chers Parents,\\nla f\xc3\xaate du Saint-Sacrement(f\xc3\xaate-Dieu) est une solennit\xc3\xa9.\\nCeci devient une seconde f\xc3\xaate pour les nouveaux communi\xc3\xa9s. \\nUne procession aura lieu apr\xc3\xa8s la messe de 11h avec le St Sacrement dans le quartier.\\nNous vous demandons de laisser vos enfants venir dans les habits de la 1ere Communion et dans une ambiance de joie et de"},"resourceURL":"https://api.orange.com/smsmessaging/v1/outbound/tel:+221773387902/requests/69a2ca7d-8d53-4d68-a24d-10743e934580"}}'
2022-06-17 10:10:23 | numéro : 770714249 | resultat envoi : b'{"outboundSMSMessageRequest":{"address":["tel:+221770714249"],"senderAddress":"tel:+221773387902","senderName":"ipps","outboundSMSTextMessage":{"message":"Chers Parents,\\nla f\xc3\xaate du Saint-Sacrement(f\xc3\xaate-Dieu) est une solennit\xc3\xa9.\\nCeci devient une seconde f\xc3\xaate pour les nouveaux communi\xc3\xa9s. \\nUne procession aura lieu apr\xc3\xa8s la messe de 11h avec le St Sacrement dans le quartier.\\nNous vous demandons de laisser vos enfants venir dans les habits de la 1ere Communion et dans une ambiance de joie et de"},"resourceURL":"https://api.orange.com/smsmessaging/v1/outbound/tel:+221773387902/requests/120cdbd0-23ee-4094-9269-691495be2776"}}'
2022-06-17 10:10:25 | numéro : 771671737 | resultat envoi : b'{"outboundSMSMessageRequest":{"address":["tel:+221771671737"],"senderAddress":"tel:+221773387902","senderName":"ipps","outboundSMSTextMessage":{"message":"Chers Parents,\\nla f\xc3\xaate du Saint-Sacrement(f\xc3\xaate-Dieu) est une solennit\xc3\xa9.\\nCeci devient une seconde f\xc3\xaate pour les nouveaux communi\xc3\xa9s. \\nUne procession aura lieu apr\xc3\xa8s la messe de 11h avec le St Sacrement dans le quartier.\\nNous vous demandons de laisser vos enfants venir dans les habits de la 1ere Communion et dans une ambiance de joie et de"},"resourceURL":"https://api.orange.com/smsmessaging/v1/outbound/tel:+221773387902/requests/17e0bdd1-6bac-4d33-81c6-454f1567d12b"}}'
2022-06-17 10:10:25 | numéro : 771677231 | resultat envoi : b'{"outboundSMSMessageRequest":{"address":["tel:+221771677231"],"senderAddress":"tel:+221773387902","senderName":"ipps","outboundSMSTextMessage":{"message":"Chers Parents,\\nla f\xc3\xaate du Saint-Sacrement(f\xc3\xaate-Dieu) est une solennit\xc3\xa9.\\nCeci devient une seconde f\xc3\xaate pour les nouveaux communi\xc3\xa9s. \\nUne procession aura lieu apr\xc3\xa8s la messe de 11h avec le St Sacrement dans le quartier.\\nNous vous demandons de laisser vos enfants venir dans les habits de la 1ere Communion et dans une ambiance de joie et de"},"resourceURL":"https://api.orange.com/smsmessaging/v1/outbound/tel:+221773387902/requests/65549331-69c1-4daa-89c7-64ed5fa0b56c"}}'
2022-06-17 10:10:28 | numéro : 771677231 | resultat envoi : b'{"outboundSMSMessageRequest":{"address":["tel:+221771677231"],"senderAddress":"tel:+221773387902","senderName":"ipps","outboundSMSTextMessage":{"message":"Chers Parents,\\nla f\xc3\xaate du Saint-Sacrement(f\xc3\xaate-Dieu) est une solennit\xc3\xa9.\\nCeci devient une seconde f\xc3\xaate pour les nouveaux communi\xc3\xa9s. \\nUne procession aura lieu apr\xc3\xa8s la messe de 11h avec le St Sacrement dans le quartier.\\nNous vous demandons de laisser vos enfants venir dans les habits de la 1ere Communion et dans une ambiance de joie et de"},"resourceURL":"https://api.orange.com/smsmessaging/v1/outbound/tel:+221773387902/requests/a569aef7-7819-466d-8641-99c53d705aa1"}}'
2022-06-17 10:10:28 | numéro : 771731156 | resultat envoi : b'{"outboundSMSMessageRequest":{"address":["tel:+221771731156"],"senderAddress":"tel:+221773387902","senderName":"ipps","outboundSMSTextMessage":{"message":"Chers Parents,\\nla f\xc3\xaate du Saint-Sacrement(f\xc3\xaate-Dieu) est une solennit\xc3\xa9.\\nCeci devient une seconde f\xc3\xaate pour les nouveaux communi\xc3\xa9s. \\nUne procession aura lieu apr\xc3\xa8s la messe de 11h avec le St Sacrement dans le quartier.\\nNous vous demandons de laisser vos enfants venir dans les habits de la 1ere Communion et dans une ambiance de joie et de"},"resourceURL":"https://api.orange.com/smsmessaging/v1/outbound/tel:+221773387902/requests/514353a1-9ab9-42dc-85f3-e6a21c08ec12"}}'
2022-06-17 10:10:30 | numéro : 772023293 | resultat envoi : b'{"outboundSMSMessageRequest":{"address":["tel:+221772023293"],"senderAddress":"tel:+221773387902","senderName":"ipps","outboundSMSTextMessage":{"message":"Chers Parents,\\nla f\xc3\xaate du Saint-Sacrement(f\xc3\xaate-Dieu) est une solennit\xc3\xa9.\\nCeci devient une seconde f\xc3\xaate pour les nouveaux communi\xc3\xa9s. \\nUne procession aura lieu apr\xc3\xa8s la messe de 11h avec le St Sacrement dans le quartier.\\nNous vous demandons de laisser vos enfants venir dans les habits de la 1ere Communion et dans une ambiance de joie et de"},"resourceURL":"https://api.orange.com/smsmessaging/v1/outbound/tel:+221773387902/requests/ffe954d6-06ff-41c4-9469-dcd760c4a04c"}}'
2022-06-17 10:10:30 | numéro : 772191960 | resultat envoi : b'{"outboundSMSMessageRequest":{"address":["tel:+221772191960"],"senderAddress":"tel:+221773387902","senderName":"ipps","outboundSMSTextMessage":{"message":"Chers Parents,\\nla f\xc3\xaate du Saint-Sacrement(f\xc3\xaate-Dieu) est une solennit\xc3\xa9.\\nCeci devient une seconde f\xc3\xaate pour les nouveaux communi\xc3\xa9s. \\nUne procession aura lieu apr\xc3\xa8s la messe de 11h avec le St Sacrement dans le quartier.\\nNous vous demandons de laisser vos enfants venir dans les habits de la 1ere Communion et dans une ambiance de joie et de"},"resourceURL":"https://api.orange.com/smsmessaging/v1/outbound/tel:+221773387902/requests/a1a770fa-7542-4506-aa4c-f63d89eb0859"}}'
2022-06-17 10:10:31 | numéro : 772191960 | resultat envoi : b'{"outboundSMSMessageRequest":{"address":["tel:+221772191960"],"senderAddress":"tel:+221773387902","senderName":"ipps","outboundSMSTextMessage":{"message":"Chers Parents,\\nla f\xc3\xaate du Saint-Sacrement(f\xc3\xaate-Dieu) est une solennit\xc3\xa9.\\nCeci devient une seconde f\xc3\xaate pour les nouveaux communi\xc3\xa9s. \\nUne procession aura lieu apr\xc3\xa8s la messe de 11h avec le St Sacrement dans le quartier.\\nNous vous demandons de laisser vos enfants venir dans les habits de la 1ere Communion et dans une ambiance de joie et de"},"resourceURL":"https://api.orange.com/smsmessaging/v1/outbound/tel:+221773387902/requests/3f8eab42-577b-4bc3-9f11-df4210be131d"}}'
2022-06-17 10:10:31 | numéro : 772855719 | resultat envoi : b'{"outboundSMSMessageRequest":{"address":["tel:+221772855719"],"senderAddress":"tel:+221773387902","senderName":"ipps","outboundSMSTextMessage":{"message":"Chers Parents,\\nla f\xc3\xaate du Saint-Sacrement(f\xc3\xaate-Dieu) est une solennit\xc3\xa9.\\nCeci devient une seconde f\xc3\xaate pour les nouveaux communi\xc3\xa9s. \\nUne procession aura lieu apr\xc3\xa8s la messe de 11h avec le St Sacrement dans le quartier.\\nNous vous demandons de laisser vos enfants venir dans les habits de la 1ere Communion et dans une ambiance de joie et de"},"resourceURL":"https://api.orange.com/smsmessaging/v1/outbound/tel:+221773387902/requests/ac276199-5162-450b-8336-8008ea26996c"}}'
2022-06-17 10:10:32 | numéro : 773334985 | resultat envoi : b'{"outboundSMSMessageRequest":{"address":["tel:+221773334985"],"senderAddress":"tel:+221773387902","senderName":"ipps","outboundSMSTextMessage":{"message":"Chers Parents,\\nla f\xc3\xaate du Saint-Sacrement(f\xc3\xaate-Dieu) est une solennit\xc3\xa9.\\nCeci devient une seconde f\xc3\xaate pour les nouveaux communi\xc3\xa9s. \\nUne procession aura lieu apr\xc3\xa8s la messe de 11h avec le St Sacrement dans le quartier.\\nNous vous demandons de laisser vos enfants venir dans les habits de la 1ere Communion et dans une ambiance de joie et de"},"resourceURL":"https://api.orange.com/smsmessaging/v1/outbound/tel:+221773387902/requests/84925878-28d8-4aab-9166-41a2e69440e3"}}'
2022-06-17 10:10:32 | numéro : 773550679 | resultat envoi : b'{"outboundSMSMessageRequest":{"address":["tel:+221773550679"],"senderAddress":"tel:+221773387902","senderName":"ipps","outboundSMSTextMessage":{"message":"Chers Parents,\\nla f\xc3\xaate du Saint-Sacrement(f\xc3\xaate-Dieu) est une solennit\xc3\xa9.\\nCeci devient une seconde f\xc3\xaate pour les nouveaux communi\xc3\xa9s. \\nUne procession aura lieu apr\xc3\xa8s la messe de 11h avec le St Sacrement dans le quartier.\\nNous vous demandons de laisser vos enfants venir dans les habits de la 1ere Communion et dans une ambiance de joie et de"},"resourceURL":"https://api.orange.com/smsmessaging/v1/outbound/tel:+221773387902/requests/e791933e-a89b-47bb-85fe-b832b99046f1"}}'
2022-06-17 10:10:35 | numéro : 774016185 | resultat envoi : b'{"outboundSMSMessageRequest":{"address":["tel:+221774016185"],"senderAddress":"tel:+221773387902","senderName":"ipps","outboundSMSTextMessage":{"message":"Chers Parents,\\nla f\xc3\xaate du Saint-Sacrement(f\xc3\xaate-Dieu) est une solennit\xc3\xa9.\\nCeci devient une seconde f\xc3\xaate pour les nouveaux communi\xc3\xa9s. \\nUne procession aura lieu apr\xc3\xa8s la messe de 11h avec le St Sacrement dans le quartier.\\nNous vous demandons de laisser vos enfants venir dans les habits de la 1ere Communion et dans une ambiance de joie et de"},"resourceURL":"https://api.orange.com/smsmessaging/v1/outbound/tel:+221773387902/requests/8bec1195-eb85-4ed9-8d9f-47bd89786b8a"}}'
2022-06-17 10:10:35 | numéro : 774021156 | resultat envoi : b'{"outboundSMSMessageRequest":{"address":["tel:+221774021156"],"senderAddress":"tel:+221773387902","senderName":"ipps","outboundSMSTextMessage":{"message":"Chers Parents,\\nla f\xc3\xaate du Saint-Sacrement(f\xc3\xaate-Dieu) est une solennit\xc3\xa9.\\nCeci devient une seconde f\xc3\xaate pour les nouveaux communi\xc3\xa9s. \\nUne procession aura lieu apr\xc3\xa8s la messe de 11h avec le St Sacrement dans le quartier.\\nNous vous demandons de laisser vos enfants venir dans les habits de la 1ere Communion et dans une ambiance de joie et de"},"resourceURL":"https://api.orange.com/smsmessaging/v1/outbound/tel:+221773387902/requests/c3177d3b-2919-4024-af8c-83643053a38e"}}'
2022-06-17 10:10:36 | numéro : 774126591 | resultat envoi : b'{"outboundSMSMessageRequest":{"address":["tel:+221774126591"],"senderAddress":"tel:+221773387902","senderName":"ipps","outboundSMSTextMessage":{"message":"Chers Parents,\\nla f\xc3\xaate du Saint-Sacrement(f\xc3\xaate-Dieu) est une solennit\xc3\xa9.\\nCeci devient une seconde f\xc3\xaate pour les nouveaux communi\xc3\xa9s. \\nUne procession aura lieu apr\xc3\xa8s la messe de 11h avec le St Sacrement dans le quartier.\\nNous vous demandons de laisser vos enfants venir dans les habits de la 1ere Communion et dans une ambiance de joie et de"},"resourceURL":"https://api.orange.com/smsmessaging/v1/outbound/tel:+221773387902/requests/2673035f-f1bf-41e6-b00b-dc035c3da53c"}}'
2022-06-17 10:10:37 | numéro : 774133658 | resultat envoi : b'{"outboundSMSMessageRequest":{"address":["tel:+221774133658"],"senderAddress":"tel:+221773387902","senderName":"ipps","outboundSMSTextMessage":{"message":"Chers Parents,\\nla f\xc3\xaate du Saint-Sacrement(f\xc3\xaate-Dieu) est une solennit\xc3\xa9.\\nCeci devient une seconde f\xc3\xaate pour les nouveaux communi\xc3\xa9s. \\nUne procession aura lieu apr\xc3\xa8s la messe de 11h avec le St Sacrement dans le quartier.\\nNous vous demandons de laisser vos enfants venir dans les habits de la 1ere Communion et dans une ambiance de joie et de"},"resourceURL":"https://api.orange.com/smsmessaging/v1/outbound/tel:+221773387902/requests/a6433bd0-93d2-41fc-9663-086883bfa08c"}}'
2022-06-17 10:10:37 | numéro : 774176259 | resultat envoi : b'{"outboundSMSMessageRequest":{"address":["tel:+221774176259"],"senderAddress":"tel:+221773387902","senderName":"ipps","outboundSMSTextMessage":{"message":"Chers Parents,\\nla f\xc3\xaate du Saint-Sacrement(f\xc3\xaate-Dieu) est une solennit\xc3\xa9.\\nCeci devient une seconde f\xc3\xaate pour les nouveaux communi\xc3\xa9s. \\nUne procession aura lieu apr\xc3\xa8s la messe de 11h avec le St Sacrement dans le quartier.\\nNous vous demandons de laisser vos enfants venir dans les habits de la 1ere Communion et dans une ambiance de joie et de"},"resourceURL":"https://api.orange.com/smsmessaging/v1/outbound/tel:+221773387902/requests/bc1d1f98-e329-4f9b-a2bf-2e18ba447fab"}}'
2022-06-17 10:10:38 | numéro : 774214986 | resultat envoi : b'{"outboundSMSMessageRequest":{"address":["tel:+221774214986"],"senderAddress":"tel:+221773387902","senderName":"ipps","outboundSMSTextMessage":{"message":"Chers Parents,\\nla f\xc3\xaate du Saint-Sacrement(f\xc3\xaate-Dieu) est une solennit\xc3\xa9.\\nCeci devient une seconde f\xc3\xaate pour les nouveaux communi\xc3\xa9s. \\nUne procession aura lieu apr\xc3\xa8s la messe de 11h avec le St Sacrement dans le quartier.\\nNous vous demandons de laisser vos enfants venir dans les habits de la 1ere Communion et dans une ambiance de joie et de"},"resourceURL":"https://api.orange.com/smsmessaging/v1/outbound/tel:+221773387902/requests/2fe900bb-ed5d-46b6-be59-9384015b2831"}}'
2022-06-17 10:10:38 | numéro : 774404336 | resultat envoi : b'{"outboundSMSMessageRequest":{"address":["tel:+221774404336"],"senderAddress":"tel:+221773387902","senderName":"ipps","outboundSMSTextMessage":{"message":"Chers Parents,\\nla f\xc3\xaate du Saint-Sacrement(f\xc3\xaate-Dieu) est une solennit\xc3\xa9.\\nCeci devient une seconde f\xc3\xaate pour les nouveaux communi\xc3\xa9s. \\nUne procession aura lieu apr\xc3\xa8s la messe de 11h avec le St Sacrement dans le quartier.\\nNous vous demandons de laisser vos enfants venir dans les habits de la 1ere Communion et dans une ambiance de joie et de"},"resourceURL":"https://api.orange.com/smsmessaging/v1/outbound/tel:+221773387902/requests/540302c0-c60a-486a-b6a5-5d5b09e23a8f"}}'
2022-06-17 10:10:42 | numéro : 774437114 | resultat envoi : b'{"outboundSMSMessageRequest":{"address":["tel:+221774437114"],"senderAddress":"tel:+221773387902","senderName":"ipps","outboundSMSTextMessage":{"message":"Chers Parents,\\nla f\xc3\xaate du Saint-Sacrement(f\xc3\xaate-Dieu) est une solennit\xc3\xa9.\\nCeci devient une seconde f\xc3\xaate pour les nouveaux communi\xc3\xa9s. \\nUne procession aura lieu apr\xc3\xa8s la messe de 11h avec le St Sacrement dans le quartier.\\nNous vous demandons de laisser vos enfants venir dans les habits de la 1ere Communion et dans une ambiance de joie et de"},"resourceURL":"https://api.orange.com/smsmessaging/v1/outbound/tel:+221773387902/requests/4af61e6f-a7c7-4bea-8b7e-bf8a4e88405c"}}'
2022-06-17 10:10:43 | numéro : 774494750 | resultat envoi : b'{"outboundSMSMessageRequest":{"address":["tel:+221774494750"],"senderAddress":"tel:+221773387902","senderName":"ipps","outboundSMSTextMessage":{"message":"Chers Parents,\\nla f\xc3\xaate du Saint-Sacrement(f\xc3\xaate-Dieu) est une solennit\xc3\xa9.\\nCeci devient une seconde f\xc3\xaate pour les nouveaux communi\xc3\xa9s. \\nUne procession aura lieu apr\xc3\xa8s la messe de 11h avec le St Sacrement dans le quartier.\\nNous vous demandons de laisser vos enfants venir dans les habits de la 1ere Communion et dans une ambiance de joie et de"},"resourceURL":"https://api.orange.com/smsmessaging/v1/outbound/tel:+221773387902/requests/ec8f33f7-d942-4ab4-8b2c-b19377ce6191"}}'
2022-06-17 10:10:47 | numéro : 774558595 | resultat envoi : b'{"outboundSMSMessageRequest":{"address":["tel:+221774558595"],"senderAddress":"tel:+221773387902","senderName":"ipps","outboundSMSTextMessage":{"message":"Chers Parents,\\nla f\xc3\xaate du Saint-Sacrement(f\xc3\xaate-Dieu) est une solennit\xc3\xa9.\\nCeci devient une seconde f\xc3\xaate pour les nouveaux communi\xc3\xa9s. \\nUne procession aura lieu apr\xc3\xa8s la messe de 11h avec le St Sacrement dans le quartier.\\nNous vous demandons de laisser vos enfants venir dans les habits de la 1ere Communion et dans une ambiance de joie et de"},"resourceURL":"https://api.orange.com/smsmessaging/v1/outbound/tel:+221773387902/requests/16f92f2a-f059-48a0-af4a-68fd3b937027"}}'
2022-06-17 10:10:48 | numéro : 774566305 | resultat envoi : b'{"outboundSMSMessageRequest":{"address":["tel:+221774566305"],"senderAddress":"tel:+221773387902","senderName":"ipps","outboundSMSTextMessage":{"message":"Chers Parents,\\nla f\xc3\xaate du Saint-Sacrement(f\xc3\xaate-Dieu) est une solennit\xc3\xa9.\\nCeci devient une seconde f\xc3\xaate pour les nouveaux communi\xc3\xa9s. \\nUne procession aura lieu apr\xc3\xa8s la messe de 11h avec le St Sacrement dans le quartier.\\nNous vous demandons de laisser vos enfants venir dans les habits de la 1ere Communion et dans une ambiance de joie et de"},"resourceURL":"https://api.orange.com/smsmessaging/v1/outbound/tel:+221773387902/requests/ef5e8bcc-62de-4c50-8a8c-f0ab742b9f8a"}}'
2022-06-17 10:10:52 | numéro : 775114078 | resultat envoi : b'{"outboundSMSMessageRequest":{"address":["tel:+221775114078"],"senderAddress":"tel:+221773387902","senderName":"ipps","outboundSMSTextMessage":{"message":"Chers Parents,\\nla f\xc3\xaate du Saint-Sacrement(f\xc3\xaate-Dieu) est une solennit\xc3\xa9.\\nCeci devient une seconde f\xc3\xaate pour les nouveaux communi\xc3\xa9s. \\nUne procession aura lieu apr\xc3\xa8s la messe de 11h avec le St Sacrement dans le quartier.\\nNous vous demandons de laisser vos enfants venir dans les habits de la 1ere Communion et dans une ambiance de joie et de"},"resourceURL":"https://api.orange.com/smsmessaging/v1/outbound/tel:+221773387902/requests/4445173d-abad-4998-acbe-c13b8807208b"}}'
2022-06-17 10:10:53 | numéro : 775159531 | resultat envoi : b'{"outboundSMSMessageRequest":{"address":["tel:+221775159531"],"senderAddress":"tel:+221773387902","senderName":"ipps","outboundSMSTextMessage":{"message":"Chers Parents,\\nla f\xc3\xaate du Saint-Sacrement(f\xc3\xaate-Dieu) est une solennit\xc3\xa9.\\nCeci devient une seconde f\xc3\xaate pour les nouveaux communi\xc3\xa9s. \\nUne procession aura lieu apr\xc3\xa8s la messe de 11h avec le St Sacrement dans le quartier.\\nNous vous demandons de laisser vos enfants venir dans les habits de la 1ere Communion et dans une ambiance de joie et de"},"resourceURL":"https://api.orange.com/smsmessaging/v1/outbound/tel:+221773387902/requests/0373cd60-8244-4640-b83c-06937b3593bd"}}'
2022-06-17 10:10:53 | numéro : 775249738 | resultat envoi : b'{"outboundSMSMessageRequest":{"address":["tel:+221775249738"],"senderAddress":"tel:+221773387902","senderName":"ipps","outboundSMSTextMessage":{"message":"Chers Parents,\\nla f\xc3\xaate du Saint-Sacrement(f\xc3\xaate-Dieu) est une solennit\xc3\xa9.\\nCeci devient une seconde f\xc3\xaate pour les nouveaux communi\xc3\xa9s. \\nUne procession aura lieu apr\xc3\xa8s la messe de 11h avec le St Sacrement dans le quartier.\\nNous vous demandons de laisser vos enfants venir dans les habits de la 1ere Communion et dans une ambiance de joie et de"},"resourceURL":"https://api.orange.com/smsmessaging/v1/outbound/tel:+221773387902/requests/3ac9b45d-9c3b-4282-a880-b02ed384f30d"}}'
2022-06-17 10:10:54 | numéro : 775325170 | resultat envoi : b'{"outboundSMSMessageRequest":{"address":["tel:+221775325170"],"senderAddress":"tel:+221773387902","senderName":"ipps","outboundSMSTextMessage":{"message":"Chers Parents,\\nla f\xc3\xaate du Saint-Sacrement(f\xc3\xaate-Dieu) est une solennit\xc3\xa9.\\nCeci devient une seconde f\xc3\xaate pour les nouveaux communi\xc3\xa9s. \\nUne procession aura lieu apr\xc3\xa8s la messe de 11h avec le St Sacrement dans le quartier.\\nNous vous demandons de laisser vos enfants venir dans les habits de la 1ere Communion et dans une ambiance de joie et de"},"resourceURL":"https://api.orange.com/smsmessaging/v1/outbound/tel:+221773387902/requests/2c512f93-524d-4e9c-a169-dd8f7fa83e39"}}'
2022-06-17 10:10:55 | numéro : 775359092 | resultat envoi : b'{"outboundSMSMessageRequest":{"address":["tel:+221775359092"],"senderAddress":"tel:+221773387902","senderName":"ipps","outboundSMSTextMessage":{"message":"Chers Parents,\\nla f\xc3\xaate du Saint-Sacrement(f\xc3\xaate-Dieu) est une solennit\xc3\xa9.\\nCeci devient une seconde f\xc3\xaate pour les nouveaux communi\xc3\xa9s. \\nUne procession aura lieu apr\xc3\xa8s la messe de 11h avec le St Sacrement dans le quartier.\\nNous vous demandons de laisser vos enfants venir dans les habits de la 1ere Communion et dans une ambiance de joie et de"},"resourceURL":"https://api.orange.com/smsmessaging/v1/outbound/tel:+221773387902/requests/fa7cf84d-3bae-4cb1-8091-7580cb4e003c"}}'
2022-06-17 10:11:00 | numéro : 775395349 | resultat envoi : b'{"outboundSMSMessageRequest":{"address":["tel:+221775395349"],"senderAddress":"tel:+221773387902","senderName":"ipps","outboundSMSTextMessage":{"message":"Chers Parents,\\nla f\xc3\xaate du Saint-Sacrement(f\xc3\xaate-Dieu) est une solennit\xc3\xa9.\\nCeci devient une seconde f\xc3\xaate pour les nouveaux communi\xc3\xa9s. \\nUne procession aura lieu apr\xc3\xa8s la messe de 11h avec le St Sacrement dans le quartier.\\nNous vous demandons de laisser vos enfants venir dans les habits de la 1ere Communion et dans une ambiance de joie et de"},"resourceURL":"https://api.orange.com/smsmessaging/v1/outbound/tel:+221773387902/requests/f7885bb5-8f10-47bd-b1bb-4dd4b7e13ee4"}}'
2022-06-17 10:11:00 | numéro : 775419217 | resultat envoi : b'{"outboundSMSMessageRequest":{"address":["tel:+221775419217"],"senderAddress":"tel:+221773387902","senderName":"ipps","outboundSMSTextMessage":{"message":"Chers Parents,\\nla f\xc3\xaate du Saint-Sacrement(f\xc3\xaate-Dieu) est une solennit\xc3\xa9.\\nCeci devient une seconde f\xc3\xaate pour les nouveaux communi\xc3\xa9s. \\nUne procession aura lieu apr\xc3\xa8s la messe de 11h avec le St Sacrement dans le quartier.\\nNous vous demandons de laisser vos enfants venir dans les habits de la 1ere Communion et dans une ambiance de joie et de"},"resourceURL":"https://api.orange.com/smsmessaging/v1/outbound/tel:+221773387902/requests/130f3682-8583-4553-9c32-01c35a93bfc7"}}'
2022-06-17 10:11:02 | numéro : 775472539 | resultat envoi : b'{"outboundSMSMessageRequest":{"address":["tel:+221775472539"],"senderAddress":"tel:+221773387902","senderName":"ipps","outboundSMSTextMessage":{"message":"Chers Parents,\\nla f\xc3\xaate du Saint-Sacrement(f\xc3\xaate-Dieu) est une solennit\xc3\xa9.\\nCeci devient une seconde f\xc3\xaate pour les nouveaux communi\xc3\xa9s. \\nUne procession aura lieu apr\xc3\xa8s la messe de 11h avec le St Sacrement dans le quartier.\\nNous vous demandons de laisser vos enfants venir dans les habits de la 1ere Communion et dans une ambiance de joie et de"},"resourceURL":"https://api.orange.com/smsmessaging/v1/outbound/tel:+221773387902/requests/ad70f90f-4316-4519-b410-2c8725f61a94"}}'
2022-06-17 10:11:03 | numéro : 775494786 | resultat envoi : b'{"outboundSMSMessageRequest":{"address":["tel:+221775494786"],"senderAddress":"tel:+221773387902","senderName":"ipps","outboundSMSTextMessage":{"message":"Chers Parents,\\nla f\xc3\xaate du Saint-Sacrement(f\xc3\xaate-Dieu) est une solennit\xc3\xa9.\\nCeci devient une seconde f\xc3\xaate pour les nouveaux communi\xc3\xa9s. \\nUne procession aura lieu apr\xc3\xa8s la messe de 11h avec le St Sacrement dans le quartier.\\nNous vous demandons de laisser vos enfants venir dans les habits de la 1ere Communion et dans une ambiance de joie et de"},"resourceURL":"https://api.orange.com/smsmessaging/v1/outbound/tel:+221773387902/requests/e973d70d-ef8b-4383-a969-a4b0b040564c"}}'
2022-06-17 10:11:07 | numéro : 775525888 | resultat envoi : b'{"outboundSMSMessageRequest":{"address":["tel:+221775525888"],"senderAddress":"tel:+221773387902","senderName":"ipps","outboundSMSTextMessage":{"message":"Chers Parents,\\nla f\xc3\xaate du Saint-Sacrement(f\xc3\xaate-Dieu) est une solennit\xc3\xa9.\\nCeci devient une seconde f\xc3\xaate pour les nouveaux communi\xc3\xa9s. \\nUne procession aura lieu apr\xc3\xa8s la messe de 11h avec le St Sacrement dans le quartier.\\nNous vous demandons de laisser vos enfants venir dans les habits de la 1ere Communion et dans une ambiance de joie et de"},"resourceURL":"https://api.orange.com/smsmessaging/v1/outbound/tel:+221773387902/requests/a92832c2-0039-40b4-96a8-e87cc6e53b25"}}'
2022-06-17 10:11:08 | numéro : 775526105 | resultat envoi : b'{"outboundSMSMessageRequest":{"address":["tel:+221775526105"],"senderAddress":"tel:+221773387902","senderName":"ipps","outboundSMSTextMessage":{"message":"Chers Parents,\\nla f\xc3\xaate du Saint-Sacrement(f\xc3\xaate-Dieu) est une solennit\xc3\xa9.\\nCeci devient une seconde f\xc3\xaate pour les nouveaux communi\xc3\xa9s. \\nUne procession aura lieu apr\xc3\xa8s la messe de 11h avec le St Sacrement dans le quartier.\\nNous vous demandons de laisser vos enfants venir dans les habits de la 1ere Communion et dans une ambiance de joie et de"},"resourceURL":"https://api.orange.com/smsmessaging/v1/outbound/tel:+221773387902/requests/d3fcf1f5-6782-4c78-a3b5-599f55fac90f"}}'
2022-06-17 10:11:08 | numéro : 775564221 | resultat envoi : b'{"outboundSMSMessageRequest":{"address":["tel:+221775564221"],"senderAddress":"tel:+221773387902","senderName":"ipps","outboundSMSTextMessage":{"message":"Chers Parents,\\nla f\xc3\xaate du Saint-Sacrement(f\xc3\xaate-Dieu) est une solennit\xc3\xa9.\\nCeci devient une seconde f\xc3\xaate pour les nouveaux communi\xc3\xa9s. \\nUne procession aura lieu apr\xc3\xa8s la messe de 11h avec le St Sacrement dans le quartier.\\nNous vous demandons de laisser vos enfants venir dans les habits de la 1ere Communion et dans une ambiance de joie et de"},"resourceURL":"https://api.orange.com/smsmessaging/v1/outbound/tel:+221773387902/requests/d2f4430a-937a-49fa-9603-ac30fde62e6e"}}'
2022-06-17 10:11:10 | numéro : 775578617 | resultat envoi : b'{"outboundSMSMessageRequest":{"address":["tel:+221775578617"],"senderAddress":"tel:+221773387902","senderName":"ipps","outboundSMSTextMessage":{"message":"Chers Parents,\\nla f\xc3\xaate du Saint-Sacrement(f\xc3\xaate-Dieu) est une solennit\xc3\xa9.\\nCeci devient une seconde f\xc3\xaate pour les nouveaux communi\xc3\xa9s. \\nUne procession aura lieu apr\xc3\xa8s la messe de 11h avec le St Sacrement dans le quartier.\\nNous vous demandons de laisser vos enfants venir dans les habits de la 1ere Communion et dans une ambiance de joie et de"},"resourceURL":"https://api.orange.com/smsmessaging/v1/outbound/tel:+221773387902/requests/4bf1fbb4-528a-49eb-b527-7aa09c447640"}}'
2022-06-17 10:11:13 | numéro : 775601433 | resultat envoi : b'{"outboundSMSMessageRequest":{"address":["tel:+221775601433"],"senderAddress":"tel:+221773387902","senderName":"ipps","outboundSMSTextMessage":{"message":"Chers Parents,\\nla f\xc3\xaate du Saint-Sacrement(f\xc3\xaate-Dieu) est une solennit\xc3\xa9.\\nCeci devient une seconde f\xc3\xaate pour les nouveaux communi\xc3\xa9s. \\nUne procession aura lieu apr\xc3\xa8s la messe de 11h avec le St Sacrement dans le quartier.\\nNous vous demandons de laisser vos enfants venir dans les habits de la 1ere Communion et dans une ambiance de joie et de"},"resourceURL":"https://api.orange.com/smsmessaging/v1/outbound/tel:+221773387902/requests/bef7ce49-db97-432e-8e55-223cf01c2aa6"}}'
2022-06-17 10:11:14 | numéro : 775731794 | resultat envoi : b'{"outboundSMSMessageRequest":{"address":["tel:+221775731794"],"senderAddress":"tel:+221773387902","senderName":"ipps","outboundSMSTextMessage":{"message":"Chers Parents,\\nla f\xc3\xaate du Saint-Sacrement(f\xc3\xaate-Dieu) est une solennit\xc3\xa9.\\nCeci devient une seconde f\xc3\xaate pour les nouveaux communi\xc3\xa9s. \\nUne procession aura lieu apr\xc3\xa8s la messe de 11h avec le St Sacrement dans le quartier.\\nNous vous demandons de laisser vos enfants venir dans les habits de la 1ere Communion et dans une ambiance de joie et de"},"resourceURL":"https://api.orange.com/smsmessaging/v1/outbound/tel:+221773387902/requests/378710c2-9463-4df8-80ed-012aba962226"}}'
2022-06-17 10:11:14 | numéro : 775731794 | resultat envoi : b'{"outboundSMSMessageRequest":{"address":["tel:+221775731794"],"senderAddress":"tel:+221773387902","senderName":"ipps","outboundSMSTextMessage":{"message":"Chers Parents,\\nla f\xc3\xaate du Saint-Sacrement(f\xc3\xaate-Dieu) est une solennit\xc3\xa9.\\nCeci devient une seconde f\xc3\xaate pour les nouveaux communi\xc3\xa9s. \\nUne procession aura lieu apr\xc3\xa8s la messe de 11h avec le St Sacrement dans le quartier.\\nNous vous demandons de laisser vos enfants venir dans les habits de la 1ere Communion et dans une ambiance de joie et de"},"resourceURL":"https://api.orange.com/smsmessaging/v1/outbound/tel:+221773387902/requests/fc3eed80-c491-4ced-9d28-b314387a24c3"}}'
2022-06-17 10:11:15 | numéro : 775892806 | resultat envoi : b'{"outboundSMSMessageRequest":{"address":["tel:+221775892806"],"senderAddress":"tel:+221773387902","senderName":"ipps","outboundSMSTextMessage":{"message":"Chers Parents,\\nla f\xc3\xaate du Saint-Sacrement(f\xc3\xaate-Dieu) est une solennit\xc3\xa9.\\nCeci devient une seconde f\xc3\xaate pour les nouveaux communi\xc3\xa9s. \\nUne procession aura lieu apr\xc3\xa8s la messe de 11h avec le St Sacrement dans le quartier.\\nNous vous demandons de laisser vos enfants venir dans les habits de la 1ere Communion et dans une ambiance de joie et de"},"resourceURL":"https://api.orange.com/smsmessaging/v1/outbound/tel:+221773387902/requests/b1640b5c-dc68-4af2-a781-5effd28d3c78"}}'
2022-06-17 10:11:16 | numéro : 776108893 | resultat envoi : b'{"outboundSMSMessageRequest":{"address":["tel:+221776108893"],"senderAddress":"tel:+221773387902","senderName":"ipps","outboundSMSTextMessage":{"message":"Chers Parents,\\nla f\xc3\xaate du Saint-Sacrement(f\xc3\xaate-Dieu) est une solennit\xc3\xa9.\\nCeci devient une seconde f\xc3\xaate pour les nouveaux communi\xc3\xa9s. \\nUne procession aura lieu apr\xc3\xa8s la messe de 11h avec le St Sacrement dans le quartier.\\nNous vous demandons de laisser vos enfants venir dans les habits de la 1ere Communion et dans une ambiance de joie et de"},"resourceURL":"https://api.orange.com/smsmessaging/v1/outbound/tel:+221773387902/requests/d0008c92-6ddc-49c9-bef5-50a82a3c6c0a"}}'
2022-06-17 10:11:18 | numéro : 776163951 | resultat envoi : b'{"outboundSMSMessageRequest":{"address":["tel:+221776163951"],"senderAddress":"tel:+221773387902","senderName":"ipps","outboundSMSTextMessage":{"message":"Chers Parents,\\nla f\xc3\xaate du Saint-Sacrement(f\xc3\xaate-Dieu) est une solennit\xc3\xa9.\\nCeci devient une seconde f\xc3\xaate pour les nouveaux communi\xc3\xa9s. \\nUne procession aura lieu apr\xc3\xa8s la messe de 11h avec le St Sacrement dans le quartier.\\nNous vous demandons de laisser vos enfants venir dans les habits de la 1ere Communion et dans une ambiance de joie et de"},"resourceURL":"https://api.orange.com/smsmessaging/v1/outbound/tel:+221773387902/requests/defce0ad-d1ae-4f9c-9e15-f282f9b201f2"}}'
2022-06-17 10:11:18 | numéro : 776390010 | resultat envoi : b'{"outboundSMSMessageRequest":{"address":["tel:+221776390010"],"senderAddress":"tel:+221773387902","senderName":"ipps","outboundSMSTextMessage":{"message":"Chers Parents,\\nla f\xc3\xaate du Saint-Sacrement(f\xc3\xaate-Dieu) est une solennit\xc3\xa9.\\nCeci devient une seconde f\xc3\xaate pour les nouveaux communi\xc3\xa9s. \\nUne procession aura lieu apr\xc3\xa8s la messe de 11h avec le St Sacrement dans le quartier.\\nNous vous demandons de laisser vos enfants venir dans les habits de la 1ere Communion et dans une ambiance de joie et de"},"resourceURL":"https://api.orange.com/smsmessaging/v1/outbound/tel:+221773387902/requests/08b0394f-ac14-40e5-b59b-4edee24769d8"}}'
2022-06-17 10:11:20 | numéro : 776415990 | resultat envoi : b'{"outboundSMSMessageRequest":{"address":["tel:+221776415990"],"senderAddress":"tel:+221773387902","senderName":"ipps","outboundSMSTextMessage":{"message":"Chers Parents,\\nla f\xc3\xaate du Saint-Sacrement(f\xc3\xaate-Dieu) est une solennit\xc3\xa9.\\nCeci devient une seconde f\xc3\xaate pour les nouveaux communi\xc3\xa9s. \\nUne procession aura lieu apr\xc3\xa8s la messe de 11h avec le St Sacrement dans le quartier.\\nNous vous demandons de laisser vos enfants venir dans les habits de la 1ere Communion et dans une ambiance de joie et de"},"resourceURL":"https://api.orange.com/smsmessaging/v1/outbound/tel:+221773387902/requests/39ac9ada-9ca3-4767-afe6-7d6fa5a0a243"}}'
2022-06-17 10:11:21 | numéro : 776457989 | resultat envoi : b'{"outboundSMSMessageRequest":{"address":["tel:+221776457989"],"senderAddress":"tel:+221773387902","senderName":"ipps","outboundSMSTextMessage":{"message":"Chers Parents,\\nla f\xc3\xaate du Saint-Sacrement(f\xc3\xaate-Dieu) est une solennit\xc3\xa9.\\nCeci devient une seconde f\xc3\xaate pour les nouveaux communi\xc3\xa9s. \\nUne procession aura lieu apr\xc3\xa8s la messe de 11h avec le St Sacrement dans le quartier.\\nNous vous demandons de laisser vos enfants venir dans les habits de la 1ere Communion et dans une ambiance de joie et de"},"resourceURL":"https://api.orange.com/smsmessaging/v1/outbound/tel:+221773387902/requests/59e12343-60d3-4014-9b7e-9994e6b76ff5"}}'
2022-06-17 10:11:21 | numéro : 776565463 | resultat envoi : b'{"outboundSMSMessageRequest":{"address":["tel:+221776565463"],"senderAddress":"tel:+221773387902","senderName":"ipps","outboundSMSTextMessage":{"message":"Chers Parents,\\nla f\xc3\xaate du Saint-Sacrement(f\xc3\xaate-Dieu) est une solennit\xc3\xa9.\\nCeci devient une seconde f\xc3\xaate pour les nouveaux communi\xc3\xa9s. \\nUne procession aura lieu apr\xc3\xa8s la messe de 11h avec le St Sacrement dans le quartier.\\nNous vous demandons de laisser vos enfants venir dans les habits de la 1ere Communion et dans une ambiance de joie et de"},"resourceURL":"https://api.orange.com/smsmessaging/v1/outbound/tel:+221773387902/requests/a23bae4e-1f7a-4eac-b27c-276ce472bf7e"}}'
2022-06-17 10:11:23 | numéro : 776566752 | resultat envoi : b'{"outboundSMSMessageRequest":{"address":["tel:+221776566752"],"senderAddress":"tel:+221773387902","senderName":"ipps","outboundSMSTextMessage":{"message":"Chers Parents,\\nla f\xc3\xaate du Saint-Sacrement(f\xc3\xaate-Dieu) est une solennit\xc3\xa9.\\nCeci devient une seconde f\xc3\xaate pour les nouveaux communi\xc3\xa9s. \\nUne procession aura lieu apr\xc3\xa8s la messe de 11h avec le St Sacrement dans le quartier.\\nNous vous demandons de laisser vos enfants venir dans les habits de la 1ere Communion et dans une ambiance de joie et de"},"resourceURL":"https://api.orange.com/smsmessaging/v1/outbound/tel:+221773387902/requests/73c453c8-3d2c-4c8b-8400-7c02bc8ccf2b"}}'
2022-06-17 10:11:23 | numéro : 776582528 | resultat envoi : b'{"outboundSMSMessageRequest":{"address":["tel:+221776582528"],"senderAddress":"tel:+221773387902","senderName":"ipps","outboundSMSTextMessage":{"message":"Chers Parents,\\nla f\xc3\xaate du Saint-Sacrement(f\xc3\xaate-Dieu) est une solennit\xc3\xa9.\\nCeci devient une seconde f\xc3\xaate pour les nouveaux communi\xc3\xa9s. \\nUne procession aura lieu apr\xc3\xa8s la messe de 11h avec le St Sacrement dans le quartier.\\nNous vous demandons de laisser vos enfants venir dans les habits de la 1ere Communion et dans une ambiance de joie et de"},"resourceURL":"https://api.orange.com/smsmessaging/v1/outbound/tel:+221773387902/requests/248778cb-411f-453d-bb77-20dad7ac4cb6"}}'
2022-06-17 10:11:25 | numéro : 776781505 | resultat envoi : b'{"outboundSMSMessageRequest":{"address":["tel:+221776781505"],"senderAddress":"tel:+221773387902","senderName":"ipps","outboundSMSTextMessage":{"message":"Chers Parents,\\nla f\xc3\xaate du Saint-Sacrement(f\xc3\xaate-Dieu) est une solennit\xc3\xa9.\\nCeci devient une seconde f\xc3\xaate pour les nouveaux communi\xc3\xa9s. \\nUne procession aura lieu apr\xc3\xa8s la messe de 11h avec le St Sacrement dans le quartier.\\nNous vous demandons de laisser vos enfants venir dans les habits de la 1ere Communion et dans une ambiance de joie et de"},"resourceURL":"https://api.orange.com/smsmessaging/v1/outbound/tel:+221773387902/requests/e63a7eb7-f73b-4196-9ca9-9b40e3e10247"}}'
2022-06-17 10:11:26 | numéro : 776904718 | resultat envoi : b'{"outboundSMSMessageRequest":{"address":["tel:+221776904718"],"senderAddress":"tel:+221773387902","senderName":"ipps","outboundSMSTextMessage":{"message":"Chers Parents,\\nla f\xc3\xaate du Saint-Sacrement(f\xc3\xaate-Dieu) est une solennit\xc3\xa9.\\nCeci devient une seconde f\xc3\xaate pour les nouveaux communi\xc3\xa9s. \\nUne procession aura lieu apr\xc3\xa8s la messe de 11h avec le St Sacrement dans le quartier.\\nNous vous demandons de laisser vos enfants venir dans les habits de la 1ere Communion et dans une ambiance de joie et de"},"resourceURL":"https://api.orange.com/smsmessaging/v1/outbound/tel:+221773387902/requests/1d419e32-56f9-4201-bc7d-d78712a6ebf8"}}'
2022-06-17 10:11:27 | numéro : 776989276 | resultat envoi : b'{"outboundSMSMessageRequest":{"address":["tel:+221776989276"],"senderAddress":"tel:+221773387902","senderName":"ipps","outboundSMSTextMessage":{"message":"Chers Parents,\\nla f\xc3\xaate du Saint-Sacrement(f\xc3\xaate-Dieu) est une solennit\xc3\xa9.\\nCeci devient une seconde f\xc3\xaate pour les nouveaux communi\xc3\xa9s. \\nUne procession aura lieu apr\xc3\xa8s la messe de 11h avec le St Sacrement dans le quartier.\\nNous vous demandons de laisser vos enfants venir dans les habits de la 1ere Communion et dans une ambiance de joie et de"},"resourceURL":"https://api.orange.com/smsmessaging/v1/outbound/tel:+221773387902/requests/416b7bf9-4df3-4a1a-ac70-b72b8595d086"}}'
2022-06-17 10:11:30 | numéro : 777199843 | resultat envoi : b'{"outboundSMSMessageRequest":{"address":["tel:+221777199843"],"senderAddress":"tel:+221773387902","senderName":"ipps","outboundSMSTextMessage":{"message":"Chers Parents,\\nla f\xc3\xaate du Saint-Sacrement(f\xc3\xaate-Dieu) est une solennit\xc3\xa9.\\nCeci devient une seconde f\xc3\xaate pour les nouveaux communi\xc3\xa9s. \\nUne procession aura lieu apr\xc3\xa8s la messe de 11h avec le St Sacrement dans le quartier.\\nNous vous demandons de laisser vos enfants venir dans les habits de la 1ere Communion et dans une ambiance de joie et de"},"resourceURL":"https://api.orange.com/smsmessaging/v1/outbound/tel:+221773387902/requests/88b4f1e7-9587-4bb4-a095-3dc7ed88cb31"}}'
2022-06-17 10:11:32 | numéro : 777303158 | resultat envoi : b'{"outboundSMSMessageRequest":{"address":["tel:+221777303158"],"senderAddress":"tel:+221773387902","senderName":"ipps","outboundSMSTextMessage":{"message":"Chers Parents,\\nla f\xc3\xaate du Saint-Sacrement(f\xc3\xaate-Dieu) est une solennit\xc3\xa9.\\nCeci devient une seconde f\xc3\xaate pour les nouveaux communi\xc3\xa9s. \\nUne procession aura lieu apr\xc3\xa8s la messe de 11h avec le St Sacrement dans le quartier.\\nNous vous demandons de laisser vos enfants venir dans les habits de la 1ere Communion et dans une ambiance de joie et de"},"resourceURL":"https://api.orange.com/smsmessaging/v1/outbound/tel:+221773387902/requests/fb617c7c-0a8d-4a58-a3a5-c7735a7a76dd"}}'
2022-06-17 10:11:32 | numéro : 778033346 | resultat envoi : b'{"outboundSMSMessageRequest":{"address":["tel:+221778033346"],"senderAddress":"tel:+221773387902","senderName":"ipps","outboundSMSTextMessage":{"message":"Chers Parents,\\nla f\xc3\xaate du Saint-Sacrement(f\xc3\xaate-Dieu) est une solennit\xc3\xa9.\\nCeci devient une seconde f\xc3\xaate pour les nouveaux communi\xc3\xa9s. \\nUne procession aura lieu apr\xc3\xa8s la messe de 11h avec le St Sacrement dans le quartier.\\nNous vous demandons de laisser vos enfants venir dans les habits de la 1ere Communion et dans une ambiance de joie et de"},"resourceURL":"https://api.orange.com/smsmessaging/v1/outbound/tel:+221773387902/requests/182d38d8-8a9a-422c-b1e6-b959111268fd"}}'
2022-06-17 10:11:33 | numéro : 778275151 | resultat envoi : b'{"outboundSMSMessageRequest":{"address":["tel:+221778275151"],"senderAddress":"tel:+221773387902","senderName":"ipps","outboundSMSTextMessage":{"message":"Chers Parents,\\nla f\xc3\xaate du Saint-Sacrement(f\xc3\xaate-Dieu) est une solennit\xc3\xa9.\\nCeci devient une seconde f\xc3\xaate pour les nouveaux communi\xc3\xa9s. \\nUne procession aura lieu apr\xc3\xa8s la messe de 11h avec le St Sacrement dans le quartier.\\nNous vous demandons de laisser vos enfants venir dans les habits de la 1ere Communion et dans une ambiance de joie et de"},"resourceURL":"https://api.orange.com/smsmessaging/v1/outbound/tel:+221773387902/requests/756ec03d-e1b5-4f83-b131-b13be8e07fed"}}'
2022-06-17 10:11:35 | numéro : 778417588 | resultat envoi : b'{"outboundSMSMessageRequest":{"address":["tel:+221778417588"],"senderAddress":"tel:+221773387902","senderName":"ipps","outboundSMSTextMessage":{"message":"Chers Parents,\\nla f\xc3\xaate du Saint-Sacrement(f\xc3\xaate-Dieu) est une solennit\xc3\xa9.\\nCeci devient une seconde f\xc3\xaate pour les nouveaux communi\xc3\xa9s. \\nUne procession aura lieu apr\xc3\xa8s la messe de 11h avec le St Sacrement dans le quartier.\\nNous vous demandons de laisser vos enfants venir dans les habits de la 1ere Communion et dans une ambiance de joie et de"},"resourceURL":"https://api.orange.com/smsmessaging/v1/outbound/tel:+221773387902/requests/aff87c07-980d-4d6f-8477-ef5ea70039bb"}}'
2022-06-17 10:11:36 | numéro : 778417588 | resultat envoi : b'{"outboundSMSMessageRequest":{"address":["tel:+221778417588"],"senderAddress":"tel:+221773387902","senderName":"ipps","outboundSMSTextMessage":{"message":"Chers Parents,\\nla f\xc3\xaate du Saint-Sacrement(f\xc3\xaate-Dieu) est une solennit\xc3\xa9.\\nCeci devient une seconde f\xc3\xaate pour les nouveaux communi\xc3\xa9s. \\nUne procession aura lieu apr\xc3\xa8s la messe de 11h avec le St Sacrement dans le quartier.\\nNous vous demandons de laisser vos enfants venir dans les habits de la 1ere Communion et dans une ambiance de joie et de"},"resourceURL":"https://api.orange.com/smsmessaging/v1/outbound/tel:+221773387902/requests/af7107fd-e88e-474d-9f31-5b7cda3a9e8a"}}'
2022-06-17 10:11:37 | numéro : 779296349 | resultat envoi : b'{"outboundSMSMessageRequest":{"address":["tel:+221779296349"],"senderAddress":"tel:+221773387902","senderName":"ipps","outboundSMSTextMessage":{"message":"Chers Parents,\\nla f\xc3\xaate du Saint-Sacrement(f\xc3\xaate-Dieu) est une solennit\xc3\xa9.\\nCeci devient une seconde f\xc3\xaate pour les nouveaux communi\xc3\xa9s. \\nUne procession aura lieu apr\xc3\xa8s la messe de 11h avec le St Sacrement dans le quartier.\\nNous vous demandons de laisser vos enfants venir dans les habits de la 1ere Communion et dans une ambiance de joie et de"},"resourceURL":"https://api.orange.com/smsmessaging/v1/outbound/tel:+221773387902/requests/ccb74194-f567-4bed-98f7-b234a43c7cd2"}}'
2022-06-17 10:11:37 | numéro : 781950993 | resultat envoi : b'{"outboundSMSMessageRequest":{"address":["tel:+221781950993"],"senderAddress":"tel:+221773387902","senderName":"ipps","outboundSMSTextMessage":{"message":"Chers Parents,\\nla f\xc3\xaate du Saint-Sacrement(f\xc3\xaate-Dieu) est une solennit\xc3\xa9.\\nCeci devient une seconde f\xc3\xaate pour les nouveaux communi\xc3\xa9s. \\nUne procession aura lieu apr\xc3\xa8s la messe de 11h avec le St Sacrement dans le quartier.\\nNous vous demandons de laisser vos enfants venir dans les habits de la 1ere Communion et dans une ambiance de joie et de"},"resourceURL":"https://api.orange.com/smsmessaging/v1/outbound/tel:+221773387902/requests/bd7dca7d-ac13-4dbb-9701-e0f061ece6de"}}'
2022-06-17 10:11:38 | numéro : 783069999 | resultat envoi : b'{"outboundSMSMessageRequest":{"address":["tel:+221783069999"],"senderAddress":"tel:+221773387902","senderName":"ipps","outboundSMSTextMessage":{"message":"Chers Parents,\\nla f\xc3\xaate du Saint-Sacrement(f\xc3\xaate-Dieu) est une solennit\xc3\xa9.\\nCeci devient une seconde f\xc3\xaate pour les nouveaux communi\xc3\xa9s. \\nUne procession aura lieu apr\xc3\xa8s la messe de 11h avec le St Sacrement dans le quartier.\\nNous vous demandons de laisser vos enfants venir dans les habits de la 1ere Communion et dans une ambiance de joie et de"},"resourceURL":"https://api.orange.com/smsmessaging/v1/outbound/tel:+221773387902/requests/3a07f821-a851-420a-ad4c-2cb9adebf9cc"}}'
2022-06-17 10:11:39 | numéro : 783504796 | resultat envoi : b'{"outboundSMSMessageRequest":{"address":["tel:+221783504796"],"senderAddress":"tel:+221773387902","senderName":"ipps","outboundSMSTextMessage":{"message":"Chers Parents,\\nla f\xc3\xaate du Saint-Sacrement(f\xc3\xaate-Dieu) est une solennit\xc3\xa9.\\nCeci devient une seconde f\xc3\xaate pour les nouveaux communi\xc3\xa9s. \\nUne procession aura lieu apr\xc3\xa8s la messe de 11h avec le St Sacrement dans le quartier.\\nNous vous demandons de laisser vos enfants venir dans les habits de la 1ere Communion et dans une ambiance de joie et de"},"resourceURL":"https://api.orange.com/smsmessaging/v1/outbound/tel:+221773387902/requests/48f19354-a58b-45f5-85ec-6fec3b912d20"}}'
2022-06-17 10:11:40 | numéro : 784812573 | resultat envoi : b'{"outboundSMSMessageRequest":{"address":["tel:+221784812573"],"senderAddress":"tel:+221773387902","senderName":"ipps","outboundSMSTextMessage":{"message":"Chers Parents,\\nla f\xc3\xaate du Saint-Sacrement(f\xc3\xaate-Dieu) est une solennit\xc3\xa9.\\nCeci devient une seconde f\xc3\xaate pour les nouveaux communi\xc3\xa9s. \\nUne procession aura lieu apr\xc3\xa8s la messe de 11h avec le St Sacrement dans le quartier.\\nNous vous demandons de laisser vos enfants venir dans les habits de la 1ere Communion et dans une ambiance de joie et de"},"resourceURL":"https://api.orange.com/smsmessaging/v1/outbound/tel:+221773387902/requests/a7b4f246-2957-4bd8-978e-536d94421ae8"}}'
2022-06-17 10:11:41 | numéro : 779646193 | resultat envoi : b'{"outboundSMSMessageRequest":{"address":["tel:+221779646193"],"senderAddress":"tel:+221773387902","senderName":"ipps","outboundSMSTextMessage":{"message":"Chers Parents,\\nla f\xc3\xaate du Saint-Sacrement(f\xc3\xaate-Dieu) est une solennit\xc3\xa9.\\nCeci devient une seconde f\xc3\xaate pour les nouveaux communi\xc3\xa9s. \\nUne procession aura lieu apr\xc3\xa8s la messe de 11h avec le St Sacrement dans le quartier.\\nNous vous demandons de laisser vos enfants venir dans les habits de la 1ere Communion et dans une ambiance de joie et de"},"resourceURL":"https://api.orange.com/smsmessaging/v1/outbound/tel:+221773387902/requests/0f661484-273e-4248-898e-d1a18dc651a6"}}'
2022-06-17 10:11:42 | numéro : 707171591 | resultat envoi : b'{"outboundSMSMessageRequest":{"address":["tel:+221707171591"],"senderAddress":"tel:+221773387902","senderName":"ipps","outboundSMSTextMessage":{"message":"Chers Parents,\\nla f\xc3\xaate du Saint-Sacrement(f\xc3\xaate-Dieu) est une solennit\xc3\xa9.\\nCeci devient une seconde f\xc3\xaate pour les nouveaux communi\xc3\xa9s. \\nUne procession aura lieu apr\xc3\xa8s la messe de 11h avec le St Sacrement dans le quartier.\\nNous vous demandons de laisser vos enfants venir dans les habits de la 1ere Communion et dans une ambiance de joie et de"},"resourceURL":"https://api.orange.com/smsmessaging/v1/outbound/tel:+221773387902/requests/ee4a7cd1-caa4-4247-976c-67daf61030ef"}}'
2022-06-17 10:11:42 | numéro : 776572997 | resultat envoi : b'{"outboundSMSMessageRequest":{"address":["tel:+221776572997"],"senderAddress":"tel:+221773387902","senderName":"ipps","outboundSMSTextMessage":{"message":"Chers Parents,\\nla f\xc3\xaate du Saint-Sacrement(f\xc3\xaate-Dieu) est une solennit\xc3\xa9.\\nCeci devient une seconde f\xc3\xaate pour les nouveaux communi\xc3\xa9s. \\nUne procession aura lieu apr\xc3\xa8s la messe de 11h avec le St Sacrement dans le quartier.\\nNous vous demandons de laisser vos enfants venir dans les habits de la 1ere Communion et dans une ambiance de joie et de"},"resourceURL":"https://api.orange.com/smsmessaging/v1/outbound/tel:+221773387902/requests/35ce4a55-d70d-43c5-b8eb-bdc57d5396b9"}}'
2022-06-17 10:11:43 | numéro : 774781505 | resultat envoi : b'{"outboundSMSMessageRequest":{"address":["tel:+221774781505"],"senderAddress":"tel:+221773387902","senderName":"ipps","outboundSMSTextMessage":{"message":"Chers Parents,\\nla f\xc3\xaate du Saint-Sacrement(f\xc3\xaate-Dieu) est une solennit\xc3\xa9.\\nCeci devient une seconde f\xc3\xaate pour les nouveaux communi\xc3\xa9s. \\nUne procession aura lieu apr\xc3\xa8s la messe de 11h avec le St Sacrement dans le quartier.\\nNous vous demandons de laisser vos enfants venir dans les habits de la 1ere Communion et dans une ambiance de joie et de"},"resourceURL":"https://api.orange.com/smsmessaging/v1/outbound/tel:+221773387902/requests/ad28249f-a605-4c4d-8d6d-be106f498182"}}'
2022-06-17 10:11:44 | numéro : 765005555 | resultat envoi : b'{"outboundSMSMessageRequest":{"address":["tel:+221765005555"],"senderAddress":"tel:+221773387902","senderName":"ipps","outboundSMSTextMessage":{"message":"Chers Parents,\\nla f\xc3\xaate du Saint-Sacrement(f\xc3\xaate-Dieu) est une solennit\xc3\xa9.\\nCeci devient une seconde f\xc3\xaate pour les nouveaux communi\xc3\xa9s. \\nUne procession aura lieu apr\xc3\xa8s la messe de 11h avec le St Sacrement dans le quartier.\\nNous vous demandons de laisser vos enfants venir dans les habits de la 1ere Communion et dans une ambiance de joie et de"},"resourceURL":"https://api.orange.com/smsmessaging/v1/outbound/tel:+221773387902/requests/e5a1a78e-0c37-4e82-a273-4e599561f1f0"}}'
2022-06-17 10:11:44 | balance 87 | fin envoi
