2021-04-20 00:12:14 | balance 4515 | debut envoi
2021-04-20 00:12:14 | numéro : 765005555 | resultat envoi : b'{"outboundSMSMessageRequest":{"address":["tel:+221765005555"],"senderAddress":"tel:+221773387902","senderName":"ipps","outboundSMSTextMessage":{"message":"Shalom famille, nous nous retrouverons 23 au 25 Avr. 2021 \xc3\xa0 18h \xc3\xa0 l\'imprimerie Monteiro avec Elie Diatta.Th\xc3\xa8me :\\u000B\xc2\xab Ils ont vu ton \xc3\xa9toile\xe2\x80\xa6 \xe2\x80\xa6mais qui ? \xc2\xbb Matthieu 2. Plus d\'infos ici : https://bit.ly/3dZDH9B"},"resourceURL":"https://api.orange.com/smsmessaging/v1/outbound/tel:+221773387902/requests/e4b5b9be-7a3b-428e-ae08-eaf8a322ea75"}}'
2021-04-20 00:12:14 | numéro : 773387902 | resultat envoi : b'{"outboundSMSMessageRequest":{"address":["tel:+221773387902"],"senderAddress":"tel:+221773387902","senderName":"ipps","outboundSMSTextMessage":{"message":"Shalom famille, nous nous retrouverons 23 au 25 Avr. 2021 \xc3\xa0 18h \xc3\xa0 l\'imprimerie Monteiro avec Elie Diatta.Th\xc3\xa8me :\\u000B\xc2\xab Ils ont vu ton \xc3\xa9toile\xe2\x80\xa6 \xe2\x80\xa6mais qui ? \xc2\xbb Matthieu 2. Plus d\'infos ici : https://bit.ly/3dZDH9B"},"resourceURL":"https://api.orange.com/smsmessaging/v1/outbound/tel:+221773387902/requests/7a0eeb8c-2b16-4299-8e8b-16a8dd092e52"}}'
2021-04-20 00:12:14 | balance 4375 | fin envoi
