2021-05-14 14:04:08 | balance 59 | debut envoi
2021-05-14 14:04:08 | numéro : 779359753 | resultat envoi : b'{"outboundSMSMessageRequest":{"address":["tel:+221779359753"],"senderAddress":"tel:+221773387902","senderName":"ipps","outboundSMSTextMessage":{"message":"Chers parents, vous \xc3\xaates convoqu\xc3\xa9s ce samedi 15 mai \xc3\xa0 17h \xc3\xa0 la derni\xc3\xa8re r\xc3\xa9union de pr\xc3\xa9paration au sacrement de confirmation pour votre enfant. \\nVotre pr\xc3\xa9sence est obligatoire faute de quoi votre enfant ne sera pas admis au sacrement. Merci pour votre compr\xc3\xa9hension. le bureau de la cat\xc3\xa9ch\xc3\xa8se."},"resourceURL":"https://api.orange.com/smsmessaging/v1/outbound/tel:+221773387902/requests/9cde39c2-968a-46dc-9e12-19813ddf07dd"}}'
2021-05-14 14:04:08 | numéro : 777241807 | resultat envoi : b'{"outboundSMSMessageRequest":{"address":["tel:+221777241807"],"senderAddress":"tel:+221773387902","senderName":"ipps","outboundSMSTextMessage":{"message":"Chers parents, vous \xc3\xaates convoqu\xc3\xa9s ce samedi 15 mai \xc3\xa0 17h \xc3\xa0 la derni\xc3\xa8re r\xc3\xa9union de pr\xc3\xa9paration au sacrement de confirmation pour votre enfant. \\nVotre pr\xc3\xa9sence est obligatoire faute de quoi votre enfant ne sera pas admis au sacrement. Merci pour votre compr\xc3\xa9hension. le bureau de la cat\xc3\xa9ch\xc3\xa8se."},"resourceURL":"https://api.orange.com/smsmessaging/v1/outbound/tel:+221773387902/requests/5302fd2f-2b27-47ff-80ba-f9923066294b"}}'
2021-05-14 14:04:09 | numéro : 773387902 | resultat envoi : b'{"outboundSMSMessageRequest":{"address":["tel:+221773387902"],"senderAddress":"tel:+221773387902","senderName":"ipps","outboundSMSTextMessage":{"message":"Chers parents, vous \xc3\xaates convoqu\xc3\xa9s ce samedi 15 mai \xc3\xa0 17h \xc3\xa0 la derni\xc3\xa8re r\xc3\xa9union de pr\xc3\xa9paration au sacrement de confirmation pour votre enfant. \\nVotre pr\xc3\xa9sence est obligatoire faute de quoi votre enfant ne sera pas admis au sacrement. Merci pour votre compr\xc3\xa9hension. le bureau de la cat\xc3\xa9ch\xc3\xa8se."},"resourceURL":"https://api.orange.com/smsmessaging/v1/outbound/tel:+221773387902/requests/7cdde89f-186c-4499-b874-fdc838d8903e"}}'
2021-05-14 14:04:09 | balance 56 | fin envoi
