2021-10-01 14:18:13 | balance 1091 | debut envoi
2021-10-01 14:18:13 | numéro : 773387902 | resultat envoi : b'{"outboundSMSMessageRequest":{"address":["tel:+221773387902"],"senderAddress":"tel:+221773387902","senderName":"ipps","outboundSMSTextMessage":{"message":"Chers cat\xc3\xa9chistes, vous \xc3\xaates convoqu\xc3\xa9s ce samedi 2 Octobre 2021 \xc3\xa0 10h pour la rentr\xc3\xa9e de la cat\xc3\xa9ch\xc3\xa8se.\\nCe sera l\'occasion pour faire le dispatching des classes et r\xc3\xa9pertorier le manque de livres du cat\xc3\xa9chiste.\\nNous finirons \xc3\xa0 13h au plus tard. Vue l\'importance de l\'ordre du jour votre pr\xc3\xa9sence est cruciale et obligatoire.\\nLe bureau"},"resourceURL":"https://api.orange.com/smsmessaging/v1/outbound/tel:+221773387902/requests/8dd0b9e7-a008-4ad4-996b-f7370da9f6e1"}}'
2021-10-01 14:18:14 | numéro : 776483485 | resultat envoi : b'{"outboundSMSMessageRequest":{"address":["tel:+221776483485"],"senderAddress":"tel:+221773387902","senderName":"ipps","outboundSMSTextMessage":{"message":"Chers cat\xc3\xa9chistes, vous \xc3\xaates convoqu\xc3\xa9s ce samedi 2 Octobre 2021 \xc3\xa0 10h pour la rentr\xc3\xa9e de la cat\xc3\xa9ch\xc3\xa8se.\\nCe sera l\'occasion pour faire le dispatching des classes et r\xc3\xa9pertorier le manque de livres du cat\xc3\xa9chiste.\\nNous finirons \xc3\xa0 13h au plus tard. Vue l\'importance de l\'ordre du jour votre pr\xc3\xa9sence est cruciale et obligatoire.\\nLe bureau"},"resourceURL":"https://api.orange.com/smsmessaging/v1/outbound/tel:+221773387902/requests/1c02664e-ddb4-4cac-bb2a-e4888915b3a9"}}'
2021-10-01 14:18:14 | numéro : 771561674 | resultat envoi : b'{"outboundSMSMessageRequest":{"address":["tel:+221771561674"],"senderAddress":"tel:+221773387902","senderName":"ipps","outboundSMSTextMessage":{"message":"Chers cat\xc3\xa9chistes, vous \xc3\xaates convoqu\xc3\xa9s ce samedi 2 Octobre 2021 \xc3\xa0 10h pour la rentr\xc3\xa9e de la cat\xc3\xa9ch\xc3\xa8se.\\nCe sera l\'occasion pour faire le dispatching des classes et r\xc3\xa9pertorier le manque de livres du cat\xc3\xa9chiste.\\nNous finirons \xc3\xa0 13h au plus tard. Vue l\'importance de l\'ordre du jour votre pr\xc3\xa9sence est cruciale et obligatoire.\\nLe bureau"},"resourceURL":"https://api.orange.com/smsmessaging/v1/outbound/tel:+221773387902/requests/fb29a60c-d1ac-48bd-9a81-9d5a5b75953d"}}'
2021-10-01 14:18:14 | numéro : 775782652 | resultat envoi : b'{"outboundSMSMessageRequest":{"address":["tel:+221775782652"],"senderAddress":"tel:+221773387902","senderName":"ipps","outboundSMSTextMessage":{"message":"Chers cat\xc3\xa9chistes, vous \xc3\xaates convoqu\xc3\xa9s ce samedi 2 Octobre 2021 \xc3\xa0 10h pour la rentr\xc3\xa9e de la cat\xc3\xa9ch\xc3\xa8se.\\nCe sera l\'occasion pour faire le dispatching des classes et r\xc3\xa9pertorier le manque de livres du cat\xc3\xa9chiste.\\nNous finirons \xc3\xa0 13h au plus tard. Vue l\'importance de l\'ordre du jour votre pr\xc3\xa9sence est cruciale et obligatoire.\\nLe bureau"},"resourceURL":"https://api.orange.com/smsmessaging/v1/outbound/tel:+221773387902/requests/84bf277a-890c-4b27-9c15-2fe799973111"}}'
2021-10-01 14:18:15 | numéro : 773670365 | resultat envoi : b'{"outboundSMSMessageRequest":{"address":["tel:+221773670365"],"senderAddress":"tel:+221773387902","senderName":"ipps","outboundSMSTextMessage":{"message":"Chers cat\xc3\xa9chistes, vous \xc3\xaates convoqu\xc3\xa9s ce samedi 2 Octobre 2021 \xc3\xa0 10h pour la rentr\xc3\xa9e de la cat\xc3\xa9ch\xc3\xa8se.\\nCe sera l\'occasion pour faire le dispatching des classes et r\xc3\xa9pertorier le manque de livres du cat\xc3\xa9chiste.\\nNous finirons \xc3\xa0 13h au plus tard. Vue l\'importance de l\'ordre du jour votre pr\xc3\xa9sence est cruciale et obligatoire.\\nLe bureau"},"resourceURL":"https://api.orange.com/smsmessaging/v1/outbound/tel:+221773387902/requests/9a8ce906-f56e-4c2c-a108-b7a37ac5aadf"}}'
2021-10-01 14:18:15 | numéro : 775452777 | resultat envoi : b'{"outboundSMSMessageRequest":{"address":["tel:+221775452777"],"senderAddress":"tel:+221773387902","senderName":"ipps","outboundSMSTextMessage":{"message":"Chers cat\xc3\xa9chistes, vous \xc3\xaates convoqu\xc3\xa9s ce samedi 2 Octobre 2021 \xc3\xa0 10h pour la rentr\xc3\xa9e de la cat\xc3\xa9ch\xc3\xa8se.\\nCe sera l\'occasion pour faire le dispatching des classes et r\xc3\xa9pertorier le manque de livres du cat\xc3\xa9chiste.\\nNous finirons \xc3\xa0 13h au plus tard. Vue l\'importance de l\'ordre du jour votre pr\xc3\xa9sence est cruciale et obligatoire.\\nLe bureau"},"resourceURL":"https://api.orange.com/smsmessaging/v1/outbound/tel:+221773387902/requests/45f45d7b-021b-4537-b0f2-39ba83496ca4"}}'
2021-10-01 14:18:16 | numéro : 774095176 | resultat envoi : b'{"outboundSMSMessageRequest":{"address":["tel:+221774095176"],"senderAddress":"tel:+221773387902","senderName":"ipps","outboundSMSTextMessage":{"message":"Chers cat\xc3\xa9chistes, vous \xc3\xaates convoqu\xc3\xa9s ce samedi 2 Octobre 2021 \xc3\xa0 10h pour la rentr\xc3\xa9e de la cat\xc3\xa9ch\xc3\xa8se.\\nCe sera l\'occasion pour faire le dispatching des classes et r\xc3\xa9pertorier le manque de livres du cat\xc3\xa9chiste.\\nNous finirons \xc3\xa0 13h au plus tard. Vue l\'importance de l\'ordre du jour votre pr\xc3\xa9sence est cruciale et obligatoire.\\nLe bureau"},"resourceURL":"https://api.orange.com/smsmessaging/v1/outbound/tel:+221773387902/requests/1963e483-a479-4181-b558-d7233412c645"}}'
2021-10-01 14:18:16 | numéro : 776108894 | resultat envoi : b'{"outboundSMSMessageRequest":{"address":["tel:+221776108894"],"senderAddress":"tel:+221773387902","senderName":"ipps","outboundSMSTextMessage":{"message":"Chers cat\xc3\xa9chistes, vous \xc3\xaates convoqu\xc3\xa9s ce samedi 2 Octobre 2021 \xc3\xa0 10h pour la rentr\xc3\xa9e de la cat\xc3\xa9ch\xc3\xa8se.\\nCe sera l\'occasion pour faire le dispatching des classes et r\xc3\xa9pertorier le manque de livres du cat\xc3\xa9chiste.\\nNous finirons \xc3\xa0 13h au plus tard. Vue l\'importance de l\'ordre du jour votre pr\xc3\xa9sence est cruciale et obligatoire.\\nLe bureau"},"resourceURL":"https://api.orange.com/smsmessaging/v1/outbound/tel:+221773387902/requests/a63ef8f4-8b57-48f6-9359-c17a88048c21"}}'
2021-10-01 14:18:16 | numéro : 778590854 | resultat envoi : b'{"outboundSMSMessageRequest":{"address":["tel:+221778590854"],"senderAddress":"tel:+221773387902","senderName":"ipps","outboundSMSTextMessage":{"message":"Chers cat\xc3\xa9chistes, vous \xc3\xaates convoqu\xc3\xa9s ce samedi 2 Octobre 2021 \xc3\xa0 10h pour la rentr\xc3\xa9e de la cat\xc3\xa9ch\xc3\xa8se.\\nCe sera l\'occasion pour faire le dispatching des classes et r\xc3\xa9pertorier le manque de livres du cat\xc3\xa9chiste.\\nNous finirons \xc3\xa0 13h au plus tard. Vue l\'importance de l\'ordre du jour votre pr\xc3\xa9sence est cruciale et obligatoire.\\nLe bureau"},"resourceURL":"https://api.orange.com/smsmessaging/v1/outbound/tel:+221773387902/requests/833f625a-d076-4a21-98f6-ef30dbccfd69"}}'
2021-10-01 14:18:17 | numéro : 765472363 | resultat envoi : b'{"outboundSMSMessageRequest":{"address":["tel:+221765472363"],"senderAddress":"tel:+221773387902","senderName":"ipps","outboundSMSTextMessage":{"message":"Chers cat\xc3\xa9chistes, vous \xc3\xaates convoqu\xc3\xa9s ce samedi 2 Octobre 2021 \xc3\xa0 10h pour la rentr\xc3\xa9e de la cat\xc3\xa9ch\xc3\xa8se.\\nCe sera l\'occasion pour faire le dispatching des classes et r\xc3\xa9pertorier le manque de livres du cat\xc3\xa9chiste.\\nNous finirons \xc3\xa0 13h au plus tard. Vue l\'importance de l\'ordre du jour votre pr\xc3\xa9sence est cruciale et obligatoire.\\nLe bureau"},"resourceURL":"https://api.orange.com/smsmessaging/v1/outbound/tel:+221773387902/requests/c72b3c55-a8fe-4666-880b-007cbb7bf9a6"}}'
2021-10-01 14:18:17 | numéro : 774444153 | resultat envoi : b'{"outboundSMSMessageRequest":{"address":["tel:+221774444153"],"senderAddress":"tel:+221773387902","senderName":"ipps","outboundSMSTextMessage":{"message":"Chers cat\xc3\xa9chistes, vous \xc3\xaates convoqu\xc3\xa9s ce samedi 2 Octobre 2021 \xc3\xa0 10h pour la rentr\xc3\xa9e de la cat\xc3\xa9ch\xc3\xa8se.\\nCe sera l\'occasion pour faire le dispatching des classes et r\xc3\xa9pertorier le manque de livres du cat\xc3\xa9chiste.\\nNous finirons \xc3\xa0 13h au plus tard. Vue l\'importance de l\'ordre du jour votre pr\xc3\xa9sence est cruciale et obligatoire.\\nLe bureau"},"resourceURL":"https://api.orange.com/smsmessaging/v1/outbound/tel:+221773387902/requests/3e7c2b74-b0f2-4a60-936e-c07d524bf5f4"}}'
2021-10-01 14:18:18 | numéro : 775264921 | resultat envoi : b'{"outboundSMSMessageRequest":{"address":["tel:+221775264921"],"senderAddress":"tel:+221773387902","senderName":"ipps","outboundSMSTextMessage":{"message":"Chers cat\xc3\xa9chistes, vous \xc3\xaates convoqu\xc3\xa9s ce samedi 2 Octobre 2021 \xc3\xa0 10h pour la rentr\xc3\xa9e de la cat\xc3\xa9ch\xc3\xa8se.\\nCe sera l\'occasion pour faire le dispatching des classes et r\xc3\xa9pertorier le manque de livres du cat\xc3\xa9chiste.\\nNous finirons \xc3\xa0 13h au plus tard. Vue l\'importance de l\'ordre du jour votre pr\xc3\xa9sence est cruciale et obligatoire.\\nLe bureau"},"resourceURL":"https://api.orange.com/smsmessaging/v1/outbound/tel:+221773387902/requests/6ee8f660-0490-4aba-9212-c876ac09d775"}}'
2021-10-01 14:18:18 | numéro : 771541666 | resultat envoi : b'{"outboundSMSMessageRequest":{"address":["tel:+221771541666"],"senderAddress":"tel:+221773387902","senderName":"ipps","outboundSMSTextMessage":{"message":"Chers cat\xc3\xa9chistes, vous \xc3\xaates convoqu\xc3\xa9s ce samedi 2 Octobre 2021 \xc3\xa0 10h pour la rentr\xc3\xa9e de la cat\xc3\xa9ch\xc3\xa8se.\\nCe sera l\'occasion pour faire le dispatching des classes et r\xc3\xa9pertorier le manque de livres du cat\xc3\xa9chiste.\\nNous finirons \xc3\xa0 13h au plus tard. Vue l\'importance de l\'ordre du jour votre pr\xc3\xa9sence est cruciale et obligatoire.\\nLe bureau"},"resourceURL":"https://api.orange.com/smsmessaging/v1/outbound/tel:+221773387902/requests/7b640f88-2d3d-4d8c-8f81-a518bbdf95f1"}}'
2021-10-01 14:18:18 | numéro : 775106381 | resultat envoi : b'{"outboundSMSMessageRequest":{"address":["tel:+221775106381"],"senderAddress":"tel:+221773387902","senderName":"ipps","outboundSMSTextMessage":{"message":"Chers cat\xc3\xa9chistes, vous \xc3\xaates convoqu\xc3\xa9s ce samedi 2 Octobre 2021 \xc3\xa0 10h pour la rentr\xc3\xa9e de la cat\xc3\xa9ch\xc3\xa8se.\\nCe sera l\'occasion pour faire le dispatching des classes et r\xc3\xa9pertorier le manque de livres du cat\xc3\xa9chiste.\\nNous finirons \xc3\xa0 13h au plus tard. Vue l\'importance de l\'ordre du jour votre pr\xc3\xa9sence est cruciale et obligatoire.\\nLe bureau"},"resourceURL":"https://api.orange.com/smsmessaging/v1/outbound/tel:+221773387902/requests/b37293c3-e365-4456-9b0b-024f64e0e042"}}'
2021-10-01 14:18:19 | numéro : 775484214 | resultat envoi : b'{"outboundSMSMessageRequest":{"address":["tel:+221775484214"],"senderAddress":"tel:+221773387902","senderName":"ipps","outboundSMSTextMessage":{"message":"Chers cat\xc3\xa9chistes, vous \xc3\xaates convoqu\xc3\xa9s ce samedi 2 Octobre 2021 \xc3\xa0 10h pour la rentr\xc3\xa9e de la cat\xc3\xa9ch\xc3\xa8se.\\nCe sera l\'occasion pour faire le dispatching des classes et r\xc3\xa9pertorier le manque de livres du cat\xc3\xa9chiste.\\nNous finirons \xc3\xa0 13h au plus tard. Vue l\'importance de l\'ordre du jour votre pr\xc3\xa9sence est cruciale et obligatoire.\\nLe bureau"},"resourceURL":"https://api.orange.com/smsmessaging/v1/outbound/tel:+221773387902/requests/501f002d-9495-4e5a-bda1-69594639965f"}}'
2021-10-01 14:18:19 | numéro : 776567822 | resultat envoi : b'{"outboundSMSMessageRequest":{"address":["tel:+221776567822"],"senderAddress":"tel:+221773387902","senderName":"ipps","outboundSMSTextMessage":{"message":"Chers cat\xc3\xa9chistes, vous \xc3\xaates convoqu\xc3\xa9s ce samedi 2 Octobre 2021 \xc3\xa0 10h pour la rentr\xc3\xa9e de la cat\xc3\xa9ch\xc3\xa8se.\\nCe sera l\'occasion pour faire le dispatching des classes et r\xc3\xa9pertorier le manque de livres du cat\xc3\xa9chiste.\\nNous finirons \xc3\xa0 13h au plus tard. Vue l\'importance de l\'ordre du jour votre pr\xc3\xa9sence est cruciale et obligatoire.\\nLe bureau"},"resourceURL":"https://api.orange.com/smsmessaging/v1/outbound/tel:+221773387902/requests/89ce3f4d-159c-4f4b-bd23-72f595b00eee"}}'
2021-10-01 14:18:19 | numéro : 776419216 | resultat envoi : b'{"outboundSMSMessageRequest":{"address":["tel:+221776419216"],"senderAddress":"tel:+221773387902","senderName":"ipps","outboundSMSTextMessage":{"message":"Chers cat\xc3\xa9chistes, vous \xc3\xaates convoqu\xc3\xa9s ce samedi 2 Octobre 2021 \xc3\xa0 10h pour la rentr\xc3\xa9e de la cat\xc3\xa9ch\xc3\xa8se.\\nCe sera l\'occasion pour faire le dispatching des classes et r\xc3\xa9pertorier le manque de livres du cat\xc3\xa9chiste.\\nNous finirons \xc3\xa0 13h au plus tard. Vue l\'importance de l\'ordre du jour votre pr\xc3\xa9sence est cruciale et obligatoire.\\nLe bureau"},"resourceURL":"https://api.orange.com/smsmessaging/v1/outbound/tel:+221773387902/requests/3ed616bd-4a8f-4fab-bc3b-d147cddc487f"}}'
2021-10-01 14:18:20 | numéro : 776373107 | resultat envoi : b'{"outboundSMSMessageRequest":{"address":["tel:+221776373107"],"senderAddress":"tel:+221773387902","senderName":"ipps","outboundSMSTextMessage":{"message":"Chers cat\xc3\xa9chistes, vous \xc3\xaates convoqu\xc3\xa9s ce samedi 2 Octobre 2021 \xc3\xa0 10h pour la rentr\xc3\xa9e de la cat\xc3\xa9ch\xc3\xa8se.\\nCe sera l\'occasion pour faire le dispatching des classes et r\xc3\xa9pertorier le manque de livres du cat\xc3\xa9chiste.\\nNous finirons \xc3\xa0 13h au plus tard. Vue l\'importance de l\'ordre du jour votre pr\xc3\xa9sence est cruciale et obligatoire.\\nLe bureau"},"resourceURL":"https://api.orange.com/smsmessaging/v1/outbound/tel:+221773387902/requests/ea9a2c35-c2fb-477c-bd34-d1e29a5b620a"}}'
2021-10-01 14:18:20 | numéro : 709745723 | resultat envoi : b'{"outboundSMSMessageRequest":{"address":["tel:+221709745723"],"senderAddress":"tel:+221773387902","senderName":"ipps","outboundSMSTextMessage":{"message":"Chers cat\xc3\xa9chistes, vous \xc3\xaates convoqu\xc3\xa9s ce samedi 2 Octobre 2021 \xc3\xa0 10h pour la rentr\xc3\xa9e de la cat\xc3\xa9ch\xc3\xa8se.\\nCe sera l\'occasion pour faire le dispatching des classes et r\xc3\xa9pertorier le manque de livres du cat\xc3\xa9chiste.\\nNous finirons \xc3\xa0 13h au plus tard. Vue l\'importance de l\'ordre du jour votre pr\xc3\xa9sence est cruciale et obligatoire.\\nLe bureau"},"resourceURL":"https://api.orange.com/smsmessaging/v1/outbound/tel:+221773387902/requests/908334dd-8504-4af7-85d9-dd47191b186a"}}'
2021-10-01 14:18:20 | numéro : 766614352 | resultat envoi : b'{"outboundSMSMessageRequest":{"address":["tel:+221766614352"],"senderAddress":"tel:+221773387902","senderName":"ipps","outboundSMSTextMessage":{"message":"Chers cat\xc3\xa9chistes, vous \xc3\xaates convoqu\xc3\xa9s ce samedi 2 Octobre 2021 \xc3\xa0 10h pour la rentr\xc3\xa9e de la cat\xc3\xa9ch\xc3\xa8se.\\nCe sera l\'occasion pour faire le dispatching des classes et r\xc3\xa9pertorier le manque de livres du cat\xc3\xa9chiste.\\nNous finirons \xc3\xa0 13h au plus tard. Vue l\'importance de l\'ordre du jour votre pr\xc3\xa9sence est cruciale et obligatoire.\\nLe bureau"},"resourceURL":"https://api.orange.com/smsmessaging/v1/outbound/tel:+221773387902/requests/b6038f19-6c73-402d-81f5-e15332937eae"}}'
2021-10-01 14:18:21 | numéro : 776084967 | resultat envoi : b'{"outboundSMSMessageRequest":{"address":["tel:+221776084967"],"senderAddress":"tel:+221773387902","senderName":"ipps","outboundSMSTextMessage":{"message":"Chers cat\xc3\xa9chistes, vous \xc3\xaates convoqu\xc3\xa9s ce samedi 2 Octobre 2021 \xc3\xa0 10h pour la rentr\xc3\xa9e de la cat\xc3\xa9ch\xc3\xa8se.\\nCe sera l\'occasion pour faire le dispatching des classes et r\xc3\xa9pertorier le manque de livres du cat\xc3\xa9chiste.\\nNous finirons \xc3\xa0 13h au plus tard. Vue l\'importance de l\'ordre du jour votre pr\xc3\xa9sence est cruciale et obligatoire.\\nLe bureau"},"resourceURL":"https://api.orange.com/smsmessaging/v1/outbound/tel:+221773387902/requests/c1031dc9-b7dc-453c-b43a-f4e65e04f8a8"}}'
2021-10-01 14:18:22 | numéro : 779051492 | resultat envoi : b'{"outboundSMSMessageRequest":{"address":["tel:+221779051492"],"senderAddress":"tel:+221773387902","senderName":"ipps","outboundSMSTextMessage":{"message":"Chers cat\xc3\xa9chistes, vous \xc3\xaates convoqu\xc3\xa9s ce samedi 2 Octobre 2021 \xc3\xa0 10h pour la rentr\xc3\xa9e de la cat\xc3\xa9ch\xc3\xa8se.\\nCe sera l\'occasion pour faire le dispatching des classes et r\xc3\xa9pertorier le manque de livres du cat\xc3\xa9chiste.\\nNous finirons \xc3\xa0 13h au plus tard. Vue l\'importance de l\'ordre du jour votre pr\xc3\xa9sence est cruciale et obligatoire.\\nLe bureau"},"resourceURL":"https://api.orange.com/smsmessaging/v1/outbound/tel:+221773387902/requests/b8442e4a-ba08-44f8-bb3a-850562d9407d"}}'
2021-10-01 14:18:22 | numéro : 775090971 | resultat envoi : b'{"outboundSMSMessageRequest":{"address":["tel:+221775090971"],"senderAddress":"tel:+221773387902","senderName":"ipps","outboundSMSTextMessage":{"message":"Chers cat\xc3\xa9chistes, vous \xc3\xaates convoqu\xc3\xa9s ce samedi 2 Octobre 2021 \xc3\xa0 10h pour la rentr\xc3\xa9e de la cat\xc3\xa9ch\xc3\xa8se.\\nCe sera l\'occasion pour faire le dispatching des classes et r\xc3\xa9pertorier le manque de livres du cat\xc3\xa9chiste.\\nNous finirons \xc3\xa0 13h au plus tard. Vue l\'importance de l\'ordre du jour votre pr\xc3\xa9sence est cruciale et obligatoire.\\nLe bureau"},"resourceURL":"https://api.orange.com/smsmessaging/v1/outbound/tel:+221773387902/requests/fc4bff92-4bda-4fe6-addf-d7b5ca2136f8"}}'
2021-10-01 14:18:22 | numéro : 778631439 | resultat envoi : b'{"outboundSMSMessageRequest":{"address":["tel:+221778631439"],"senderAddress":"tel:+221773387902","senderName":"ipps","outboundSMSTextMessage":{"message":"Chers cat\xc3\xa9chistes, vous \xc3\xaates convoqu\xc3\xa9s ce samedi 2 Octobre 2021 \xc3\xa0 10h pour la rentr\xc3\xa9e de la cat\xc3\xa9ch\xc3\xa8se.\\nCe sera l\'occasion pour faire le dispatching des classes et r\xc3\xa9pertorier le manque de livres du cat\xc3\xa9chiste.\\nNous finirons \xc3\xa0 13h au plus tard. Vue l\'importance de l\'ordre du jour votre pr\xc3\xa9sence est cruciale et obligatoire.\\nLe bureau"},"resourceURL":"https://api.orange.com/smsmessaging/v1/outbound/tel:+221773387902/requests/8231ccf5-fe48-4f31-9a4f-61b7a8e75b48"}}'
2021-10-01 14:18:23 | numéro : 775090971 | resultat envoi : b'{"outboundSMSMessageRequest":{"address":["tel:+221775090971"],"senderAddress":"tel:+221773387902","senderName":"ipps","outboundSMSTextMessage":{"message":"Chers cat\xc3\xa9chistes, vous \xc3\xaates convoqu\xc3\xa9s ce samedi 2 Octobre 2021 \xc3\xa0 10h pour la rentr\xc3\xa9e de la cat\xc3\xa9ch\xc3\xa8se.\\nCe sera l\'occasion pour faire le dispatching des classes et r\xc3\xa9pertorier le manque de livres du cat\xc3\xa9chiste.\\nNous finirons \xc3\xa0 13h au plus tard. Vue l\'importance de l\'ordre du jour votre pr\xc3\xa9sence est cruciale et obligatoire.\\nLe bureau"},"resourceURL":"https://api.orange.com/smsmessaging/v1/outbound/tel:+221773387902/requests/551a150b-d487-4396-a13d-35244e0c366a"}}'
2021-10-01 14:18:23 | numéro : 778631439 | resultat envoi : b'{"outboundSMSMessageRequest":{"address":["tel:+221778631439"],"senderAddress":"tel:+221773387902","senderName":"ipps","outboundSMSTextMessage":{"message":"Chers cat\xc3\xa9chistes, vous \xc3\xaates convoqu\xc3\xa9s ce samedi 2 Octobre 2021 \xc3\xa0 10h pour la rentr\xc3\xa9e de la cat\xc3\xa9ch\xc3\xa8se.\\nCe sera l\'occasion pour faire le dispatching des classes et r\xc3\xa9pertorier le manque de livres du cat\xc3\xa9chiste.\\nNous finirons \xc3\xa0 13h au plus tard. Vue l\'importance de l\'ordre du jour votre pr\xc3\xa9sence est cruciale et obligatoire.\\nLe bureau"},"resourceURL":"https://api.orange.com/smsmessaging/v1/outbound/tel:+221773387902/requests/60ec4f8b-54a9-4f76-95f4-a471906ffb25"}}'
2021-10-01 14:18:23 | numéro : 775090971 | resultat envoi : b'{"outboundSMSMessageRequest":{"address":["tel:+221775090971"],"senderAddress":"tel:+221773387902","senderName":"ipps","outboundSMSTextMessage":{"message":"Chers cat\xc3\xa9chistes, vous \xc3\xaates convoqu\xc3\xa9s ce samedi 2 Octobre 2021 \xc3\xa0 10h pour la rentr\xc3\xa9e de la cat\xc3\xa9ch\xc3\xa8se.\\nCe sera l\'occasion pour faire le dispatching des classes et r\xc3\xa9pertorier le manque de livres du cat\xc3\xa9chiste.\\nNous finirons \xc3\xa0 13h au plus tard. Vue l\'importance de l\'ordre du jour votre pr\xc3\xa9sence est cruciale et obligatoire.\\nLe bureau"},"resourceURL":"https://api.orange.com/smsmessaging/v1/outbound/tel:+221773387902/requests/90a57e8b-05ee-4bfd-841f-505fee432ade"}}'
2021-10-01 14:18:24 | numéro : 778631439 | resultat envoi : b'{"outboundSMSMessageRequest":{"address":["tel:+221778631439"],"senderAddress":"tel:+221773387902","senderName":"ipps","outboundSMSTextMessage":{"message":"Chers cat\xc3\xa9chistes, vous \xc3\xaates convoqu\xc3\xa9s ce samedi 2 Octobre 2021 \xc3\xa0 10h pour la rentr\xc3\xa9e de la cat\xc3\xa9ch\xc3\xa8se.\\nCe sera l\'occasion pour faire le dispatching des classes et r\xc3\xa9pertorier le manque de livres du cat\xc3\xa9chiste.\\nNous finirons \xc3\xa0 13h au plus tard. Vue l\'importance de l\'ordre du jour votre pr\xc3\xa9sence est cruciale et obligatoire.\\nLe bureau"},"resourceURL":"https://api.orange.com/smsmessaging/v1/outbound/tel:+221773387902/requests/7dbd63df-abb6-4b3d-b061-cbb1fa00adf8"}}'
2021-10-01 14:18:24 | numéro : 778631439 | resultat envoi : b'{"outboundSMSMessageRequest":{"address":["tel:+221778631439"],"senderAddress":"tel:+221773387902","senderName":"ipps","outboundSMSTextMessage":{"message":"Chers cat\xc3\xa9chistes, vous \xc3\xaates convoqu\xc3\xa9s ce samedi 2 Octobre 2021 \xc3\xa0 10h pour la rentr\xc3\xa9e de la cat\xc3\xa9ch\xc3\xa8se.\\nCe sera l\'occasion pour faire le dispatching des classes et r\xc3\xa9pertorier le manque de livres du cat\xc3\xa9chiste.\\nNous finirons \xc3\xa0 13h au plus tard. Vue l\'importance de l\'ordre du jour votre pr\xc3\xa9sence est cruciale et obligatoire.\\nLe bureau"},"resourceURL":"https://api.orange.com/smsmessaging/v1/outbound/tel:+221773387902/requests/32045438-92b0-4054-b551-0d0bfb6c9cd4"}}'
2021-10-01 14:18:25 | numéro : 776423893 | resultat envoi : b'{"outboundSMSMessageRequest":{"address":["tel:+221776423893"],"senderAddress":"tel:+221773387902","senderName":"ipps","outboundSMSTextMessage":{"message":"Chers cat\xc3\xa9chistes, vous \xc3\xaates convoqu\xc3\xa9s ce samedi 2 Octobre 2021 \xc3\xa0 10h pour la rentr\xc3\xa9e de la cat\xc3\xa9ch\xc3\xa8se.\\nCe sera l\'occasion pour faire le dispatching des classes et r\xc3\xa9pertorier le manque de livres du cat\xc3\xa9chiste.\\nNous finirons \xc3\xa0 13h au plus tard. Vue l\'importance de l\'ordre du jour votre pr\xc3\xa9sence est cruciale et obligatoire.\\nLe bureau"},"resourceURL":"https://api.orange.com/smsmessaging/v1/outbound/tel:+221773387902/requests/9c1a133f-0cf2-41d8-b595-00dc27355621"}}'
2021-10-01 14:18:25 | numéro : 778186880 | resultat envoi : b'{"outboundSMSMessageRequest":{"address":["tel:+221778186880"],"senderAddress":"tel:+221773387902","senderName":"ipps","outboundSMSTextMessage":{"message":"Chers cat\xc3\xa9chistes, vous \xc3\xaates convoqu\xc3\xa9s ce samedi 2 Octobre 2021 \xc3\xa0 10h pour la rentr\xc3\xa9e de la cat\xc3\xa9ch\xc3\xa8se.\\nCe sera l\'occasion pour faire le dispatching des classes et r\xc3\xa9pertorier le manque de livres du cat\xc3\xa9chiste.\\nNous finirons \xc3\xa0 13h au plus tard. Vue l\'importance de l\'ordre du jour votre pr\xc3\xa9sence est cruciale et obligatoire.\\nLe bureau"},"resourceURL":"https://api.orange.com/smsmessaging/v1/outbound/tel:+221773387902/requests/ae59514b-d690-44fb-a3ae-8c3897e6f3e6"}}'
2021-10-01 14:18:25 | numéro : 774278168 | resultat envoi : b'{"outboundSMSMessageRequest":{"address":["tel:+221774278168"],"senderAddress":"tel:+221773387902","senderName":"ipps","outboundSMSTextMessage":{"message":"Chers cat\xc3\xa9chistes, vous \xc3\xaates convoqu\xc3\xa9s ce samedi 2 Octobre 2021 \xc3\xa0 10h pour la rentr\xc3\xa9e de la cat\xc3\xa9ch\xc3\xa8se.\\nCe sera l\'occasion pour faire le dispatching des classes et r\xc3\xa9pertorier le manque de livres du cat\xc3\xa9chiste.\\nNous finirons \xc3\xa0 13h au plus tard. Vue l\'importance de l\'ordre du jour votre pr\xc3\xa9sence est cruciale et obligatoire.\\nLe bureau"},"resourceURL":"https://api.orange.com/smsmessaging/v1/outbound/tel:+221773387902/requests/c7c2d3aa-ce2b-41dc-ac1c-d841c56a2f43"}}'
2021-10-01 14:18:26 | numéro : 775272339 | resultat envoi : b'{"outboundSMSMessageRequest":{"address":["tel:+221775272339"],"senderAddress":"tel:+221773387902","senderName":"ipps","outboundSMSTextMessage":{"message":"Chers cat\xc3\xa9chistes, vous \xc3\xaates convoqu\xc3\xa9s ce samedi 2 Octobre 2021 \xc3\xa0 10h pour la rentr\xc3\xa9e de la cat\xc3\xa9ch\xc3\xa8se.\\nCe sera l\'occasion pour faire le dispatching des classes et r\xc3\xa9pertorier le manque de livres du cat\xc3\xa9chiste.\\nNous finirons \xc3\xa0 13h au plus tard. Vue l\'importance de l\'ordre du jour votre pr\xc3\xa9sence est cruciale et obligatoire.\\nLe bureau"},"resourceURL":"https://api.orange.com/smsmessaging/v1/outbound/tel:+221773387902/requests/73cb06c3-ce7d-4f49-8842-3ccb7c1646ff"}}'
2021-10-01 14:18:26 | numéro : 775949406 | resultat envoi : b'{"outboundSMSMessageRequest":{"address":["tel:+221775949406"],"senderAddress":"tel:+221773387902","senderName":"ipps","outboundSMSTextMessage":{"message":"Chers cat\xc3\xa9chistes, vous \xc3\xaates convoqu\xc3\xa9s ce samedi 2 Octobre 2021 \xc3\xa0 10h pour la rentr\xc3\xa9e de la cat\xc3\xa9ch\xc3\xa8se.\\nCe sera l\'occasion pour faire le dispatching des classes et r\xc3\xa9pertorier le manque de livres du cat\xc3\xa9chiste.\\nNous finirons \xc3\xa0 13h au plus tard. Vue l\'importance de l\'ordre du jour votre pr\xc3\xa9sence est cruciale et obligatoire.\\nLe bureau"},"resourceURL":"https://api.orange.com/smsmessaging/v1/outbound/tel:+221773387902/requests/7da8ba9e-c77d-42e1-8b5d-6a6b2cf37e7f"}}'
2021-10-01 14:18:27 | numéro : 776533581 | resultat envoi : b'{"outboundSMSMessageRequest":{"address":["tel:+221776533581"],"senderAddress":"tel:+221773387902","senderName":"ipps","outboundSMSTextMessage":{"message":"Chers cat\xc3\xa9chistes, vous \xc3\xaates convoqu\xc3\xa9s ce samedi 2 Octobre 2021 \xc3\xa0 10h pour la rentr\xc3\xa9e de la cat\xc3\xa9ch\xc3\xa8se.\\nCe sera l\'occasion pour faire le dispatching des classes et r\xc3\xa9pertorier le manque de livres du cat\xc3\xa9chiste.\\nNous finirons \xc3\xa0 13h au plus tard. Vue l\'importance de l\'ordre du jour votre pr\xc3\xa9sence est cruciale et obligatoire.\\nLe bureau"},"resourceURL":"https://api.orange.com/smsmessaging/v1/outbound/tel:+221773387902/requests/bcfc7005-931a-4387-aef8-3036ee1a975a"}}'
2021-10-01 14:18:28 | numéro : 784237451 | resultat envoi : b'{"outboundSMSMessageRequest":{"address":["tel:+221784237451"],"senderAddress":"tel:+221773387902","senderName":"ipps","outboundSMSTextMessage":{"message":"Chers cat\xc3\xa9chistes, vous \xc3\xaates convoqu\xc3\xa9s ce samedi 2 Octobre 2021 \xc3\xa0 10h pour la rentr\xc3\xa9e de la cat\xc3\xa9ch\xc3\xa8se.\\nCe sera l\'occasion pour faire le dispatching des classes et r\xc3\xa9pertorier le manque de livres du cat\xc3\xa9chiste.\\nNous finirons \xc3\xa0 13h au plus tard. Vue l\'importance de l\'ordre du jour votre pr\xc3\xa9sence est cruciale et obligatoire.\\nLe bureau"},"resourceURL":"https://api.orange.com/smsmessaging/v1/outbound/tel:+221773387902/requests/79403cdb-d1f8-4633-87ca-76c768e468ff"}}'
2021-10-01 14:18:28 | numéro : 774561255 | resultat envoi : b'{"outboundSMSMessageRequest":{"address":["tel:+221774561255"],"senderAddress":"tel:+221773387902","senderName":"ipps","outboundSMSTextMessage":{"message":"Chers cat\xc3\xa9chistes, vous \xc3\xaates convoqu\xc3\xa9s ce samedi 2 Octobre 2021 \xc3\xa0 10h pour la rentr\xc3\xa9e de la cat\xc3\xa9ch\xc3\xa8se.\\nCe sera l\'occasion pour faire le dispatching des classes et r\xc3\xa9pertorier le manque de livres du cat\xc3\xa9chiste.\\nNous finirons \xc3\xa0 13h au plus tard. Vue l\'importance de l\'ordre du jour votre pr\xc3\xa9sence est cruciale et obligatoire.\\nLe bureau"},"resourceURL":"https://api.orange.com/smsmessaging/v1/outbound/tel:+221773387902/requests/fa203ef8-d190-46d6-9a77-5caed56ecf7c"}}'
2021-10-01 14:18:28 | numéro : 776593275 | resultat envoi : b'{"outboundSMSMessageRequest":{"address":["tel:+221776593275"],"senderAddress":"tel:+221773387902","senderName":"ipps","outboundSMSTextMessage":{"message":"Chers cat\xc3\xa9chistes, vous \xc3\xaates convoqu\xc3\xa9s ce samedi 2 Octobre 2021 \xc3\xa0 10h pour la rentr\xc3\xa9e de la cat\xc3\xa9ch\xc3\xa8se.\\nCe sera l\'occasion pour faire le dispatching des classes et r\xc3\xa9pertorier le manque de livres du cat\xc3\xa9chiste.\\nNous finirons \xc3\xa0 13h au plus tard. Vue l\'importance de l\'ordre du jour votre pr\xc3\xa9sence est cruciale et obligatoire.\\nLe bureau"},"resourceURL":"https://api.orange.com/smsmessaging/v1/outbound/tel:+221773387902/requests/8b50c975-90e2-4f34-b537-c4d914578b55"}}'
2021-10-01 14:18:28 | numéro : 765005555 | resultat envoi : b'{"outboundSMSMessageRequest":{"address":["tel:+221765005555"],"senderAddress":"tel:+221773387902","senderName":"ipps","outboundSMSTextMessage":{"message":"Chers cat\xc3\xa9chistes, vous \xc3\xaates convoqu\xc3\xa9s ce samedi 2 Octobre 2021 \xc3\xa0 10h pour la rentr\xc3\xa9e de la cat\xc3\xa9ch\xc3\xa8se.\\nCe sera l\'occasion pour faire le dispatching des classes et r\xc3\xa9pertorier le manque de livres du cat\xc3\xa9chiste.\\nNous finirons \xc3\xa0 13h au plus tard. Vue l\'importance de l\'ordre du jour votre pr\xc3\xa9sence est cruciale et obligatoire.\\nLe bureau"},"resourceURL":"https://api.orange.com/smsmessaging/v1/outbound/tel:+221773387902/requests/20205638-1a9c-412d-824b-d6c32481417e"}}'
2021-10-01 14:18:28 | balance 671 | fin envoi
