2021-05-12 17:23:51 | balance 59 | debut envoi
2021-05-12 17:23:51 | numéro : 771490977 | resultat envoi : b'{"outboundSMSMessageRequest":{"address":["tel:+221771490977"],"senderAddress":"tel:+221773387902","senderName":"ipps","outboundSMSTextMessage":{"message":"Chers parents,\\nne pas oublier le repas froid pour votre enfant, pour la r\xc3\xa9collection. \\nLe Bureau de la Cat\xc3\xa9ch\xc3\xa8se"},"resourceURL":"https://api.orange.com/smsmessaging/v1/outbound/tel:+221773387902/requests/2fbee4be-a40b-4f74-99ce-fc27b5f1ab7e"}}'
2021-05-12 17:23:51 | numéro : 771661816 | resultat envoi : b'{"outboundSMSMessageRequest":{"address":["tel:+221771661816"],"senderAddress":"tel:+221773387902","senderName":"ipps","outboundSMSTextMessage":{"message":"Chers parents,\\nne pas oublier le repas froid pour votre enfant, pour la r\xc3\xa9collection. \\nLe Bureau de la Cat\xc3\xa9ch\xc3\xa8se"},"resourceURL":"https://api.orange.com/smsmessaging/v1/outbound/tel:+221773387902/requests/f4b1913f-647f-478a-80ba-e0b83749bd39"}}'
2021-05-12 17:23:51 | numéro : 776499719 | resultat envoi : b'{"outboundSMSMessageRequest":{"address":["tel:+221776499719"],"senderAddress":"tel:+221773387902","senderName":"ipps","outboundSMSTextMessage":{"message":"Chers parents,\\nne pas oublier le repas froid pour votre enfant, pour la r\xc3\xa9collection. \\nLe Bureau de la Cat\xc3\xa9ch\xc3\xa8se"},"resourceURL":"https://api.orange.com/smsmessaging/v1/outbound/tel:+221773387902/requests/6b94d3cd-23f1-4041-bd08-9c69a46f33d7"}}'
2021-05-12 17:23:52 | numéro : 779242942 | resultat envoi : b'{"outboundSMSMessageRequest":{"address":["tel:+221779242942"],"senderAddress":"tel:+221773387902","senderName":"ipps","outboundSMSTextMessage":{"message":"Chers parents,\\nne pas oublier le repas froid pour votre enfant, pour la r\xc3\xa9collection. \\nLe Bureau de la Cat\xc3\xa9ch\xc3\xa8se"},"resourceURL":"https://api.orange.com/smsmessaging/v1/outbound/tel:+221773387902/requests/79ca9637-2627-4e60-8c43-8867f496a5e1"}}'
2021-05-12 17:23:52 | numéro : 773796203 | resultat envoi : b'{"outboundSMSMessageRequest":{"address":["tel:+221773796203"],"senderAddress":"tel:+221773387902","senderName":"ipps","outboundSMSTextMessage":{"message":"Chers parents,\\nne pas oublier le repas froid pour votre enfant, pour la r\xc3\xa9collection. \\nLe Bureau de la Cat\xc3\xa9ch\xc3\xa8se"},"resourceURL":"https://api.orange.com/smsmessaging/v1/outbound/tel:+221773387902/requests/e1d590d6-014a-459e-b1dc-d2bf266e2099"}}'
2021-05-12 17:23:52 | numéro : 772753360 | resultat envoi : b'{"outboundSMSMessageRequest":{"address":["tel:+221772753360"],"senderAddress":"tel:+221773387902","senderName":"ipps","outboundSMSTextMessage":{"message":"Chers parents,\\nne pas oublier le repas froid pour votre enfant, pour la r\xc3\xa9collection. \\nLe Bureau de la Cat\xc3\xa9ch\xc3\xa8se"},"resourceURL":"https://api.orange.com/smsmessaging/v1/outbound/tel:+221773387902/requests/2554aefa-8c28-41db-8fa2-938ce9b0713d"}}'
2021-05-12 17:23:53 | numéro : 778942582 | resultat envoi : b'{"outboundSMSMessageRequest":{"address":["tel:+221778942582"],"senderAddress":"tel:+221773387902","senderName":"ipps","outboundSMSTextMessage":{"message":"Chers parents,\\nne pas oublier le repas froid pour votre enfant, pour la r\xc3\xa9collection. \\nLe Bureau de la Cat\xc3\xa9ch\xc3\xa8se"},"resourceURL":"https://api.orange.com/smsmessaging/v1/outbound/tel:+221773387902/requests/7775ff51-b6dd-4b7c-b36c-caccbeb000ed"}}'
2021-05-12 17:23:53 | numéro : 775653895 | resultat envoi : b'{"outboundSMSMessageRequest":{"address":["tel:+221775653895"],"senderAddress":"tel:+221773387902","senderName":"ipps","outboundSMSTextMessage":{"message":"Chers parents,\\nne pas oublier le repas froid pour votre enfant, pour la r\xc3\xa9collection. \\nLe Bureau de la Cat\xc3\xa9ch\xc3\xa8se"},"resourceURL":"https://api.orange.com/smsmessaging/v1/outbound/tel:+221773387902/requests/7e9c1ee1-2c1d-4f26-bdea-f430a1ce0db2"}}'
2021-05-12 17:23:53 | numéro : 777931080 | resultat envoi : b'{"outboundSMSMessageRequest":{"address":["tel:+221777931080"],"senderAddress":"tel:+221773387902","senderName":"ipps","outboundSMSTextMessage":{"message":"Chers parents,\\nne pas oublier le repas froid pour votre enfant, pour la r\xc3\xa9collection. \\nLe Bureau de la Cat\xc3\xa9ch\xc3\xa8se"},"resourceURL":"https://api.orange.com/smsmessaging/v1/outbound/tel:+221773387902/requests/667a2a92-64de-4501-9f0a-7bd6e2d887b5"}}'
2021-05-12 17:23:54 | numéro : 774782486 | resultat envoi : b'{"outboundSMSMessageRequest":{"address":["tel:+221774782486"],"senderAddress":"tel:+221773387902","senderName":"ipps","outboundSMSTextMessage":{"message":"Chers parents,\\nne pas oublier le repas froid pour votre enfant, pour la r\xc3\xa9collection. \\nLe Bureau de la Cat\xc3\xa9ch\xc3\xa8se"},"resourceURL":"https://api.orange.com/smsmessaging/v1/outbound/tel:+221773387902/requests/1d320f2e-e697-4738-bbb2-ba9b40e418b5"}}'
2021-05-12 17:23:54 | numéro : 776587031 | resultat envoi : b'{"outboundSMSMessageRequest":{"address":["tel:+221776587031"],"senderAddress":"tel:+221773387902","senderName":"ipps","outboundSMSTextMessage":{"message":"Chers parents,\\nne pas oublier le repas froid pour votre enfant, pour la r\xc3\xa9collection. \\nLe Bureau de la Cat\xc3\xa9ch\xc3\xa8se"},"resourceURL":"https://api.orange.com/smsmessaging/v1/outbound/tel:+221773387902/requests/d7e18cf2-03e4-4d1f-a852-fc27e1b87694"}}'
2021-05-12 17:23:54 | numéro : 775963859 | resultat envoi : b'{"outboundSMSMessageRequest":{"address":["tel:+221775963859"],"senderAddress":"tel:+221773387902","senderName":"ipps","outboundSMSTextMessage":{"message":"Chers parents,\\nne pas oublier le repas froid pour votre enfant, pour la r\xc3\xa9collection. \\nLe Bureau de la Cat\xc3\xa9ch\xc3\xa8se"},"resourceURL":"https://api.orange.com/smsmessaging/v1/outbound/tel:+221773387902/requests/823fe3e0-5f54-432d-844c-a77bbec462b9"}}'
2021-05-12 17:23:55 | numéro : 781455015 | resultat envoi : b'{"outboundSMSMessageRequest":{"address":["tel:+221781455015"],"senderAddress":"tel:+221773387902","senderName":"ipps","outboundSMSTextMessage":{"message":"Chers parents,\\nne pas oublier le repas froid pour votre enfant, pour la r\xc3\xa9collection. \\nLe Bureau de la Cat\xc3\xa9ch\xc3\xa8se"},"resourceURL":"https://api.orange.com/smsmessaging/v1/outbound/tel:+221773387902/requests/a9d96dea-e8bf-40b7-8d83-13c3301cbe3a"}}'
2021-05-12 17:23:55 | numéro : 781785100 | resultat envoi : b'{"outboundSMSMessageRequest":{"address":["tel:+221781785100"],"senderAddress":"tel:+221773387902","senderName":"ipps","outboundSMSTextMessage":{"message":"Chers parents,\\nne pas oublier le repas froid pour votre enfant, pour la r\xc3\xa9collection. \\nLe Bureau de la Cat\xc3\xa9ch\xc3\xa8se"},"resourceURL":"https://api.orange.com/smsmessaging/v1/outbound/tel:+221773387902/requests/edb1e316-3630-4d4b-bd6c-f047d333ce5a"}}'
2021-05-12 17:23:55 | numéro : 775484330 | resultat envoi : b'{"outboundSMSMessageRequest":{"address":["tel:+221775484330"],"senderAddress":"tel:+221773387902","senderName":"ipps","outboundSMSTextMessage":{"message":"Chers parents,\\nne pas oublier le repas froid pour votre enfant, pour la r\xc3\xa9collection. \\nLe Bureau de la Cat\xc3\xa9ch\xc3\xa8se"},"resourceURL":"https://api.orange.com/smsmessaging/v1/outbound/tel:+221773387902/requests/dbafbe9c-6f50-4e1a-b815-3f91419e0007"}}'
2021-05-12 17:23:56 | numéro : 771332447 | resultat envoi : b'{"outboundSMSMessageRequest":{"address":["tel:+221771332447"],"senderAddress":"tel:+221773387902","senderName":"ipps","outboundSMSTextMessage":{"message":"Chers parents,\\nne pas oublier le repas froid pour votre enfant, pour la r\xc3\xa9collection. \\nLe Bureau de la Cat\xc3\xa9ch\xc3\xa8se"},"resourceURL":"https://api.orange.com/smsmessaging/v1/outbound/tel:+221773387902/requests/6e7a3abb-14c7-4d3d-8215-1f203a04fb98"}}'
2021-05-12 17:23:56 | numéro : 773353028 | resultat envoi : b'{"outboundSMSMessageRequest":{"address":["tel:+221773353028"],"senderAddress":"tel:+221773387902","senderName":"ipps","outboundSMSTextMessage":{"message":"Chers parents,\\nne pas oublier le repas froid pour votre enfant, pour la r\xc3\xa9collection. \\nLe Bureau de la Cat\xc3\xa9ch\xc3\xa8se"},"resourceURL":"https://api.orange.com/smsmessaging/v1/outbound/tel:+221773387902/requests/1f87ddb8-47a7-4a0e-a3d1-df5ff5f3569f"}}'
2021-05-12 17:23:56 | numéro : 772361598 | resultat envoi : b'{"outboundSMSMessageRequest":{"address":["tel:+221772361598"],"senderAddress":"tel:+221773387902","senderName":"ipps","outboundSMSTextMessage":{"message":"Chers parents,\\nne pas oublier le repas froid pour votre enfant, pour la r\xc3\xa9collection. \\nLe Bureau de la Cat\xc3\xa9ch\xc3\xa8se"},"resourceURL":"https://api.orange.com/smsmessaging/v1/outbound/tel:+221773387902/requests/b73b9e72-e21e-452f-83c2-e12f85d06f5f"}}'
2021-05-12 17:23:56 | numéro : 775764412 | resultat envoi : b'{"outboundSMSMessageRequest":{"address":["tel:+221775764412"],"senderAddress":"tel:+221773387902","senderName":"ipps","outboundSMSTextMessage":{"message":"Chers parents,\\nne pas oublier le repas froid pour votre enfant, pour la r\xc3\xa9collection. \\nLe Bureau de la Cat\xc3\xa9ch\xc3\xa8se"},"resourceURL":"https://api.orange.com/smsmessaging/v1/outbound/tel:+221773387902/requests/77db9255-cdba-42be-875e-1667a95b4268"}}'
2021-05-12 17:23:57 | numéro : 776513054 | resultat envoi : b'{"outboundSMSMessageRequest":{"address":["tel:+221776513054"],"senderAddress":"tel:+221773387902","senderName":"ipps","outboundSMSTextMessage":{"message":"Chers parents,\\nne pas oublier le repas froid pour votre enfant, pour la r\xc3\xa9collection. \\nLe Bureau de la Cat\xc3\xa9ch\xc3\xa8se"},"resourceURL":"https://api.orange.com/smsmessaging/v1/outbound/tel:+221773387902/requests/0727d188-8646-434f-a5db-f702f5718035"}}'
2021-05-12 17:23:57 | numéro : 783361123 | resultat envoi : b'{"outboundSMSMessageRequest":{"address":["tel:+221783361123"],"senderAddress":"tel:+221773387902","senderName":"ipps","outboundSMSTextMessage":{"message":"Chers parents,\\nne pas oublier le repas froid pour votre enfant, pour la r\xc3\xa9collection. \\nLe Bureau de la Cat\xc3\xa9ch\xc3\xa8se"},"resourceURL":"https://api.orange.com/smsmessaging/v1/outbound/tel:+221773387902/requests/9a8c30b8-0d9e-43f7-ada9-8f170e97db37"}}'
2021-05-12 17:23:57 | numéro : 777199496 | resultat envoi : b'{"outboundSMSMessageRequest":{"address":["tel:+221777199496"],"senderAddress":"tel:+221773387902","senderName":"ipps","outboundSMSTextMessage":{"message":"Chers parents,\\nne pas oublier le repas froid pour votre enfant, pour la r\xc3\xa9collection. \\nLe Bureau de la Cat\xc3\xa9ch\xc3\xa8se"},"resourceURL":"https://api.orange.com/smsmessaging/v1/outbound/tel:+221773387902/requests/8cd7e3b8-7603-4a37-af2a-84694c1fce94"}}'
2021-05-12 17:23:57 | numéro : 773260947 | resultat envoi : b'{"outboundSMSMessageRequest":{"address":["tel:+221773260947"],"senderAddress":"tel:+221773387902","senderName":"ipps","outboundSMSTextMessage":{"message":"Chers parents,\\nne pas oublier le repas froid pour votre enfant, pour la r\xc3\xa9collection. \\nLe Bureau de la Cat\xc3\xa9ch\xc3\xa8se"},"resourceURL":"https://api.orange.com/smsmessaging/v1/outbound/tel:+221773387902/requests/e3db201b-a2ba-4b1b-acf5-60e1b36e7717"}}'
2021-05-12 17:23:58 | numéro : 774581844 | resultat envoi : b'{"outboundSMSMessageRequest":{"address":["tel:+221774581844"],"senderAddress":"tel:+221773387902","senderName":"ipps","outboundSMSTextMessage":{"message":"Chers parents,\\nne pas oublier le repas froid pour votre enfant, pour la r\xc3\xa9collection. \\nLe Bureau de la Cat\xc3\xa9ch\xc3\xa8se"},"resourceURL":"https://api.orange.com/smsmessaging/v1/outbound/tel:+221773387902/requests/5c8c7c4c-b51e-4ba0-9163-51deebbee243"}}'
2021-05-12 17:23:58 | numéro : 775522148 | resultat envoi : b'{"outboundSMSMessageRequest":{"address":["tel:+221775522148"],"senderAddress":"tel:+221773387902","senderName":"ipps","outboundSMSTextMessage":{"message":"Chers parents,\\nne pas oublier le repas froid pour votre enfant, pour la r\xc3\xa9collection. \\nLe Bureau de la Cat\xc3\xa9ch\xc3\xa8se"},"resourceURL":"https://api.orange.com/smsmessaging/v1/outbound/tel:+221773387902/requests/5d462ddb-5631-4a36-858d-97c5e1e26241"}}'
2021-05-12 17:23:59 | numéro : 772932492 | resultat envoi : b'{"outboundSMSMessageRequest":{"address":["tel:+221772932492"],"senderAddress":"tel:+221773387902","senderName":"ipps","outboundSMSTextMessage":{"message":"Chers parents,\\nne pas oublier le repas froid pour votre enfant, pour la r\xc3\xa9collection. \\nLe Bureau de la Cat\xc3\xa9ch\xc3\xa8se"},"resourceURL":"https://api.orange.com/smsmessaging/v1/outbound/tel:+221773387902/requests/9112c1fc-8fae-456d-859a-bf6acb33c8a0"}}'
2021-05-12 17:23:59 | numéro : 772931538 | resultat envoi : b'{"outboundSMSMessageRequest":{"address":["tel:+221772931538"],"senderAddress":"tel:+221773387902","senderName":"ipps","outboundSMSTextMessage":{"message":"Chers parents,\\nne pas oublier le repas froid pour votre enfant, pour la r\xc3\xa9collection. \\nLe Bureau de la Cat\xc3\xa9ch\xc3\xa8se"},"resourceURL":"https://api.orange.com/smsmessaging/v1/outbound/tel:+221773387902/requests/3992c877-5b82-491d-acb9-0c512ecf2568"}}'
2021-05-12 17:23:59 | numéro : 776130535 | resultat envoi : b'{"outboundSMSMessageRequest":{"address":["tel:+221776130535"],"senderAddress":"tel:+221773387902","senderName":"ipps","outboundSMSTextMessage":{"message":"Chers parents,\\nne pas oublier le repas froid pour votre enfant, pour la r\xc3\xa9collection. \\nLe Bureau de la Cat\xc3\xa9ch\xc3\xa8se"},"resourceURL":"https://api.orange.com/smsmessaging/v1/outbound/tel:+221773387902/requests/c5aebfd3-f982-4ea1-a717-c535b838de30"}}'
2021-05-12 17:23:59 | numéro : 771732310 | resultat envoi : b'{"outboundSMSMessageRequest":{"address":["tel:+221771732310"],"senderAddress":"tel:+221773387902","senderName":"ipps","outboundSMSTextMessage":{"message":"Chers parents,\\nne pas oublier le repas froid pour votre enfant, pour la r\xc3\xa9collection. \\nLe Bureau de la Cat\xc3\xa9ch\xc3\xa8se"},"resourceURL":"https://api.orange.com/smsmessaging/v1/outbound/tel:+221773387902/requests/edf1d575-5916-4099-b35f-8e219ee528e7"}}'
2021-05-12 17:24:00 | numéro : 776457989 | resultat envoi : b'{"outboundSMSMessageRequest":{"address":["tel:+221776457989"],"senderAddress":"tel:+221773387902","senderName":"ipps","outboundSMSTextMessage":{"message":"Chers parents,\\nne pas oublier le repas froid pour votre enfant, pour la r\xc3\xa9collection. \\nLe Bureau de la Cat\xc3\xa9ch\xc3\xa8se"},"resourceURL":"https://api.orange.com/smsmessaging/v1/outbound/tel:+221773387902/requests/e1eb745f-38a6-4d77-9a08-2fc39fa9d204"}}'
2021-05-12 17:24:00 | numéro : 775428173 | resultat envoi : b'{"outboundSMSMessageRequest":{"address":["tel:+221775428173"],"senderAddress":"tel:+221773387902","senderName":"ipps","outboundSMSTextMessage":{"message":"Chers parents,\\nne pas oublier le repas froid pour votre enfant, pour la r\xc3\xa9collection. \\nLe Bureau de la Cat\xc3\xa9ch\xc3\xa8se"},"resourceURL":"https://api.orange.com/smsmessaging/v1/outbound/tel:+221773387902/requests/1fdfa56d-bb52-4ba8-b2ce-1cd3cb05c31b"}}'
2021-05-12 17:24:00 | numéro : 781440170 | resultat envoi : b'{"outboundSMSMessageRequest":{"address":["tel:+221781440170"],"senderAddress":"tel:+221773387902","senderName":"ipps","outboundSMSTextMessage":{"message":"Chers parents,\\nne pas oublier le repas froid pour votre enfant, pour la r\xc3\xa9collection. \\nLe Bureau de la Cat\xc3\xa9ch\xc3\xa8se"},"resourceURL":"https://api.orange.com/smsmessaging/v1/outbound/tel:+221773387902/requests/8d297949-61e6-4838-82bc-5522ef3db410"}}'
2021-05-12 17:24:01 | numéro : 774501240 | resultat envoi : b'{"outboundSMSMessageRequest":{"address":["tel:+221774501240"],"senderAddress":"tel:+221773387902","senderName":"ipps","outboundSMSTextMessage":{"message":"Chers parents,\\nne pas oublier le repas froid pour votre enfant, pour la r\xc3\xa9collection. \\nLe Bureau de la Cat\xc3\xa9ch\xc3\xa8se"},"resourceURL":"https://api.orange.com/smsmessaging/v1/outbound/tel:+221773387902/requests/b1081e82-9b99-46bd-8611-ecdf21b0f173"}}'
2021-05-12 17:24:01 | numéro : 779430351 | resultat envoi : b'{"outboundSMSMessageRequest":{"address":["tel:+221779430351"],"senderAddress":"tel:+221773387902","senderName":"ipps","outboundSMSTextMessage":{"message":"Chers parents,\\nne pas oublier le repas froid pour votre enfant, pour la r\xc3\xa9collection. \\nLe Bureau de la Cat\xc3\xa9ch\xc3\xa8se"},"resourceURL":"https://api.orange.com/smsmessaging/v1/outbound/tel:+221773387902/requests/60589ef9-5e38-4115-be28-cd006360c99e"}}'
2021-05-12 17:24:01 | numéro : 776477735 | resultat envoi : b'{"outboundSMSMessageRequest":{"address":["tel:+221776477735"],"senderAddress":"tel:+221773387902","senderName":"ipps","outboundSMSTextMessage":{"message":"Chers parents,\\nne pas oublier le repas froid pour votre enfant, pour la r\xc3\xa9collection. \\nLe Bureau de la Cat\xc3\xa9ch\xc3\xa8se"},"resourceURL":"https://api.orange.com/smsmessaging/v1/outbound/tel:+221773387902/requests/2cd3ba5c-fe68-40a1-8e5a-b5430c51fe98"}}'
2021-05-12 17:24:01 | numéro : 775409935 | resultat envoi : b'{"outboundSMSMessageRequest":{"address":["tel:+221775409935"],"senderAddress":"tel:+221773387902","senderName":"ipps","outboundSMSTextMessage":{"message":"Chers parents,\\nne pas oublier le repas froid pour votre enfant, pour la r\xc3\xa9collection. \\nLe Bureau de la Cat\xc3\xa9ch\xc3\xa8se"},"resourceURL":"https://api.orange.com/smsmessaging/v1/outbound/tel:+221773387902/requests/6251c491-9c83-47d7-8f95-a62780d852f2"}}'
2021-05-12 17:24:02 | numéro : 778033346 | resultat envoi : b'{"outboundSMSMessageRequest":{"address":["tel:+221778033346"],"senderAddress":"tel:+221773387902","senderName":"ipps","outboundSMSTextMessage":{"message":"Chers parents,\\nne pas oublier le repas froid pour votre enfant, pour la r\xc3\xa9collection. \\nLe Bureau de la Cat\xc3\xa9ch\xc3\xa8se"},"resourceURL":"https://api.orange.com/smsmessaging/v1/outbound/tel:+221773387902/requests/9e9a201b-b741-4e39-bc66-e1eed95c3df6"}}'
2021-05-12 17:24:02 | numéro : 772000618 | resultat envoi : b'{"outboundSMSMessageRequest":{"address":["tel:+221772000618"],"senderAddress":"tel:+221773387902","senderName":"ipps","outboundSMSTextMessage":{"message":"Chers parents,\\nne pas oublier le repas froid pour votre enfant, pour la r\xc3\xa9collection. \\nLe Bureau de la Cat\xc3\xa9ch\xc3\xa8se"},"resourceURL":"https://api.orange.com/smsmessaging/v1/outbound/tel:+221773387902/requests/6b0da5d0-42db-4212-a7d0-39ccc7ac4c3d"}}'
2021-05-12 17:24:03 | numéro : 775212029 | resultat envoi : b'{"outboundSMSMessageRequest":{"address":["tel:+221775212029"],"senderAddress":"tel:+221773387902","senderName":"ipps","outboundSMSTextMessage":{"message":"Chers parents,\\nne pas oublier le repas froid pour votre enfant, pour la r\xc3\xa9collection. \\nLe Bureau de la Cat\xc3\xa9ch\xc3\xa8se"},"resourceURL":"https://api.orange.com/smsmessaging/v1/outbound/tel:+221773387902/requests/43bdfc24-a8a9-413e-b329-39a772dd4e95"}}'
2021-05-12 17:24:03 | numéro : 777133003 | resultat envoi : b'{"outboundSMSMessageRequest":{"address":["tel:+221777133003"],"senderAddress":"tel:+221773387902","senderName":"ipps","outboundSMSTextMessage":{"message":"Chers parents,\\nne pas oublier le repas froid pour votre enfant, pour la r\xc3\xa9collection. \\nLe Bureau de la Cat\xc3\xa9ch\xc3\xa8se"},"resourceURL":"https://api.orange.com/smsmessaging/v1/outbound/tel:+221773387902/requests/f7a54c8f-ed8d-4d6b-bebd-1f2000862307"}}'
2021-05-12 17:24:03 | numéro : 775116324 | resultat envoi : b'{"outboundSMSMessageRequest":{"address":["tel:+221775116324"],"senderAddress":"tel:+221773387902","senderName":"ipps","outboundSMSTextMessage":{"message":"Chers parents,\\nne pas oublier le repas froid pour votre enfant, pour la r\xc3\xa9collection. \\nLe Bureau de la Cat\xc3\xa9ch\xc3\xa8se"},"resourceURL":"https://api.orange.com/smsmessaging/v1/outbound/tel:+221773387902/requests/30967cc4-7ca2-4708-8705-68efea099960"}}'
2021-05-12 17:24:04 | numéro : 776458971 | resultat envoi : b'{"outboundSMSMessageRequest":{"address":["tel:+221776458971"],"senderAddress":"tel:+221773387902","senderName":"ipps","outboundSMSTextMessage":{"message":"Chers parents,\\nne pas oublier le repas froid pour votre enfant, pour la r\xc3\xa9collection. \\nLe Bureau de la Cat\xc3\xa9ch\xc3\xa8se"},"resourceURL":"https://api.orange.com/smsmessaging/v1/outbound/tel:+221773387902/requests/258ff126-c89b-47ef-974a-331df1de55a8"}}'
2021-05-12 17:24:04 | numéro : 775313888 | resultat envoi : b'{"outboundSMSMessageRequest":{"address":["tel:+221775313888"],"senderAddress":"tel:+221773387902","senderName":"ipps","outboundSMSTextMessage":{"message":"Chers parents,\\nne pas oublier le repas froid pour votre enfant, pour la r\xc3\xa9collection. \\nLe Bureau de la Cat\xc3\xa9ch\xc3\xa8se"},"resourceURL":"https://api.orange.com/smsmessaging/v1/outbound/tel:+221773387902/requests/8b984b64-fde3-4225-b53a-1278590daf79"}}'
2021-05-12 17:24:04 | numéro : 772754360 | resultat envoi : b'{"outboundSMSMessageRequest":{"address":["tel:+221772754360"],"senderAddress":"tel:+221773387902","senderName":"ipps","outboundSMSTextMessage":{"message":"Chers parents,\\nne pas oublier le repas froid pour votre enfant, pour la r\xc3\xa9collection. \\nLe Bureau de la Cat\xc3\xa9ch\xc3\xa8se"},"resourceURL":"https://api.orange.com/smsmessaging/v1/outbound/tel:+221773387902/requests/d78dbf9a-c90d-445d-870c-3cd23a967ec1"}}'
2021-05-12 17:24:05 | numéro : 774133658 | resultat envoi : b'{"outboundSMSMessageRequest":{"address":["tel:+221774133658"],"senderAddress":"tel:+221773387902","senderName":"ipps","outboundSMSTextMessage":{"message":"Chers parents,\\nne pas oublier le repas froid pour votre enfant, pour la r\xc3\xa9collection. \\nLe Bureau de la Cat\xc3\xa9ch\xc3\xa8se"},"resourceURL":"https://api.orange.com/smsmessaging/v1/outbound/tel:+221773387902/requests/b19e017a-4b08-4114-a824-96c9290e1589"}}'
2021-05-12 17:24:05 | numéro : 779325273 | resultat envoi : b'{"outboundSMSMessageRequest":{"address":["tel:+221779325273"],"senderAddress":"tel:+221773387902","senderName":"ipps","outboundSMSTextMessage":{"message":"Chers parents,\\nne pas oublier le repas froid pour votre enfant, pour la r\xc3\xa9collection. \\nLe Bureau de la Cat\xc3\xa9ch\xc3\xa8se"},"resourceURL":"https://api.orange.com/smsmessaging/v1/outbound/tel:+221773387902/requests/b1cfe36b-f336-4787-b535-2b830bec4652"}}'
2021-05-12 17:24:05 | numéro : 776556519 | resultat envoi : b'{"outboundSMSMessageRequest":{"address":["tel:+221776556519"],"senderAddress":"tel:+221773387902","senderName":"ipps","outboundSMSTextMessage":{"message":"Chers parents,\\nne pas oublier le repas froid pour votre enfant, pour la r\xc3\xa9collection. \\nLe Bureau de la Cat\xc3\xa9ch\xc3\xa8se"},"resourceURL":"https://api.orange.com/smsmessaging/v1/outbound/tel:+221773387902/requests/6d21726e-0cf9-4680-9df5-e1865854870c"}}'
2021-05-12 17:24:06 | numéro : 774287075 | resultat envoi : b'{"outboundSMSMessageRequest":{"address":["tel:+221774287075"],"senderAddress":"tel:+221773387902","senderName":"ipps","outboundSMSTextMessage":{"message":"Chers parents,\\nne pas oublier le repas froid pour votre enfant, pour la r\xc3\xa9collection. \\nLe Bureau de la Cat\xc3\xa9ch\xc3\xa8se"},"resourceURL":"https://api.orange.com/smsmessaging/v1/outbound/tel:+221773387902/requests/92994267-5e90-4f39-a3bf-a46e975b8b2b"}}'
2021-05-12 17:24:06 | numéro : 775647216 | resultat envoi : b'{"outboundSMSMessageRequest":{"address":["tel:+221775647216"],"senderAddress":"tel:+221773387902","senderName":"ipps","outboundSMSTextMessage":{"message":"Chers parents,\\nne pas oublier le repas froid pour votre enfant, pour la r\xc3\xa9collection. \\nLe Bureau de la Cat\xc3\xa9ch\xc3\xa8se"},"resourceURL":"https://api.orange.com/smsmessaging/v1/outbound/tel:+221773387902/requests/1845ec07-dd77-4a8b-b2b3-8bea9919afc0"}}'
2021-05-12 17:24:06 | numéro : 777133603 | resultat envoi : b'{"outboundSMSMessageRequest":{"address":["tel:+221777133603"],"senderAddress":"tel:+221773387902","senderName":"ipps","outboundSMSTextMessage":{"message":"Chers parents,\\nne pas oublier le repas froid pour votre enfant, pour la r\xc3\xa9collection. \\nLe Bureau de la Cat\xc3\xa9ch\xc3\xa8se"},"resourceURL":"https://api.orange.com/smsmessaging/v1/outbound/tel:+221773387902/requests/8e33a21c-d4b8-4d46-8441-b8fb380ae7e8"}}'
2021-05-12 17:24:06 | numéro : 777931493 | resultat envoi : b'{"outboundSMSMessageRequest":{"address":["tel:+221777931493"],"senderAddress":"tel:+221773387902","senderName":"ipps","outboundSMSTextMessage":{"message":"Chers parents,\\nne pas oublier le repas froid pour votre enfant, pour la r\xc3\xa9collection. \\nLe Bureau de la Cat\xc3\xa9ch\xc3\xa8se"},"resourceURL":"https://api.orange.com/smsmessaging/v1/outbound/tel:+221773387902/requests/10845d71-1a7a-4af2-ae62-36c83886eaa4"}}'
2021-05-12 17:24:07 | numéro : 778170857 | resultat envoi : b'{"outboundSMSMessageRequest":{"address":["tel:+221778170857"],"senderAddress":"tel:+221773387902","senderName":"ipps","outboundSMSTextMessage":{"message":"Chers parents,\\nne pas oublier le repas froid pour votre enfant, pour la r\xc3\xa9collection. \\nLe Bureau de la Cat\xc3\xa9ch\xc3\xa8se"},"resourceURL":"https://api.orange.com/smsmessaging/v1/outbound/tel:+221773387902/requests/7663dd8c-1764-452d-87d8-16623789d377"}}'
2021-05-12 17:24:07 | numéro : 778590854 | resultat envoi : b'{"outboundSMSMessageRequest":{"address":["tel:+221778590854"],"senderAddress":"tel:+221773387902","senderName":"ipps","outboundSMSTextMessage":{"message":"Chers parents,\\nne pas oublier le repas froid pour votre enfant, pour la r\xc3\xa9collection. \\nLe Bureau de la Cat\xc3\xa9ch\xc3\xa8se"},"resourceURL":"https://api.orange.com/smsmessaging/v1/outbound/tel:+221773387902/requests/3f16c15e-9d1c-4b88-8194-28dd85b9519f"}}'
2021-05-12 17:24:08 | numéro : 782916195 | resultat envoi : b'{"outboundSMSMessageRequest":{"address":["tel:+221782916195"],"senderAddress":"tel:+221773387902","senderName":"ipps","outboundSMSTextMessage":{"message":"Chers parents,\\nne pas oublier le repas froid pour votre enfant, pour la r\xc3\xa9collection. \\nLe Bureau de la Cat\xc3\xa9ch\xc3\xa8se"},"resourceURL":"https://api.orange.com/smsmessaging/v1/outbound/tel:+221773387902/requests/4e3e470a-82f7-40da-b69b-6575f45edbbe"}}'
2021-05-12 17:24:09 | numéro : 773387902 | resultat envoi : b'{"outboundSMSMessageRequest":{"address":["tel:+221773387902"],"senderAddress":"tel:+221773387902","senderName":"ipps","outboundSMSTextMessage":{"message":"Chers parents,\\nne pas oublier le repas froid pour votre enfant, pour la r\xc3\xa9collection. \\nLe Bureau de la Cat\xc3\xa9ch\xc3\xa8se"},"resourceURL":"https://api.orange.com/smsmessaging/v1/outbound/tel:+221773387902/requests/f1e4de55-b755-4e22-952d-feec730a665f"}}'
2021-05-12 17:24:09 | balance 4 | fin envoi
