2022-05-06 19:19:19 | balance 614 | debut envoi
2022-05-06 19:19:19 | numéro : 773387902 | resultat envoi : b'{"outboundSMSMessageRequest":{"address":["tel:+221773387902"],"senderAddress":"tel:+221773387902","senderName":"ipps","outboundSMSTextMessage":{"message":"Chers pareents,\\nPour la classe de 3eme ann\xc3\xa9e Confirmation, la r\xc3\xa9union des parents est pr\xc3\xa9vue le samedi 7 mai 2022 comme pr\xc3\xa9c\xc3\xa9demment annonc\xc3\xa9. Pour rappel cette r\xc3\xa9union est obligatoire.Merci.Le bureau de la cat\xc3\xa9ch\xc3\xa8se\\nhttps://bit.ly/3F9cRIK"},"resourceURL":"https://api.orange.com/smsmessaging/v1/outbound/tel:+221773387902/requests/c0cb46a9-e950-4c1f-a7cb-6c7e86f79759"}}'
2022-05-06 19:19:20 | numéro : 774507437 | resultat envoi : b'{"outboundSMSMessageRequest":{"address":["tel:+221774507437"],"senderAddress":"tel:+221773387902","senderName":"ipps","outboundSMSTextMessage":{"message":"Chers pareents,\\nPour la classe de 3eme ann\xc3\xa9e Confirmation, la r\xc3\xa9union des parents est pr\xc3\xa9vue le samedi 7 mai 2022 comme pr\xc3\xa9c\xc3\xa9demment annonc\xc3\xa9. Pour rappel cette r\xc3\xa9union est obligatoire.Merci.Le bureau de la cat\xc3\xa9ch\xc3\xa8se\\nhttps://bit.ly/3F9cRIK"},"resourceURL":"https://api.orange.com/smsmessaging/v1/outbound/tel:+221773387902/requests/6a649e8b-61cf-43d4-930d-5d801c986650"}}'
2022-05-06 19:19:22 | numéro : 775089662 | resultat envoi : b'{"outboundSMSMessageRequest":{"address":["tel:+221775089662"],"senderAddress":"tel:+221773387902","senderName":"ipps","outboundSMSTextMessage":{"message":"Chers pareents,\\nPour la classe de 3eme ann\xc3\xa9e Confirmation, la r\xc3\xa9union des parents est pr\xc3\xa9vue le samedi 7 mai 2022 comme pr\xc3\xa9c\xc3\xa9demment annonc\xc3\xa9. Pour rappel cette r\xc3\xa9union est obligatoire.Merci.Le bureau de la cat\xc3\xa9ch\xc3\xa8se\\nhttps://bit.ly/3F9cRIK"},"resourceURL":"https://api.orange.com/smsmessaging/v1/outbound/tel:+221773387902/requests/386e99fe-2282-4dea-801c-13bf84de8ec9"}}'
2022-05-06 19:19:23 | numéro : 775359092 | resultat envoi : b'{"outboundSMSMessageRequest":{"address":["tel:+221775359092"],"senderAddress":"tel:+221773387902","senderName":"ipps","outboundSMSTextMessage":{"message":"Chers pareents,\\nPour la classe de 3eme ann\xc3\xa9e Confirmation, la r\xc3\xa9union des parents est pr\xc3\xa9vue le samedi 7 mai 2022 comme pr\xc3\xa9c\xc3\xa9demment annonc\xc3\xa9. Pour rappel cette r\xc3\xa9union est obligatoire.Merci.Le bureau de la cat\xc3\xa9ch\xc3\xa8se\\nhttps://bit.ly/3F9cRIK"},"resourceURL":"https://api.orange.com/smsmessaging/v1/outbound/tel:+221773387902/requests/3fd6f369-c7ac-4b7f-bcc1-6e5e72aafc04"}}'
2022-05-06 19:19:27 | numéro : 775672727 | resultat envoi : b'{"outboundSMSMessageRequest":{"address":["tel:+221775672727"],"senderAddress":"tel:+221773387902","senderName":"ipps","outboundSMSTextMessage":{"message":"Chers pareents,\\nPour la classe de 3eme ann\xc3\xa9e Confirmation, la r\xc3\xa9union des parents est pr\xc3\xa9vue le samedi 7 mai 2022 comme pr\xc3\xa9c\xc3\xa9demment annonc\xc3\xa9. Pour rappel cette r\xc3\xa9union est obligatoire.Merci.Le bureau de la cat\xc3\xa9ch\xc3\xa8se\\nhttps://bit.ly/3F9cRIK"},"resourceURL":"https://api.orange.com/smsmessaging/v1/outbound/tel:+221773387902/requests/42918b36-0701-44cf-88b3-df5123c3b00e"}}'
2022-05-06 19:19:28 | numéro : 775748741 | resultat envoi : b'{"outboundSMSMessageRequest":{"address":["tel:+221775748741"],"senderAddress":"tel:+221773387902","senderName":"ipps","outboundSMSTextMessage":{"message":"Chers pareents,\\nPour la classe de 3eme ann\xc3\xa9e Confirmation, la r\xc3\xa9union des parents est pr\xc3\xa9vue le samedi 7 mai 2022 comme pr\xc3\xa9c\xc3\xa9demment annonc\xc3\xa9. Pour rappel cette r\xc3\xa9union est obligatoire.Merci.Le bureau de la cat\xc3\xa9ch\xc3\xa8se\\nhttps://bit.ly/3F9cRIK"},"resourceURL":"https://api.orange.com/smsmessaging/v1/outbound/tel:+221773387902/requests/8e6e7de5-024c-4fce-b059-7e797b6aa9d5"}}'
2022-05-06 19:19:30 | numéro : 776509246 | resultat envoi : b'{"outboundSMSMessageRequest":{"address":["tel:+221776509246"],"senderAddress":"tel:+221773387902","senderName":"ipps","outboundSMSTextMessage":{"message":"Chers pareents,\\nPour la classe de 3eme ann\xc3\xa9e Confirmation, la r\xc3\xa9union des parents est pr\xc3\xa9vue le samedi 7 mai 2022 comme pr\xc3\xa9c\xc3\xa9demment annonc\xc3\xa9. Pour rappel cette r\xc3\xa9union est obligatoire.Merci.Le bureau de la cat\xc3\xa9ch\xc3\xa8se\\nhttps://bit.ly/3F9cRIK"},"resourceURL":"https://api.orange.com/smsmessaging/v1/outbound/tel:+221773387902/requests/64b24773-3871-4387-a7ca-bf7bcd7a8d7f"}}'
2022-05-06 19:19:30 | numéro : 775398628 | resultat envoi : b'{"outboundSMSMessageRequest":{"address":["tel:+221775398628"],"senderAddress":"tel:+221773387902","senderName":"ipps","outboundSMSTextMessage":{"message":"Chers pareents,\\nPour la classe de 3eme ann\xc3\xa9e Confirmation, la r\xc3\xa9union des parents est pr\xc3\xa9vue le samedi 7 mai 2022 comme pr\xc3\xa9c\xc3\xa9demment annonc\xc3\xa9. Pour rappel cette r\xc3\xa9union est obligatoire.Merci.Le bureau de la cat\xc3\xa9ch\xc3\xa8se\\nhttps://bit.ly/3F9cRIK"},"resourceURL":"https://api.orange.com/smsmessaging/v1/outbound/tel:+221773387902/requests/d813aa3d-101f-400f-b171-a3d3236436b7"}}'
2022-05-06 19:19:33 | numéro : 783069999 | resultat envoi : b'{"outboundSMSMessageRequest":{"address":["tel:+221783069999"],"senderAddress":"tel:+221773387902","senderName":"ipps","outboundSMSTextMessage":{"message":"Chers pareents,\\nPour la classe de 3eme ann\xc3\xa9e Confirmation, la r\xc3\xa9union des parents est pr\xc3\xa9vue le samedi 7 mai 2022 comme pr\xc3\xa9c\xc3\xa9demment annonc\xc3\xa9. Pour rappel cette r\xc3\xa9union est obligatoire.Merci.Le bureau de la cat\xc3\xa9ch\xc3\xa8se\\nhttps://bit.ly/3F9cRIK"},"resourceURL":"https://api.orange.com/smsmessaging/v1/outbound/tel:+221773387902/requests/c65c7a0d-cd82-4f4b-8e9a-0bb50e0c7829"}}'
2022-05-06 19:19:47 | numéro : 774238040 | resultat envoi : b'{"outboundSMSMessageRequest":{"address":["tel:+221774238040"],"senderAddress":"tel:+221773387902","senderName":"ipps","outboundSMSTextMessage":{"message":"Chers pareents,\\nPour la classe de 3eme ann\xc3\xa9e Confirmation, la r\xc3\xa9union des parents est pr\xc3\xa9vue le samedi 7 mai 2022 comme pr\xc3\xa9c\xc3\xa9demment annonc\xc3\xa9. Pour rappel cette r\xc3\xa9union est obligatoire.Merci.Le bureau de la cat\xc3\xa9ch\xc3\xa8se\\nhttps://bit.ly/3F9cRIK"},"resourceURL":"https://api.orange.com/smsmessaging/v1/outbound/tel:+221773387902/requests/bf35ce1f-8cf1-478b-9010-a8e18bcebfbf"}}'
2022-05-06 19:20:12 | numéro : 773591482 | resultat envoi : b'{"outboundSMSMessageRequest":{"address":["tel:+221773591482"],"senderAddress":"tel:+221773387902","senderName":"ipps","outboundSMSTextMessage":{"message":"Chers pareents,\\nPour la classe de 3eme ann\xc3\xa9e Confirmation, la r\xc3\xa9union des parents est pr\xc3\xa9vue le samedi 7 mai 2022 comme pr\xc3\xa9c\xc3\xa9demment annonc\xc3\xa9. Pour rappel cette r\xc3\xa9union est obligatoire.Merci.Le bureau de la cat\xc3\xa9ch\xc3\xa8se\\nhttps://bit.ly/3F9cRIK"},"resourceURL":"https://api.orange.com/smsmessaging/v1/outbound/tel:+221773387902/requests/f91d21c7-96a7-4b18-8142-bd9deb6d7c7f"}}'
2022-05-06 19:20:13 | numéro : 776507635 | resultat envoi : b'{"outboundSMSMessageRequest":{"address":["tel:+221776507635"],"senderAddress":"tel:+221773387902","senderName":"ipps","outboundSMSTextMessage":{"message":"Chers pareents,\\nPour la classe de 3eme ann\xc3\xa9e Confirmation, la r\xc3\xa9union des parents est pr\xc3\xa9vue le samedi 7 mai 2022 comme pr\xc3\xa9c\xc3\xa9demment annonc\xc3\xa9. Pour rappel cette r\xc3\xa9union est obligatoire.Merci.Le bureau de la cat\xc3\xa9ch\xc3\xa8se\\nhttps://bit.ly/3F9cRIK"},"resourceURL":"https://api.orange.com/smsmessaging/v1/outbound/tel:+221773387902/requests/203986c5-fcfe-4851-9dbf-7023235e4fea"}}'
2022-05-06 19:20:14 | numéro : 775605414 | resultat envoi : b'{"outboundSMSMessageRequest":{"address":["tel:+221775605414"],"senderAddress":"tel:+221773387902","senderName":"ipps","outboundSMSTextMessage":{"message":"Chers pareents,\\nPour la classe de 3eme ann\xc3\xa9e Confirmation, la r\xc3\xa9union des parents est pr\xc3\xa9vue le samedi 7 mai 2022 comme pr\xc3\xa9c\xc3\xa9demment annonc\xc3\xa9. Pour rappel cette r\xc3\xa9union est obligatoire.Merci.Le bureau de la cat\xc3\xa9ch\xc3\xa8se\\nhttps://bit.ly/3F9cRIK"},"resourceURL":"https://api.orange.com/smsmessaging/v1/outbound/tel:+221773387902/requests/4405c80b-ffee-49a1-b47b-52cbee4b1d5c"}}'
2022-05-06 19:20:14 | numéro : 774408604 | resultat envoi : b'{"outboundSMSMessageRequest":{"address":["tel:+221774408604"],"senderAddress":"tel:+221773387902","senderName":"ipps","outboundSMSTextMessage":{"message":"Chers pareents,\\nPour la classe de 3eme ann\xc3\xa9e Confirmation, la r\xc3\xa9union des parents est pr\xc3\xa9vue le samedi 7 mai 2022 comme pr\xc3\xa9c\xc3\xa9demment annonc\xc3\xa9. Pour rappel cette r\xc3\xa9union est obligatoire.Merci.Le bureau de la cat\xc3\xa9ch\xc3\xa8se\\nhttps://bit.ly/3F9cRIK"},"resourceURL":"https://api.orange.com/smsmessaging/v1/outbound/tel:+221773387902/requests/c731704e-1d71-47f4-8928-d29a560e3a7a"}}'
2022-05-06 19:20:15 | numéro : 775325170 | resultat envoi : b'{"outboundSMSMessageRequest":{"address":["tel:+221775325170"],"senderAddress":"tel:+221773387902","senderName":"ipps","outboundSMSTextMessage":{"message":"Chers pareents,\\nPour la classe de 3eme ann\xc3\xa9e Confirmation, la r\xc3\xa9union des parents est pr\xc3\xa9vue le samedi 7 mai 2022 comme pr\xc3\xa9c\xc3\xa9demment annonc\xc3\xa9. Pour rappel cette r\xc3\xa9union est obligatoire.Merci.Le bureau de la cat\xc3\xa9ch\xc3\xa8se\\nhttps://bit.ly/3F9cRIK"},"resourceURL":"https://api.orange.com/smsmessaging/v1/outbound/tel:+221773387902/requests/16bfb741-c0c6-45e7-b85b-690ed2eb6baf"}}'
2022-05-06 19:20:15 | numéro : 775240726 | resultat envoi : b'{"outboundSMSMessageRequest":{"address":["tel:+221775240726"],"senderAddress":"tel:+221773387902","senderName":"ipps","outboundSMSTextMessage":{"message":"Chers pareents,\\nPour la classe de 3eme ann\xc3\xa9e Confirmation, la r\xc3\xa9union des parents est pr\xc3\xa9vue le samedi 7 mai 2022 comme pr\xc3\xa9c\xc3\xa9demment annonc\xc3\xa9. Pour rappel cette r\xc3\xa9union est obligatoire.Merci.Le bureau de la cat\xc3\xa9ch\xc3\xa8se\\nhttps://bit.ly/3F9cRIK"},"resourceURL":"https://api.orange.com/smsmessaging/v1/outbound/tel:+221773387902/requests/d8c90144-851d-4b2a-b1e5-56642b4eb453"}}'
2022-05-06 19:20:16 | numéro : 772505078 | resultat envoi : b'{"outboundSMSMessageRequest":{"address":["tel:+221772505078"],"senderAddress":"tel:+221773387902","senderName":"ipps","outboundSMSTextMessage":{"message":"Chers pareents,\\nPour la classe de 3eme ann\xc3\xa9e Confirmation, la r\xc3\xa9union des parents est pr\xc3\xa9vue le samedi 7 mai 2022 comme pr\xc3\xa9c\xc3\xa9demment annonc\xc3\xa9. Pour rappel cette r\xc3\xa9union est obligatoire.Merci.Le bureau de la cat\xc3\xa9ch\xc3\xa8se\\nhttps://bit.ly/3F9cRIK"},"resourceURL":"https://api.orange.com/smsmessaging/v1/outbound/tel:+221773387902/requests/8b9cc786-91a6-433e-84fc-8d0503677ffb"}}'
2022-05-06 19:20:18 | numéro : 775717070 | resultat envoi : b'{"outboundSMSMessageRequest":{"address":["tel:+221775717070"],"senderAddress":"tel:+221773387902","senderName":"ipps","outboundSMSTextMessage":{"message":"Chers pareents,\\nPour la classe de 3eme ann\xc3\xa9e Confirmation, la r\xc3\xa9union des parents est pr\xc3\xa9vue le samedi 7 mai 2022 comme pr\xc3\xa9c\xc3\xa9demment annonc\xc3\xa9. Pour rappel cette r\xc3\xa9union est obligatoire.Merci.Le bureau de la cat\xc3\xa9ch\xc3\xa8se\\nhttps://bit.ly/3F9cRIK"},"resourceURL":"https://api.orange.com/smsmessaging/v1/outbound/tel:+221773387902/requests/839dac5c-7f9f-4520-b300-c225edee6d05"}}'
2022-05-06 19:20:19 | numéro : 778275151 | resultat envoi : b'{"outboundSMSMessageRequest":{"address":["tel:+221778275151"],"senderAddress":"tel:+221773387902","senderName":"ipps","outboundSMSTextMessage":{"message":"Chers pareents,\\nPour la classe de 3eme ann\xc3\xa9e Confirmation, la r\xc3\xa9union des parents est pr\xc3\xa9vue le samedi 7 mai 2022 comme pr\xc3\xa9c\xc3\xa9demment annonc\xc3\xa9. Pour rappel cette r\xc3\xa9union est obligatoire.Merci.Le bureau de la cat\xc3\xa9ch\xc3\xa8se\\nhttps://bit.ly/3F9cRIK"},"resourceURL":"https://api.orange.com/smsmessaging/v1/outbound/tel:+221773387902/requests/e490db52-e76f-4543-8c20-c2cd4368b243"}}'
2022-05-06 19:20:20 | numéro : 777338757 | resultat envoi : b'{"outboundSMSMessageRequest":{"address":["tel:+221777338757"],"senderAddress":"tel:+221773387902","senderName":"ipps","outboundSMSTextMessage":{"message":"Chers pareents,\\nPour la classe de 3eme ann\xc3\xa9e Confirmation, la r\xc3\xa9union des parents est pr\xc3\xa9vue le samedi 7 mai 2022 comme pr\xc3\xa9c\xc3\xa9demment annonc\xc3\xa9. Pour rappel cette r\xc3\xa9union est obligatoire.Merci.Le bureau de la cat\xc3\xa9ch\xc3\xa8se\\nhttps://bit.ly/3F9cRIK"},"resourceURL":"https://api.orange.com/smsmessaging/v1/outbound/tel:+221773387902/requests/45f3c414-421b-4935-a2c6-27a28ca0bd61"}}'
2022-05-06 19:20:20 | numéro : 775313888 | resultat envoi : b'{"outboundSMSMessageRequest":{"address":["tel:+221775313888"],"senderAddress":"tel:+221773387902","senderName":"ipps","outboundSMSTextMessage":{"message":"Chers pareents,\\nPour la classe de 3eme ann\xc3\xa9e Confirmation, la r\xc3\xa9union des parents est pr\xc3\xa9vue le samedi 7 mai 2022 comme pr\xc3\xa9c\xc3\xa9demment annonc\xc3\xa9. Pour rappel cette r\xc3\xa9union est obligatoire.Merci.Le bureau de la cat\xc3\xa9ch\xc3\xa8se\\nhttps://bit.ly/3F9cRIK"},"resourceURL":"https://api.orange.com/smsmessaging/v1/outbound/tel:+221773387902/requests/701d7fb5-eb58-4bff-8429-b1c563a687c8"}}'
2022-05-06 19:20:21 | numéro : 775313888 | resultat envoi : b'{"outboundSMSMessageRequest":{"address":["tel:+221775313888"],"senderAddress":"tel:+221773387902","senderName":"ipps","outboundSMSTextMessage":{"message":"Chers pareents,\\nPour la classe de 3eme ann\xc3\xa9e Confirmation, la r\xc3\xa9union des parents est pr\xc3\xa9vue le samedi 7 mai 2022 comme pr\xc3\xa9c\xc3\xa9demment annonc\xc3\xa9. Pour rappel cette r\xc3\xa9union est obligatoire.Merci.Le bureau de la cat\xc3\xa9ch\xc3\xa8se\\nhttps://bit.ly/3F9cRIK"},"resourceURL":"https://api.orange.com/smsmessaging/v1/outbound/tel:+221773387902/requests/eb09c7df-9d63-465f-80db-7972916f3419"}}'
2022-05-06 19:20:22 | numéro : 776386644 | resultat envoi : b'{"outboundSMSMessageRequest":{"address":["tel:+221776386644"],"senderAddress":"tel:+221773387902","senderName":"ipps","outboundSMSTextMessage":{"message":"Chers pareents,\\nPour la classe de 3eme ann\xc3\xa9e Confirmation, la r\xc3\xa9union des parents est pr\xc3\xa9vue le samedi 7 mai 2022 comme pr\xc3\xa9c\xc3\xa9demment annonc\xc3\xa9. Pour rappel cette r\xc3\xa9union est obligatoire.Merci.Le bureau de la cat\xc3\xa9ch\xc3\xa8se\\nhttps://bit.ly/3F9cRIK"},"resourceURL":"https://api.orange.com/smsmessaging/v1/outbound/tel:+221773387902/requests/c22686e1-77a1-46e5-9efa-a1253d054b7c"}}'
2022-05-06 19:20:22 | numéro : 776587031 | resultat envoi : b'{"outboundSMSMessageRequest":{"address":["tel:+221776587031"],"senderAddress":"tel:+221773387902","senderName":"ipps","outboundSMSTextMessage":{"message":"Chers pareents,\\nPour la classe de 3eme ann\xc3\xa9e Confirmation, la r\xc3\xa9union des parents est pr\xc3\xa9vue le samedi 7 mai 2022 comme pr\xc3\xa9c\xc3\xa9demment annonc\xc3\xa9. Pour rappel cette r\xc3\xa9union est obligatoire.Merci.Le bureau de la cat\xc3\xa9ch\xc3\xa8se\\nhttps://bit.ly/3F9cRIK"},"resourceURL":"https://api.orange.com/smsmessaging/v1/outbound/tel:+221773387902/requests/f2c56def-719d-4a70-b53b-614ca2359980"}}'
2022-05-06 19:20:23 | numéro : 776781505 | resultat envoi : b'{"outboundSMSMessageRequest":{"address":["tel:+221776781505"],"senderAddress":"tel:+221773387902","senderName":"ipps","outboundSMSTextMessage":{"message":"Chers pareents,\\nPour la classe de 3eme ann\xc3\xa9e Confirmation, la r\xc3\xa9union des parents est pr\xc3\xa9vue le samedi 7 mai 2022 comme pr\xc3\xa9c\xc3\xa9demment annonc\xc3\xa9. Pour rappel cette r\xc3\xa9union est obligatoire.Merci.Le bureau de la cat\xc3\xa9ch\xc3\xa8se\\nhttps://bit.ly/3F9cRIK"},"resourceURL":"https://api.orange.com/smsmessaging/v1/outbound/tel:+221773387902/requests/60eed0b0-750d-46c4-bcd7-67521563179d"}}'
2022-05-06 19:20:25 | numéro : 777892124 | resultat envoi : b'{"outboundSMSMessageRequest":{"address":["tel:+221777892124"],"senderAddress":"tel:+221773387902","senderName":"ipps","outboundSMSTextMessage":{"message":"Chers pareents,\\nPour la classe de 3eme ann\xc3\xa9e Confirmation, la r\xc3\xa9union des parents est pr\xc3\xa9vue le samedi 7 mai 2022 comme pr\xc3\xa9c\xc3\xa9demment annonc\xc3\xa9. Pour rappel cette r\xc3\xa9union est obligatoire.Merci.Le bureau de la cat\xc3\xa9ch\xc3\xa8se\\nhttps://bit.ly/3F9cRIK"},"resourceURL":"https://api.orange.com/smsmessaging/v1/outbound/tel:+221773387902/requests/52e63d5b-f7a1-435d-9812-183d0517fb2a"}}'
2022-05-06 19:20:26 | numéro : 775578617 | resultat envoi : b'{"outboundSMSMessageRequest":{"address":["tel:+221775578617"],"senderAddress":"tel:+221773387902","senderName":"ipps","outboundSMSTextMessage":{"message":"Chers pareents,\\nPour la classe de 3eme ann\xc3\xa9e Confirmation, la r\xc3\xa9union des parents est pr\xc3\xa9vue le samedi 7 mai 2022 comme pr\xc3\xa9c\xc3\xa9demment annonc\xc3\xa9. Pour rappel cette r\xc3\xa9union est obligatoire.Merci.Le bureau de la cat\xc3\xa9ch\xc3\xa8se\\nhttps://bit.ly/3F9cRIK"},"resourceURL":"https://api.orange.com/smsmessaging/v1/outbound/tel:+221773387902/requests/9e95bb45-6616-43e4-8cb5-8befea35567f"}}'
2022-05-06 19:20:27 | numéro : 778170857 | resultat envoi : b'{"outboundSMSMessageRequest":{"address":["tel:+221778170857"],"senderAddress":"tel:+221773387902","senderName":"ipps","outboundSMSTextMessage":{"message":"Chers pareents,\\nPour la classe de 3eme ann\xc3\xa9e Confirmation, la r\xc3\xa9union des parents est pr\xc3\xa9vue le samedi 7 mai 2022 comme pr\xc3\xa9c\xc3\xa9demment annonc\xc3\xa9. Pour rappel cette r\xc3\xa9union est obligatoire.Merci.Le bureau de la cat\xc3\xa9ch\xc3\xa8se\\nhttps://bit.ly/3F9cRIK"},"resourceURL":"https://api.orange.com/smsmessaging/v1/outbound/tel:+221773387902/requests/36c812f9-ae9e-4d5c-891f-b3801880d0b1"}}'
2022-05-06 19:20:29 | numéro : 774461705 | resultat envoi : b'{"outboundSMSMessageRequest":{"address":["tel:+221774461705"],"senderAddress":"tel:+221773387902","senderName":"ipps","outboundSMSTextMessage":{"message":"Chers pareents,\\nPour la classe de 3eme ann\xc3\xa9e Confirmation, la r\xc3\xa9union des parents est pr\xc3\xa9vue le samedi 7 mai 2022 comme pr\xc3\xa9c\xc3\xa9demment annonc\xc3\xa9. Pour rappel cette r\xc3\xa9union est obligatoire.Merci.Le bureau de la cat\xc3\xa9ch\xc3\xa8se\\nhttps://bit.ly/3F9cRIK"},"resourceURL":"https://api.orange.com/smsmessaging/v1/outbound/tel:+221773387902/requests/2ea38b5d-25cd-464b-83da-ee96849e0d1e"}}'
2022-05-06 19:20:30 | numéro : 774238040 | resultat envoi : b'{"outboundSMSMessageRequest":{"address":["tel:+221774238040"],"senderAddress":"tel:+221773387902","senderName":"ipps","outboundSMSTextMessage":{"message":"Chers pareents,\\nPour la classe de 3eme ann\xc3\xa9e Confirmation, la r\xc3\xa9union des parents est pr\xc3\xa9vue le samedi 7 mai 2022 comme pr\xc3\xa9c\xc3\xa9demment annonc\xc3\xa9. Pour rappel cette r\xc3\xa9union est obligatoire.Merci.Le bureau de la cat\xc3\xa9ch\xc3\xa8se\\nhttps://bit.ly/3F9cRIK"},"resourceURL":"https://api.orange.com/smsmessaging/v1/outbound/tel:+221773387902/requests/416fc01c-d26e-4906-81a4-244a918022e5"}}'
2022-05-06 19:20:31 | numéro : 773632643 | resultat envoi : b'{"outboundSMSMessageRequest":{"address":["tel:+221773632643"],"senderAddress":"tel:+221773387902","senderName":"ipps","outboundSMSTextMessage":{"message":"Chers pareents,\\nPour la classe de 3eme ann\xc3\xa9e Confirmation, la r\xc3\xa9union des parents est pr\xc3\xa9vue le samedi 7 mai 2022 comme pr\xc3\xa9c\xc3\xa9demment annonc\xc3\xa9. Pour rappel cette r\xc3\xa9union est obligatoire.Merci.Le bureau de la cat\xc3\xa9ch\xc3\xa8se\\nhttps://bit.ly/3F9cRIK"},"resourceURL":"https://api.orange.com/smsmessaging/v1/outbound/tel:+221773387902/requests/2d66e1ef-3605-4795-a38c-d58d51337189"}}'
2022-05-06 19:20:31 | numéro : 772000618 | resultat envoi : b'{"outboundSMSMessageRequest":{"address":["tel:+221772000618"],"senderAddress":"tel:+221773387902","senderName":"ipps","outboundSMSTextMessage":{"message":"Chers pareents,\\nPour la classe de 3eme ann\xc3\xa9e Confirmation, la r\xc3\xa9union des parents est pr\xc3\xa9vue le samedi 7 mai 2022 comme pr\xc3\xa9c\xc3\xa9demment annonc\xc3\xa9. Pour rappel cette r\xc3\xa9union est obligatoire.Merci.Le bureau de la cat\xc3\xa9ch\xc3\xa8se\\nhttps://bit.ly/3F9cRIK"},"resourceURL":"https://api.orange.com/smsmessaging/v1/outbound/tel:+221773387902/requests/119abe77-0b73-41c9-9115-a80ee1a1f3d3"}}'
2022-05-06 19:20:32 | numéro : 772000618 | resultat envoi : b'{"outboundSMSMessageRequest":{"address":["tel:+221772000618"],"senderAddress":"tel:+221773387902","senderName":"ipps","outboundSMSTextMessage":{"message":"Chers pareents,\\nPour la classe de 3eme ann\xc3\xa9e Confirmation, la r\xc3\xa9union des parents est pr\xc3\xa9vue le samedi 7 mai 2022 comme pr\xc3\xa9c\xc3\xa9demment annonc\xc3\xa9. Pour rappel cette r\xc3\xa9union est obligatoire.Merci.Le bureau de la cat\xc3\xa9ch\xc3\xa8se\\nhttps://bit.ly/3F9cRIK"},"resourceURL":"https://api.orange.com/smsmessaging/v1/outbound/tel:+221773387902/requests/d1aaa16c-b1cb-4fed-b0c5-a72c9302b409"}}'
2022-05-06 19:20:33 | numéro : 784641693 | resultat envoi : b'{"outboundSMSMessageRequest":{"address":["tel:+221784641693"],"senderAddress":"tel:+221773387902","senderName":"ipps","outboundSMSTextMessage":{"message":"Chers pareents,\\nPour la classe de 3eme ann\xc3\xa9e Confirmation, la r\xc3\xa9union des parents est pr\xc3\xa9vue le samedi 7 mai 2022 comme pr\xc3\xa9c\xc3\xa9demment annonc\xc3\xa9. Pour rappel cette r\xc3\xa9union est obligatoire.Merci.Le bureau de la cat\xc3\xa9ch\xc3\xa8se\\nhttps://bit.ly/3F9cRIK"},"resourceURL":"https://api.orange.com/smsmessaging/v1/outbound/tel:+221773387902/requests/5c618e88-27f2-4b2c-b65a-18b064021754"}}'
2022-05-06 19:20:43 | numéro : 772669929 | resultat envoi : b'{"outboundSMSMessageRequest":{"address":["tel:+221772669929"],"senderAddress":"tel:+221773387902","senderName":"ipps","outboundSMSTextMessage":{"message":"Chers pareents,\\nPour la classe de 3eme ann\xc3\xa9e Confirmation, la r\xc3\xa9union des parents est pr\xc3\xa9vue le samedi 7 mai 2022 comme pr\xc3\xa9c\xc3\xa9demment annonc\xc3\xa9. Pour rappel cette r\xc3\xa9union est obligatoire.Merci.Le bureau de la cat\xc3\xa9ch\xc3\xa8se\\nhttps://bit.ly/3F9cRIK"},"resourceURL":"https://api.orange.com/smsmessaging/v1/outbound/tel:+221773387902/requests/a07f67cb-2fe2-46ec-8b79-6cc99837085e"}}'
2022-05-06 19:20:43 | numéro : 778116032 | resultat envoi : b'{"outboundSMSMessageRequest":{"address":["tel:+221778116032"],"senderAddress":"tel:+221773387902","senderName":"ipps","outboundSMSTextMessage":{"message":"Chers pareents,\\nPour la classe de 3eme ann\xc3\xa9e Confirmation, la r\xc3\xa9union des parents est pr\xc3\xa9vue le samedi 7 mai 2022 comme pr\xc3\xa9c\xc3\xa9demment annonc\xc3\xa9. Pour rappel cette r\xc3\xa9union est obligatoire.Merci.Le bureau de la cat\xc3\xa9ch\xc3\xa8se\\nhttps://bit.ly/3F9cRIK"},"resourceURL":"https://api.orange.com/smsmessaging/v1/outbound/tel:+221773387902/requests/1b75ac0b-da90-4e8a-ad8f-5c0e2c784584"}}'
2022-05-06 19:20:44 | numéro : 774670742 | resultat envoi : b'{"outboundSMSMessageRequest":{"address":["tel:+221774670742"],"senderAddress":"tel:+221773387902","senderName":"ipps","outboundSMSTextMessage":{"message":"Chers pareents,\\nPour la classe de 3eme ann\xc3\xa9e Confirmation, la r\xc3\xa9union des parents est pr\xc3\xa9vue le samedi 7 mai 2022 comme pr\xc3\xa9c\xc3\xa9demment annonc\xc3\xa9. Pour rappel cette r\xc3\xa9union est obligatoire.Merci.Le bureau de la cat\xc3\xa9ch\xc3\xa8se\\nhttps://bit.ly/3F9cRIK"},"resourceURL":"https://api.orange.com/smsmessaging/v1/outbound/tel:+221773387902/requests/b3ac5d2b-31cb-4369-86aa-bcbf377ef280"}}'
2022-05-06 19:20:46 | numéro : 775395349 | resultat envoi : b'{"outboundSMSMessageRequest":{"address":["tel:+221775395349"],"senderAddress":"tel:+221773387902","senderName":"ipps","outboundSMSTextMessage":{"message":"Chers pareents,\\nPour la classe de 3eme ann\xc3\xa9e Confirmation, la r\xc3\xa9union des parents est pr\xc3\xa9vue le samedi 7 mai 2022 comme pr\xc3\xa9c\xc3\xa9demment annonc\xc3\xa9. Pour rappel cette r\xc3\xa9union est obligatoire.Merci.Le bureau de la cat\xc3\xa9ch\xc3\xa8se\\nhttps://bit.ly/3F9cRIK"},"resourceURL":"https://api.orange.com/smsmessaging/v1/outbound/tel:+221773387902/requests/a3152210-49e8-4bb3-bbe0-d68baa806ffc"}}'
2022-05-06 19:20:47 | numéro : 776556463 | resultat envoi : b'{"outboundSMSMessageRequest":{"address":["tel:+221776556463"],"senderAddress":"tel:+221773387902","senderName":"ipps","outboundSMSTextMessage":{"message":"Chers pareents,\\nPour la classe de 3eme ann\xc3\xa9e Confirmation, la r\xc3\xa9union des parents est pr\xc3\xa9vue le samedi 7 mai 2022 comme pr\xc3\xa9c\xc3\xa9demment annonc\xc3\xa9. Pour rappel cette r\xc3\xa9union est obligatoire.Merci.Le bureau de la cat\xc3\xa9ch\xc3\xa8se\\nhttps://bit.ly/3F9cRIK"},"resourceURL":"https://api.orange.com/smsmessaging/v1/outbound/tel:+221773387902/requests/8d07cb43-e5a4-43ac-99e8-73a40631847c"}}'
2022-05-06 19:20:47 | numéro : 776177154 | resultat envoi : b'{"outboundSMSMessageRequest":{"address":["tel:+221776177154"],"senderAddress":"tel:+221773387902","senderName":"ipps","outboundSMSTextMessage":{"message":"Chers pareents,\\nPour la classe de 3eme ann\xc3\xa9e Confirmation, la r\xc3\xa9union des parents est pr\xc3\xa9vue le samedi 7 mai 2022 comme pr\xc3\xa9c\xc3\xa9demment annonc\xc3\xa9. Pour rappel cette r\xc3\xa9union est obligatoire.Merci.Le bureau de la cat\xc3\xa9ch\xc3\xa8se\\nhttps://bit.ly/3F9cRIK"},"resourceURL":"https://api.orange.com/smsmessaging/v1/outbound/tel:+221773387902/requests/f8bc2a04-5abd-4828-b1b3-c7a81f98c15c"}}'
2022-05-06 19:20:48 | numéro : 775712727 | resultat envoi : b'{"outboundSMSMessageRequest":{"address":["tel:+221775712727"],"senderAddress":"tel:+221773387902","senderName":"ipps","outboundSMSTextMessage":{"message":"Chers pareents,\\nPour la classe de 3eme ann\xc3\xa9e Confirmation, la r\xc3\xa9union des parents est pr\xc3\xa9vue le samedi 7 mai 2022 comme pr\xc3\xa9c\xc3\xa9demment annonc\xc3\xa9. Pour rappel cette r\xc3\xa9union est obligatoire.Merci.Le bureau de la cat\xc3\xa9ch\xc3\xa8se\\nhttps://bit.ly/3F9cRIK"},"resourceURL":"https://api.orange.com/smsmessaging/v1/outbound/tel:+221773387902/requests/41dd8588-65e8-4859-b42d-37d913b51095"}}'
2022-05-06 19:20:48 | numéro : 775492796 | resultat envoi : b'{"outboundSMSMessageRequest":{"address":["tel:+221775492796"],"senderAddress":"tel:+221773387902","senderName":"ipps","outboundSMSTextMessage":{"message":"Chers pareents,\\nPour la classe de 3eme ann\xc3\xa9e Confirmation, la r\xc3\xa9union des parents est pr\xc3\xa9vue le samedi 7 mai 2022 comme pr\xc3\xa9c\xc3\xa9demment annonc\xc3\xa9. Pour rappel cette r\xc3\xa9union est obligatoire.Merci.Le bureau de la cat\xc3\xa9ch\xc3\xa8se\\nhttps://bit.ly/3F9cRIK"},"resourceURL":"https://api.orange.com/smsmessaging/v1/outbound/tel:+221773387902/requests/25e2d9bc-27bc-4663-876e-12be7863bbed"}}'
2022-05-06 19:20:49 | numéro : 770577086 | resultat envoi : b'{"outboundSMSMessageRequest":{"address":["tel:+221770577086"],"senderAddress":"tel:+221773387902","senderName":"ipps","outboundSMSTextMessage":{"message":"Chers pareents,\\nPour la classe de 3eme ann\xc3\xa9e Confirmation, la r\xc3\xa9union des parents est pr\xc3\xa9vue le samedi 7 mai 2022 comme pr\xc3\xa9c\xc3\xa9demment annonc\xc3\xa9. Pour rappel cette r\xc3\xa9union est obligatoire.Merci.Le bureau de la cat\xc3\xa9ch\xc3\xa8se\\nhttps://bit.ly/3F9cRIK"},"resourceURL":"https://api.orange.com/smsmessaging/v1/outbound/tel:+221773387902/requests/62762552-e8fc-4092-9a1a-f7155672451d"}}'
2022-05-06 19:20:49 | numéro : 775949406 | resultat envoi : b'{"outboundSMSMessageRequest":{"address":["tel:+221775949406"],"senderAddress":"tel:+221773387902","senderName":"ipps","outboundSMSTextMessage":{"message":"Chers pareents,\\nPour la classe de 3eme ann\xc3\xa9e Confirmation, la r\xc3\xa9union des parents est pr\xc3\xa9vue le samedi 7 mai 2022 comme pr\xc3\xa9c\xc3\xa9demment annonc\xc3\xa9. Pour rappel cette r\xc3\xa9union est obligatoire.Merci.Le bureau de la cat\xc3\xa9ch\xc3\xa8se\\nhttps://bit.ly/3F9cRIK"},"resourceURL":"https://api.orange.com/smsmessaging/v1/outbound/tel:+221773387902/requests/516f54fb-15ad-4da8-8f51-b8ae7657b543"}}'
2022-05-06 19:20:50 | numéro : 775168038 | resultat envoi : b'{"outboundSMSMessageRequest":{"address":["tel:+221775168038"],"senderAddress":"tel:+221773387902","senderName":"ipps","outboundSMSTextMessage":{"message":"Chers pareents,\\nPour la classe de 3eme ann\xc3\xa9e Confirmation, la r\xc3\xa9union des parents est pr\xc3\xa9vue le samedi 7 mai 2022 comme pr\xc3\xa9c\xc3\xa9demment annonc\xc3\xa9. Pour rappel cette r\xc3\xa9union est obligatoire.Merci.Le bureau de la cat\xc3\xa9ch\xc3\xa8se\\nhttps://bit.ly/3F9cRIK"},"resourceURL":"https://api.orange.com/smsmessaging/v1/outbound/tel:+221773387902/requests/b39fdca0-1029-4e4e-bfdc-227df19b7eb4"}}'
2022-05-06 19:20:50 | numéro : 775918410 | resultat envoi : b'{"outboundSMSMessageRequest":{"address":["tel:+221775918410"],"senderAddress":"tel:+221773387902","senderName":"ipps","outboundSMSTextMessage":{"message":"Chers pareents,\\nPour la classe de 3eme ann\xc3\xa9e Confirmation, la r\xc3\xa9union des parents est pr\xc3\xa9vue le samedi 7 mai 2022 comme pr\xc3\xa9c\xc3\xa9demment annonc\xc3\xa9. Pour rappel cette r\xc3\xa9union est obligatoire.Merci.Le bureau de la cat\xc3\xa9ch\xc3\xa8se\\nhttps://bit.ly/3F9cRIK"},"resourceURL":"https://api.orange.com/smsmessaging/v1/outbound/tel:+221773387902/requests/208b014d-fdc5-438a-b0d1-c4794c72e43f"}}'
2022-05-06 19:20:51 | numéro : 775711415 | resultat envoi : b'{"outboundSMSMessageRequest":{"address":["tel:+221775711415"],"senderAddress":"tel:+221773387902","senderName":"ipps","outboundSMSTextMessage":{"message":"Chers pareents,\\nPour la classe de 3eme ann\xc3\xa9e Confirmation, la r\xc3\xa9union des parents est pr\xc3\xa9vue le samedi 7 mai 2022 comme pr\xc3\xa9c\xc3\xa9demment annonc\xc3\xa9. Pour rappel cette r\xc3\xa9union est obligatoire.Merci.Le bureau de la cat\xc3\xa9ch\xc3\xa8se\\nhttps://bit.ly/3F9cRIK"},"resourceURL":"https://api.orange.com/smsmessaging/v1/outbound/tel:+221773387902/requests/86441359-0314-4f5b-84b6-09686d33b166"}}'
2022-05-06 19:20:52 | numéro : 773210720 | resultat envoi : b'{"outboundSMSMessageRequest":{"address":["tel:+221773210720"],"senderAddress":"tel:+221773387902","senderName":"ipps","outboundSMSTextMessage":{"message":"Chers pareents,\\nPour la classe de 3eme ann\xc3\xa9e Confirmation, la r\xc3\xa9union des parents est pr\xc3\xa9vue le samedi 7 mai 2022 comme pr\xc3\xa9c\xc3\xa9demment annonc\xc3\xa9. Pour rappel cette r\xc3\xa9union est obligatoire.Merci.Le bureau de la cat\xc3\xa9ch\xc3\xa8se\\nhttps://bit.ly/3F9cRIK"},"resourceURL":"https://api.orange.com/smsmessaging/v1/outbound/tel:+221773387902/requests/bc32d6b0-7cba-4931-a75c-e11948fef397"}}'
2022-05-06 19:20:52 | numéro : 778590854 | resultat envoi : b'{"outboundSMSMessageRequest":{"address":["tel:+221778590854"],"senderAddress":"tel:+221773387902","senderName":"ipps","outboundSMSTextMessage":{"message":"Chers pareents,\\nPour la classe de 3eme ann\xc3\xa9e Confirmation, la r\xc3\xa9union des parents est pr\xc3\xa9vue le samedi 7 mai 2022 comme pr\xc3\xa9c\xc3\xa9demment annonc\xc3\xa9. Pour rappel cette r\xc3\xa9union est obligatoire.Merci.Le bureau de la cat\xc3\xa9ch\xc3\xa8se\\nhttps://bit.ly/3F9cRIK"},"resourceURL":"https://api.orange.com/smsmessaging/v1/outbound/tel:+221773387902/requests/d01007e3-0b17-4153-87d8-61090472177b"}}'
2022-05-06 19:20:53 | numéro : 765005555 | resultat envoi : b'{"outboundSMSMessageRequest":{"address":["tel:+221765005555"],"senderAddress":"tel:+221773387902","senderName":"ipps","outboundSMSTextMessage":{"message":"Chers pareents,\\nPour la classe de 3eme ann\xc3\xa9e Confirmation, la r\xc3\xa9union des parents est pr\xc3\xa9vue le samedi 7 mai 2022 comme pr\xc3\xa9c\xc3\xa9demment annonc\xc3\xa9. Pour rappel cette r\xc3\xa9union est obligatoire.Merci.Le bureau de la cat\xc3\xa9ch\xc3\xa8se\\nhttps://bit.ly/3F9cRIK"},"resourceURL":"https://api.orange.com/smsmessaging/v1/outbound/tel:+221773387902/requests/b2f8d221-f76e-4ae1-9b12-1a6691273a42"}}'
2022-05-06 19:20:53 | balance 185 | fin envoi
