2021-04-28 21:49:43 | balance 55 | debut envoi
2021-04-28 21:49:43 | numéro : 783361123 | resultat envoi : b'{"outboundSMSMessageRequest":{"address":["tel:+221783361123"],"senderAddress":"tel:+221773387902","senderName":"ipps","outboundSMSTextMessage":{"message":"Chers parents de 3\xc3\xa8me ann\xc3\xa9e communion, ce samedi 1er mai, votre enfant aura sa 3\xc3\xa8me et derni\xc3\xa8re \xc3\xa9valuation aux horaires habitules de cours(15h), leur pr\xc3\xa9sence est donc obligatoire. leur faire r\xc3\xa9visier les le\xc3\xa7ons du chapitre 09 au chapitre 15, ils s\'agit de toutes les le\xc3\xa7ons relatives \xc3\xa0 l\'eucharistie. Merci pour votre collaboration. le bureau de la cat\xc3\xa9ch\xc3\xa8se."},"resourceURL":"https://api.orange.com/smsmessaging/v1/outbound/tel:+221773387902/requests/d8f919fb-1edb-4670-8bbf-e9439456e4c0"}}'
2021-04-28 21:49:43 | numéro : 773796203 | resultat envoi : b'{"outboundSMSMessageRequest":{"address":["tel:+221773796203"],"senderAddress":"tel:+221773387902","senderName":"ipps","outboundSMSTextMessage":{"message":"Chers parents de 3\xc3\xa8me ann\xc3\xa9e communion, ce samedi 1er mai, votre enfant aura sa 3\xc3\xa8me et derni\xc3\xa8re \xc3\xa9valuation aux horaires habitules de cours(15h), leur pr\xc3\xa9sence est donc obligatoire. leur faire r\xc3\xa9visier les le\xc3\xa7ons du chapitre 09 au chapitre 15, ils s\'agit de toutes les le\xc3\xa7ons relatives \xc3\xa0 l\'eucharistie. Merci pour votre collaboration. le bureau de la cat\xc3\xa9ch\xc3\xa8se."},"resourceURL":"https://api.orange.com/smsmessaging/v1/outbound/tel:+221773387902/requests/e758d1c3-89e2-4257-b187-dfc4f8733ce5"}}'
2021-04-28 21:49:44 | numéro : 771732310 | resultat envoi : b'{"outboundSMSMessageRequest":{"address":["tel:+221771732310"],"senderAddress":"tel:+221773387902","senderName":"ipps","outboundSMSTextMessage":{"message":"Chers parents de 3\xc3\xa8me ann\xc3\xa9e communion, ce samedi 1er mai, votre enfant aura sa 3\xc3\xa8me et derni\xc3\xa8re \xc3\xa9valuation aux horaires habitules de cours(15h), leur pr\xc3\xa9sence est donc obligatoire. leur faire r\xc3\xa9visier les le\xc3\xa7ons du chapitre 09 au chapitre 15, ils s\'agit de toutes les le\xc3\xa7ons relatives \xc3\xa0 l\'eucharistie. Merci pour votre collaboration. le bureau de la cat\xc3\xa9ch\xc3\xa8se."},"resourceURL":"https://api.orange.com/smsmessaging/v1/outbound/tel:+221773387902/requests/5457dac0-c64b-43f6-ac4a-079928cb7a6c"}}'
2021-04-28 21:49:45 | numéro : 775764412 | resultat envoi : b'{"outboundSMSMessageRequest":{"address":["tel:+221775764412"],"senderAddress":"tel:+221773387902","senderName":"ipps","outboundSMSTextMessage":{"message":"Chers parents de 3\xc3\xa8me ann\xc3\xa9e communion, ce samedi 1er mai, votre enfant aura sa 3\xc3\xa8me et derni\xc3\xa8re \xc3\xa9valuation aux horaires habitules de cours(15h), leur pr\xc3\xa9sence est donc obligatoire. leur faire r\xc3\xa9visier les le\xc3\xa7ons du chapitre 09 au chapitre 15, ils s\'agit de toutes les le\xc3\xa7ons relatives \xc3\xa0 l\'eucharistie. Merci pour votre collaboration. le bureau de la cat\xc3\xa9ch\xc3\xa8se."},"resourceURL":"https://api.orange.com/smsmessaging/v1/outbound/tel:+221773387902/requests/149b3755-47b2-4c09-a1b0-ab735f69ecdf"}}'
2021-04-28 21:49:45 | numéro : 776457989 | resultat envoi : b'{"outboundSMSMessageRequest":{"address":["tel:+221776457989"],"senderAddress":"tel:+221773387902","senderName":"ipps","outboundSMSTextMessage":{"message":"Chers parents de 3\xc3\xa8me ann\xc3\xa9e communion, ce samedi 1er mai, votre enfant aura sa 3\xc3\xa8me et derni\xc3\xa8re \xc3\xa9valuation aux horaires habitules de cours(15h), leur pr\xc3\xa9sence est donc obligatoire. leur faire r\xc3\xa9visier les le\xc3\xa7ons du chapitre 09 au chapitre 15, ils s\'agit de toutes les le\xc3\xa7ons relatives \xc3\xa0 l\'eucharistie. Merci pour votre collaboration. le bureau de la cat\xc3\xa9ch\xc3\xa8se."},"resourceURL":"https://api.orange.com/smsmessaging/v1/outbound/tel:+221773387902/requests/8e3649fe-42d8-4fb4-b2fb-7291b392d59d"}}'
2021-04-28 21:49:47 | numéro : 775428173 | resultat envoi : b'{"outboundSMSMessageRequest":{"address":["tel:+221775428173"],"senderAddress":"tel:+221773387902","senderName":"ipps","outboundSMSTextMessage":{"message":"Chers parents de 3\xc3\xa8me ann\xc3\xa9e communion, ce samedi 1er mai, votre enfant aura sa 3\xc3\xa8me et derni\xc3\xa8re \xc3\xa9valuation aux horaires habitules de cours(15h), leur pr\xc3\xa9sence est donc obligatoire. leur faire r\xc3\xa9visier les le\xc3\xa7ons du chapitre 09 au chapitre 15, ils s\'agit de toutes les le\xc3\xa7ons relatives \xc3\xa0 l\'eucharistie. Merci pour votre collaboration. le bureau de la cat\xc3\xa9ch\xc3\xa8se."},"resourceURL":"https://api.orange.com/smsmessaging/v1/outbound/tel:+221773387902/requests/b6b5f94b-4bd4-4180-a439-e4988c1c0336"}}'
2021-04-28 21:49:48 | numéro : 781440170 | resultat envoi : b'{"outboundSMSMessageRequest":{"address":["tel:+221781440170"],"senderAddress":"tel:+221773387902","senderName":"ipps","outboundSMSTextMessage":{"message":"Chers parents de 3\xc3\xa8me ann\xc3\xa9e communion, ce samedi 1er mai, votre enfant aura sa 3\xc3\xa8me et derni\xc3\xa8re \xc3\xa9valuation aux horaires habitules de cours(15h), leur pr\xc3\xa9sence est donc obligatoire. leur faire r\xc3\xa9visier les le\xc3\xa7ons du chapitre 09 au chapitre 15, ils s\'agit de toutes les le\xc3\xa7ons relatives \xc3\xa0 l\'eucharistie. Merci pour votre collaboration. le bureau de la cat\xc3\xa9ch\xc3\xa8se."},"resourceURL":"https://api.orange.com/smsmessaging/v1/outbound/tel:+221773387902/requests/9cbe6d74-4c93-413d-8770-98cbf7034bfc"}}'
2021-04-28 21:49:48 | numéro : 774501240 | resultat envoi : b'{"outboundSMSMessageRequest":{"address":["tel:+221774501240"],"senderAddress":"tel:+221773387902","senderName":"ipps","outboundSMSTextMessage":{"message":"Chers parents de 3\xc3\xa8me ann\xc3\xa9e communion, ce samedi 1er mai, votre enfant aura sa 3\xc3\xa8me et derni\xc3\xa8re \xc3\xa9valuation aux horaires habitules de cours(15h), leur pr\xc3\xa9sence est donc obligatoire. leur faire r\xc3\xa9visier les le\xc3\xa7ons du chapitre 09 au chapitre 15, ils s\'agit de toutes les le\xc3\xa7ons relatives \xc3\xa0 l\'eucharistie. Merci pour votre collaboration. le bureau de la cat\xc3\xa9ch\xc3\xa8se."},"resourceURL":"https://api.orange.com/smsmessaging/v1/outbound/tel:+221773387902/requests/237b5b0a-cd68-4cb3-94bb-80c0e0b16641"}}'
2021-04-28 21:49:48 | numéro : 776513054 | resultat envoi : b'{"outboundSMSMessageRequest":{"address":["tel:+221776513054"],"senderAddress":"tel:+221773387902","senderName":"ipps","outboundSMSTextMessage":{"message":"Chers parents de 3\xc3\xa8me ann\xc3\xa9e communion, ce samedi 1er mai, votre enfant aura sa 3\xc3\xa8me et derni\xc3\xa8re \xc3\xa9valuation aux horaires habitules de cours(15h), leur pr\xc3\xa9sence est donc obligatoire. leur faire r\xc3\xa9visier les le\xc3\xa7ons du chapitre 09 au chapitre 15, ils s\'agit de toutes les le\xc3\xa7ons relatives \xc3\xa0 l\'eucharistie. Merci pour votre collaboration. le bureau de la cat\xc3\xa9ch\xc3\xa8se."},"resourceURL":"https://api.orange.com/smsmessaging/v1/outbound/tel:+221773387902/requests/95145b29-8ef2-4b42-9251-50b2433ce1f7"}}'
2021-04-28 21:49:48 | numéro : 776587031 | resultat envoi : b'{"outboundSMSMessageRequest":{"address":["tel:+221776587031"],"senderAddress":"tel:+221773387902","senderName":"ipps","outboundSMSTextMessage":{"message":"Chers parents de 3\xc3\xa8me ann\xc3\xa9e communion, ce samedi 1er mai, votre enfant aura sa 3\xc3\xa8me et derni\xc3\xa8re \xc3\xa9valuation aux horaires habitules de cours(15h), leur pr\xc3\xa9sence est donc obligatoire. leur faire r\xc3\xa9visier les le\xc3\xa7ons du chapitre 09 au chapitre 15, ils s\'agit de toutes les le\xc3\xa7ons relatives \xc3\xa0 l\'eucharistie. Merci pour votre collaboration. le bureau de la cat\xc3\xa9ch\xc3\xa8se."},"resourceURL":"https://api.orange.com/smsmessaging/v1/outbound/tel:+221773387902/requests/6a54ada9-8b02-416d-8c9e-244829c25950"}}'
2021-04-28 21:49:49 | numéro : 779430351 | resultat envoi : b'{"outboundSMSMessageRequest":{"address":["tel:+221779430351"],"senderAddress":"tel:+221773387902","senderName":"ipps","outboundSMSTextMessage":{"message":"Chers parents de 3\xc3\xa8me ann\xc3\xa9e communion, ce samedi 1er mai, votre enfant aura sa 3\xc3\xa8me et derni\xc3\xa8re \xc3\xa9valuation aux horaires habitules de cours(15h), leur pr\xc3\xa9sence est donc obligatoire. leur faire r\xc3\xa9visier les le\xc3\xa7ons du chapitre 09 au chapitre 15, ils s\'agit de toutes les le\xc3\xa7ons relatives \xc3\xa0 l\'eucharistie. Merci pour votre collaboration. le bureau de la cat\xc3\xa9ch\xc3\xa8se."},"resourceURL":"https://api.orange.com/smsmessaging/v1/outbound/tel:+221773387902/requests/b71e6eb5-64d0-4834-80ec-1c2599dc4f7e"}}'
2021-04-28 21:49:50 | numéro : 776477735 | resultat envoi : b'{"outboundSMSMessageRequest":{"address":["tel:+221776477735"],"senderAddress":"tel:+221773387902","senderName":"ipps","outboundSMSTextMessage":{"message":"Chers parents de 3\xc3\xa8me ann\xc3\xa9e communion, ce samedi 1er mai, votre enfant aura sa 3\xc3\xa8me et derni\xc3\xa8re \xc3\xa9valuation aux horaires habitules de cours(15h), leur pr\xc3\xa9sence est donc obligatoire. leur faire r\xc3\xa9visier les le\xc3\xa7ons du chapitre 09 au chapitre 15, ils s\'agit de toutes les le\xc3\xa7ons relatives \xc3\xa0 l\'eucharistie. Merci pour votre collaboration. le bureau de la cat\xc3\xa9ch\xc3\xa8se."},"resourceURL":"https://api.orange.com/smsmessaging/v1/outbound/tel:+221773387902/requests/43846dd9-15b2-4b4d-b455-6115f2aa5767"}}'
2021-04-28 21:49:54 | numéro : 777199496 | resultat envoi : b'{"outboundSMSMessageRequest":{"address":["tel:+221777199496"],"senderAddress":"tel:+221773387902","senderName":"ipps","outboundSMSTextMessage":{"message":"Chers parents de 3\xc3\xa8me ann\xc3\xa9e communion, ce samedi 1er mai, votre enfant aura sa 3\xc3\xa8me et derni\xc3\xa8re \xc3\xa9valuation aux horaires habitules de cours(15h), leur pr\xc3\xa9sence est donc obligatoire. leur faire r\xc3\xa9visier les le\xc3\xa7ons du chapitre 09 au chapitre 15, ils s\'agit de toutes les le\xc3\xa7ons relatives \xc3\xa0 l\'eucharistie. Merci pour votre collaboration. le bureau de la cat\xc3\xa9ch\xc3\xa8se."},"resourceURL":"https://api.orange.com/smsmessaging/v1/outbound/tel:+221773387902/requests/0e51dbd3-bc0a-433d-b6fb-59012695ec47"}}'
2021-04-28 21:49:54 | numéro : 775409935 | resultat envoi : b'{"outboundSMSMessageRequest":{"address":["tel:+221775409935"],"senderAddress":"tel:+221773387902","senderName":"ipps","outboundSMSTextMessage":{"message":"Chers parents de 3\xc3\xa8me ann\xc3\xa9e communion, ce samedi 1er mai, votre enfant aura sa 3\xc3\xa8me et derni\xc3\xa8re \xc3\xa9valuation aux horaires habitules de cours(15h), leur pr\xc3\xa9sence est donc obligatoire. leur faire r\xc3\xa9visier les le\xc3\xa7ons du chapitre 09 au chapitre 15, ils s\'agit de toutes les le\xc3\xa7ons relatives \xc3\xa0 l\'eucharistie. Merci pour votre collaboration. le bureau de la cat\xc3\xa9ch\xc3\xa8se."},"resourceURL":"https://api.orange.com/smsmessaging/v1/outbound/tel:+221773387902/requests/3d017d2d-d719-46e2-9fb0-df3b1f27fe8a"}}'
2021-04-28 21:49:54 | numéro : 771332447 | resultat envoi : b'{"outboundSMSMessageRequest":{"address":["tel:+221771332447"],"senderAddress":"tel:+221773387902","senderName":"ipps","outboundSMSTextMessage":{"message":"Chers parents de 3\xc3\xa8me ann\xc3\xa9e communion, ce samedi 1er mai, votre enfant aura sa 3\xc3\xa8me et derni\xc3\xa8re \xc3\xa9valuation aux horaires habitules de cours(15h), leur pr\xc3\xa9sence est donc obligatoire. leur faire r\xc3\xa9visier les le\xc3\xa7ons du chapitre 09 au chapitre 15, ils s\'agit de toutes les le\xc3\xa7ons relatives \xc3\xa0 l\'eucharistie. Merci pour votre collaboration. le bureau de la cat\xc3\xa9ch\xc3\xa8se."},"resourceURL":"https://api.orange.com/smsmessaging/v1/outbound/tel:+221773387902/requests/8d3b6edb-fd7b-4034-9032-7bc892c269e9"}}'
2021-04-28 21:49:54 | numéro : 776499719 | resultat envoi : b'{"outboundSMSMessageRequest":{"address":["tel:+221776499719"],"senderAddress":"tel:+221773387902","senderName":"ipps","outboundSMSTextMessage":{"message":"Chers parents de 3\xc3\xa8me ann\xc3\xa9e communion, ce samedi 1er mai, votre enfant aura sa 3\xc3\xa8me et derni\xc3\xa8re \xc3\xa9valuation aux horaires habitules de cours(15h), leur pr\xc3\xa9sence est donc obligatoire. leur faire r\xc3\xa9visier les le\xc3\xa7ons du chapitre 09 au chapitre 15, ils s\'agit de toutes les le\xc3\xa7ons relatives \xc3\xa0 l\'eucharistie. Merci pour votre collaboration. le bureau de la cat\xc3\xa9ch\xc3\xa8se."},"resourceURL":"https://api.orange.com/smsmessaging/v1/outbound/tel:+221773387902/requests/ce0d6a43-c218-4f82-b6fc-1237323876e3"}}'
2021-04-28 21:49:55 | numéro : 778033346 | resultat envoi : b'{"outboundSMSMessageRequest":{"address":["tel:+221778033346"],"senderAddress":"tel:+221773387902","senderName":"ipps","outboundSMSTextMessage":{"message":"Chers parents de 3\xc3\xa8me ann\xc3\xa9e communion, ce samedi 1er mai, votre enfant aura sa 3\xc3\xa8me et derni\xc3\xa8re \xc3\xa9valuation aux horaires habitules de cours(15h), leur pr\xc3\xa9sence est donc obligatoire. leur faire r\xc3\xa9visier les le\xc3\xa7ons du chapitre 09 au chapitre 15, ils s\'agit de toutes les le\xc3\xa7ons relatives \xc3\xa0 l\'eucharistie. Merci pour votre collaboration. le bureau de la cat\xc3\xa9ch\xc3\xa8se."},"resourceURL":"https://api.orange.com/smsmessaging/v1/outbound/tel:+221773387902/requests/1bc5b7d6-ac11-437f-8379-38c6d9875f0d"}}'
2021-04-28 21:49:55 | numéro : 772000618 | resultat envoi : b'{"outboundSMSMessageRequest":{"address":["tel:+221772000618"],"senderAddress":"tel:+221773387902","senderName":"ipps","outboundSMSTextMessage":{"message":"Chers parents de 3\xc3\xa8me ann\xc3\xa9e communion, ce samedi 1er mai, votre enfant aura sa 3\xc3\xa8me et derni\xc3\xa8re \xc3\xa9valuation aux horaires habitules de cours(15h), leur pr\xc3\xa9sence est donc obligatoire. leur faire r\xc3\xa9visier les le\xc3\xa7ons du chapitre 09 au chapitre 15, ils s\'agit de toutes les le\xc3\xa7ons relatives \xc3\xa0 l\'eucharistie. Merci pour votre collaboration. le bureau de la cat\xc3\xa9ch\xc3\xa8se."},"resourceURL":"https://api.orange.com/smsmessaging/v1/outbound/tel:+221773387902/requests/749e859c-cacd-41ec-9eae-b7f6eb9f553f"}}'
2021-04-28 21:49:56 | numéro : 774581844 | resultat envoi : b'{"outboundSMSMessageRequest":{"address":["tel:+221774581844"],"senderAddress":"tel:+221773387902","senderName":"ipps","outboundSMSTextMessage":{"message":"Chers parents de 3\xc3\xa8me ann\xc3\xa9e communion, ce samedi 1er mai, votre enfant aura sa 3\xc3\xa8me et derni\xc3\xa8re \xc3\xa9valuation aux horaires habitules de cours(15h), leur pr\xc3\xa9sence est donc obligatoire. leur faire r\xc3\xa9visier les le\xc3\xa7ons du chapitre 09 au chapitre 15, ils s\'agit de toutes les le\xc3\xa7ons relatives \xc3\xa0 l\'eucharistie. Merci pour votre collaboration. le bureau de la cat\xc3\xa9ch\xc3\xa8se."},"resourceURL":"https://api.orange.com/smsmessaging/v1/outbound/tel:+221773387902/requests/df0d452f-cc9e-4f04-8f82-32b187771f3a"}}'
2021-04-28 21:49:57 | numéro : 775653895 | resultat envoi : b'{"outboundSMSMessageRequest":{"address":["tel:+221775653895"],"senderAddress":"tel:+221773387902","senderName":"ipps","outboundSMSTextMessage":{"message":"Chers parents de 3\xc3\xa8me ann\xc3\xa9e communion, ce samedi 1er mai, votre enfant aura sa 3\xc3\xa8me et derni\xc3\xa8re \xc3\xa9valuation aux horaires habitules de cours(15h), leur pr\xc3\xa9sence est donc obligatoire. leur faire r\xc3\xa9visier les le\xc3\xa7ons du chapitre 09 au chapitre 15, ils s\'agit de toutes les le\xc3\xa7ons relatives \xc3\xa0 l\'eucharistie. Merci pour votre collaboration. le bureau de la cat\xc3\xa9ch\xc3\xa8se."},"resourceURL":"https://api.orange.com/smsmessaging/v1/outbound/tel:+221773387902/requests/95a927e6-fd25-4aa1-aa94-f16469243864"}}'
2021-04-28 21:49:57 | numéro : 775212029 | resultat envoi : b'{"outboundSMSMessageRequest":{"address":["tel:+221775212029"],"senderAddress":"tel:+221773387902","senderName":"ipps","outboundSMSTextMessage":{"message":"Chers parents de 3\xc3\xa8me ann\xc3\xa9e communion, ce samedi 1er mai, votre enfant aura sa 3\xc3\xa8me et derni\xc3\xa8re \xc3\xa9valuation aux horaires habitules de cours(15h), leur pr\xc3\xa9sence est donc obligatoire. leur faire r\xc3\xa9visier les le\xc3\xa7ons du chapitre 09 au chapitre 15, ils s\'agit de toutes les le\xc3\xa7ons relatives \xc3\xa0 l\'eucharistie. Merci pour votre collaboration. le bureau de la cat\xc3\xa9ch\xc3\xa8se."},"resourceURL":"https://api.orange.com/smsmessaging/v1/outbound/tel:+221773387902/requests/6e9a5485-2fc4-4e25-ac97-955cab660cae"}}'
2021-04-28 21:49:57 | numéro : 777133003 | resultat envoi : b'{"outboundSMSMessageRequest":{"address":["tel:+221777133003"],"senderAddress":"tel:+221773387902","senderName":"ipps","outboundSMSTextMessage":{"message":"Chers parents de 3\xc3\xa8me ann\xc3\xa9e communion, ce samedi 1er mai, votre enfant aura sa 3\xc3\xa8me et derni\xc3\xa8re \xc3\xa9valuation aux horaires habitules de cours(15h), leur pr\xc3\xa9sence est donc obligatoire. leur faire r\xc3\xa9visier les le\xc3\xa7ons du chapitre 09 au chapitre 15, ils s\'agit de toutes les le\xc3\xa7ons relatives \xc3\xa0 l\'eucharistie. Merci pour votre collaboration. le bureau de la cat\xc3\xa9ch\xc3\xa8se."},"resourceURL":"https://api.orange.com/smsmessaging/v1/outbound/tel:+221773387902/requests/94806125-3e44-440b-bc07-cd0262eda256"}}'
2021-04-28 21:49:58 | numéro : 775116324 | resultat envoi : b'{"outboundSMSMessageRequest":{"address":["tel:+221775116324"],"senderAddress":"tel:+221773387902","senderName":"ipps","outboundSMSTextMessage":{"message":"Chers parents de 3\xc3\xa8me ann\xc3\xa9e communion, ce samedi 1er mai, votre enfant aura sa 3\xc3\xa8me et derni\xc3\xa8re \xc3\xa9valuation aux horaires habitules de cours(15h), leur pr\xc3\xa9sence est donc obligatoire. leur faire r\xc3\xa9visier les le\xc3\xa7ons du chapitre 09 au chapitre 15, ils s\'agit de toutes les le\xc3\xa7ons relatives \xc3\xa0 l\'eucharistie. Merci pour votre collaboration. le bureau de la cat\xc3\xa9ch\xc3\xa8se."},"resourceURL":"https://api.orange.com/smsmessaging/v1/outbound/tel:+221773387902/requests/9729fc62-3b5b-48a3-9827-d5df9ae0286b"}}'
2021-04-28 21:50:02 | numéro : 776458971 | resultat envoi : b'{"outboundSMSMessageRequest":{"address":["tel:+221776458971"],"senderAddress":"tel:+221773387902","senderName":"ipps","outboundSMSTextMessage":{"message":"Chers parents de 3\xc3\xa8me ann\xc3\xa9e communion, ce samedi 1er mai, votre enfant aura sa 3\xc3\xa8me et derni\xc3\xa8re \xc3\xa9valuation aux horaires habitules de cours(15h), leur pr\xc3\xa9sence est donc obligatoire. leur faire r\xc3\xa9visier les le\xc3\xa7ons du chapitre 09 au chapitre 15, ils s\'agit de toutes les le\xc3\xa7ons relatives \xc3\xa0 l\'eucharistie. Merci pour votre collaboration. le bureau de la cat\xc3\xa9ch\xc3\xa8se."},"resourceURL":"https://api.orange.com/smsmessaging/v1/outbound/tel:+221773387902/requests/b04c5a74-3c34-49b6-9923-cbacb0d04e45"}}'
2021-04-28 21:50:03 | numéro : 775313888 | resultat envoi : b'{"outboundSMSMessageRequest":{"address":["tel:+221775313888"],"senderAddress":"tel:+221773387902","senderName":"ipps","outboundSMSTextMessage":{"message":"Chers parents de 3\xc3\xa8me ann\xc3\xa9e communion, ce samedi 1er mai, votre enfant aura sa 3\xc3\xa8me et derni\xc3\xa8re \xc3\xa9valuation aux horaires habitules de cours(15h), leur pr\xc3\xa9sence est donc obligatoire. leur faire r\xc3\xa9visier les le\xc3\xa7ons du chapitre 09 au chapitre 15, ils s\'agit de toutes les le\xc3\xa7ons relatives \xc3\xa0 l\'eucharistie. Merci pour votre collaboration. le bureau de la cat\xc3\xa9ch\xc3\xa8se."},"resourceURL":"https://api.orange.com/smsmessaging/v1/outbound/tel:+221773387902/requests/55193fba-29da-45f5-972e-8e5448c9eb81"}}'
2021-04-28 21:50:03 | numéro : 772754360 | resultat envoi : b'{"outboundSMSMessageRequest":{"address":["tel:+221772754360"],"senderAddress":"tel:+221773387902","senderName":"ipps","outboundSMSTextMessage":{"message":"Chers parents de 3\xc3\xa8me ann\xc3\xa9e communion, ce samedi 1er mai, votre enfant aura sa 3\xc3\xa8me et derni\xc3\xa8re \xc3\xa9valuation aux horaires habitules de cours(15h), leur pr\xc3\xa9sence est donc obligatoire. leur faire r\xc3\xa9visier les le\xc3\xa7ons du chapitre 09 au chapitre 15, ils s\'agit de toutes les le\xc3\xa7ons relatives \xc3\xa0 l\'eucharistie. Merci pour votre collaboration. le bureau de la cat\xc3\xa9ch\xc3\xa8se."},"resourceURL":"https://api.orange.com/smsmessaging/v1/outbound/tel:+221773387902/requests/d652b505-c47e-4267-93af-0b25f1badd5d"}}'
2021-04-28 21:50:06 | numéro : 773260947 | resultat envoi : b'{"outboundSMSMessageRequest":{"address":["tel:+221773260947"],"senderAddress":"tel:+221773387902","senderName":"ipps","outboundSMSTextMessage":{"message":"Chers parents de 3\xc3\xa8me ann\xc3\xa9e communion, ce samedi 1er mai, votre enfant aura sa 3\xc3\xa8me et derni\xc3\xa8re \xc3\xa9valuation aux horaires habitules de cours(15h), leur pr\xc3\xa9sence est donc obligatoire. leur faire r\xc3\xa9visier les le\xc3\xa7ons du chapitre 09 au chapitre 15, ils s\'agit de toutes les le\xc3\xa7ons relatives \xc3\xa0 l\'eucharistie. Merci pour votre collaboration. le bureau de la cat\xc3\xa9ch\xc3\xa8se."},"resourceURL":"https://api.orange.com/smsmessaging/v1/outbound/tel:+221773387902/requests/3561c2a5-5992-4f17-afd8-1097a1ef4cf9"}}'
2021-04-28 21:50:06 | numéro : 774133658 | resultat envoi : b'{"outboundSMSMessageRequest":{"address":["tel:+221774133658"],"senderAddress":"tel:+221773387902","senderName":"ipps","outboundSMSTextMessage":{"message":"Chers parents de 3\xc3\xa8me ann\xc3\xa9e communion, ce samedi 1er mai, votre enfant aura sa 3\xc3\xa8me et derni\xc3\xa8re \xc3\xa9valuation aux horaires habitules de cours(15h), leur pr\xc3\xa9sence est donc obligatoire. leur faire r\xc3\xa9visier les le\xc3\xa7ons du chapitre 09 au chapitre 15, ils s\'agit de toutes les le\xc3\xa7ons relatives \xc3\xa0 l\'eucharistie. Merci pour votre collaboration. le bureau de la cat\xc3\xa9ch\xc3\xa8se."},"resourceURL":"https://api.orange.com/smsmessaging/v1/outbound/tel:+221773387902/requests/fb2c8dd4-fa50-4b72-9e11-d5d32b196c3f"}}'
2021-04-28 21:50:07 | numéro : 775484330 | resultat envoi : b'{"outboundSMSMessageRequest":{"address":["tel:+221775484330"],"senderAddress":"tel:+221773387902","senderName":"ipps","outboundSMSTextMessage":{"message":"Chers parents de 3\xc3\xa8me ann\xc3\xa9e communion, ce samedi 1er mai, votre enfant aura sa 3\xc3\xa8me et derni\xc3\xa8re \xc3\xa9valuation aux horaires habitules de cours(15h), leur pr\xc3\xa9sence est donc obligatoire. leur faire r\xc3\xa9visier les le\xc3\xa7ons du chapitre 09 au chapitre 15, ils s\'agit de toutes les le\xc3\xa7ons relatives \xc3\xa0 l\'eucharistie. Merci pour votre collaboration. le bureau de la cat\xc3\xa9ch\xc3\xa8se."},"resourceURL":"https://api.orange.com/smsmessaging/v1/outbound/tel:+221773387902/requests/f1444979-f1ce-446f-94a3-ce49729d0e2f"}}'
2021-04-28 21:50:07 | numéro : 779325273 | resultat envoi : b'{"outboundSMSMessageRequest":{"address":["tel:+221779325273"],"senderAddress":"tel:+221773387902","senderName":"ipps","outboundSMSTextMessage":{"message":"Chers parents de 3\xc3\xa8me ann\xc3\xa9e communion, ce samedi 1er mai, votre enfant aura sa 3\xc3\xa8me et derni\xc3\xa8re \xc3\xa9valuation aux horaires habitules de cours(15h), leur pr\xc3\xa9sence est donc obligatoire. leur faire r\xc3\xa9visier les le\xc3\xa7ons du chapitre 09 au chapitre 15, ils s\'agit de toutes les le\xc3\xa7ons relatives \xc3\xa0 l\'eucharistie. Merci pour votre collaboration. le bureau de la cat\xc3\xa9ch\xc3\xa8se."},"resourceURL":"https://api.orange.com/smsmessaging/v1/outbound/tel:+221773387902/requests/fcda829d-cf55-497e-83fe-9316814308fd"}}'
2021-04-28 21:50:07 | numéro : 778942582 | resultat envoi : b'{"outboundSMSMessageRequest":{"address":["tel:+221778942582"],"senderAddress":"tel:+221773387902","senderName":"ipps","outboundSMSTextMessage":{"message":"Chers parents de 3\xc3\xa8me ann\xc3\xa9e communion, ce samedi 1er mai, votre enfant aura sa 3\xc3\xa8me et derni\xc3\xa8re \xc3\xa9valuation aux horaires habitules de cours(15h), leur pr\xc3\xa9sence est donc obligatoire. leur faire r\xc3\xa9visier les le\xc3\xa7ons du chapitre 09 au chapitre 15, ils s\'agit de toutes les le\xc3\xa7ons relatives \xc3\xa0 l\'eucharistie. Merci pour votre collaboration. le bureau de la cat\xc3\xa9ch\xc3\xa8se."},"resourceURL":"https://api.orange.com/smsmessaging/v1/outbound/tel:+221773387902/requests/2a2cf04c-3446-4433-abfc-5ff887d9dfae"}}'
2021-04-28 21:50:08 | numéro : 776556519 | resultat envoi : b'{"outboundSMSMessageRequest":{"address":["tel:+221776556519"],"senderAddress":"tel:+221773387902","senderName":"ipps","outboundSMSTextMessage":{"message":"Chers parents de 3\xc3\xa8me ann\xc3\xa9e communion, ce samedi 1er mai, votre enfant aura sa 3\xc3\xa8me et derni\xc3\xa8re \xc3\xa9valuation aux horaires habitules de cours(15h), leur pr\xc3\xa9sence est donc obligatoire. leur faire r\xc3\xa9visier les le\xc3\xa7ons du chapitre 09 au chapitre 15, ils s\'agit de toutes les le\xc3\xa7ons relatives \xc3\xa0 l\'eucharistie. Merci pour votre collaboration. le bureau de la cat\xc3\xa9ch\xc3\xa8se."},"resourceURL":"https://api.orange.com/smsmessaging/v1/outbound/tel:+221773387902/requests/0e143c15-7d72-450f-8932-752d6d410fb3"}}'
2021-04-28 21:50:08 | numéro : 774287075 | resultat envoi : b'{"outboundSMSMessageRequest":{"address":["tel:+221774287075"],"senderAddress":"tel:+221773387902","senderName":"ipps","outboundSMSTextMessage":{"message":"Chers parents de 3\xc3\xa8me ann\xc3\xa9e communion, ce samedi 1er mai, votre enfant aura sa 3\xc3\xa8me et derni\xc3\xa8re \xc3\xa9valuation aux horaires habitules de cours(15h), leur pr\xc3\xa9sence est donc obligatoire. leur faire r\xc3\xa9visier les le\xc3\xa7ons du chapitre 09 au chapitre 15, ils s\'agit de toutes les le\xc3\xa7ons relatives \xc3\xa0 l\'eucharistie. Merci pour votre collaboration. le bureau de la cat\xc3\xa9ch\xc3\xa8se."},"resourceURL":"https://api.orange.com/smsmessaging/v1/outbound/tel:+221773387902/requests/6a08f6bb-77ec-4795-8dee-294300fd2a63"}}'
2021-04-28 21:50:08 | numéro : 775647216 | resultat envoi : b'{"outboundSMSMessageRequest":{"address":["tel:+221775647216"],"senderAddress":"tel:+221773387902","senderName":"ipps","outboundSMSTextMessage":{"message":"Chers parents de 3\xc3\xa8me ann\xc3\xa9e communion, ce samedi 1er mai, votre enfant aura sa 3\xc3\xa8me et derni\xc3\xa8re \xc3\xa9valuation aux horaires habitules de cours(15h), leur pr\xc3\xa9sence est donc obligatoire. leur faire r\xc3\xa9visier les le\xc3\xa7ons du chapitre 09 au chapitre 15, ils s\'agit de toutes les le\xc3\xa7ons relatives \xc3\xa0 l\'eucharistie. Merci pour votre collaboration. le bureau de la cat\xc3\xa9ch\xc3\xa8se."},"resourceURL":"https://api.orange.com/smsmessaging/v1/outbound/tel:+221773387902/requests/ae842734-373d-4837-a995-4d629a2bca5b"}}'
2021-04-28 21:50:09 | numéro : 777931493 | resultat envoi : b'{"outboundSMSMessageRequest":{"address":["tel:+221777931493"],"senderAddress":"tel:+221773387902","senderName":"ipps","outboundSMSTextMessage":{"message":"Chers parents de 3\xc3\xa8me ann\xc3\xa9e communion, ce samedi 1er mai, votre enfant aura sa 3\xc3\xa8me et derni\xc3\xa8re \xc3\xa9valuation aux horaires habitules de cours(15h), leur pr\xc3\xa9sence est donc obligatoire. leur faire r\xc3\xa9visier les le\xc3\xa7ons du chapitre 09 au chapitre 15, ils s\'agit de toutes les le\xc3\xa7ons relatives \xc3\xa0 l\'eucharistie. Merci pour votre collaboration. le bureau de la cat\xc3\xa9ch\xc3\xa8se."},"resourceURL":"https://api.orange.com/smsmessaging/v1/outbound/tel:+221773387902/requests/76f9e03f-cf9c-4ed7-9311-778f7514da11"}}'
2021-04-28 21:50:09 | numéro : 778170857 | resultat envoi : b'{"outboundSMSMessageRequest":{"address":["tel:+221778170857"],"senderAddress":"tel:+221773387902","senderName":"ipps","outboundSMSTextMessage":{"message":"Chers parents de 3\xc3\xa8me ann\xc3\xa9e communion, ce samedi 1er mai, votre enfant aura sa 3\xc3\xa8me et derni\xc3\xa8re \xc3\xa9valuation aux horaires habitules de cours(15h), leur pr\xc3\xa9sence est donc obligatoire. leur faire r\xc3\xa9visier les le\xc3\xa7ons du chapitre 09 au chapitre 15, ils s\'agit de toutes les le\xc3\xa7ons relatives \xc3\xa0 l\'eucharistie. Merci pour votre collaboration. le bureau de la cat\xc3\xa9ch\xc3\xa8se."},"resourceURL":"https://api.orange.com/smsmessaging/v1/outbound/tel:+221773387902/requests/5840f96f-0143-46f5-ab17-e286b5a2115d"}}'
2021-04-28 21:50:10 | numéro : 778590854 | resultat envoi : b'{"outboundSMSMessageRequest":{"address":["tel:+221778590854"],"senderAddress":"tel:+221773387902","senderName":"ipps","outboundSMSTextMessage":{"message":"Chers parents de 3\xc3\xa8me ann\xc3\xa9e communion, ce samedi 1er mai, votre enfant aura sa 3\xc3\xa8me et derni\xc3\xa8re \xc3\xa9valuation aux horaires habitules de cours(15h), leur pr\xc3\xa9sence est donc obligatoire. leur faire r\xc3\xa9visier les le\xc3\xa7ons du chapitre 09 au chapitre 15, ils s\'agit de toutes les le\xc3\xa7ons relatives \xc3\xa0 l\'eucharistie. Merci pour votre collaboration. le bureau de la cat\xc3\xa9ch\xc3\xa8se."},"resourceURL":"https://api.orange.com/smsmessaging/v1/outbound/tel:+221773387902/requests/06d7b0be-ddb7-4497-acfd-d1f182bdf696"}}'
2021-04-28 21:50:10 | numéro : 782916195 | resultat envoi : b'{"outboundSMSMessageRequest":{"address":["tel:+221782916195"],"senderAddress":"tel:+221773387902","senderName":"ipps","outboundSMSTextMessage":{"message":"Chers parents de 3\xc3\xa8me ann\xc3\xa9e communion, ce samedi 1er mai, votre enfant aura sa 3\xc3\xa8me et derni\xc3\xa8re \xc3\xa9valuation aux horaires habitules de cours(15h), leur pr\xc3\xa9sence est donc obligatoire. leur faire r\xc3\xa9visier les le\xc3\xa7ons du chapitre 09 au chapitre 15, ils s\'agit de toutes les le\xc3\xa7ons relatives \xc3\xa0 l\'eucharistie. Merci pour votre collaboration. le bureau de la cat\xc3\xa9ch\xc3\xa8se."},"resourceURL":"https://api.orange.com/smsmessaging/v1/outbound/tel:+221773387902/requests/bfb9a2b7-4f80-4c75-a785-bc5fc0f9d306"}}'
2021-04-28 21:50:10 | numéro : 773387902 | resultat envoi : b'{"outboundSMSMessageRequest":{"address":["tel:+221773387902"],"senderAddress":"tel:+221773387902","senderName":"ipps","outboundSMSTextMessage":{"message":"Chers parents de 3\xc3\xa8me ann\xc3\xa9e communion, ce samedi 1er mai, votre enfant aura sa 3\xc3\xa8me et derni\xc3\xa8re \xc3\xa9valuation aux horaires habitules de cours(15h), leur pr\xc3\xa9sence est donc obligatoire. leur faire r\xc3\xa9visier les le\xc3\xa7ons du chapitre 09 au chapitre 15, ils s\'agit de toutes les le\xc3\xa7ons relatives \xc3\xa0 l\'eucharistie. Merci pour votre collaboration. le bureau de la cat\xc3\xa9ch\xc3\xa8se."},"resourceURL":"https://api.orange.com/smsmessaging/v1/outbound/tel:+221773387902/requests/5fa2b044-40d8-43bd-9d73-6ed8aad24377"}}'
2021-04-28 21:50:10 | balance 17 | fin envoi
