2021-04-15 13:20:16 | balance 4276 | debut envoi
2021-04-15 13:20:16 | numéro : 778590854 | resultat envoi : b'{"outboundSMSMessageRequest":{"address":["tel:+221778590854"],"senderAddress":"tel:+221773387902","senderName":"ipps","outboundSMSTextMessage":{"message":"[CATESDB] Chers parents, vous \xc3\xaates attendus ce samedi de 15h \xc3\xa0 17h au secr\xc3\xa9tariat de la cat\xc3\xa9ch\xc3\xa8se pour retirer le bulletin de votre enfant en classe de 3eme ann\xc3\xa9e communion. les sacrements approchent et nous sommes \xc3\xa0 une \xc3\xa9tape d\xc3\xa9cisive, ce sera l\'occasion d\'\xc3\xa9changer avec vous sur l\xe2\x80\x99\xc3\xa9ligibilit\xc3\xa9 de votre enfant au sacrement. A ce samedi 17 avril.Pr\xc3\xa9sence obligatoire. Le bureau de la cat\xc3\xa9ch\xc3\xa8se"},"resourceURL":"https://api.orange.com/smsmessaging/v1/outbound/tel:+221773387902/requests/1bd8c16f-cf2c-4845-90f6-8c47112ae94e"}}'
2021-04-15 13:20:16 | numéro : 782916195 | resultat envoi : b'{"outboundSMSMessageRequest":{"address":["tel:+221782916195"],"senderAddress":"tel:+221773387902","senderName":"ipps","outboundSMSTextMessage":{"message":"[CATESDB] Chers parents, vous \xc3\xaates attendus ce samedi de 15h \xc3\xa0 17h au secr\xc3\xa9tariat de la cat\xc3\xa9ch\xc3\xa8se pour retirer le bulletin de votre enfant en classe de 3eme ann\xc3\xa9e communion. les sacrements approchent et nous sommes \xc3\xa0 une \xc3\xa9tape d\xc3\xa9cisive, ce sera l\'occasion d\'\xc3\xa9changer avec vous sur l\xe2\x80\x99\xc3\xa9ligibilit\xc3\xa9 de votre enfant au sacrement. A ce samedi 17 avril.Pr\xc3\xa9sence obligatoire. Le bureau de la cat\xc3\xa9ch\xc3\xa8se"},"resourceURL":"https://api.orange.com/smsmessaging/v1/outbound/tel:+221773387902/requests/c6330386-5d0c-412d-af0f-8f1824433715"}}'
2021-04-15 13:20:16 | numéro : 778170857 | resultat envoi : b'{"outboundSMSMessageRequest":{"address":["tel:+221778170857"],"senderAddress":"tel:+221773387902","senderName":"ipps","outboundSMSTextMessage":{"message":"[CATESDB] Chers parents, vous \xc3\xaates attendus ce samedi de 15h \xc3\xa0 17h au secr\xc3\xa9tariat de la cat\xc3\xa9ch\xc3\xa8se pour retirer le bulletin de votre enfant en classe de 3eme ann\xc3\xa9e communion. les sacrements approchent et nous sommes \xc3\xa0 une \xc3\xa9tape d\xc3\xa9cisive, ce sera l\'occasion d\'\xc3\xa9changer avec vous sur l\xe2\x80\x99\xc3\xa9ligibilit\xc3\xa9 de votre enfant au sacrement. A ce samedi 17 avril.Pr\xc3\xa9sence obligatoire. Le bureau de la cat\xc3\xa9ch\xc3\xa8se"},"resourceURL":"https://api.orange.com/smsmessaging/v1/outbound/tel:+221773387902/requests/c2b1326f-a580-4245-8b60-ed2d189047ce"}}'
2021-04-15 13:20:17 | numéro : 775116324 | resultat envoi : b'{"outboundSMSMessageRequest":{"address":["tel:+221775116324"],"senderAddress":"tel:+221773387902","senderName":"ipps","outboundSMSTextMessage":{"message":"[CATESDB] Chers parents, vous \xc3\xaates attendus ce samedi de 15h \xc3\xa0 17h au secr\xc3\xa9tariat de la cat\xc3\xa9ch\xc3\xa8se pour retirer le bulletin de votre enfant en classe de 3eme ann\xc3\xa9e communion. les sacrements approchent et nous sommes \xc3\xa0 une \xc3\xa9tape d\xc3\xa9cisive, ce sera l\'occasion d\'\xc3\xa9changer avec vous sur l\xe2\x80\x99\xc3\xa9ligibilit\xc3\xa9 de votre enfant au sacrement. A ce samedi 17 avril.Pr\xc3\xa9sence obligatoire. Le bureau de la cat\xc3\xa9ch\xc3\xa8se"},"resourceURL":"https://api.orange.com/smsmessaging/v1/outbound/tel:+221773387902/requests/137afb11-48d5-4522-9179-05913be33d8d"}}'
2021-04-15 13:20:17 | numéro : 775106381 | resultat envoi : b'{"outboundSMSMessageRequest":{"address":["tel:+221775106381"],"senderAddress":"tel:+221773387902","senderName":"ipps","outboundSMSTextMessage":{"message":"[CATESDB] Chers parents, vous \xc3\xaates attendus ce samedi de 15h \xc3\xa0 17h au secr\xc3\xa9tariat de la cat\xc3\xa9ch\xc3\xa8se pour retirer le bulletin de votre enfant en classe de 3eme ann\xc3\xa9e communion. les sacrements approchent et nous sommes \xc3\xa0 une \xc3\xa9tape d\xc3\xa9cisive, ce sera l\'occasion d\'\xc3\xa9changer avec vous sur l\xe2\x80\x99\xc3\xa9ligibilit\xc3\xa9 de votre enfant au sacrement. A ce samedi 17 avril.Pr\xc3\xa9sence obligatoire. Le bureau de la cat\xc3\xa9ch\xc3\xa8se"},"resourceURL":"https://api.orange.com/smsmessaging/v1/outbound/tel:+221773387902/requests/aaa9e9e8-05d3-4ac7-987a-a841d42bb277"}}'
2021-04-15 13:20:18 | numéro : 773670365 | resultat envoi : b'{"outboundSMSMessageRequest":{"address":["tel:+221773670365"],"senderAddress":"tel:+221773387902","senderName":"ipps","outboundSMSTextMessage":{"message":"[CATESDB] Chers parents, vous \xc3\xaates attendus ce samedi de 15h \xc3\xa0 17h au secr\xc3\xa9tariat de la cat\xc3\xa9ch\xc3\xa8se pour retirer le bulletin de votre enfant en classe de 3eme ann\xc3\xa9e communion. les sacrements approchent et nous sommes \xc3\xa0 une \xc3\xa9tape d\xc3\xa9cisive, ce sera l\'occasion d\'\xc3\xa9changer avec vous sur l\xe2\x80\x99\xc3\xa9ligibilit\xc3\xa9 de votre enfant au sacrement. A ce samedi 17 avril.Pr\xc3\xa9sence obligatoire. Le bureau de la cat\xc3\xa9ch\xc3\xa8se"},"resourceURL":"https://api.orange.com/smsmessaging/v1/outbound/tel:+221773387902/requests/d48f7ee8-4170-4b5c-bd17-a20400f94949"}}'
2021-04-15 13:20:18 | numéro : 776458971 | resultat envoi : b'{"outboundSMSMessageRequest":{"address":["tel:+221776458971"],"senderAddress":"tel:+221773387902","senderName":"ipps","outboundSMSTextMessage":{"message":"[CATESDB] Chers parents, vous \xc3\xaates attendus ce samedi de 15h \xc3\xa0 17h au secr\xc3\xa9tariat de la cat\xc3\xa9ch\xc3\xa8se pour retirer le bulletin de votre enfant en classe de 3eme ann\xc3\xa9e communion. les sacrements approchent et nous sommes \xc3\xa0 une \xc3\xa9tape d\xc3\xa9cisive, ce sera l\'occasion d\'\xc3\xa9changer avec vous sur l\xe2\x80\x99\xc3\xa9ligibilit\xc3\xa9 de votre enfant au sacrement. A ce samedi 17 avril.Pr\xc3\xa9sence obligatoire. Le bureau de la cat\xc3\xa9ch\xc3\xa8se"},"resourceURL":"https://api.orange.com/smsmessaging/v1/outbound/tel:+221773387902/requests/80c311fb-68a8-4bc0-864d-dd0206d1f3c9"}}'
2021-04-15 13:20:18 | balance 4066 | fin envoi
