2021-05-26 23:30:48 | balance 373 | debut envoi
2021-05-26 23:30:48 | numéro : 778590854 | resultat envoi : b'{"outboundSMSMessageRequest":{"address":["tel:+221778590854"],"senderAddress":"tel:+221773387902","senderName":"ipps","outboundSMSTextMessage":{"message":"Chers parents,\\nVous avez encore jusqu\'\xc3\xa0 demain 18h00 pour d\xc3\xa9poser l\'extrait de bapteme de votre enfant au niveau du cur\xc3\xa9, d\xc3\xa9lai de rigueur.\\nNous rappelons que c\'est obligatoire pour le sacrement.\\nMerci pour votre compr\xc3\xa9hension.\\n\\nLe bureau de la cat\xc3\xa9ch\xc3\xa8se"},"resourceURL":"https://api.orange.com/smsmessaging/v1/outbound/tel:+221773387902/requests/5c71cb3c-45fb-4824-bcd9-2920f55434f7"}}'
2021-05-26 23:30:48 | numéro : 783504796 | resultat envoi : b'{"outboundSMSMessageRequest":{"address":["tel:+221783504796"],"senderAddress":"tel:+221773387902","senderName":"ipps","outboundSMSTextMessage":{"message":"Chers parents,\\nVous avez encore jusqu\'\xc3\xa0 demain 18h00 pour d\xc3\xa9poser l\'extrait de bapteme de votre enfant au niveau du cur\xc3\xa9, d\xc3\xa9lai de rigueur.\\nNous rappelons que c\'est obligatoire pour le sacrement.\\nMerci pour votre compr\xc3\xa9hension.\\n\\nLe bureau de la cat\xc3\xa9ch\xc3\xa8se"},"resourceURL":"https://api.orange.com/smsmessaging/v1/outbound/tel:+221773387902/requests/c75f113f-7d90-43ea-8e24-5436c8ea55ed"}}'
2021-05-26 23:30:48 | numéro : 776499719 | resultat envoi : b'{"outboundSMSMessageRequest":{"address":["tel:+221776499719"],"senderAddress":"tel:+221773387902","senderName":"ipps","outboundSMSTextMessage":{"message":"Chers parents,\\nVous avez encore jusqu\'\xc3\xa0 demain 18h00 pour d\xc3\xa9poser l\'extrait de bapteme de votre enfant au niveau du cur\xc3\xa9, d\xc3\xa9lai de rigueur.\\nNous rappelons que c\'est obligatoire pour le sacrement.\\nMerci pour votre compr\xc3\xa9hension.\\n\\nLe bureau de la cat\xc3\xa9ch\xc3\xa8se"},"resourceURL":"https://api.orange.com/smsmessaging/v1/outbound/tel:+221773387902/requests/d064f704-5c4f-4f69-9d5a-d18ce85a219d"}}'
2021-05-26 23:30:49 | numéro : 775056461 | resultat envoi : b'{"outboundSMSMessageRequest":{"address":["tel:+221775056461"],"senderAddress":"tel:+221773387902","senderName":"ipps","outboundSMSTextMessage":{"message":"Chers parents,\\nVous avez encore jusqu\'\xc3\xa0 demain 18h00 pour d\xc3\xa9poser l\'extrait de bapteme de votre enfant au niveau du cur\xc3\xa9, d\xc3\xa9lai de rigueur.\\nNous rappelons que c\'est obligatoire pour le sacrement.\\nMerci pour votre compr\xc3\xa9hension.\\n\\nLe bureau de la cat\xc3\xa9ch\xc3\xa8se"},"resourceURL":"https://api.orange.com/smsmessaging/v1/outbound/tel:+221773387902/requests/cb70cca7-7e18-4481-8678-c44602eb5b7d"}}'
2021-05-26 23:30:49 | numéro : 776487532 | resultat envoi : b'{"outboundSMSMessageRequest":{"address":["tel:+221776487532"],"senderAddress":"tel:+221773387902","senderName":"ipps","outboundSMSTextMessage":{"message":"Chers parents,\\nVous avez encore jusqu\'\xc3\xa0 demain 18h00 pour d\xc3\xa9poser l\'extrait de bapteme de votre enfant au niveau du cur\xc3\xa9, d\xc3\xa9lai de rigueur.\\nNous rappelons que c\'est obligatoire pour le sacrement.\\nMerci pour votre compr\xc3\xa9hension.\\n\\nLe bureau de la cat\xc3\xa9ch\xc3\xa8se"},"resourceURL":"https://api.orange.com/smsmessaging/v1/outbound/tel:+221773387902/requests/6a09e5d3-3fc8-4c4a-bdd4-74494f4f4ffb"}}'
2021-05-26 23:30:49 | numéro : 775580777 | resultat envoi : b'{"outboundSMSMessageRequest":{"address":["tel:+221775580777"],"senderAddress":"tel:+221773387902","senderName":"ipps","outboundSMSTextMessage":{"message":"Chers parents,\\nVous avez encore jusqu\'\xc3\xa0 demain 18h00 pour d\xc3\xa9poser l\'extrait de bapteme de votre enfant au niveau du cur\xc3\xa9, d\xc3\xa9lai de rigueur.\\nNous rappelons que c\'est obligatoire pour le sacrement.\\nMerci pour votre compr\xc3\xa9hension.\\n\\nLe bureau de la cat\xc3\xa9ch\xc3\xa8se"},"resourceURL":"https://api.orange.com/smsmessaging/v1/outbound/tel:+221773387902/requests/fedbd4ee-4b43-4b52-a072-4c094513a9c8"}}'
2021-05-26 23:30:50 | numéro : 768521534 | resultat envoi : b'{"outboundSMSMessageRequest":{"address":["tel:+221768521534"],"senderAddress":"tel:+221773387902","senderName":"ipps","outboundSMSTextMessage":{"message":"Chers parents,\\nVous avez encore jusqu\'\xc3\xa0 demain 18h00 pour d\xc3\xa9poser l\'extrait de bapteme de votre enfant au niveau du cur\xc3\xa9, d\xc3\xa9lai de rigueur.\\nNous rappelons que c\'est obligatoire pour le sacrement.\\nMerci pour votre compr\xc3\xa9hension.\\n\\nLe bureau de la cat\xc3\xa9ch\xc3\xa8se"},"resourceURL":"https://api.orange.com/smsmessaging/v1/outbound/tel:+221773387902/requests/a6eb69f7-4517-4a68-89d6-126192f3edca"}}'
2021-05-26 23:30:50 | numéro : 779359753 | resultat envoi : b'{"outboundSMSMessageRequest":{"address":["tel:+221779359753"],"senderAddress":"tel:+221773387902","senderName":"ipps","outboundSMSTextMessage":{"message":"Chers parents,\\nVous avez encore jusqu\'\xc3\xa0 demain 18h00 pour d\xc3\xa9poser l\'extrait de bapteme de votre enfant au niveau du cur\xc3\xa9, d\xc3\xa9lai de rigueur.\\nNous rappelons que c\'est obligatoire pour le sacrement.\\nMerci pour votre compr\xc3\xa9hension.\\n\\nLe bureau de la cat\xc3\xa9ch\xc3\xa8se"},"resourceURL":"https://api.orange.com/smsmessaging/v1/outbound/tel:+221773387902/requests/13051c8a-b3ba-45d8-9142-47e04f13aaff"}}'
2021-05-26 23:30:50 | numéro : 771624536 | resultat envoi : b'{"outboundSMSMessageRequest":{"address":["tel:+221771624536"],"senderAddress":"tel:+221773387902","senderName":"ipps","outboundSMSTextMessage":{"message":"Chers parents,\\nVous avez encore jusqu\'\xc3\xa0 demain 18h00 pour d\xc3\xa9poser l\'extrait de bapteme de votre enfant au niveau du cur\xc3\xa9, d\xc3\xa9lai de rigueur.\\nNous rappelons que c\'est obligatoire pour le sacrement.\\nMerci pour votre compr\xc3\xa9hension.\\n\\nLe bureau de la cat\xc3\xa9ch\xc3\xa8se"},"resourceURL":"https://api.orange.com/smsmessaging/v1/outbound/tel:+221773387902/requests/70a45d87-d35c-4ce8-bbb9-8c61e69b7690"}}'
2021-05-26 23:30:51 | numéro : 773387902 | resultat envoi : b'{"outboundSMSMessageRequest":{"address":["tel:+221773387902"],"senderAddress":"tel:+221773387902","senderName":"ipps","outboundSMSTextMessage":{"message":"Chers parents,\\nVous avez encore jusqu\'\xc3\xa0 demain 18h00 pour d\xc3\xa9poser l\'extrait de bapteme de votre enfant au niveau du cur\xc3\xa9, d\xc3\xa9lai de rigueur.\\nNous rappelons que c\'est obligatoire pour le sacrement.\\nMerci pour votre compr\xc3\xa9hension.\\n\\nLe bureau de la cat\xc3\xa9ch\xc3\xa8se"},"resourceURL":"https://api.orange.com/smsmessaging/v1/outbound/tel:+221773387902/requests/2bfeddd3-1cbf-4ca3-9712-f9af19841f63"}}'
2021-05-26 23:30:51 | balance 23 | fin envoi
