2021-08-16 22:35:10 | balance 1582 | debut envoi
2021-08-16 22:35:10 | numéro : 765005555 | resultat envoi : b'{"outboundSMSMessageRequest":{"address":["tel:+221765005555"],"senderAddress":"tel:+221773387902","senderName":"ipps","outboundSMSTextMessage":{"message":"[Berger NIXON] Shalom famille soyez b\xc3\xa9nis.\\nJ\xe2\x80\x99ai le plaisir et la joie de vous annoncer le mariage de notre s\xc5\x93ur Virginie faye de l\xe2\x80\x99accueil ce samedi 21 AO\xc3\x9bT 2021 \xc3\xa0 11H \xc3\xa0 la mairie de SICAP MBAO. tout le monde est invit\xc3\xa9. Merci\\n\\nBerger Nixon"},"resourceURL":"https://api.orange.com/smsmessaging/v1/outbound/tel:+221773387902/requests/482003fc-847e-46a4-a949-537178dc7525"}}'
2021-08-16 22:35:11 | numéro : 778929932 | resultat envoi : b'{"outboundSMSMessageRequest":{"address":["tel:+221778929932"],"senderAddress":"tel:+221773387902","senderName":"ipps","outboundSMSTextMessage":{"message":"[Berger NIXON] Shalom famille soyez b\xc3\xa9nis.\\nJ\xe2\x80\x99ai le plaisir et la joie de vous annoncer le mariage de notre s\xc5\x93ur Virginie faye de l\xe2\x80\x99accueil ce samedi 21 AO\xc3\x9bT 2021 \xc3\xa0 11H \xc3\xa0 la mairie de SICAP MBAO. tout le monde est invit\xc3\xa9. Merci\\n\\nBerger Nixon"},"resourceURL":"https://api.orange.com/smsmessaging/v1/outbound/tel:+221773387902/requests/a545bf35-c536-4ca7-8b9c-1e059817a2d4"}}'
2021-08-16 22:35:12 | numéro : 771594350 | resultat envoi : b'{"outboundSMSMessageRequest":{"address":["tel:+221771594350"],"senderAddress":"tel:+221773387902","senderName":"ipps","outboundSMSTextMessage":{"message":"[Berger NIXON] Shalom famille soyez b\xc3\xa9nis.\\nJ\xe2\x80\x99ai le plaisir et la joie de vous annoncer le mariage de notre s\xc5\x93ur Virginie faye de l\xe2\x80\x99accueil ce samedi 21 AO\xc3\x9bT 2021 \xc3\xa0 11H \xc3\xa0 la mairie de SICAP MBAO. tout le monde est invit\xc3\xa9. Merci\\n\\nBerger Nixon"},"resourceURL":"https://api.orange.com/smsmessaging/v1/outbound/tel:+221773387902/requests/db538c3e-3431-4436-becb-7272da924fe7"}}'
2021-08-16 22:35:13 | numéro : 773458517 | resultat envoi : b'{"outboundSMSMessageRequest":{"address":["tel:+221773458517"],"senderAddress":"tel:+221773387902","senderName":"ipps","outboundSMSTextMessage":{"message":"[Berger NIXON] Shalom famille soyez b\xc3\xa9nis.\\nJ\xe2\x80\x99ai le plaisir et la joie de vous annoncer le mariage de notre s\xc5\x93ur Virginie faye de l\xe2\x80\x99accueil ce samedi 21 AO\xc3\x9bT 2021 \xc3\xa0 11H \xc3\xa0 la mairie de SICAP MBAO. tout le monde est invit\xc3\xa9. Merci\\n\\nBerger Nixon"},"resourceURL":"https://api.orange.com/smsmessaging/v1/outbound/tel:+221773387902/requests/2b2c2098-2a3d-4d9a-8daa-12451854bf0b"}}'
2021-08-16 22:35:14 | numéro : 773532839 | resultat envoi : b'{"outboundSMSMessageRequest":{"address":["tel:+221773532839"],"senderAddress":"tel:+221773387902","senderName":"ipps","outboundSMSTextMessage":{"message":"[Berger NIXON] Shalom famille soyez b\xc3\xa9nis.\\nJ\xe2\x80\x99ai le plaisir et la joie de vous annoncer le mariage de notre s\xc5\x93ur Virginie faye de l\xe2\x80\x99accueil ce samedi 21 AO\xc3\x9bT 2021 \xc3\xa0 11H \xc3\xa0 la mairie de SICAP MBAO. tout le monde est invit\xc3\xa9. Merci\\n\\nBerger Nixon"},"resourceURL":"https://api.orange.com/smsmessaging/v1/outbound/tel:+221773387902/requests/b16008bd-3fdd-40e7-a718-960910cfd3c0"}}'
2021-08-16 22:35:14 | numéro : 772494914 | resultat envoi : b'{"outboundSMSMessageRequest":{"address":["tel:+221772494914"],"senderAddress":"tel:+221773387902","senderName":"ipps","outboundSMSTextMessage":{"message":"[Berger NIXON] Shalom famille soyez b\xc3\xa9nis.\\nJ\xe2\x80\x99ai le plaisir et la joie de vous annoncer le mariage de notre s\xc5\x93ur Virginie faye de l\xe2\x80\x99accueil ce samedi 21 AO\xc3\x9bT 2021 \xc3\xa0 11H \xc3\xa0 la mairie de SICAP MBAO. tout le monde est invit\xc3\xa9. Merci\\n\\nBerger Nixon"},"resourceURL":"https://api.orange.com/smsmessaging/v1/outbound/tel:+221773387902/requests/3e44359e-8ba6-438d-9c4f-79824ba04e19"}}'
2021-08-16 22:35:15 | numéro : 776381558 | resultat envoi : b'{"outboundSMSMessageRequest":{"address":["tel:+221776381558"],"senderAddress":"tel:+221773387902","senderName":"ipps","outboundSMSTextMessage":{"message":"[Berger NIXON] Shalom famille soyez b\xc3\xa9nis.\\nJ\xe2\x80\x99ai le plaisir et la joie de vous annoncer le mariage de notre s\xc5\x93ur Virginie faye de l\xe2\x80\x99accueil ce samedi 21 AO\xc3\x9bT 2021 \xc3\xa0 11H \xc3\xa0 la mairie de SICAP MBAO. tout le monde est invit\xc3\xa9. Merci\\n\\nBerger Nixon"},"resourceURL":"https://api.orange.com/smsmessaging/v1/outbound/tel:+221773387902/requests/654517a5-910a-4592-8fae-6145d5f88895"}}'
2021-08-16 22:35:16 | numéro : 775411590 | resultat envoi : b'{"outboundSMSMessageRequest":{"address":["tel:+221775411590"],"senderAddress":"tel:+221773387902","senderName":"ipps","outboundSMSTextMessage":{"message":"[Berger NIXON] Shalom famille soyez b\xc3\xa9nis.\\nJ\xe2\x80\x99ai le plaisir et la joie de vous annoncer le mariage de notre s\xc5\x93ur Virginie faye de l\xe2\x80\x99accueil ce samedi 21 AO\xc3\x9bT 2021 \xc3\xa0 11H \xc3\xa0 la mairie de SICAP MBAO. tout le monde est invit\xc3\xa9. Merci\\n\\nBerger Nixon"},"resourceURL":"https://api.orange.com/smsmessaging/v1/outbound/tel:+221773387902/requests/0045527f-8311-49cb-b733-30a049d645b1"}}'
2021-08-16 22:35:16 | numéro : 777476138 | resultat envoi : b'{"outboundSMSMessageRequest":{"address":["tel:+221777476138"],"senderAddress":"tel:+221773387902","senderName":"ipps","outboundSMSTextMessage":{"message":"[Berger NIXON] Shalom famille soyez b\xc3\xa9nis.\\nJ\xe2\x80\x99ai le plaisir et la joie de vous annoncer le mariage de notre s\xc5\x93ur Virginie faye de l\xe2\x80\x99accueil ce samedi 21 AO\xc3\x9bT 2021 \xc3\xa0 11H \xc3\xa0 la mairie de SICAP MBAO. tout le monde est invit\xc3\xa9. Merci\\n\\nBerger Nixon"},"resourceURL":"https://api.orange.com/smsmessaging/v1/outbound/tel:+221773387902/requests/7a30b2b0-0004-4ef1-98b7-b1d25e174cd2"}}'
2021-08-16 22:35:17 | numéro : 775179857 | resultat envoi : b'{"outboundSMSMessageRequest":{"address":["tel:+221775179857"],"senderAddress":"tel:+221773387902","senderName":"ipps","outboundSMSTextMessage":{"message":"[Berger NIXON] Shalom famille soyez b\xc3\xa9nis.\\nJ\xe2\x80\x99ai le plaisir et la joie de vous annoncer le mariage de notre s\xc5\x93ur Virginie faye de l\xe2\x80\x99accueil ce samedi 21 AO\xc3\x9bT 2021 \xc3\xa0 11H \xc3\xa0 la mairie de SICAP MBAO. tout le monde est invit\xc3\xa9. Merci\\n\\nBerger Nixon"},"resourceURL":"https://api.orange.com/smsmessaging/v1/outbound/tel:+221773387902/requests/089a4b7b-b41b-4f73-b514-77167362dd3d"}}'
2021-08-16 22:35:18 | numéro : 775333414 | resultat envoi : b'{"outboundSMSMessageRequest":{"address":["tel:+221775333414"],"senderAddress":"tel:+221773387902","senderName":"ipps","outboundSMSTextMessage":{"message":"[Berger NIXON] Shalom famille soyez b\xc3\xa9nis.\\nJ\xe2\x80\x99ai le plaisir et la joie de vous annoncer le mariage de notre s\xc5\x93ur Virginie faye de l\xe2\x80\x99accueil ce samedi 21 AO\xc3\x9bT 2021 \xc3\xa0 11H \xc3\xa0 la mairie de SICAP MBAO. tout le monde est invit\xc3\xa9. Merci\\n\\nBerger Nixon"},"resourceURL":"https://api.orange.com/smsmessaging/v1/outbound/tel:+221773387902/requests/116db090-d782-4d99-b47f-d4d77d14f49f"}}'
2021-08-16 22:35:18 | numéro : 782120212 | resultat envoi : b'{"outboundSMSMessageRequest":{"address":["tel:+221782120212"],"senderAddress":"tel:+221773387902","senderName":"ipps","outboundSMSTextMessage":{"message":"[Berger NIXON] Shalom famille soyez b\xc3\xa9nis.\\nJ\xe2\x80\x99ai le plaisir et la joie de vous annoncer le mariage de notre s\xc5\x93ur Virginie faye de l\xe2\x80\x99accueil ce samedi 21 AO\xc3\x9bT 2021 \xc3\xa0 11H \xc3\xa0 la mairie de SICAP MBAO. tout le monde est invit\xc3\xa9. Merci\\n\\nBerger Nixon"},"resourceURL":"https://api.orange.com/smsmessaging/v1/outbound/tel:+221773387902/requests/d6297353-12be-46e5-b30b-c83e43adfeec"}}'
2021-08-16 22:35:19 | numéro : 774104700 | resultat envoi : b'{"outboundSMSMessageRequest":{"address":["tel:+221774104700"],"senderAddress":"tel:+221773387902","senderName":"ipps","outboundSMSTextMessage":{"message":"[Berger NIXON] Shalom famille soyez b\xc3\xa9nis.\\nJ\xe2\x80\x99ai le plaisir et la joie de vous annoncer le mariage de notre s\xc5\x93ur Virginie faye de l\xe2\x80\x99accueil ce samedi 21 AO\xc3\x9bT 2021 \xc3\xa0 11H \xc3\xa0 la mairie de SICAP MBAO. tout le monde est invit\xc3\xa9. Merci\\n\\nBerger Nixon"},"resourceURL":"https://api.orange.com/smsmessaging/v1/outbound/tel:+221773387902/requests/ba26f97e-a35a-4ad6-9d08-786bed50c211"}}'
2021-08-16 22:35:19 | numéro : 776622494 | resultat envoi : b'{"outboundSMSMessageRequest":{"address":["tel:+221776622494"],"senderAddress":"tel:+221773387902","senderName":"ipps","outboundSMSTextMessage":{"message":"[Berger NIXON] Shalom famille soyez b\xc3\xa9nis.\\nJ\xe2\x80\x99ai le plaisir et la joie de vous annoncer le mariage de notre s\xc5\x93ur Virginie faye de l\xe2\x80\x99accueil ce samedi 21 AO\xc3\x9bT 2021 \xc3\xa0 11H \xc3\xa0 la mairie de SICAP MBAO. tout le monde est invit\xc3\xa9. Merci\\n\\nBerger Nixon"},"resourceURL":"https://api.orange.com/smsmessaging/v1/outbound/tel:+221773387902/requests/553501e7-47c0-4e60-9b52-693988746e24"}}'
2021-08-16 22:35:20 | numéro : 775195670 | resultat envoi : b'{"outboundSMSMessageRequest":{"address":["tel:+221775195670"],"senderAddress":"tel:+221773387902","senderName":"ipps","outboundSMSTextMessage":{"message":"[Berger NIXON] Shalom famille soyez b\xc3\xa9nis.\\nJ\xe2\x80\x99ai le plaisir et la joie de vous annoncer le mariage de notre s\xc5\x93ur Virginie faye de l\xe2\x80\x99accueil ce samedi 21 AO\xc3\x9bT 2021 \xc3\xa0 11H \xc3\xa0 la mairie de SICAP MBAO. tout le monde est invit\xc3\xa9. Merci\\n\\nBerger Nixon"},"resourceURL":"https://api.orange.com/smsmessaging/v1/outbound/tel:+221773387902/requests/8bad622c-c1e8-4004-8706-ab6ba2450086"}}'
2021-08-16 22:35:21 | numéro : 775101032 | resultat envoi : b'{"outboundSMSMessageRequest":{"address":["tel:+221775101032"],"senderAddress":"tel:+221773387902","senderName":"ipps","outboundSMSTextMessage":{"message":"[Berger NIXON] Shalom famille soyez b\xc3\xa9nis.\\nJ\xe2\x80\x99ai le plaisir et la joie de vous annoncer le mariage de notre s\xc5\x93ur Virginie faye de l\xe2\x80\x99accueil ce samedi 21 AO\xc3\x9bT 2021 \xc3\xa0 11H \xc3\xa0 la mairie de SICAP MBAO. tout le monde est invit\xc3\xa9. Merci\\n\\nBerger Nixon"},"resourceURL":"https://api.orange.com/smsmessaging/v1/outbound/tel:+221773387902/requests/f6d86a57-0872-4fc7-8a57-632328bc56d0"}}'
2021-08-16 22:35:23 | numéro : 784605558 | resultat envoi : b'{"outboundSMSMessageRequest":{"address":["tel:+221784605558"],"senderAddress":"tel:+221773387902","senderName":"ipps","outboundSMSTextMessage":{"message":"[Berger NIXON] Shalom famille soyez b\xc3\xa9nis.\\nJ\xe2\x80\x99ai le plaisir et la joie de vous annoncer le mariage de notre s\xc5\x93ur Virginie faye de l\xe2\x80\x99accueil ce samedi 21 AO\xc3\x9bT 2021 \xc3\xa0 11H \xc3\xa0 la mairie de SICAP MBAO. tout le monde est invit\xc3\xa9. Merci\\n\\nBerger Nixon"},"resourceURL":"https://api.orange.com/smsmessaging/v1/outbound/tel:+221773387902/requests/6675e16b-0f0c-44b4-8097-1803a0fed289"}}'
2021-08-16 22:35:23 | numéro : 774924590 | resultat envoi : b'{"outboundSMSMessageRequest":{"address":["tel:+221774924590"],"senderAddress":"tel:+221773387902","senderName":"ipps","outboundSMSTextMessage":{"message":"[Berger NIXON] Shalom famille soyez b\xc3\xa9nis.\\nJ\xe2\x80\x99ai le plaisir et la joie de vous annoncer le mariage de notre s\xc5\x93ur Virginie faye de l\xe2\x80\x99accueil ce samedi 21 AO\xc3\x9bT 2021 \xc3\xa0 11H \xc3\xa0 la mairie de SICAP MBAO. tout le monde est invit\xc3\xa9. Merci\\n\\nBerger Nixon"},"resourceURL":"https://api.orange.com/smsmessaging/v1/outbound/tel:+221773387902/requests/ac7cc455-d0aa-42da-9670-0c28898886a3"}}'
2021-08-16 22:35:24 | numéro : 774088344 | resultat envoi : b'{"outboundSMSMessageRequest":{"address":["tel:+221774088344"],"senderAddress":"tel:+221773387902","senderName":"ipps","outboundSMSTextMessage":{"message":"[Berger NIXON] Shalom famille soyez b\xc3\xa9nis.\\nJ\xe2\x80\x99ai le plaisir et la joie de vous annoncer le mariage de notre s\xc5\x93ur Virginie faye de l\xe2\x80\x99accueil ce samedi 21 AO\xc3\x9bT 2021 \xc3\xa0 11H \xc3\xa0 la mairie de SICAP MBAO. tout le monde est invit\xc3\xa9. Merci\\n\\nBerger Nixon"},"resourceURL":"https://api.orange.com/smsmessaging/v1/outbound/tel:+221773387902/requests/b6a7d459-c462-4c70-8fe3-912198ed9ac2"}}'
2021-08-16 22:35:24 | numéro : 776084577 | resultat envoi : b'{"outboundSMSMessageRequest":{"address":["tel:+221776084577"],"senderAddress":"tel:+221773387902","senderName":"ipps","outboundSMSTextMessage":{"message":"[Berger NIXON] Shalom famille soyez b\xc3\xa9nis.\\nJ\xe2\x80\x99ai le plaisir et la joie de vous annoncer le mariage de notre s\xc5\x93ur Virginie faye de l\xe2\x80\x99accueil ce samedi 21 AO\xc3\x9bT 2021 \xc3\xa0 11H \xc3\xa0 la mairie de SICAP MBAO. tout le monde est invit\xc3\xa9. Merci\\n\\nBerger Nixon"},"resourceURL":"https://api.orange.com/smsmessaging/v1/outbound/tel:+221773387902/requests/93967f2b-fd5f-4310-a4e4-303727406494"}}'
2021-08-16 22:35:25 | numéro : 771448080 | resultat envoi : b'{"outboundSMSMessageRequest":{"address":["tel:+221771448080"],"senderAddress":"tel:+221773387902","senderName":"ipps","outboundSMSTextMessage":{"message":"[Berger NIXON] Shalom famille soyez b\xc3\xa9nis.\\nJ\xe2\x80\x99ai le plaisir et la joie de vous annoncer le mariage de notre s\xc5\x93ur Virginie faye de l\xe2\x80\x99accueil ce samedi 21 AO\xc3\x9bT 2021 \xc3\xa0 11H \xc3\xa0 la mairie de SICAP MBAO. tout le monde est invit\xc3\xa9. Merci\\n\\nBerger Nixon"},"resourceURL":"https://api.orange.com/smsmessaging/v1/outbound/tel:+221773387902/requests/88ce2219-9e22-405d-b360-33ceb6734639"}}'
2021-08-16 22:35:25 | numéro : 774136992 | resultat envoi : b'{"outboundSMSMessageRequest":{"address":["tel:+221774136992"],"senderAddress":"tel:+221773387902","senderName":"ipps","outboundSMSTextMessage":{"message":"[Berger NIXON] Shalom famille soyez b\xc3\xa9nis.\\nJ\xe2\x80\x99ai le plaisir et la joie de vous annoncer le mariage de notre s\xc5\x93ur Virginie faye de l\xe2\x80\x99accueil ce samedi 21 AO\xc3\x9bT 2021 \xc3\xa0 11H \xc3\xa0 la mairie de SICAP MBAO. tout le monde est invit\xc3\xa9. Merci\\n\\nBerger Nixon"},"resourceURL":"https://api.orange.com/smsmessaging/v1/outbound/tel:+221773387902/requests/d9f5fd65-2e0a-428e-85cc-364bfea85877"}}'
2021-08-16 22:35:26 | numéro : 775583928 | resultat envoi : b'{"outboundSMSMessageRequest":{"address":["tel:+221775583928"],"senderAddress":"tel:+221773387902","senderName":"ipps","outboundSMSTextMessage":{"message":"[Berger NIXON] Shalom famille soyez b\xc3\xa9nis.\\nJ\xe2\x80\x99ai le plaisir et la joie de vous annoncer le mariage de notre s\xc5\x93ur Virginie faye de l\xe2\x80\x99accueil ce samedi 21 AO\xc3\x9bT 2021 \xc3\xa0 11H \xc3\xa0 la mairie de SICAP MBAO. tout le monde est invit\xc3\xa9. Merci\\n\\nBerger Nixon"},"resourceURL":"https://api.orange.com/smsmessaging/v1/outbound/tel:+221773387902/requests/e186e118-0064-4788-b085-051d2c78c38d"}}'
2021-08-16 22:35:26 | numéro : 776054888 | resultat envoi : b'{"outboundSMSMessageRequest":{"address":["tel:+221776054888"],"senderAddress":"tel:+221773387902","senderName":"ipps","outboundSMSTextMessage":{"message":"[Berger NIXON] Shalom famille soyez b\xc3\xa9nis.\\nJ\xe2\x80\x99ai le plaisir et la joie de vous annoncer le mariage de notre s\xc5\x93ur Virginie faye de l\xe2\x80\x99accueil ce samedi 21 AO\xc3\x9bT 2021 \xc3\xa0 11H \xc3\xa0 la mairie de SICAP MBAO. tout le monde est invit\xc3\xa9. Merci\\n\\nBerger Nixon"},"resourceURL":"https://api.orange.com/smsmessaging/v1/outbound/tel:+221773387902/requests/b8be33bd-9593-42a6-897c-9e0d88e9a363"}}'
2021-08-16 22:35:27 | numéro : 775079264 | resultat envoi : b'{"outboundSMSMessageRequest":{"address":["tel:+221775079264"],"senderAddress":"tel:+221773387902","senderName":"ipps","outboundSMSTextMessage":{"message":"[Berger NIXON] Shalom famille soyez b\xc3\xa9nis.\\nJ\xe2\x80\x99ai le plaisir et la joie de vous annoncer le mariage de notre s\xc5\x93ur Virginie faye de l\xe2\x80\x99accueil ce samedi 21 AO\xc3\x9bT 2021 \xc3\xa0 11H \xc3\xa0 la mairie de SICAP MBAO. tout le monde est invit\xc3\xa9. Merci\\n\\nBerger Nixon"},"resourceURL":"https://api.orange.com/smsmessaging/v1/outbound/tel:+221773387902/requests/cbf6caae-55d3-4d67-b3e8-65c05f7d6995"}}'
2021-08-16 22:35:27 | numéro : 774563764 | resultat envoi : b'{"outboundSMSMessageRequest":{"address":["tel:+221774563764"],"senderAddress":"tel:+221773387902","senderName":"ipps","outboundSMSTextMessage":{"message":"[Berger NIXON] Shalom famille soyez b\xc3\xa9nis.\\nJ\xe2\x80\x99ai le plaisir et la joie de vous annoncer le mariage de notre s\xc5\x93ur Virginie faye de l\xe2\x80\x99accueil ce samedi 21 AO\xc3\x9bT 2021 \xc3\xa0 11H \xc3\xa0 la mairie de SICAP MBAO. tout le monde est invit\xc3\xa9. Merci\\n\\nBerger Nixon"},"resourceURL":"https://api.orange.com/smsmessaging/v1/outbound/tel:+221773387902/requests/c586e9f8-5fe8-44ab-86d3-dfd6066f8ea4"}}'
2021-08-16 22:35:28 | numéro : 778847941 | resultat envoi : b'{"outboundSMSMessageRequest":{"address":["tel:+221778847941"],"senderAddress":"tel:+221773387902","senderName":"ipps","outboundSMSTextMessage":{"message":"[Berger NIXON] Shalom famille soyez b\xc3\xa9nis.\\nJ\xe2\x80\x99ai le plaisir et la joie de vous annoncer le mariage de notre s\xc5\x93ur Virginie faye de l\xe2\x80\x99accueil ce samedi 21 AO\xc3\x9bT 2021 \xc3\xa0 11H \xc3\xa0 la mairie de SICAP MBAO. tout le monde est invit\xc3\xa9. Merci\\n\\nBerger Nixon"},"resourceURL":"https://api.orange.com/smsmessaging/v1/outbound/tel:+221773387902/requests/35305b46-cc6a-4f9f-9c46-0fe01e5d47bf"}}'
2021-08-16 22:35:29 | numéro : 775657881 | resultat envoi : b'{"outboundSMSMessageRequest":{"address":["tel:+221775657881"],"senderAddress":"tel:+221773387902","senderName":"ipps","outboundSMSTextMessage":{"message":"[Berger NIXON] Shalom famille soyez b\xc3\xa9nis.\\nJ\xe2\x80\x99ai le plaisir et la joie de vous annoncer le mariage de notre s\xc5\x93ur Virginie faye de l\xe2\x80\x99accueil ce samedi 21 AO\xc3\x9bT 2021 \xc3\xa0 11H \xc3\xa0 la mairie de SICAP MBAO. tout le monde est invit\xc3\xa9. Merci\\n\\nBerger Nixon"},"resourceURL":"https://api.orange.com/smsmessaging/v1/outbound/tel:+221773387902/requests/0c08a95f-abe9-46df-8924-8b30f3abde8b"}}'
2021-08-16 22:35:30 | numéro : 775264433 | resultat envoi : b'{"outboundSMSMessageRequest":{"address":["tel:+221775264433"],"senderAddress":"tel:+221773387902","senderName":"ipps","outboundSMSTextMessage":{"message":"[Berger NIXON] Shalom famille soyez b\xc3\xa9nis.\\nJ\xe2\x80\x99ai le plaisir et la joie de vous annoncer le mariage de notre s\xc5\x93ur Virginie faye de l\xe2\x80\x99accueil ce samedi 21 AO\xc3\x9bT 2021 \xc3\xa0 11H \xc3\xa0 la mairie de SICAP MBAO. tout le monde est invit\xc3\xa9. Merci\\n\\nBerger Nixon"},"resourceURL":"https://api.orange.com/smsmessaging/v1/outbound/tel:+221773387902/requests/1dbbcb87-420d-4942-8839-33822e344b51"}}'
2021-08-16 22:35:30 | numéro : 772172163 | resultat envoi : b'{"outboundSMSMessageRequest":{"address":["tel:+221772172163"],"senderAddress":"tel:+221773387902","senderName":"ipps","outboundSMSTextMessage":{"message":"[Berger NIXON] Shalom famille soyez b\xc3\xa9nis.\\nJ\xe2\x80\x99ai le plaisir et la joie de vous annoncer le mariage de notre s\xc5\x93ur Virginie faye de l\xe2\x80\x99accueil ce samedi 21 AO\xc3\x9bT 2021 \xc3\xa0 11H \xc3\xa0 la mairie de SICAP MBAO. tout le monde est invit\xc3\xa9. Merci\\n\\nBerger Nixon"},"resourceURL":"https://api.orange.com/smsmessaging/v1/outbound/tel:+221773387902/requests/5afd8ca6-1122-484c-adff-93417525b4bb"}}'
2021-08-16 22:35:32 | numéro : 779278940 | resultat envoi : b'{"outboundSMSMessageRequest":{"address":["tel:+221779278940"],"senderAddress":"tel:+221773387902","senderName":"ipps","outboundSMSTextMessage":{"message":"[Berger NIXON] Shalom famille soyez b\xc3\xa9nis.\\nJ\xe2\x80\x99ai le plaisir et la joie de vous annoncer le mariage de notre s\xc5\x93ur Virginie faye de l\xe2\x80\x99accueil ce samedi 21 AO\xc3\x9bT 2021 \xc3\xa0 11H \xc3\xa0 la mairie de SICAP MBAO. tout le monde est invit\xc3\xa9. Merci\\n\\nBerger Nixon"},"resourceURL":"https://api.orange.com/smsmessaging/v1/outbound/tel:+221773387902/requests/09835eca-9406-4559-b0c5-cde696ae99b9"}}'
2021-08-16 22:35:32 | numéro : 776518053 | resultat envoi : b'{"outboundSMSMessageRequest":{"address":["tel:+221776518053"],"senderAddress":"tel:+221773387902","senderName":"ipps","outboundSMSTextMessage":{"message":"[Berger NIXON] Shalom famille soyez b\xc3\xa9nis.\\nJ\xe2\x80\x99ai le plaisir et la joie de vous annoncer le mariage de notre s\xc5\x93ur Virginie faye de l\xe2\x80\x99accueil ce samedi 21 AO\xc3\x9bT 2021 \xc3\xa0 11H \xc3\xa0 la mairie de SICAP MBAO. tout le monde est invit\xc3\xa9. Merci\\n\\nBerger Nixon"},"resourceURL":"https://api.orange.com/smsmessaging/v1/outbound/tel:+221773387902/requests/f9519b74-f0e3-4fdb-9c6c-88737aad9bbf"}}'
2021-08-16 22:35:33 | numéro : 771774360 | resultat envoi : b'{"outboundSMSMessageRequest":{"address":["tel:+221771774360"],"senderAddress":"tel:+221773387902","senderName":"ipps","outboundSMSTextMessage":{"message":"[Berger NIXON] Shalom famille soyez b\xc3\xa9nis.\\nJ\xe2\x80\x99ai le plaisir et la joie de vous annoncer le mariage de notre s\xc5\x93ur Virginie faye de l\xe2\x80\x99accueil ce samedi 21 AO\xc3\x9bT 2021 \xc3\xa0 11H \xc3\xa0 la mairie de SICAP MBAO. tout le monde est invit\xc3\xa9. Merci\\n\\nBerger Nixon"},"resourceURL":"https://api.orange.com/smsmessaging/v1/outbound/tel:+221773387902/requests/f9272a6c-c5d6-457b-bbcf-54001efa321b"}}'
2021-08-16 22:35:34 | numéro : 775177136 | resultat envoi : b'{"outboundSMSMessageRequest":{"address":["tel:+221775177136"],"senderAddress":"tel:+221773387902","senderName":"ipps","outboundSMSTextMessage":{"message":"[Berger NIXON] Shalom famille soyez b\xc3\xa9nis.\\nJ\xe2\x80\x99ai le plaisir et la joie de vous annoncer le mariage de notre s\xc5\x93ur Virginie faye de l\xe2\x80\x99accueil ce samedi 21 AO\xc3\x9bT 2021 \xc3\xa0 11H \xc3\xa0 la mairie de SICAP MBAO. tout le monde est invit\xc3\xa9. Merci\\n\\nBerger Nixon"},"resourceURL":"https://api.orange.com/smsmessaging/v1/outbound/tel:+221773387902/requests/227dc585-7d56-4a70-9929-64a9f8d48ae9"}}'
2021-08-16 22:35:34 | numéro : 776082705 | resultat envoi : b'{"outboundSMSMessageRequest":{"address":["tel:+221776082705"],"senderAddress":"tel:+221773387902","senderName":"ipps","outboundSMSTextMessage":{"message":"[Berger NIXON] Shalom famille soyez b\xc3\xa9nis.\\nJ\xe2\x80\x99ai le plaisir et la joie de vous annoncer le mariage de notre s\xc5\x93ur Virginie faye de l\xe2\x80\x99accueil ce samedi 21 AO\xc3\x9bT 2021 \xc3\xa0 11H \xc3\xa0 la mairie de SICAP MBAO. tout le monde est invit\xc3\xa9. Merci\\n\\nBerger Nixon"},"resourceURL":"https://api.orange.com/smsmessaging/v1/outbound/tel:+221773387902/requests/dc454677-9137-464b-8274-0e7c0ddc2cb9"}}'
2021-08-16 22:35:35 | numéro : 763043832 | resultat envoi : b'{"outboundSMSMessageRequest":{"address":["tel:+221763043832"],"senderAddress":"tel:+221773387902","senderName":"ipps","outboundSMSTextMessage":{"message":"[Berger NIXON] Shalom famille soyez b\xc3\xa9nis.\\nJ\xe2\x80\x99ai le plaisir et la joie de vous annoncer le mariage de notre s\xc5\x93ur Virginie faye de l\xe2\x80\x99accueil ce samedi 21 AO\xc3\x9bT 2021 \xc3\xa0 11H \xc3\xa0 la mairie de SICAP MBAO. tout le monde est invit\xc3\xa9. Merci\\n\\nBerger Nixon"},"resourceURL":"https://api.orange.com/smsmessaging/v1/outbound/tel:+221773387902/requests/eb83d57f-ef8d-4575-ba7d-efb8fecce5dd"}}'
2021-08-16 22:35:35 | numéro : 704029979 | resultat envoi : b'{"outboundSMSMessageRequest":{"address":["tel:+221704029979"],"senderAddress":"tel:+221773387902","senderName":"ipps","outboundSMSTextMessage":{"message":"[Berger NIXON] Shalom famille soyez b\xc3\xa9nis.\\nJ\xe2\x80\x99ai le plaisir et la joie de vous annoncer le mariage de notre s\xc5\x93ur Virginie faye de l\xe2\x80\x99accueil ce samedi 21 AO\xc3\x9bT 2021 \xc3\xa0 11H \xc3\xa0 la mairie de SICAP MBAO. tout le monde est invit\xc3\xa9. Merci\\n\\nBerger Nixon"},"resourceURL":"https://api.orange.com/smsmessaging/v1/outbound/tel:+221773387902/requests/f9255c19-2009-42a9-a1bd-211a02e7691a"}}'
2021-08-16 22:35:36 | numéro : 775690622 | resultat envoi : b'{"outboundSMSMessageRequest":{"address":["tel:+221775690622"],"senderAddress":"tel:+221773387902","senderName":"ipps","outboundSMSTextMessage":{"message":"[Berger NIXON] Shalom famille soyez b\xc3\xa9nis.\\nJ\xe2\x80\x99ai le plaisir et la joie de vous annoncer le mariage de notre s\xc5\x93ur Virginie faye de l\xe2\x80\x99accueil ce samedi 21 AO\xc3\x9bT 2021 \xc3\xa0 11H \xc3\xa0 la mairie de SICAP MBAO. tout le monde est invit\xc3\xa9. Merci\\n\\nBerger Nixon"},"resourceURL":"https://api.orange.com/smsmessaging/v1/outbound/tel:+221773387902/requests/3e6170b5-906a-4cbe-adc9-57e2bee4f2de"}}'
2021-08-16 22:35:36 | numéro : 776621278 | resultat envoi : b'{"outboundSMSMessageRequest":{"address":["tel:+221776621278"],"senderAddress":"tel:+221773387902","senderName":"ipps","outboundSMSTextMessage":{"message":"[Berger NIXON] Shalom famille soyez b\xc3\xa9nis.\\nJ\xe2\x80\x99ai le plaisir et la joie de vous annoncer le mariage de notre s\xc5\x93ur Virginie faye de l\xe2\x80\x99accueil ce samedi 21 AO\xc3\x9bT 2021 \xc3\xa0 11H \xc3\xa0 la mairie de SICAP MBAO. tout le monde est invit\xc3\xa9. Merci\\n\\nBerger Nixon"},"resourceURL":"https://api.orange.com/smsmessaging/v1/outbound/tel:+221773387902/requests/fcde22d4-39e4-4c46-b921-f267e685b903"}}'
2021-08-16 22:35:36 | numéro : 776486794 | resultat envoi : b'{"outboundSMSMessageRequest":{"address":["tel:+221776486794"],"senderAddress":"tel:+221773387902","senderName":"ipps","outboundSMSTextMessage":{"message":"[Berger NIXON] Shalom famille soyez b\xc3\xa9nis.\\nJ\xe2\x80\x99ai le plaisir et la joie de vous annoncer le mariage de notre s\xc5\x93ur Virginie faye de l\xe2\x80\x99accueil ce samedi 21 AO\xc3\x9bT 2021 \xc3\xa0 11H \xc3\xa0 la mairie de SICAP MBAO. tout le monde est invit\xc3\xa9. Merci\\n\\nBerger Nixon"},"resourceURL":"https://api.orange.com/smsmessaging/v1/outbound/tel:+221773387902/requests/584708a2-9de5-4338-a6d7-3e5ec94db9cb"}}'
2021-08-16 22:35:37 | numéro : 773438766 | resultat envoi : b'{"outboundSMSMessageRequest":{"address":["tel:+221773438766"],"senderAddress":"tel:+221773387902","senderName":"ipps","outboundSMSTextMessage":{"message":"[Berger NIXON] Shalom famille soyez b\xc3\xa9nis.\\nJ\xe2\x80\x99ai le plaisir et la joie de vous annoncer le mariage de notre s\xc5\x93ur Virginie faye de l\xe2\x80\x99accueil ce samedi 21 AO\xc3\x9bT 2021 \xc3\xa0 11H \xc3\xa0 la mairie de SICAP MBAO. tout le monde est invit\xc3\xa9. Merci\\n\\nBerger Nixon"},"resourceURL":"https://api.orange.com/smsmessaging/v1/outbound/tel:+221773387902/requests/284ad3ca-1ef7-40ee-98eb-3404131ae090"}}'
2021-08-16 22:35:38 | numéro : 774008247 | resultat envoi : b'{"outboundSMSMessageRequest":{"address":["tel:+221774008247"],"senderAddress":"tel:+221773387902","senderName":"ipps","outboundSMSTextMessage":{"message":"[Berger NIXON] Shalom famille soyez b\xc3\xa9nis.\\nJ\xe2\x80\x99ai le plaisir et la joie de vous annoncer le mariage de notre s\xc5\x93ur Virginie faye de l\xe2\x80\x99accueil ce samedi 21 AO\xc3\x9bT 2021 \xc3\xa0 11H \xc3\xa0 la mairie de SICAP MBAO. tout le monde est invit\xc3\xa9. Merci\\n\\nBerger Nixon"},"resourceURL":"https://api.orange.com/smsmessaging/v1/outbound/tel:+221773387902/requests/e4bc25b8-a522-472f-a8b2-408e19669c77"}}'
2021-08-16 22:35:38 | numéro : 771324007 | resultat envoi : b'{"outboundSMSMessageRequest":{"address":["tel:+221771324007"],"senderAddress":"tel:+221773387902","senderName":"ipps","outboundSMSTextMessage":{"message":"[Berger NIXON] Shalom famille soyez b\xc3\xa9nis.\\nJ\xe2\x80\x99ai le plaisir et la joie de vous annoncer le mariage de notre s\xc5\x93ur Virginie faye de l\xe2\x80\x99accueil ce samedi 21 AO\xc3\x9bT 2021 \xc3\xa0 11H \xc3\xa0 la mairie de SICAP MBAO. tout le monde est invit\xc3\xa9. Merci\\n\\nBerger Nixon"},"resourceURL":"https://api.orange.com/smsmessaging/v1/outbound/tel:+221773387902/requests/82e7aa0e-8ce2-4443-accc-a8a539b5a4b0"}}'
2021-08-16 22:35:39 | numéro : 774516330 | resultat envoi : b'{"outboundSMSMessageRequest":{"address":["tel:+221774516330"],"senderAddress":"tel:+221773387902","senderName":"ipps","outboundSMSTextMessage":{"message":"[Berger NIXON] Shalom famille soyez b\xc3\xa9nis.\\nJ\xe2\x80\x99ai le plaisir et la joie de vous annoncer le mariage de notre s\xc5\x93ur Virginie faye de l\xe2\x80\x99accueil ce samedi 21 AO\xc3\x9bT 2021 \xc3\xa0 11H \xc3\xa0 la mairie de SICAP MBAO. tout le monde est invit\xc3\xa9. Merci\\n\\nBerger Nixon"},"resourceURL":"https://api.orange.com/smsmessaging/v1/outbound/tel:+221773387902/requests/de3fa0f8-40e2-490f-a404-07e61359863f"}}'
2021-08-16 22:35:39 | numéro : 776430358 | resultat envoi : b'{"outboundSMSMessageRequest":{"address":["tel:+221776430358"],"senderAddress":"tel:+221773387902","senderName":"ipps","outboundSMSTextMessage":{"message":"[Berger NIXON] Shalom famille soyez b\xc3\xa9nis.\\nJ\xe2\x80\x99ai le plaisir et la joie de vous annoncer le mariage de notre s\xc5\x93ur Virginie faye de l\xe2\x80\x99accueil ce samedi 21 AO\xc3\x9bT 2021 \xc3\xa0 11H \xc3\xa0 la mairie de SICAP MBAO. tout le monde est invit\xc3\xa9. Merci\\n\\nBerger Nixon"},"resourceURL":"https://api.orange.com/smsmessaging/v1/outbound/tel:+221773387902/requests/1c41f732-4086-485e-93ee-3e1276afe071"}}'
2021-08-16 22:35:40 | numéro : 776567420 | resultat envoi : b'{"outboundSMSMessageRequest":{"address":["tel:+221776567420"],"senderAddress":"tel:+221773387902","senderName":"ipps","outboundSMSTextMessage":{"message":"[Berger NIXON] Shalom famille soyez b\xc3\xa9nis.\\nJ\xe2\x80\x99ai le plaisir et la joie de vous annoncer le mariage de notre s\xc5\x93ur Virginie faye de l\xe2\x80\x99accueil ce samedi 21 AO\xc3\x9bT 2021 \xc3\xa0 11H \xc3\xa0 la mairie de SICAP MBAO. tout le monde est invit\xc3\xa9. Merci\\n\\nBerger Nixon"},"resourceURL":"https://api.orange.com/smsmessaging/v1/outbound/tel:+221773387902/requests/5919ab49-df9f-48ae-97ef-8da6ddd0e4ea"}}'
2021-08-16 22:35:40 | numéro : 772430279 | resultat envoi : b'{"outboundSMSMessageRequest":{"address":["tel:+221772430279"],"senderAddress":"tel:+221773387902","senderName":"ipps","outboundSMSTextMessage":{"message":"[Berger NIXON] Shalom famille soyez b\xc3\xa9nis.\\nJ\xe2\x80\x99ai le plaisir et la joie de vous annoncer le mariage de notre s\xc5\x93ur Virginie faye de l\xe2\x80\x99accueil ce samedi 21 AO\xc3\x9bT 2021 \xc3\xa0 11H \xc3\xa0 la mairie de SICAP MBAO. tout le monde est invit\xc3\xa9. Merci\\n\\nBerger Nixon"},"resourceURL":"https://api.orange.com/smsmessaging/v1/outbound/tel:+221773387902/requests/97d7d150-eab5-4d7c-8660-f7ca6b38b129"}}'
2021-08-16 22:35:41 | numéro : 781491434 | resultat envoi : b'{"outboundSMSMessageRequest":{"address":["tel:+221781491434"],"senderAddress":"tel:+221773387902","senderName":"ipps","outboundSMSTextMessage":{"message":"[Berger NIXON] Shalom famille soyez b\xc3\xa9nis.\\nJ\xe2\x80\x99ai le plaisir et la joie de vous annoncer le mariage de notre s\xc5\x93ur Virginie faye de l\xe2\x80\x99accueil ce samedi 21 AO\xc3\x9bT 2021 \xc3\xa0 11H \xc3\xa0 la mairie de SICAP MBAO. tout le monde est invit\xc3\xa9. Merci\\n\\nBerger Nixon"},"resourceURL":"https://api.orange.com/smsmessaging/v1/outbound/tel:+221773387902/requests/78d59cc5-2098-4cb4-b963-1957bc5b3dcb"}}'
2021-08-16 22:35:42 | numéro : 771785321 | resultat envoi : b'{"outboundSMSMessageRequest":{"address":["tel:+221771785321"],"senderAddress":"tel:+221773387902","senderName":"ipps","outboundSMSTextMessage":{"message":"[Berger NIXON] Shalom famille soyez b\xc3\xa9nis.\\nJ\xe2\x80\x99ai le plaisir et la joie de vous annoncer le mariage de notre s\xc5\x93ur Virginie faye de l\xe2\x80\x99accueil ce samedi 21 AO\xc3\x9bT 2021 \xc3\xa0 11H \xc3\xa0 la mairie de SICAP MBAO. tout le monde est invit\xc3\xa9. Merci\\n\\nBerger Nixon"},"resourceURL":"https://api.orange.com/smsmessaging/v1/outbound/tel:+221773387902/requests/9188b3e6-08d7-453d-a27b-f1b82e7e1e9c"}}'
2021-08-16 22:35:42 | numéro : 771785310 | resultat envoi : b'{"outboundSMSMessageRequest":{"address":["tel:+221771785310"],"senderAddress":"tel:+221773387902","senderName":"ipps","outboundSMSTextMessage":{"message":"[Berger NIXON] Shalom famille soyez b\xc3\xa9nis.\\nJ\xe2\x80\x99ai le plaisir et la joie de vous annoncer le mariage de notre s\xc5\x93ur Virginie faye de l\xe2\x80\x99accueil ce samedi 21 AO\xc3\x9bT 2021 \xc3\xa0 11H \xc3\xa0 la mairie de SICAP MBAO. tout le monde est invit\xc3\xa9. Merci\\n\\nBerger Nixon"},"resourceURL":"https://api.orange.com/smsmessaging/v1/outbound/tel:+221773387902/requests/b8b437a1-5382-4022-9a86-55b0dcf95675"}}'
2021-08-16 22:35:43 | numéro : 775358064 | resultat envoi : b'{"outboundSMSMessageRequest":{"address":["tel:+221775358064"],"senderAddress":"tel:+221773387902","senderName":"ipps","outboundSMSTextMessage":{"message":"[Berger NIXON] Shalom famille soyez b\xc3\xa9nis.\\nJ\xe2\x80\x99ai le plaisir et la joie de vous annoncer le mariage de notre s\xc5\x93ur Virginie faye de l\xe2\x80\x99accueil ce samedi 21 AO\xc3\x9bT 2021 \xc3\xa0 11H \xc3\xa0 la mairie de SICAP MBAO. tout le monde est invit\xc3\xa9. Merci\\n\\nBerger Nixon"},"resourceURL":"https://api.orange.com/smsmessaging/v1/outbound/tel:+221773387902/requests/8fb8ece4-1de1-4dc7-be11-f28c7c966d41"}}'
2021-08-16 22:35:44 | numéro : 771160304 | resultat envoi : b'{"outboundSMSMessageRequest":{"address":["tel:+221771160304"],"senderAddress":"tel:+221773387902","senderName":"ipps","outboundSMSTextMessage":{"message":"[Berger NIXON] Shalom famille soyez b\xc3\xa9nis.\\nJ\xe2\x80\x99ai le plaisir et la joie de vous annoncer le mariage de notre s\xc5\x93ur Virginie faye de l\xe2\x80\x99accueil ce samedi 21 AO\xc3\x9bT 2021 \xc3\xa0 11H \xc3\xa0 la mairie de SICAP MBAO. tout le monde est invit\xc3\xa9. Merci\\n\\nBerger Nixon"},"resourceURL":"https://api.orange.com/smsmessaging/v1/outbound/tel:+221773387902/requests/469326db-e8ae-4490-897d-25da30e616de"}}'
2021-08-16 22:35:44 | numéro : 775319967 | resultat envoi : b'{"outboundSMSMessageRequest":{"address":["tel:+221775319967"],"senderAddress":"tel:+221773387902","senderName":"ipps","outboundSMSTextMessage":{"message":"[Berger NIXON] Shalom famille soyez b\xc3\xa9nis.\\nJ\xe2\x80\x99ai le plaisir et la joie de vous annoncer le mariage de notre s\xc5\x93ur Virginie faye de l\xe2\x80\x99accueil ce samedi 21 AO\xc3\x9bT 2021 \xc3\xa0 11H \xc3\xa0 la mairie de SICAP MBAO. tout le monde est invit\xc3\xa9. Merci\\n\\nBerger Nixon"},"resourceURL":"https://api.orange.com/smsmessaging/v1/outbound/tel:+221773387902/requests/6db10c54-0f4f-4040-83e1-c02d9d1e9503"}}'
2021-08-16 22:35:45 | numéro : 775234183 | resultat envoi : b'{"outboundSMSMessageRequest":{"address":["tel:+221775234183"],"senderAddress":"tel:+221773387902","senderName":"ipps","outboundSMSTextMessage":{"message":"[Berger NIXON] Shalom famille soyez b\xc3\xa9nis.\\nJ\xe2\x80\x99ai le plaisir et la joie de vous annoncer le mariage de notre s\xc5\x93ur Virginie faye de l\xe2\x80\x99accueil ce samedi 21 AO\xc3\x9bT 2021 \xc3\xa0 11H \xc3\xa0 la mairie de SICAP MBAO. tout le monde est invit\xc3\xa9. Merci\\n\\nBerger Nixon"},"resourceURL":"https://api.orange.com/smsmessaging/v1/outbound/tel:+221773387902/requests/0e5d6279-015e-4ca9-8d02-7804c181331a"}}'
2021-08-16 22:35:45 | numéro : 764811761 | resultat envoi : b'{"outboundSMSMessageRequest":{"address":["tel:+221764811761"],"senderAddress":"tel:+221773387902","senderName":"ipps","outboundSMSTextMessage":{"message":"[Berger NIXON] Shalom famille soyez b\xc3\xa9nis.\\nJ\xe2\x80\x99ai le plaisir et la joie de vous annoncer le mariage de notre s\xc5\x93ur Virginie faye de l\xe2\x80\x99accueil ce samedi 21 AO\xc3\x9bT 2021 \xc3\xa0 11H \xc3\xa0 la mairie de SICAP MBAO. tout le monde est invit\xc3\xa9. Merci\\n\\nBerger Nixon"},"resourceURL":"https://api.orange.com/smsmessaging/v1/outbound/tel:+221773387902/requests/2c95e6d7-9853-4bd3-86ea-c3583ddbfa1a"}}'
2021-08-16 22:35:46 | numéro : 770745364 | resultat envoi : b'{"outboundSMSMessageRequest":{"address":["tel:+221770745364"],"senderAddress":"tel:+221773387902","senderName":"ipps","outboundSMSTextMessage":{"message":"[Berger NIXON] Shalom famille soyez b\xc3\xa9nis.\\nJ\xe2\x80\x99ai le plaisir et la joie de vous annoncer le mariage de notre s\xc5\x93ur Virginie faye de l\xe2\x80\x99accueil ce samedi 21 AO\xc3\x9bT 2021 \xc3\xa0 11H \xc3\xa0 la mairie de SICAP MBAO. tout le monde est invit\xc3\xa9. Merci\\n\\nBerger Nixon"},"resourceURL":"https://api.orange.com/smsmessaging/v1/outbound/tel:+221773387902/requests/089283ee-7f82-4848-8f60-30aa6a5e8bff"}}'
2021-08-16 22:35:46 | numéro : 767318023 | resultat envoi : b'{"outboundSMSMessageRequest":{"address":["tel:+221767318023"],"senderAddress":"tel:+221773387902","senderName":"ipps","outboundSMSTextMessage":{"message":"[Berger NIXON] Shalom famille soyez b\xc3\xa9nis.\\nJ\xe2\x80\x99ai le plaisir et la joie de vous annoncer le mariage de notre s\xc5\x93ur Virginie faye de l\xe2\x80\x99accueil ce samedi 21 AO\xc3\x9bT 2021 \xc3\xa0 11H \xc3\xa0 la mairie de SICAP MBAO. tout le monde est invit\xc3\xa9. Merci\\n\\nBerger Nixon"},"resourceURL":"https://api.orange.com/smsmessaging/v1/outbound/tel:+221773387902/requests/42d5d02e-439f-4667-b1a3-1d391ecc3953"}}'
2021-08-16 22:35:47 | numéro : 778758816 | resultat envoi : b'{"outboundSMSMessageRequest":{"address":["tel:+221778758816"],"senderAddress":"tel:+221773387902","senderName":"ipps","outboundSMSTextMessage":{"message":"[Berger NIXON] Shalom famille soyez b\xc3\xa9nis.\\nJ\xe2\x80\x99ai le plaisir et la joie de vous annoncer le mariage de notre s\xc5\x93ur Virginie faye de l\xe2\x80\x99accueil ce samedi 21 AO\xc3\x9bT 2021 \xc3\xa0 11H \xc3\xa0 la mairie de SICAP MBAO. tout le monde est invit\xc3\xa9. Merci\\n\\nBerger Nixon"},"resourceURL":"https://api.orange.com/smsmessaging/v1/outbound/tel:+221773387902/requests/f18e6d86-2a40-4fc0-afd1-91c867c937ef"}}'
2021-08-16 22:35:48 | numéro : 778253398 | resultat envoi : b'{"outboundSMSMessageRequest":{"address":["tel:+221778253398"],"senderAddress":"tel:+221773387902","senderName":"ipps","outboundSMSTextMessage":{"message":"[Berger NIXON] Shalom famille soyez b\xc3\xa9nis.\\nJ\xe2\x80\x99ai le plaisir et la joie de vous annoncer le mariage de notre s\xc5\x93ur Virginie faye de l\xe2\x80\x99accueil ce samedi 21 AO\xc3\x9bT 2021 \xc3\xa0 11H \xc3\xa0 la mairie de SICAP MBAO. tout le monde est invit\xc3\xa9. Merci\\n\\nBerger Nixon"},"resourceURL":"https://api.orange.com/smsmessaging/v1/outbound/tel:+221773387902/requests/0c97f195-3ee6-44fc-9df8-97284932d1d2"}}'
2021-08-16 22:35:48 | numéro : 776534105 | resultat envoi : b'{"outboundSMSMessageRequest":{"address":["tel:+221776534105"],"senderAddress":"tel:+221773387902","senderName":"ipps","outboundSMSTextMessage":{"message":"[Berger NIXON] Shalom famille soyez b\xc3\xa9nis.\\nJ\xe2\x80\x99ai le plaisir et la joie de vous annoncer le mariage de notre s\xc5\x93ur Virginie faye de l\xe2\x80\x99accueil ce samedi 21 AO\xc3\x9bT 2021 \xc3\xa0 11H \xc3\xa0 la mairie de SICAP MBAO. tout le monde est invit\xc3\xa9. Merci\\n\\nBerger Nixon"},"resourceURL":"https://api.orange.com/smsmessaging/v1/outbound/tel:+221773387902/requests/d4743c12-085d-452c-bcc4-e6b019d451c4"}}'
2021-08-16 22:35:49 | numéro : 772339508 | resultat envoi : b'{"outboundSMSMessageRequest":{"address":["tel:+221772339508"],"senderAddress":"tel:+221773387902","senderName":"ipps","outboundSMSTextMessage":{"message":"[Berger NIXON] Shalom famille soyez b\xc3\xa9nis.\\nJ\xe2\x80\x99ai le plaisir et la joie de vous annoncer le mariage de notre s\xc5\x93ur Virginie faye de l\xe2\x80\x99accueil ce samedi 21 AO\xc3\x9bT 2021 \xc3\xa0 11H \xc3\xa0 la mairie de SICAP MBAO. tout le monde est invit\xc3\xa9. Merci\\n\\nBerger Nixon"},"resourceURL":"https://api.orange.com/smsmessaging/v1/outbound/tel:+221773387902/requests/5945c0f6-b51d-45c8-b26b-e3218ef36cc3"}}'
2021-08-16 22:35:50 | numéro : 776887068 | resultat envoi : b'{"outboundSMSMessageRequest":{"address":["tel:+221776887068"],"senderAddress":"tel:+221773387902","senderName":"ipps","outboundSMSTextMessage":{"message":"[Berger NIXON] Shalom famille soyez b\xc3\xa9nis.\\nJ\xe2\x80\x99ai le plaisir et la joie de vous annoncer le mariage de notre s\xc5\x93ur Virginie faye de l\xe2\x80\x99accueil ce samedi 21 AO\xc3\x9bT 2021 \xc3\xa0 11H \xc3\xa0 la mairie de SICAP MBAO. tout le monde est invit\xc3\xa9. Merci\\n\\nBerger Nixon"},"resourceURL":"https://api.orange.com/smsmessaging/v1/outbound/tel:+221773387902/requests/026bf193-ea6a-4ce5-a4d2-5bacce21f6a3"}}'
2021-08-16 22:35:52 | numéro : 773047208 | resultat envoi : b'{"outboundSMSMessageRequest":{"address":["tel:+221773047208"],"senderAddress":"tel:+221773387902","senderName":"ipps","outboundSMSTextMessage":{"message":"[Berger NIXON] Shalom famille soyez b\xc3\xa9nis.\\nJ\xe2\x80\x99ai le plaisir et la joie de vous annoncer le mariage de notre s\xc5\x93ur Virginie faye de l\xe2\x80\x99accueil ce samedi 21 AO\xc3\x9bT 2021 \xc3\xa0 11H \xc3\xa0 la mairie de SICAP MBAO. tout le monde est invit\xc3\xa9. Merci\\n\\nBerger Nixon"},"resourceURL":"https://api.orange.com/smsmessaging/v1/outbound/tel:+221773387902/requests/2b06210f-3ddc-4f08-96f8-ff9ce4abfdfb"}}'
2021-08-16 22:35:53 | numéro : 770533446 | resultat envoi : b'{"outboundSMSMessageRequest":{"address":["tel:+221770533446"],"senderAddress":"tel:+221773387902","senderName":"ipps","outboundSMSTextMessage":{"message":"[Berger NIXON] Shalom famille soyez b\xc3\xa9nis.\\nJ\xe2\x80\x99ai le plaisir et la joie de vous annoncer le mariage de notre s\xc5\x93ur Virginie faye de l\xe2\x80\x99accueil ce samedi 21 AO\xc3\x9bT 2021 \xc3\xa0 11H \xc3\xa0 la mairie de SICAP MBAO. tout le monde est invit\xc3\xa9. Merci\\n\\nBerger Nixon"},"resourceURL":"https://api.orange.com/smsmessaging/v1/outbound/tel:+221773387902/requests/43225ba4-fc75-4a79-bac6-dfbc439e932c"}}'
2021-08-16 22:35:54 | numéro : 772787686 | resultat envoi : b'{"outboundSMSMessageRequest":{"address":["tel:+221772787686"],"senderAddress":"tel:+221773387902","senderName":"ipps","outboundSMSTextMessage":{"message":"[Berger NIXON] Shalom famille soyez b\xc3\xa9nis.\\nJ\xe2\x80\x99ai le plaisir et la joie de vous annoncer le mariage de notre s\xc5\x93ur Virginie faye de l\xe2\x80\x99accueil ce samedi 21 AO\xc3\x9bT 2021 \xc3\xa0 11H \xc3\xa0 la mairie de SICAP MBAO. tout le monde est invit\xc3\xa9. Merci\\n\\nBerger Nixon"},"resourceURL":"https://api.orange.com/smsmessaging/v1/outbound/tel:+221773387902/requests/601e5035-8956-45a1-adc3-8bbba743a748"}}'
2021-08-16 22:35:54 | numéro : 770912764 | resultat envoi : b'{"outboundSMSMessageRequest":{"address":["tel:+221770912764"],"senderAddress":"tel:+221773387902","senderName":"ipps","outboundSMSTextMessage":{"message":"[Berger NIXON] Shalom famille soyez b\xc3\xa9nis.\\nJ\xe2\x80\x99ai le plaisir et la joie de vous annoncer le mariage de notre s\xc5\x93ur Virginie faye de l\xe2\x80\x99accueil ce samedi 21 AO\xc3\x9bT 2021 \xc3\xa0 11H \xc3\xa0 la mairie de SICAP MBAO. tout le monde est invit\xc3\xa9. Merci\\n\\nBerger Nixon"},"resourceURL":"https://api.orange.com/smsmessaging/v1/outbound/tel:+221773387902/requests/7662fee0-7810-4b66-876c-c236e3800d2e"}}'
2021-08-16 22:35:55 | numéro : 775033438 | resultat envoi : b'{"outboundSMSMessageRequest":{"address":["tel:+221775033438"],"senderAddress":"tel:+221773387902","senderName":"ipps","outboundSMSTextMessage":{"message":"[Berger NIXON] Shalom famille soyez b\xc3\xa9nis.\\nJ\xe2\x80\x99ai le plaisir et la joie de vous annoncer le mariage de notre s\xc5\x93ur Virginie faye de l\xe2\x80\x99accueil ce samedi 21 AO\xc3\x9bT 2021 \xc3\xa0 11H \xc3\xa0 la mairie de SICAP MBAO. tout le monde est invit\xc3\xa9. Merci\\n\\nBerger Nixon"},"resourceURL":"https://api.orange.com/smsmessaging/v1/outbound/tel:+221773387902/requests/7a189338-b433-4d22-a434-131fc62074b3"}}'
2021-08-16 22:35:55 | numéro : 776945964 | resultat envoi : b'{"outboundSMSMessageRequest":{"address":["tel:+221776945964"],"senderAddress":"tel:+221773387902","senderName":"ipps","outboundSMSTextMessage":{"message":"[Berger NIXON] Shalom famille soyez b\xc3\xa9nis.\\nJ\xe2\x80\x99ai le plaisir et la joie de vous annoncer le mariage de notre s\xc5\x93ur Virginie faye de l\xe2\x80\x99accueil ce samedi 21 AO\xc3\x9bT 2021 \xc3\xa0 11H \xc3\xa0 la mairie de SICAP MBAO. tout le monde est invit\xc3\xa9. Merci\\n\\nBerger Nixon"},"resourceURL":"https://api.orange.com/smsmessaging/v1/outbound/tel:+221773387902/requests/df76847c-5cc7-45c2-abda-141fbaf4a695"}}'
2021-08-16 22:35:56 | numéro : 772542047 | resultat envoi : b'{"outboundSMSMessageRequest":{"address":["tel:+221772542047"],"senderAddress":"tel:+221773387902","senderName":"ipps","outboundSMSTextMessage":{"message":"[Berger NIXON] Shalom famille soyez b\xc3\xa9nis.\\nJ\xe2\x80\x99ai le plaisir et la joie de vous annoncer le mariage de notre s\xc5\x93ur Virginie faye de l\xe2\x80\x99accueil ce samedi 21 AO\xc3\x9bT 2021 \xc3\xa0 11H \xc3\xa0 la mairie de SICAP MBAO. tout le monde est invit\xc3\xa9. Merci\\n\\nBerger Nixon"},"resourceURL":"https://api.orange.com/smsmessaging/v1/outbound/tel:+221773387902/requests/a6258cb9-dde0-42aa-a83d-c12a9d7d7737"}}'
2021-08-16 22:35:56 | numéro : 773335607 | resultat envoi : b'{"outboundSMSMessageRequest":{"address":["tel:+221773335607"],"senderAddress":"tel:+221773387902","senderName":"ipps","outboundSMSTextMessage":{"message":"[Berger NIXON] Shalom famille soyez b\xc3\xa9nis.\\nJ\xe2\x80\x99ai le plaisir et la joie de vous annoncer le mariage de notre s\xc5\x93ur Virginie faye de l\xe2\x80\x99accueil ce samedi 21 AO\xc3\x9bT 2021 \xc3\xa0 11H \xc3\xa0 la mairie de SICAP MBAO. tout le monde est invit\xc3\xa9. Merci\\n\\nBerger Nixon"},"resourceURL":"https://api.orange.com/smsmessaging/v1/outbound/tel:+221773387902/requests/cd247ad7-87d5-4971-b95f-f07e13fe72a6"}}'
2021-08-16 22:35:57 | numéro : 776114280 | resultat envoi : b'{"outboundSMSMessageRequest":{"address":["tel:+221776114280"],"senderAddress":"tel:+221773387902","senderName":"ipps","outboundSMSTextMessage":{"message":"[Berger NIXON] Shalom famille soyez b\xc3\xa9nis.\\nJ\xe2\x80\x99ai le plaisir et la joie de vous annoncer le mariage de notre s\xc5\x93ur Virginie faye de l\xe2\x80\x99accueil ce samedi 21 AO\xc3\x9bT 2021 \xc3\xa0 11H \xc3\xa0 la mairie de SICAP MBAO. tout le monde est invit\xc3\xa9. Merci\\n\\nBerger Nixon"},"resourceURL":"https://api.orange.com/smsmessaging/v1/outbound/tel:+221773387902/requests/5cda113b-ba84-407a-a46e-6c1f7bb12771"}}'
2021-08-16 22:35:58 | numéro : 773667648 | resultat envoi : b'{"outboundSMSMessageRequest":{"address":["tel:+221773667648"],"senderAddress":"tel:+221773387902","senderName":"ipps","outboundSMSTextMessage":{"message":"[Berger NIXON] Shalom famille soyez b\xc3\xa9nis.\\nJ\xe2\x80\x99ai le plaisir et la joie de vous annoncer le mariage de notre s\xc5\x93ur Virginie faye de l\xe2\x80\x99accueil ce samedi 21 AO\xc3\x9bT 2021 \xc3\xa0 11H \xc3\xa0 la mairie de SICAP MBAO. tout le monde est invit\xc3\xa9. Merci\\n\\nBerger Nixon"},"resourceURL":"https://api.orange.com/smsmessaging/v1/outbound/tel:+221773387902/requests/b0a56d6d-17c8-47d1-8ae8-54139ae89722"}}'
2021-08-16 22:35:58 | numéro : 777053369 | resultat envoi : b'{"outboundSMSMessageRequest":{"address":["tel:+221777053369"],"senderAddress":"tel:+221773387902","senderName":"ipps","outboundSMSTextMessage":{"message":"[Berger NIXON] Shalom famille soyez b\xc3\xa9nis.\\nJ\xe2\x80\x99ai le plaisir et la joie de vous annoncer le mariage de notre s\xc5\x93ur Virginie faye de l\xe2\x80\x99accueil ce samedi 21 AO\xc3\x9bT 2021 \xc3\xa0 11H \xc3\xa0 la mairie de SICAP MBAO. tout le monde est invit\xc3\xa9. Merci\\n\\nBerger Nixon"},"resourceURL":"https://api.orange.com/smsmessaging/v1/outbound/tel:+221773387902/requests/e7e6c74d-21aa-4f7a-aa4c-3a69b2b5aded"}}'
2021-08-16 22:35:59 | numéro : 772421253 | resultat envoi : b'{"outboundSMSMessageRequest":{"address":["tel:+221772421253"],"senderAddress":"tel:+221773387902","senderName":"ipps","outboundSMSTextMessage":{"message":"[Berger NIXON] Shalom famille soyez b\xc3\xa9nis.\\nJ\xe2\x80\x99ai le plaisir et la joie de vous annoncer le mariage de notre s\xc5\x93ur Virginie faye de l\xe2\x80\x99accueil ce samedi 21 AO\xc3\x9bT 2021 \xc3\xa0 11H \xc3\xa0 la mairie de SICAP MBAO. tout le monde est invit\xc3\xa9. Merci\\n\\nBerger Nixon"},"resourceURL":"https://api.orange.com/smsmessaging/v1/outbound/tel:+221773387902/requests/26ab8120-a02c-448c-86dd-bbe48398e101"}}'
2021-08-16 22:36:00 | numéro : 771827907 | resultat envoi : b'{"outboundSMSMessageRequest":{"address":["tel:+221771827907"],"senderAddress":"tel:+221773387902","senderName":"ipps","outboundSMSTextMessage":{"message":"[Berger NIXON] Shalom famille soyez b\xc3\xa9nis.\\nJ\xe2\x80\x99ai le plaisir et la joie de vous annoncer le mariage de notre s\xc5\x93ur Virginie faye de l\xe2\x80\x99accueil ce samedi 21 AO\xc3\x9bT 2021 \xc3\xa0 11H \xc3\xa0 la mairie de SICAP MBAO. tout le monde est invit\xc3\xa9. Merci\\n\\nBerger Nixon"},"resourceURL":"https://api.orange.com/smsmessaging/v1/outbound/tel:+221773387902/requests/e7eb5b23-c2b5-404c-8729-4ea4686b243c"}}'
2021-08-16 22:36:00 | numéro : 772787249 | resultat envoi : b'{"outboundSMSMessageRequest":{"address":["tel:+221772787249"],"senderAddress":"tel:+221773387902","senderName":"ipps","outboundSMSTextMessage":{"message":"[Berger NIXON] Shalom famille soyez b\xc3\xa9nis.\\nJ\xe2\x80\x99ai le plaisir et la joie de vous annoncer le mariage de notre s\xc5\x93ur Virginie faye de l\xe2\x80\x99accueil ce samedi 21 AO\xc3\x9bT 2021 \xc3\xa0 11H \xc3\xa0 la mairie de SICAP MBAO. tout le monde est invit\xc3\xa9. Merci\\n\\nBerger Nixon"},"resourceURL":"https://api.orange.com/smsmessaging/v1/outbound/tel:+221773387902/requests/671303c8-6648-40c7-aa4b-f9a9f956bdc9"}}'
2021-08-16 22:36:01 | numéro : 770468214 | resultat envoi : b'{"outboundSMSMessageRequest":{"address":["tel:+221770468214"],"senderAddress":"tel:+221773387902","senderName":"ipps","outboundSMSTextMessage":{"message":"[Berger NIXON] Shalom famille soyez b\xc3\xa9nis.\\nJ\xe2\x80\x99ai le plaisir et la joie de vous annoncer le mariage de notre s\xc5\x93ur Virginie faye de l\xe2\x80\x99accueil ce samedi 21 AO\xc3\x9bT 2021 \xc3\xa0 11H \xc3\xa0 la mairie de SICAP MBAO. tout le monde est invit\xc3\xa9. Merci\\n\\nBerger Nixon"},"resourceURL":"https://api.orange.com/smsmessaging/v1/outbound/tel:+221773387902/requests/a3bb0e3e-763e-4b4b-91aa-68bd351d92e6"}}'
2021-08-16 22:36:02 | numéro : 771160943 | resultat envoi : b'{"outboundSMSMessageRequest":{"address":["tel:+221771160943"],"senderAddress":"tel:+221773387902","senderName":"ipps","outboundSMSTextMessage":{"message":"[Berger NIXON] Shalom famille soyez b\xc3\xa9nis.\\nJ\xe2\x80\x99ai le plaisir et la joie de vous annoncer le mariage de notre s\xc5\x93ur Virginie faye de l\xe2\x80\x99accueil ce samedi 21 AO\xc3\x9bT 2021 \xc3\xa0 11H \xc3\xa0 la mairie de SICAP MBAO. tout le monde est invit\xc3\xa9. Merci\\n\\nBerger Nixon"},"resourceURL":"https://api.orange.com/smsmessaging/v1/outbound/tel:+221773387902/requests/68b5e49a-1de0-4cee-be5d-541f92598307"}}'
2021-08-16 22:36:03 | numéro : 777251041 | resultat envoi : b'{"outboundSMSMessageRequest":{"address":["tel:+221777251041"],"senderAddress":"tel:+221773387902","senderName":"ipps","outboundSMSTextMessage":{"message":"[Berger NIXON] Shalom famille soyez b\xc3\xa9nis.\\nJ\xe2\x80\x99ai le plaisir et la joie de vous annoncer le mariage de notre s\xc5\x93ur Virginie faye de l\xe2\x80\x99accueil ce samedi 21 AO\xc3\x9bT 2021 \xc3\xa0 11H \xc3\xa0 la mairie de SICAP MBAO. tout le monde est invit\xc3\xa9. Merci\\n\\nBerger Nixon"},"resourceURL":"https://api.orange.com/smsmessaging/v1/outbound/tel:+221773387902/requests/488fa891-ab51-423c-a079-ed9e217ba56d"}}'
2021-08-16 22:36:04 | numéro : 784750972 | resultat envoi : b'{"outboundSMSMessageRequest":{"address":["tel:+221784750972"],"senderAddress":"tel:+221773387902","senderName":"ipps","outboundSMSTextMessage":{"message":"[Berger NIXON] Shalom famille soyez b\xc3\xa9nis.\\nJ\xe2\x80\x99ai le plaisir et la joie de vous annoncer le mariage de notre s\xc5\x93ur Virginie faye de l\xe2\x80\x99accueil ce samedi 21 AO\xc3\x9bT 2021 \xc3\xa0 11H \xc3\xa0 la mairie de SICAP MBAO. tout le monde est invit\xc3\xa9. Merci\\n\\nBerger Nixon"},"resourceURL":"https://api.orange.com/smsmessaging/v1/outbound/tel:+221773387902/requests/b7a12a2b-41c1-471a-91a4-78fb7356bd74"}}'
2021-08-16 22:36:04 | numéro : 770986503 | resultat envoi : b'{"outboundSMSMessageRequest":{"address":["tel:+221770986503"],"senderAddress":"tel:+221773387902","senderName":"ipps","outboundSMSTextMessage":{"message":"[Berger NIXON] Shalom famille soyez b\xc3\xa9nis.\\nJ\xe2\x80\x99ai le plaisir et la joie de vous annoncer le mariage de notre s\xc5\x93ur Virginie faye de l\xe2\x80\x99accueil ce samedi 21 AO\xc3\x9bT 2021 \xc3\xa0 11H \xc3\xa0 la mairie de SICAP MBAO. tout le monde est invit\xc3\xa9. Merci\\n\\nBerger Nixon"},"resourceURL":"https://api.orange.com/smsmessaging/v1/outbound/tel:+221773387902/requests/87e6f571-1bba-4987-960c-2c8cab05294c"}}'
2021-08-16 22:36:05 | numéro : 775941646 | resultat envoi : b'{"outboundSMSMessageRequest":{"address":["tel:+221775941646"],"senderAddress":"tel:+221773387902","senderName":"ipps","outboundSMSTextMessage":{"message":"[Berger NIXON] Shalom famille soyez b\xc3\xa9nis.\\nJ\xe2\x80\x99ai le plaisir et la joie de vous annoncer le mariage de notre s\xc5\x93ur Virginie faye de l\xe2\x80\x99accueil ce samedi 21 AO\xc3\x9bT 2021 \xc3\xa0 11H \xc3\xa0 la mairie de SICAP MBAO. tout le monde est invit\xc3\xa9. Merci\\n\\nBerger Nixon"},"resourceURL":"https://api.orange.com/smsmessaging/v1/outbound/tel:+221773387902/requests/147661ba-1cff-48a2-86a4-856262b52dec"}}'
2021-08-16 22:36:06 | numéro : 770305030 | resultat envoi : b'{"outboundSMSMessageRequest":{"address":["tel:+221770305030"],"senderAddress":"tel:+221773387902","senderName":"ipps","outboundSMSTextMessage":{"message":"[Berger NIXON] Shalom famille soyez b\xc3\xa9nis.\\nJ\xe2\x80\x99ai le plaisir et la joie de vous annoncer le mariage de notre s\xc5\x93ur Virginie faye de l\xe2\x80\x99accueil ce samedi 21 AO\xc3\x9bT 2021 \xc3\xa0 11H \xc3\xa0 la mairie de SICAP MBAO. tout le monde est invit\xc3\xa9. Merci\\n\\nBerger Nixon"},"resourceURL":"https://api.orange.com/smsmessaging/v1/outbound/tel:+221773387902/requests/e5b229ef-fc43-4e25-8b32-454a327dd921"}}'
2021-08-16 22:36:06 | numéro : 771766736 | resultat envoi : b'{"outboundSMSMessageRequest":{"address":["tel:+221771766736"],"senderAddress":"tel:+221773387902","senderName":"ipps","outboundSMSTextMessage":{"message":"[Berger NIXON] Shalom famille soyez b\xc3\xa9nis.\\nJ\xe2\x80\x99ai le plaisir et la joie de vous annoncer le mariage de notre s\xc5\x93ur Virginie faye de l\xe2\x80\x99accueil ce samedi 21 AO\xc3\x9bT 2021 \xc3\xa0 11H \xc3\xa0 la mairie de SICAP MBAO. tout le monde est invit\xc3\xa9. Merci\\n\\nBerger Nixon"},"resourceURL":"https://api.orange.com/smsmessaging/v1/outbound/tel:+221773387902/requests/fb84fc07-37bd-49f5-a5ed-f0b93e5abe68"}}'
2021-08-16 22:36:07 | numéro : 777888851 | resultat envoi : b'{"outboundSMSMessageRequest":{"address":["tel:+221777888851"],"senderAddress":"tel:+221773387902","senderName":"ipps","outboundSMSTextMessage":{"message":"[Berger NIXON] Shalom famille soyez b\xc3\xa9nis.\\nJ\xe2\x80\x99ai le plaisir et la joie de vous annoncer le mariage de notre s\xc5\x93ur Virginie faye de l\xe2\x80\x99accueil ce samedi 21 AO\xc3\x9bT 2021 \xc3\xa0 11H \xc3\xa0 la mairie de SICAP MBAO. tout le monde est invit\xc3\xa9. Merci\\n\\nBerger Nixon"},"resourceURL":"https://api.orange.com/smsmessaging/v1/outbound/tel:+221773387902/requests/cc531b77-c1cd-41a8-aa40-d8e11bd35e34"}}'
2021-08-16 22:36:08 | numéro : 774835159 | resultat envoi : b'{"outboundSMSMessageRequest":{"address":["tel:+221774835159"],"senderAddress":"tel:+221773387902","senderName":"ipps","outboundSMSTextMessage":{"message":"[Berger NIXON] Shalom famille soyez b\xc3\xa9nis.\\nJ\xe2\x80\x99ai le plaisir et la joie de vous annoncer le mariage de notre s\xc5\x93ur Virginie faye de l\xe2\x80\x99accueil ce samedi 21 AO\xc3\x9bT 2021 \xc3\xa0 11H \xc3\xa0 la mairie de SICAP MBAO. tout le monde est invit\xc3\xa9. Merci\\n\\nBerger Nixon"},"resourceURL":"https://api.orange.com/smsmessaging/v1/outbound/tel:+221773387902/requests/9c83eb2c-0f0c-4851-a46a-8594dfae5b1a"}}'
2021-08-16 22:36:08 | numéro : 785238617 | resultat envoi : b'{"outboundSMSMessageRequest":{"address":["tel:+221785238617"],"senderAddress":"tel:+221773387902","senderName":"ipps","outboundSMSTextMessage":{"message":"[Berger NIXON] Shalom famille soyez b\xc3\xa9nis.\\nJ\xe2\x80\x99ai le plaisir et la joie de vous annoncer le mariage de notre s\xc5\x93ur Virginie faye de l\xe2\x80\x99accueil ce samedi 21 AO\xc3\x9bT 2021 \xc3\xa0 11H \xc3\xa0 la mairie de SICAP MBAO. tout le monde est invit\xc3\xa9. Merci\\n\\nBerger Nixon"},"resourceURL":"https://api.orange.com/smsmessaging/v1/outbound/tel:+221773387902/requests/13aeb198-3ef3-429e-9cfa-6df1b118e007"}}'
2021-08-16 22:36:09 | numéro : 785232548 | resultat envoi : b'{"outboundSMSMessageRequest":{"address":["tel:+221785232548"],"senderAddress":"tel:+221773387902","senderName":"ipps","outboundSMSTextMessage":{"message":"[Berger NIXON] Shalom famille soyez b\xc3\xa9nis.\\nJ\xe2\x80\x99ai le plaisir et la joie de vous annoncer le mariage de notre s\xc5\x93ur Virginie faye de l\xe2\x80\x99accueil ce samedi 21 AO\xc3\x9bT 2021 \xc3\xa0 11H \xc3\xa0 la mairie de SICAP MBAO. tout le monde est invit\xc3\xa9. Merci\\n\\nBerger Nixon"},"resourceURL":"https://api.orange.com/smsmessaging/v1/outbound/tel:+221773387902/requests/a1f153a5-f5ea-4cca-bf77-29825eb6e404"}}'
2021-08-16 22:36:10 | numéro : 781925367 | resultat envoi : b'{"outboundSMSMessageRequest":{"address":["tel:+221781925367"],"senderAddress":"tel:+221773387902","senderName":"ipps","outboundSMSTextMessage":{"message":"[Berger NIXON] Shalom famille soyez b\xc3\xa9nis.\\nJ\xe2\x80\x99ai le plaisir et la joie de vous annoncer le mariage de notre s\xc5\x93ur Virginie faye de l\xe2\x80\x99accueil ce samedi 21 AO\xc3\x9bT 2021 \xc3\xa0 11H \xc3\xa0 la mairie de SICAP MBAO. tout le monde est invit\xc3\xa9. Merci\\n\\nBerger Nixon"},"resourceURL":"https://api.orange.com/smsmessaging/v1/outbound/tel:+221773387902/requests/74f52121-23b6-4e99-9c13-92514ad084ba"}}'
2021-08-16 22:36:10 | numéro : 770552465 | resultat envoi : b'{"outboundSMSMessageRequest":{"address":["tel:+221770552465"],"senderAddress":"tel:+221773387902","senderName":"ipps","outboundSMSTextMessage":{"message":"[Berger NIXON] Shalom famille soyez b\xc3\xa9nis.\\nJ\xe2\x80\x99ai le plaisir et la joie de vous annoncer le mariage de notre s\xc5\x93ur Virginie faye de l\xe2\x80\x99accueil ce samedi 21 AO\xc3\x9bT 2021 \xc3\xa0 11H \xc3\xa0 la mairie de SICAP MBAO. tout le monde est invit\xc3\xa9. Merci\\n\\nBerger Nixon"},"resourceURL":"https://api.orange.com/smsmessaging/v1/outbound/tel:+221773387902/requests/f6f39091-5e68-4fbe-b024-fe3e7a0084c5"}}'
2021-08-16 22:36:11 | numéro : 776401147 | resultat envoi : b'{"outboundSMSMessageRequest":{"address":["tel:+221776401147"],"senderAddress":"tel:+221773387902","senderName":"ipps","outboundSMSTextMessage":{"message":"[Berger NIXON] Shalom famille soyez b\xc3\xa9nis.\\nJ\xe2\x80\x99ai le plaisir et la joie de vous annoncer le mariage de notre s\xc5\x93ur Virginie faye de l\xe2\x80\x99accueil ce samedi 21 AO\xc3\x9bT 2021 \xc3\xa0 11H \xc3\xa0 la mairie de SICAP MBAO. tout le monde est invit\xc3\xa9. Merci\\n\\nBerger Nixon"},"resourceURL":"https://api.orange.com/smsmessaging/v1/outbound/tel:+221773387902/requests/482769cf-6c36-4565-83de-e47c2c04115e"}}'
2021-08-16 22:36:11 | numéro : 770789620 | resultat envoi : b'{"outboundSMSMessageRequest":{"address":["tel:+221770789620"],"senderAddress":"tel:+221773387902","senderName":"ipps","outboundSMSTextMessage":{"message":"[Berger NIXON] Shalom famille soyez b\xc3\xa9nis.\\nJ\xe2\x80\x99ai le plaisir et la joie de vous annoncer le mariage de notre s\xc5\x93ur Virginie faye de l\xe2\x80\x99accueil ce samedi 21 AO\xc3\x9bT 2021 \xc3\xa0 11H \xc3\xa0 la mairie de SICAP MBAO. tout le monde est invit\xc3\xa9. Merci\\n\\nBerger Nixon"},"resourceURL":"https://api.orange.com/smsmessaging/v1/outbound/tel:+221773387902/requests/796662e8-3c28-42fe-9164-3ef6f356525e"}}'
2021-08-16 22:36:12 | numéro : 776800589 | resultat envoi : b'{"outboundSMSMessageRequest":{"address":["tel:+221776800589"],"senderAddress":"tel:+221773387902","senderName":"ipps","outboundSMSTextMessage":{"message":"[Berger NIXON] Shalom famille soyez b\xc3\xa9nis.\\nJ\xe2\x80\x99ai le plaisir et la joie de vous annoncer le mariage de notre s\xc5\x93ur Virginie faye de l\xe2\x80\x99accueil ce samedi 21 AO\xc3\x9bT 2021 \xc3\xa0 11H \xc3\xa0 la mairie de SICAP MBAO. tout le monde est invit\xc3\xa9. Merci\\n\\nBerger Nixon"},"resourceURL":"https://api.orange.com/smsmessaging/v1/outbound/tel:+221773387902/requests/8f1718db-31f0-41f0-adeb-a21ca24d0eb6"}}'
2021-08-16 22:36:12 | numéro : 773387902 | resultat envoi : b'{"outboundSMSMessageRequest":{"address":["tel:+221773387902"],"senderAddress":"tel:+221773387902","senderName":"ipps","outboundSMSTextMessage":{"message":"[Berger NIXON] Shalom famille soyez b\xc3\xa9nis.\\nJ\xe2\x80\x99ai le plaisir et la joie de vous annoncer le mariage de notre s\xc5\x93ur Virginie faye de l\xe2\x80\x99accueil ce samedi 21 AO\xc3\x9bT 2021 \xc3\xa0 11H \xc3\xa0 la mairie de SICAP MBAO. tout le monde est invit\xc3\xa9. Merci\\n\\nBerger Nixon"},"resourceURL":"https://api.orange.com/smsmessaging/v1/outbound/tel:+221773387902/requests/559e57f1-ee9b-4ba8-814b-492d387d94dc"}}'
2021-08-16 22:36:12 | balance 1089 | fin envoi
