2022-02-11 21:23:27 | balance 107 | debut envoi
2022-02-11 21:23:27 | numéro : 773387902 | resultat envoi : b'{"outboundSMSMessageRequest":{"address":["tel:+221773387902"],"senderAddress":"tel:+221773387902","senderName":"ipps","outboundSMSTextMessage":{"message":"[3\xc3\xa8me ann\xc3\xa9e communion]\\nChers parents, comme il n\'y a pas cours ce samedi, nous vous prions de faire faire comme devoir de maison, la le\xc3\xa7on \xe2\x80\x9dComment se confesser\xe2\x80\x9d sur la feuille qu\'on leur a distribu\xc3\xa9, dans le cas contraire se reporter \xc3\xa0 la le\xc3\xa7on 8 du livre de cat\xc3\xa9ch\xc3\xa8se. Merci.\\n\\n Le bureau de la cat\xc3\xa9ch\xc3\xa8se.\\nhttps://bit.ly/3F9cRIK"},"resourceURL":"https://api.orange.com/smsmessaging/v1/outbound/tel:+221773387902/requests/465c630f-eb1d-46eb-99f3-1cea7a48b76b"}}'
2022-02-11 21:23:27 | numéro : 778170857 | resultat envoi : b'{"outboundSMSMessageRequest":{"address":["tel:+221778170857"],"senderAddress":"tel:+221773387902","senderName":"ipps","outboundSMSTextMessage":{"message":"[3\xc3\xa8me ann\xc3\xa9e communion]\\nChers parents, comme il n\'y a pas cours ce samedi, nous vous prions de faire faire comme devoir de maison, la le\xc3\xa7on \xe2\x80\x9dComment se confesser\xe2\x80\x9d sur la feuille qu\'on leur a distribu\xc3\xa9, dans le cas contraire se reporter \xc3\xa0 la le\xc3\xa7on 8 du livre de cat\xc3\xa9ch\xc3\xa8se. Merci.\\n\\n Le bureau de la cat\xc3\xa9ch\xc3\xa8se.\\nhttps://bit.ly/3F9cRIK"},"resourceURL":"https://api.orange.com/smsmessaging/v1/outbound/tel:+221773387902/requests/b5520ad2-c418-4088-bde1-0fb1769f1902"}}'
2022-02-11 21:23:28 | numéro : 707171591 | resultat envoi : b'{"outboundSMSMessageRequest":{"address":["tel:+221707171591"],"senderAddress":"tel:+221773387902","senderName":"ipps","outboundSMSTextMessage":{"message":"[3\xc3\xa8me ann\xc3\xa9e communion]\\nChers parents, comme il n\'y a pas cours ce samedi, nous vous prions de faire faire comme devoir de maison, la le\xc3\xa7on \xe2\x80\x9dComment se confesser\xe2\x80\x9d sur la feuille qu\'on leur a distribu\xc3\xa9, dans le cas contraire se reporter \xc3\xa0 la le\xc3\xa7on 8 du livre de cat\xc3\xa9ch\xc3\xa8se. Merci.\\n\\n Le bureau de la cat\xc3\xa9ch\xc3\xa8se.\\nhttps://bit.ly/3F9cRIK"},"resourceURL":"https://api.orange.com/smsmessaging/v1/outbound/tel:+221773387902/requests/476eadc4-84c9-48f9-b69c-a6cb8900f4b8"}}'
2022-02-11 21:23:29 | numéro : 770714249 | resultat envoi : b'{"outboundSMSMessageRequest":{"address":["tel:+221770714249"],"senderAddress":"tel:+221773387902","senderName":"ipps","outboundSMSTextMessage":{"message":"[3\xc3\xa8me ann\xc3\xa9e communion]\\nChers parents, comme il n\'y a pas cours ce samedi, nous vous prions de faire faire comme devoir de maison, la le\xc3\xa7on \xe2\x80\x9dComment se confesser\xe2\x80\x9d sur la feuille qu\'on leur a distribu\xc3\xa9, dans le cas contraire se reporter \xc3\xa0 la le\xc3\xa7on 8 du livre de cat\xc3\xa9ch\xc3\xa8se. Merci.\\n\\n Le bureau de la cat\xc3\xa9ch\xc3\xa8se.\\nhttps://bit.ly/3F9cRIK"},"resourceURL":"https://api.orange.com/smsmessaging/v1/outbound/tel:+221773387902/requests/e616d137-c3e7-4a63-9b28-e1b1745c4ae7"}}'
2022-02-11 21:23:30 | numéro : 771671737 | resultat envoi : b'{"outboundSMSMessageRequest":{"address":["tel:+221771671737"],"senderAddress":"tel:+221773387902","senderName":"ipps","outboundSMSTextMessage":{"message":"[3\xc3\xa8me ann\xc3\xa9e communion]\\nChers parents, comme il n\'y a pas cours ce samedi, nous vous prions de faire faire comme devoir de maison, la le\xc3\xa7on \xe2\x80\x9dComment se confesser\xe2\x80\x9d sur la feuille qu\'on leur a distribu\xc3\xa9, dans le cas contraire se reporter \xc3\xa0 la le\xc3\xa7on 8 du livre de cat\xc3\xa9ch\xc3\xa8se. Merci.\\n\\n Le bureau de la cat\xc3\xa9ch\xc3\xa8se.\\nhttps://bit.ly/3F9cRIK"},"resourceURL":"https://api.orange.com/smsmessaging/v1/outbound/tel:+221773387902/requests/97049f62-530a-475b-a56a-18168fc0dcff"}}'
2022-02-11 21:23:31 | numéro : 771677231 | resultat envoi : b'{"outboundSMSMessageRequest":{"address":["tel:+221771677231"],"senderAddress":"tel:+221773387902","senderName":"ipps","outboundSMSTextMessage":{"message":"[3\xc3\xa8me ann\xc3\xa9e communion]\\nChers parents, comme il n\'y a pas cours ce samedi, nous vous prions de faire faire comme devoir de maison, la le\xc3\xa7on \xe2\x80\x9dComment se confesser\xe2\x80\x9d sur la feuille qu\'on leur a distribu\xc3\xa9, dans le cas contraire se reporter \xc3\xa0 la le\xc3\xa7on 8 du livre de cat\xc3\xa9ch\xc3\xa8se. Merci.\\n\\n Le bureau de la cat\xc3\xa9ch\xc3\xa8se.\\nhttps://bit.ly/3F9cRIK"},"resourceURL":"https://api.orange.com/smsmessaging/v1/outbound/tel:+221773387902/requests/9ac0e529-5f2c-436e-b5ed-bd3d8af91a2b"}}'
2022-02-11 21:23:31 | numéro : 771677231 | resultat envoi : b'{"outboundSMSMessageRequest":{"address":["tel:+221771677231"],"senderAddress":"tel:+221773387902","senderName":"ipps","outboundSMSTextMessage":{"message":"[3\xc3\xa8me ann\xc3\xa9e communion]\\nChers parents, comme il n\'y a pas cours ce samedi, nous vous prions de faire faire comme devoir de maison, la le\xc3\xa7on \xe2\x80\x9dComment se confesser\xe2\x80\x9d sur la feuille qu\'on leur a distribu\xc3\xa9, dans le cas contraire se reporter \xc3\xa0 la le\xc3\xa7on 8 du livre de cat\xc3\xa9ch\xc3\xa8se. Merci.\\n\\n Le bureau de la cat\xc3\xa9ch\xc3\xa8se.\\nhttps://bit.ly/3F9cRIK"},"resourceURL":"https://api.orange.com/smsmessaging/v1/outbound/tel:+221773387902/requests/06a6db2c-16ca-4b58-8215-0a05907497d0"}}'
2022-02-11 21:23:32 | numéro : 771731156 | resultat envoi : b'{"outboundSMSMessageRequest":{"address":["tel:+221771731156"],"senderAddress":"tel:+221773387902","senderName":"ipps","outboundSMSTextMessage":{"message":"[3\xc3\xa8me ann\xc3\xa9e communion]\\nChers parents, comme il n\'y a pas cours ce samedi, nous vous prions de faire faire comme devoir de maison, la le\xc3\xa7on \xe2\x80\x9dComment se confesser\xe2\x80\x9d sur la feuille qu\'on leur a distribu\xc3\xa9, dans le cas contraire se reporter \xc3\xa0 la le\xc3\xa7on 8 du livre de cat\xc3\xa9ch\xc3\xa8se. Merci.\\n\\n Le bureau de la cat\xc3\xa9ch\xc3\xa8se.\\nhttps://bit.ly/3F9cRIK"},"resourceURL":"https://api.orange.com/smsmessaging/v1/outbound/tel:+221773387902/requests/295506db-0341-4085-a78f-80ddac0ad7f9"}}'
2022-02-11 21:23:32 | numéro : 772023293 | resultat envoi : b'{"outboundSMSMessageRequest":{"address":["tel:+221772023293"],"senderAddress":"tel:+221773387902","senderName":"ipps","outboundSMSTextMessage":{"message":"[3\xc3\xa8me ann\xc3\xa9e communion]\\nChers parents, comme il n\'y a pas cours ce samedi, nous vous prions de faire faire comme devoir de maison, la le\xc3\xa7on \xe2\x80\x9dComment se confesser\xe2\x80\x9d sur la feuille qu\'on leur a distribu\xc3\xa9, dans le cas contraire se reporter \xc3\xa0 la le\xc3\xa7on 8 du livre de cat\xc3\xa9ch\xc3\xa8se. Merci.\\n\\n Le bureau de la cat\xc3\xa9ch\xc3\xa8se.\\nhttps://bit.ly/3F9cRIK"},"resourceURL":"https://api.orange.com/smsmessaging/v1/outbound/tel:+221773387902/requests/e76b8031-67cd-4b27-9b8e-e479ccc62826"}}'
2022-02-11 21:23:33 | numéro : 772191960 | resultat envoi : b'{"outboundSMSMessageRequest":{"address":["tel:+221772191960"],"senderAddress":"tel:+221773387902","senderName":"ipps","outboundSMSTextMessage":{"message":"[3\xc3\xa8me ann\xc3\xa9e communion]\\nChers parents, comme il n\'y a pas cours ce samedi, nous vous prions de faire faire comme devoir de maison, la le\xc3\xa7on \xe2\x80\x9dComment se confesser\xe2\x80\x9d sur la feuille qu\'on leur a distribu\xc3\xa9, dans le cas contraire se reporter \xc3\xa0 la le\xc3\xa7on 8 du livre de cat\xc3\xa9ch\xc3\xa8se. Merci.\\n\\n Le bureau de la cat\xc3\xa9ch\xc3\xa8se.\\nhttps://bit.ly/3F9cRIK"},"resourceURL":"https://api.orange.com/smsmessaging/v1/outbound/tel:+221773387902/requests/efe11e65-e30a-4764-b251-ca5649ebccb6"}}'
2022-02-11 21:23:34 | numéro : 772191960 | resultat envoi : b'{"outboundSMSMessageRequest":{"address":["tel:+221772191960"],"senderAddress":"tel:+221773387902","senderName":"ipps","outboundSMSTextMessage":{"message":"[3\xc3\xa8me ann\xc3\xa9e communion]\\nChers parents, comme il n\'y a pas cours ce samedi, nous vous prions de faire faire comme devoir de maison, la le\xc3\xa7on \xe2\x80\x9dComment se confesser\xe2\x80\x9d sur la feuille qu\'on leur a distribu\xc3\xa9, dans le cas contraire se reporter \xc3\xa0 la le\xc3\xa7on 8 du livre de cat\xc3\xa9ch\xc3\xa8se. Merci.\\n\\n Le bureau de la cat\xc3\xa9ch\xc3\xa8se.\\nhttps://bit.ly/3F9cRIK"},"resourceURL":"https://api.orange.com/smsmessaging/v1/outbound/tel:+221773387902/requests/3b68b4fa-0878-4188-8ff9-f6fd93dbed46"}}'
2022-02-11 21:23:34 | numéro : 772855719 | resultat envoi : b'{"outboundSMSMessageRequest":{"address":["tel:+221772855719"],"senderAddress":"tel:+221773387902","senderName":"ipps","outboundSMSTextMessage":{"message":"[3\xc3\xa8me ann\xc3\xa9e communion]\\nChers parents, comme il n\'y a pas cours ce samedi, nous vous prions de faire faire comme devoir de maison, la le\xc3\xa7on \xe2\x80\x9dComment se confesser\xe2\x80\x9d sur la feuille qu\'on leur a distribu\xc3\xa9, dans le cas contraire se reporter \xc3\xa0 la le\xc3\xa7on 8 du livre de cat\xc3\xa9ch\xc3\xa8se. Merci.\\n\\n Le bureau de la cat\xc3\xa9ch\xc3\xa8se.\\nhttps://bit.ly/3F9cRIK"},"resourceURL":"https://api.orange.com/smsmessaging/v1/outbound/tel:+221773387902/requests/653c09bf-9031-4969-8258-f5ff1cf480f3"}}'
2022-02-11 21:23:34 | numéro : 773334985 | resultat envoi : b'{"outboundSMSMessageRequest":{"address":["tel:+221773334985"],"senderAddress":"tel:+221773387902","senderName":"ipps","outboundSMSTextMessage":{"message":"[3\xc3\xa8me ann\xc3\xa9e communion]\\nChers parents, comme il n\'y a pas cours ce samedi, nous vous prions de faire faire comme devoir de maison, la le\xc3\xa7on \xe2\x80\x9dComment se confesser\xe2\x80\x9d sur la feuille qu\'on leur a distribu\xc3\xa9, dans le cas contraire se reporter \xc3\xa0 la le\xc3\xa7on 8 du livre de cat\xc3\xa9ch\xc3\xa8se. Merci.\\n\\n Le bureau de la cat\xc3\xa9ch\xc3\xa8se.\\nhttps://bit.ly/3F9cRIK"},"resourceURL":"https://api.orange.com/smsmessaging/v1/outbound/tel:+221773387902/requests/6208ad8b-3b00-482c-8016-f8c6032e4943"}}'
2022-02-11 21:23:36 | numéro : 773550679 | resultat envoi : b'{"outboundSMSMessageRequest":{"address":["tel:+221773550679"],"senderAddress":"tel:+221773387902","senderName":"ipps","outboundSMSTextMessage":{"message":"[3\xc3\xa8me ann\xc3\xa9e communion]\\nChers parents, comme il n\'y a pas cours ce samedi, nous vous prions de faire faire comme devoir de maison, la le\xc3\xa7on \xe2\x80\x9dComment se confesser\xe2\x80\x9d sur la feuille qu\'on leur a distribu\xc3\xa9, dans le cas contraire se reporter \xc3\xa0 la le\xc3\xa7on 8 du livre de cat\xc3\xa9ch\xc3\xa8se. Merci.\\n\\n Le bureau de la cat\xc3\xa9ch\xc3\xa8se.\\nhttps://bit.ly/3F9cRIK"},"resourceURL":"https://api.orange.com/smsmessaging/v1/outbound/tel:+221773387902/requests/9786d5ee-60c0-4cbb-bde9-661c66441e17"}}'
2022-02-11 21:23:37 | numéro : 774016185 | resultat envoi : b'{"outboundSMSMessageRequest":{"address":["tel:+221774016185"],"senderAddress":"tel:+221773387902","senderName":"ipps","outboundSMSTextMessage":{"message":"[3\xc3\xa8me ann\xc3\xa9e communion]\\nChers parents, comme il n\'y a pas cours ce samedi, nous vous prions de faire faire comme devoir de maison, la le\xc3\xa7on \xe2\x80\x9dComment se confesser\xe2\x80\x9d sur la feuille qu\'on leur a distribu\xc3\xa9, dans le cas contraire se reporter \xc3\xa0 la le\xc3\xa7on 8 du livre de cat\xc3\xa9ch\xc3\xa8se. Merci.\\n\\n Le bureau de la cat\xc3\xa9ch\xc3\xa8se.\\nhttps://bit.ly/3F9cRIK"},"resourceURL":"https://api.orange.com/smsmessaging/v1/outbound/tel:+221773387902/requests/52a9e17d-e6f6-4709-830e-68c13f68b652"}}'
2022-02-11 21:23:38 | numéro : 774021156 | resultat envoi : b'{"outboundSMSMessageRequest":{"address":["tel:+221774021156"],"senderAddress":"tel:+221773387902","senderName":"ipps","outboundSMSTextMessage":{"message":"[3\xc3\xa8me ann\xc3\xa9e communion]\\nChers parents, comme il n\'y a pas cours ce samedi, nous vous prions de faire faire comme devoir de maison, la le\xc3\xa7on \xe2\x80\x9dComment se confesser\xe2\x80\x9d sur la feuille qu\'on leur a distribu\xc3\xa9, dans le cas contraire se reporter \xc3\xa0 la le\xc3\xa7on 8 du livre de cat\xc3\xa9ch\xc3\xa8se. Merci.\\n\\n Le bureau de la cat\xc3\xa9ch\xc3\xa8se.\\nhttps://bit.ly/3F9cRIK"},"resourceURL":"https://api.orange.com/smsmessaging/v1/outbound/tel:+221773387902/requests/5ff2cd55-9a1b-4ac1-bb4e-9a1ea0e5b4be"}}'
2022-02-11 21:23:39 | numéro : 774126591 | resultat envoi : b'{"outboundSMSMessageRequest":{"address":["tel:+221774126591"],"senderAddress":"tel:+221773387902","senderName":"ipps","outboundSMSTextMessage":{"message":"[3\xc3\xa8me ann\xc3\xa9e communion]\\nChers parents, comme il n\'y a pas cours ce samedi, nous vous prions de faire faire comme devoir de maison, la le\xc3\xa7on \xe2\x80\x9dComment se confesser\xe2\x80\x9d sur la feuille qu\'on leur a distribu\xc3\xa9, dans le cas contraire se reporter \xc3\xa0 la le\xc3\xa7on 8 du livre de cat\xc3\xa9ch\xc3\xa8se. Merci.\\n\\n Le bureau de la cat\xc3\xa9ch\xc3\xa8se.\\nhttps://bit.ly/3F9cRIK"},"resourceURL":"https://api.orange.com/smsmessaging/v1/outbound/tel:+221773387902/requests/ede0308e-0052-4b43-9108-bec3fa9bf1ab"}}'
2022-02-11 21:23:39 | numéro : 774133658 | resultat envoi : b'{"outboundSMSMessageRequest":{"address":["tel:+221774133658"],"senderAddress":"tel:+221773387902","senderName":"ipps","outboundSMSTextMessage":{"message":"[3\xc3\xa8me ann\xc3\xa9e communion]\\nChers parents, comme il n\'y a pas cours ce samedi, nous vous prions de faire faire comme devoir de maison, la le\xc3\xa7on \xe2\x80\x9dComment se confesser\xe2\x80\x9d sur la feuille qu\'on leur a distribu\xc3\xa9, dans le cas contraire se reporter \xc3\xa0 la le\xc3\xa7on 8 du livre de cat\xc3\xa9ch\xc3\xa8se. Merci.\\n\\n Le bureau de la cat\xc3\xa9ch\xc3\xa8se.\\nhttps://bit.ly/3F9cRIK"},"resourceURL":"https://api.orange.com/smsmessaging/v1/outbound/tel:+221773387902/requests/e8432451-3c49-4e13-b509-3a782fd044d7"}}'
2022-02-11 21:23:40 | numéro : 774176259 | resultat envoi : b'{"outboundSMSMessageRequest":{"address":["tel:+221774176259"],"senderAddress":"tel:+221773387902","senderName":"ipps","outboundSMSTextMessage":{"message":"[3\xc3\xa8me ann\xc3\xa9e communion]\\nChers parents, comme il n\'y a pas cours ce samedi, nous vous prions de faire faire comme devoir de maison, la le\xc3\xa7on \xe2\x80\x9dComment se confesser\xe2\x80\x9d sur la feuille qu\'on leur a distribu\xc3\xa9, dans le cas contraire se reporter \xc3\xa0 la le\xc3\xa7on 8 du livre de cat\xc3\xa9ch\xc3\xa8se. Merci.\\n\\n Le bureau de la cat\xc3\xa9ch\xc3\xa8se.\\nhttps://bit.ly/3F9cRIK"},"resourceURL":"https://api.orange.com/smsmessaging/v1/outbound/tel:+221773387902/requests/18c7096d-2735-4c52-bca2-6bb7a87f1dd2"}}'
2022-02-11 21:23:40 | numéro : 774214986 | resultat envoi : b'{"outboundSMSMessageRequest":{"address":["tel:+221774214986"],"senderAddress":"tel:+221773387902","senderName":"ipps","outboundSMSTextMessage":{"message":"[3\xc3\xa8me ann\xc3\xa9e communion]\\nChers parents, comme il n\'y a pas cours ce samedi, nous vous prions de faire faire comme devoir de maison, la le\xc3\xa7on \xe2\x80\x9dComment se confesser\xe2\x80\x9d sur la feuille qu\'on leur a distribu\xc3\xa9, dans le cas contraire se reporter \xc3\xa0 la le\xc3\xa7on 8 du livre de cat\xc3\xa9ch\xc3\xa8se. Merci.\\n\\n Le bureau de la cat\xc3\xa9ch\xc3\xa8se.\\nhttps://bit.ly/3F9cRIK"},"resourceURL":"https://api.orange.com/smsmessaging/v1/outbound/tel:+221773387902/requests/e66c4e39-7c08-4fed-b8e7-82deb92f32f9"}}'
2022-02-11 21:23:40 | numéro : 774404336 | resultat envoi : b'{"outboundSMSMessageRequest":{"address":["tel:+221774404336"],"senderAddress":"tel:+221773387902","senderName":"ipps","outboundSMSTextMessage":{"message":"[3\xc3\xa8me ann\xc3\xa9e communion]\\nChers parents, comme il n\'y a pas cours ce samedi, nous vous prions de faire faire comme devoir de maison, la le\xc3\xa7on \xe2\x80\x9dComment se confesser\xe2\x80\x9d sur la feuille qu\'on leur a distribu\xc3\xa9, dans le cas contraire se reporter \xc3\xa0 la le\xc3\xa7on 8 du livre de cat\xc3\xa9ch\xc3\xa8se. Merci.\\n\\n Le bureau de la cat\xc3\xa9ch\xc3\xa8se.\\nhttps://bit.ly/3F9cRIK"},"resourceURL":"https://api.orange.com/smsmessaging/v1/outbound/tel:+221773387902/requests/336b3192-3027-4cd2-9689-1aa7f8f3fc0b"}}'
2022-02-11 21:23:41 | numéro : 774437114 | resultat envoi : b'{"outboundSMSMessageRequest":{"address":["tel:+221774437114"],"senderAddress":"tel:+221773387902","senderName":"ipps","outboundSMSTextMessage":{"message":"[3\xc3\xa8me ann\xc3\xa9e communion]\\nChers parents, comme il n\'y a pas cours ce samedi, nous vous prions de faire faire comme devoir de maison, la le\xc3\xa7on \xe2\x80\x9dComment se confesser\xe2\x80\x9d sur la feuille qu\'on leur a distribu\xc3\xa9, dans le cas contraire se reporter \xc3\xa0 la le\xc3\xa7on 8 du livre de cat\xc3\xa9ch\xc3\xa8se. Merci.\\n\\n Le bureau de la cat\xc3\xa9ch\xc3\xa8se.\\nhttps://bit.ly/3F9cRIK"},"resourceURL":"https://api.orange.com/smsmessaging/v1/outbound/tel:+221773387902/requests/45774a39-4327-4f46-8bae-e8ae1648f251"}}'
2022-02-11 21:23:41 | numéro : 774494750 | resultat envoi : b'{"outboundSMSMessageRequest":{"address":["tel:+221774494750"],"senderAddress":"tel:+221773387902","senderName":"ipps","outboundSMSTextMessage":{"message":"[3\xc3\xa8me ann\xc3\xa9e communion]\\nChers parents, comme il n\'y a pas cours ce samedi, nous vous prions de faire faire comme devoir de maison, la le\xc3\xa7on \xe2\x80\x9dComment se confesser\xe2\x80\x9d sur la feuille qu\'on leur a distribu\xc3\xa9, dans le cas contraire se reporter \xc3\xa0 la le\xc3\xa7on 8 du livre de cat\xc3\xa9ch\xc3\xa8se. Merci.\\n\\n Le bureau de la cat\xc3\xa9ch\xc3\xa8se.\\nhttps://bit.ly/3F9cRIK"},"resourceURL":"https://api.orange.com/smsmessaging/v1/outbound/tel:+221773387902/requests/4db78349-c23f-42f9-80c2-d6941b1a4f2b"}}'
2022-02-11 21:23:41 | numéro : 774558595 | resultat envoi : b'{"outboundSMSMessageRequest":{"address":["tel:+221774558595"],"senderAddress":"tel:+221773387902","senderName":"ipps","outboundSMSTextMessage":{"message":"[3\xc3\xa8me ann\xc3\xa9e communion]\\nChers parents, comme il n\'y a pas cours ce samedi, nous vous prions de faire faire comme devoir de maison, la le\xc3\xa7on \xe2\x80\x9dComment se confesser\xe2\x80\x9d sur la feuille qu\'on leur a distribu\xc3\xa9, dans le cas contraire se reporter \xc3\xa0 la le\xc3\xa7on 8 du livre de cat\xc3\xa9ch\xc3\xa8se. Merci.\\n\\n Le bureau de la cat\xc3\xa9ch\xc3\xa8se.\\nhttps://bit.ly/3F9cRIK"},"resourceURL":"https://api.orange.com/smsmessaging/v1/outbound/tel:+221773387902/requests/c54a999d-01fb-4ae9-8cda-e7337791c9c3"}}'
2022-02-11 21:23:44 | numéro : 774566305 | resultat envoi : b'{"outboundSMSMessageRequest":{"address":["tel:+221774566305"],"senderAddress":"tel:+221773387902","senderName":"ipps","outboundSMSTextMessage":{"message":"[3\xc3\xa8me ann\xc3\xa9e communion]\\nChers parents, comme il n\'y a pas cours ce samedi, nous vous prions de faire faire comme devoir de maison, la le\xc3\xa7on \xe2\x80\x9dComment se confesser\xe2\x80\x9d sur la feuille qu\'on leur a distribu\xc3\xa9, dans le cas contraire se reporter \xc3\xa0 la le\xc3\xa7on 8 du livre de cat\xc3\xa9ch\xc3\xa8se. Merci.\\n\\n Le bureau de la cat\xc3\xa9ch\xc3\xa8se.\\nhttps://bit.ly/3F9cRIK"},"resourceURL":"https://api.orange.com/smsmessaging/v1/outbound/tel:+221773387902/requests/ddaf81a3-807e-423a-92f8-dcfbac6ee015"}}'
2022-02-11 21:23:44 | numéro : 775114078 | resultat envoi : b'{"outboundSMSMessageRequest":{"address":["tel:+221775114078"],"senderAddress":"tel:+221773387902","senderName":"ipps","outboundSMSTextMessage":{"message":"[3\xc3\xa8me ann\xc3\xa9e communion]\\nChers parents, comme il n\'y a pas cours ce samedi, nous vous prions de faire faire comme devoir de maison, la le\xc3\xa7on \xe2\x80\x9dComment se confesser\xe2\x80\x9d sur la feuille qu\'on leur a distribu\xc3\xa9, dans le cas contraire se reporter \xc3\xa0 la le\xc3\xa7on 8 du livre de cat\xc3\xa9ch\xc3\xa8se. Merci.\\n\\n Le bureau de la cat\xc3\xa9ch\xc3\xa8se.\\nhttps://bit.ly/3F9cRIK"},"resourceURL":"https://api.orange.com/smsmessaging/v1/outbound/tel:+221773387902/requests/1abe3541-7b49-40d3-99a6-abe0690cc63d"}}'
2022-02-11 21:23:45 | numéro : 775159531 | resultat envoi : b'{"outboundSMSMessageRequest":{"address":["tel:+221775159531"],"senderAddress":"tel:+221773387902","senderName":"ipps","outboundSMSTextMessage":{"message":"[3\xc3\xa8me ann\xc3\xa9e communion]\\nChers parents, comme il n\'y a pas cours ce samedi, nous vous prions de faire faire comme devoir de maison, la le\xc3\xa7on \xe2\x80\x9dComment se confesser\xe2\x80\x9d sur la feuille qu\'on leur a distribu\xc3\xa9, dans le cas contraire se reporter \xc3\xa0 la le\xc3\xa7on 8 du livre de cat\xc3\xa9ch\xc3\xa8se. Merci.\\n\\n Le bureau de la cat\xc3\xa9ch\xc3\xa8se.\\nhttps://bit.ly/3F9cRIK"},"resourceURL":"https://api.orange.com/smsmessaging/v1/outbound/tel:+221773387902/requests/6e42d660-0cd3-4085-9125-e6df5506ce7d"}}'
2022-02-11 21:23:45 | numéro : 775249738 | resultat envoi : b'{"outboundSMSMessageRequest":{"address":["tel:+221775249738"],"senderAddress":"tel:+221773387902","senderName":"ipps","outboundSMSTextMessage":{"message":"[3\xc3\xa8me ann\xc3\xa9e communion]\\nChers parents, comme il n\'y a pas cours ce samedi, nous vous prions de faire faire comme devoir de maison, la le\xc3\xa7on \xe2\x80\x9dComment se confesser\xe2\x80\x9d sur la feuille qu\'on leur a distribu\xc3\xa9, dans le cas contraire se reporter \xc3\xa0 la le\xc3\xa7on 8 du livre de cat\xc3\xa9ch\xc3\xa8se. Merci.\\n\\n Le bureau de la cat\xc3\xa9ch\xc3\xa8se.\\nhttps://bit.ly/3F9cRIK"},"resourceURL":"https://api.orange.com/smsmessaging/v1/outbound/tel:+221773387902/requests/b9dbe52e-92bd-4de6-9e1e-6c20bb8a038c"}}'
2022-02-11 21:23:46 | numéro : 775325170 | resultat envoi : b'{"outboundSMSMessageRequest":{"address":["tel:+221775325170"],"senderAddress":"tel:+221773387902","senderName":"ipps","outboundSMSTextMessage":{"message":"[3\xc3\xa8me ann\xc3\xa9e communion]\\nChers parents, comme il n\'y a pas cours ce samedi, nous vous prions de faire faire comme devoir de maison, la le\xc3\xa7on \xe2\x80\x9dComment se confesser\xe2\x80\x9d sur la feuille qu\'on leur a distribu\xc3\xa9, dans le cas contraire se reporter \xc3\xa0 la le\xc3\xa7on 8 du livre de cat\xc3\xa9ch\xc3\xa8se. Merci.\\n\\n Le bureau de la cat\xc3\xa9ch\xc3\xa8se.\\nhttps://bit.ly/3F9cRIK"},"resourceURL":"https://api.orange.com/smsmessaging/v1/outbound/tel:+221773387902/requests/a768ec16-7c9c-4d1c-904d-732d8b80bf86"}}'
2022-02-11 21:23:47 | numéro : 775359092 | resultat envoi : b'{"outboundSMSMessageRequest":{"address":["tel:+221775359092"],"senderAddress":"tel:+221773387902","senderName":"ipps","outboundSMSTextMessage":{"message":"[3\xc3\xa8me ann\xc3\xa9e communion]\\nChers parents, comme il n\'y a pas cours ce samedi, nous vous prions de faire faire comme devoir de maison, la le\xc3\xa7on \xe2\x80\x9dComment se confesser\xe2\x80\x9d sur la feuille qu\'on leur a distribu\xc3\xa9, dans le cas contraire se reporter \xc3\xa0 la le\xc3\xa7on 8 du livre de cat\xc3\xa9ch\xc3\xa8se. Merci.\\n\\n Le bureau de la cat\xc3\xa9ch\xc3\xa8se.\\nhttps://bit.ly/3F9cRIK"},"resourceURL":"https://api.orange.com/smsmessaging/v1/outbound/tel:+221773387902/requests/912e5d50-626f-4d76-9845-fa824ccebf42"}}'
2022-02-11 21:23:48 | numéro : 775395349 | resultat envoi : b'{"outboundSMSMessageRequest":{"address":["tel:+221775395349"],"senderAddress":"tel:+221773387902","senderName":"ipps","outboundSMSTextMessage":{"message":"[3\xc3\xa8me ann\xc3\xa9e communion]\\nChers parents, comme il n\'y a pas cours ce samedi, nous vous prions de faire faire comme devoir de maison, la le\xc3\xa7on \xe2\x80\x9dComment se confesser\xe2\x80\x9d sur la feuille qu\'on leur a distribu\xc3\xa9, dans le cas contraire se reporter \xc3\xa0 la le\xc3\xa7on 8 du livre de cat\xc3\xa9ch\xc3\xa8se. Merci.\\n\\n Le bureau de la cat\xc3\xa9ch\xc3\xa8se.\\nhttps://bit.ly/3F9cRIK"},"resourceURL":"https://api.orange.com/smsmessaging/v1/outbound/tel:+221773387902/requests/11ac696b-8ff3-4d83-9d54-f04965a4b812"}}'
2022-02-11 21:23:48 | numéro : 775419217 | resultat envoi : b'{"outboundSMSMessageRequest":{"address":["tel:+221775419217"],"senderAddress":"tel:+221773387902","senderName":"ipps","outboundSMSTextMessage":{"message":"[3\xc3\xa8me ann\xc3\xa9e communion]\\nChers parents, comme il n\'y a pas cours ce samedi, nous vous prions de faire faire comme devoir de maison, la le\xc3\xa7on \xe2\x80\x9dComment se confesser\xe2\x80\x9d sur la feuille qu\'on leur a distribu\xc3\xa9, dans le cas contraire se reporter \xc3\xa0 la le\xc3\xa7on 8 du livre de cat\xc3\xa9ch\xc3\xa8se. Merci.\\n\\n Le bureau de la cat\xc3\xa9ch\xc3\xa8se.\\nhttps://bit.ly/3F9cRIK"},"resourceURL":"https://api.orange.com/smsmessaging/v1/outbound/tel:+221773387902/requests/7e52770c-9a09-419a-ac57-e90eeff8eee8"}}'
2022-02-11 21:23:48 | numéro : 775472539 | resultat envoi : b'{"outboundSMSMessageRequest":{"address":["tel:+221775472539"],"senderAddress":"tel:+221773387902","senderName":"ipps","outboundSMSTextMessage":{"message":"[3\xc3\xa8me ann\xc3\xa9e communion]\\nChers parents, comme il n\'y a pas cours ce samedi, nous vous prions de faire faire comme devoir de maison, la le\xc3\xa7on \xe2\x80\x9dComment se confesser\xe2\x80\x9d sur la feuille qu\'on leur a distribu\xc3\xa9, dans le cas contraire se reporter \xc3\xa0 la le\xc3\xa7on 8 du livre de cat\xc3\xa9ch\xc3\xa8se. Merci.\\n\\n Le bureau de la cat\xc3\xa9ch\xc3\xa8se.\\nhttps://bit.ly/3F9cRIK"},"resourceURL":"https://api.orange.com/smsmessaging/v1/outbound/tel:+221773387902/requests/95ac3d58-3d44-45e9-a924-b8f58ec4efe0"}}'
2022-02-11 21:23:49 | numéro : 775494786 | resultat envoi : b'{"outboundSMSMessageRequest":{"address":["tel:+221775494786"],"senderAddress":"tel:+221773387902","senderName":"ipps","outboundSMSTextMessage":{"message":"[3\xc3\xa8me ann\xc3\xa9e communion]\\nChers parents, comme il n\'y a pas cours ce samedi, nous vous prions de faire faire comme devoir de maison, la le\xc3\xa7on \xe2\x80\x9dComment se confesser\xe2\x80\x9d sur la feuille qu\'on leur a distribu\xc3\xa9, dans le cas contraire se reporter \xc3\xa0 la le\xc3\xa7on 8 du livre de cat\xc3\xa9ch\xc3\xa8se. Merci.\\n\\n Le bureau de la cat\xc3\xa9ch\xc3\xa8se.\\nhttps://bit.ly/3F9cRIK"},"resourceURL":"https://api.orange.com/smsmessaging/v1/outbound/tel:+221773387902/requests/10a21984-53de-411e-b8e4-fdcb6a7e30b4"}}'
2022-02-11 21:23:50 | numéro : 775525888 | resultat envoi : b'{"outboundSMSMessageRequest":{"address":["tel:+221775525888"],"senderAddress":"tel:+221773387902","senderName":"ipps","outboundSMSTextMessage":{"message":"[3\xc3\xa8me ann\xc3\xa9e communion]\\nChers parents, comme il n\'y a pas cours ce samedi, nous vous prions de faire faire comme devoir de maison, la le\xc3\xa7on \xe2\x80\x9dComment se confesser\xe2\x80\x9d sur la feuille qu\'on leur a distribu\xc3\xa9, dans le cas contraire se reporter \xc3\xa0 la le\xc3\xa7on 8 du livre de cat\xc3\xa9ch\xc3\xa8se. Merci.\\n\\n Le bureau de la cat\xc3\xa9ch\xc3\xa8se.\\nhttps://bit.ly/3F9cRIK"},"resourceURL":"https://api.orange.com/smsmessaging/v1/outbound/tel:+221773387902/requests/5eb96924-f060-4da9-8e26-d0bb33a01f9a"}}'
2022-02-11 21:23:50 | numéro : 775526105 | resultat envoi : b'{"outboundSMSMessageRequest":{"address":["tel:+221775526105"],"senderAddress":"tel:+221773387902","senderName":"ipps","outboundSMSTextMessage":{"message":"[3\xc3\xa8me ann\xc3\xa9e communion]\\nChers parents, comme il n\'y a pas cours ce samedi, nous vous prions de faire faire comme devoir de maison, la le\xc3\xa7on \xe2\x80\x9dComment se confesser\xe2\x80\x9d sur la feuille qu\'on leur a distribu\xc3\xa9, dans le cas contraire se reporter \xc3\xa0 la le\xc3\xa7on 8 du livre de cat\xc3\xa9ch\xc3\xa8se. Merci.\\n\\n Le bureau de la cat\xc3\xa9ch\xc3\xa8se.\\nhttps://bit.ly/3F9cRIK"},"resourceURL":"https://api.orange.com/smsmessaging/v1/outbound/tel:+221773387902/requests/489a52af-9f90-49b1-b8ba-631b6e278c7b"}}'
2022-02-11 21:23:51 | numéro : 775564221 | resultat envoi : b'{"outboundSMSMessageRequest":{"address":["tel:+221775564221"],"senderAddress":"tel:+221773387902","senderName":"ipps","outboundSMSTextMessage":{"message":"[3\xc3\xa8me ann\xc3\xa9e communion]\\nChers parents, comme il n\'y a pas cours ce samedi, nous vous prions de faire faire comme devoir de maison, la le\xc3\xa7on \xe2\x80\x9dComment se confesser\xe2\x80\x9d sur la feuille qu\'on leur a distribu\xc3\xa9, dans le cas contraire se reporter \xc3\xa0 la le\xc3\xa7on 8 du livre de cat\xc3\xa9ch\xc3\xa8se. Merci.\\n\\n Le bureau de la cat\xc3\xa9ch\xc3\xa8se.\\nhttps://bit.ly/3F9cRIK"},"resourceURL":"https://api.orange.com/smsmessaging/v1/outbound/tel:+221773387902/requests/9f130bca-ba05-4ed4-9e61-79dd81553582"}}'
2022-02-11 21:23:51 | numéro : 775578617 | resultat envoi : b'{"outboundSMSMessageRequest":{"address":["tel:+221775578617"],"senderAddress":"tel:+221773387902","senderName":"ipps","outboundSMSTextMessage":{"message":"[3\xc3\xa8me ann\xc3\xa9e communion]\\nChers parents, comme il n\'y a pas cours ce samedi, nous vous prions de faire faire comme devoir de maison, la le\xc3\xa7on \xe2\x80\x9dComment se confesser\xe2\x80\x9d sur la feuille qu\'on leur a distribu\xc3\xa9, dans le cas contraire se reporter \xc3\xa0 la le\xc3\xa7on 8 du livre de cat\xc3\xa9ch\xc3\xa8se. Merci.\\n\\n Le bureau de la cat\xc3\xa9ch\xc3\xa8se.\\nhttps://bit.ly/3F9cRIK"},"resourceURL":"https://api.orange.com/smsmessaging/v1/outbound/tel:+221773387902/requests/4db981b5-e0cf-4ae6-8fb3-aec2903f1f78"}}'
2022-02-11 21:23:51 | numéro : 775601433 | resultat envoi : b'{"outboundSMSMessageRequest":{"address":["tel:+221775601433"],"senderAddress":"tel:+221773387902","senderName":"ipps","outboundSMSTextMessage":{"message":"[3\xc3\xa8me ann\xc3\xa9e communion]\\nChers parents, comme il n\'y a pas cours ce samedi, nous vous prions de faire faire comme devoir de maison, la le\xc3\xa7on \xe2\x80\x9dComment se confesser\xe2\x80\x9d sur la feuille qu\'on leur a distribu\xc3\xa9, dans le cas contraire se reporter \xc3\xa0 la le\xc3\xa7on 8 du livre de cat\xc3\xa9ch\xc3\xa8se. Merci.\\n\\n Le bureau de la cat\xc3\xa9ch\xc3\xa8se.\\nhttps://bit.ly/3F9cRIK"},"resourceURL":"https://api.orange.com/smsmessaging/v1/outbound/tel:+221773387902/requests/97e46d80-9fdb-4514-a978-1223af323bec"}}'
2022-02-11 21:23:52 | numéro : 775731794 | resultat envoi : b'{"outboundSMSMessageRequest":{"address":["tel:+221775731794"],"senderAddress":"tel:+221773387902","senderName":"ipps","outboundSMSTextMessage":{"message":"[3\xc3\xa8me ann\xc3\xa9e communion]\\nChers parents, comme il n\'y a pas cours ce samedi, nous vous prions de faire faire comme devoir de maison, la le\xc3\xa7on \xe2\x80\x9dComment se confesser\xe2\x80\x9d sur la feuille qu\'on leur a distribu\xc3\xa9, dans le cas contraire se reporter \xc3\xa0 la le\xc3\xa7on 8 du livre de cat\xc3\xa9ch\xc3\xa8se. Merci.\\n\\n Le bureau de la cat\xc3\xa9ch\xc3\xa8se.\\nhttps://bit.ly/3F9cRIK"},"resourceURL":"https://api.orange.com/smsmessaging/v1/outbound/tel:+221773387902/requests/66442833-1cbe-476d-aba7-1308b0053775"}}'
2022-02-11 21:23:53 | numéro : 775731794 | resultat envoi : b'{"outboundSMSMessageRequest":{"address":["tel:+221775731794"],"senderAddress":"tel:+221773387902","senderName":"ipps","outboundSMSTextMessage":{"message":"[3\xc3\xa8me ann\xc3\xa9e communion]\\nChers parents, comme il n\'y a pas cours ce samedi, nous vous prions de faire faire comme devoir de maison, la le\xc3\xa7on \xe2\x80\x9dComment se confesser\xe2\x80\x9d sur la feuille qu\'on leur a distribu\xc3\xa9, dans le cas contraire se reporter \xc3\xa0 la le\xc3\xa7on 8 du livre de cat\xc3\xa9ch\xc3\xa8se. Merci.\\n\\n Le bureau de la cat\xc3\xa9ch\xc3\xa8se.\\nhttps://bit.ly/3F9cRIK"},"resourceURL":"https://api.orange.com/smsmessaging/v1/outbound/tel:+221773387902/requests/d64585ac-dde9-493b-8414-fbe2b7c6d4ea"}}'
2022-02-11 21:23:53 | numéro : 775892806 | resultat envoi : b'{"outboundSMSMessageRequest":{"address":["tel:+221775892806"],"senderAddress":"tel:+221773387902","senderName":"ipps","outboundSMSTextMessage":{"message":"[3\xc3\xa8me ann\xc3\xa9e communion]\\nChers parents, comme il n\'y a pas cours ce samedi, nous vous prions de faire faire comme devoir de maison, la le\xc3\xa7on \xe2\x80\x9dComment se confesser\xe2\x80\x9d sur la feuille qu\'on leur a distribu\xc3\xa9, dans le cas contraire se reporter \xc3\xa0 la le\xc3\xa7on 8 du livre de cat\xc3\xa9ch\xc3\xa8se. Merci.\\n\\n Le bureau de la cat\xc3\xa9ch\xc3\xa8se.\\nhttps://bit.ly/3F9cRIK"},"resourceURL":"https://api.orange.com/smsmessaging/v1/outbound/tel:+221773387902/requests/67f5fed9-1a6f-43ad-9cc5-c5b3690ce42e"}}'
2022-02-11 21:23:54 | numéro : 776108893 | resultat envoi : b'{"outboundSMSMessageRequest":{"address":["tel:+221776108893"],"senderAddress":"tel:+221773387902","senderName":"ipps","outboundSMSTextMessage":{"message":"[3\xc3\xa8me ann\xc3\xa9e communion]\\nChers parents, comme il n\'y a pas cours ce samedi, nous vous prions de faire faire comme devoir de maison, la le\xc3\xa7on \xe2\x80\x9dComment se confesser\xe2\x80\x9d sur la feuille qu\'on leur a distribu\xc3\xa9, dans le cas contraire se reporter \xc3\xa0 la le\xc3\xa7on 8 du livre de cat\xc3\xa9ch\xc3\xa8se. Merci.\\n\\n Le bureau de la cat\xc3\xa9ch\xc3\xa8se.\\nhttps://bit.ly/3F9cRIK"},"resourceURL":"https://api.orange.com/smsmessaging/v1/outbound/tel:+221773387902/requests/9cf0f29d-e7ba-426a-a87d-81a18bde71ab"}}'
2022-02-11 21:23:54 | numéro : 776163951 | resultat envoi : b'{"outboundSMSMessageRequest":{"address":["tel:+221776163951"],"senderAddress":"tel:+221773387902","senderName":"ipps","outboundSMSTextMessage":{"message":"[3\xc3\xa8me ann\xc3\xa9e communion]\\nChers parents, comme il n\'y a pas cours ce samedi, nous vous prions de faire faire comme devoir de maison, la le\xc3\xa7on \xe2\x80\x9dComment se confesser\xe2\x80\x9d sur la feuille qu\'on leur a distribu\xc3\xa9, dans le cas contraire se reporter \xc3\xa0 la le\xc3\xa7on 8 du livre de cat\xc3\xa9ch\xc3\xa8se. Merci.\\n\\n Le bureau de la cat\xc3\xa9ch\xc3\xa8se.\\nhttps://bit.ly/3F9cRIK"},"resourceURL":"https://api.orange.com/smsmessaging/v1/outbound/tel:+221773387902/requests/41de27c3-2d7b-4d5c-9d7f-4ecebaede502"}}'
2022-02-11 21:23:54 | numéro : 776390010 | resultat envoi : b'{"outboundSMSMessageRequest":{"address":["tel:+221776390010"],"senderAddress":"tel:+221773387902","senderName":"ipps","outboundSMSTextMessage":{"message":"[3\xc3\xa8me ann\xc3\xa9e communion]\\nChers parents, comme il n\'y a pas cours ce samedi, nous vous prions de faire faire comme devoir de maison, la le\xc3\xa7on \xe2\x80\x9dComment se confesser\xe2\x80\x9d sur la feuille qu\'on leur a distribu\xc3\xa9, dans le cas contraire se reporter \xc3\xa0 la le\xc3\xa7on 8 du livre de cat\xc3\xa9ch\xc3\xa8se. Merci.\\n\\n Le bureau de la cat\xc3\xa9ch\xc3\xa8se.\\nhttps://bit.ly/3F9cRIK"},"resourceURL":"https://api.orange.com/smsmessaging/v1/outbound/tel:+221773387902/requests/86b5b59a-2c7a-4a7f-8f2d-afcce0d3590e"}}'
2022-02-11 21:23:55 | numéro : 776415990 | resultat envoi : b'{"outboundSMSMessageRequest":{"address":["tel:+221776415990"],"senderAddress":"tel:+221773387902","senderName":"ipps","outboundSMSTextMessage":{"message":"[3\xc3\xa8me ann\xc3\xa9e communion]\\nChers parents, comme il n\'y a pas cours ce samedi, nous vous prions de faire faire comme devoir de maison, la le\xc3\xa7on \xe2\x80\x9dComment se confesser\xe2\x80\x9d sur la feuille qu\'on leur a distribu\xc3\xa9, dans le cas contraire se reporter \xc3\xa0 la le\xc3\xa7on 8 du livre de cat\xc3\xa9ch\xc3\xa8se. Merci.\\n\\n Le bureau de la cat\xc3\xa9ch\xc3\xa8se.\\nhttps://bit.ly/3F9cRIK"},"resourceURL":"https://api.orange.com/smsmessaging/v1/outbound/tel:+221773387902/requests/59d619c8-648a-4669-93ee-6e584784495e"}}'
2022-02-11 21:23:55 | numéro : 776457989 | resultat envoi : b'{"requestError":{"policyException":{"messageId":"POL0001","text":"A policy error occurred. Error code is %1","variables":["Not enough credit"]}}}'
2022-02-11 21:23:56 | numéro : 776565463 | resultat envoi : b'{"requestError":{"policyException":{"messageId":"POL0001","text":"A policy error occurred. Error code is %1","variables":["Not enough credit"]}}}'
2022-02-11 21:23:56 | numéro : 776566752 | resultat envoi : b'{"requestError":{"policyException":{"messageId":"POL0001","text":"A policy error occurred. Error code is %1","variables":["Not enough credit"]}}}'
2022-02-11 21:23:57 | numéro : 776582528 | resultat envoi : b'{"outboundSMSMessageRequest":{"address":["tel:+221776582528"],"senderAddress":"tel:+221773387902","senderName":"ipps","outboundSMSTextMessage":{"message":"[3\xc3\xa8me ann\xc3\xa9e communion]\\nChers parents, comme il n\'y a pas cours ce samedi, nous vous prions de faire faire comme devoir de maison, la le\xc3\xa7on \xe2\x80\x9dComment se confesser\xe2\x80\x9d sur la feuille qu\'on leur a distribu\xc3\xa9, dans le cas contraire se reporter \xc3\xa0 la le\xc3\xa7on 8 du livre de cat\xc3\xa9ch\xc3\xa8se. Merci.\\n\\n Le bureau de la cat\xc3\xa9ch\xc3\xa8se.\\nhttps://bit.ly/3F9cRIK"},"resourceURL":"https://api.orange.com/smsmessaging/v1/outbound/tel:+221773387902/requests/fd44a28f-a896-4202-a55f-e60341b4e73c"}}'
2022-02-11 21:23:57 | numéro : 776781505 | resultat envoi : b'{"requestError":{"policyException":{"messageId":"POL0001","text":"A policy error occurred. Error code is %1","variables":["Not enough credit"]}}}'
2022-02-11 21:23:58 | numéro : 776904718 | resultat envoi : b'{"requestError":{"policyException":{"messageId":"POL0001","text":"A policy error occurred. Error code is %1","variables":["Not enough credit"]}}}'
2022-02-11 21:23:58 | numéro : 776989276 | resultat envoi : b'{"requestError":{"policyException":{"messageId":"POL0001","text":"A policy error occurred. Error code is %1","variables":["Not enough credit"]}}}'
2022-02-11 21:23:58 | numéro : 777199843 | resultat envoi : b'{"requestError":{"policyException":{"messageId":"POL0001","text":"A policy error occurred. Error code is %1","variables":["Not enough credit"]}}}'
2022-02-11 21:23:59 | numéro : 777303158 | resultat envoi : b'{"requestError":{"policyException":{"messageId":"POL0001","text":"A policy error occurred. Error code is %1","variables":["Not enough credit"]}}}'
2022-02-11 21:23:59 | numéro : 778033346 | resultat envoi : b'{"requestError":{"policyException":{"messageId":"POL0001","text":"A policy error occurred. Error code is %1","variables":["Not enough credit"]}}}'
2022-02-11 21:23:59 | numéro : 778275151 | resultat envoi : b'{"requestError":{"policyException":{"messageId":"POL0001","text":"A policy error occurred. Error code is %1","variables":["Not enough credit"]}}}'
2022-02-11 21:24:00 | numéro : 778417588 | resultat envoi : b'{"requestError":{"policyException":{"messageId":"POL0001","text":"A policy error occurred. Error code is %1","variables":["Not enough credit"]}}}'
2022-02-11 21:24:01 | numéro : 778417588 | resultat envoi : b'{"requestError":{"policyException":{"messageId":"POL0001","text":"A policy error occurred. Error code is %1","variables":["Not enough credit"]}}}'
2022-02-11 21:24:01 | numéro : 779296349 | resultat envoi : b'{"requestError":{"policyException":{"messageId":"POL0001","text":"A policy error occurred. Error code is %1","variables":["Not enough credit"]}}}'
2022-02-11 21:24:01 | numéro : 781950993 | resultat envoi : b'{"requestError":{"policyException":{"messageId":"POL0001","text":"A policy error occurred. Error code is %1","variables":["Not enough credit"]}}}'
2022-02-11 21:24:03 | numéro : 783069999 | resultat envoi : b'{"requestError":{"policyException":{"messageId":"POL0001","text":"A policy error occurred. Error code is %1","variables":["Not enough credit"]}}}'
2022-02-11 21:24:03 | numéro : 783504796 | resultat envoi : b'{"requestError":{"policyException":{"messageId":"POL0001","text":"A policy error occurred. Error code is %1","variables":["Not enough credit"]}}}'
2022-02-11 21:24:05 | numéro : 784812573 | resultat envoi : b'{"outboundSMSMessageRequest":{"address":["tel:+221784812573"],"senderAddress":"tel:+221773387902","senderName":"ipps","outboundSMSTextMessage":{"message":"[3\xc3\xa8me ann\xc3\xa9e communion]\\nChers parents, comme il n\'y a pas cours ce samedi, nous vous prions de faire faire comme devoir de maison, la le\xc3\xa7on \xe2\x80\x9dComment se confesser\xe2\x80\x9d sur la feuille qu\'on leur a distribu\xc3\xa9, dans le cas contraire se reporter \xc3\xa0 la le\xc3\xa7on 8 du livre de cat\xc3\xa9ch\xc3\xa8se. Merci.\\n\\n Le bureau de la cat\xc3\xa9ch\xc3\xa8se.\\nhttps://bit.ly/3F9cRIK"},"resourceURL":"https://api.orange.com/smsmessaging/v1/outbound/tel:+221773387902/requests/92c80446-43ee-4ef1-afb2-f329b97fa111"}}'
2022-02-11 21:24:16 | numéro : 779646193 | resultat envoi : b'{"outboundSMSMessageRequest":{"address":["tel:+221779646193"],"senderAddress":"tel:+221773387902","senderName":"ipps","outboundSMSTextMessage":{"message":"[3\xc3\xa8me ann\xc3\xa9e communion]\\nChers parents, comme il n\'y a pas cours ce samedi, nous vous prions de faire faire comme devoir de maison, la le\xc3\xa7on \xe2\x80\x9dComment se confesser\xe2\x80\x9d sur la feuille qu\'on leur a distribu\xc3\xa9, dans le cas contraire se reporter \xc3\xa0 la le\xc3\xa7on 8 du livre de cat\xc3\xa9ch\xc3\xa8se. Merci.\\n\\n Le bureau de la cat\xc3\xa9ch\xc3\xa8se.\\nhttps://bit.ly/3F9cRIK"},"resourceURL":"https://api.orange.com/smsmessaging/v1/outbound/tel:+221773387902/requests/19b413b9-d185-484c-8f3d-788f341ef8e8"}}'
2022-02-11 21:24:17 | numéro : 765005555 | resultat envoi : b'{"outboundSMSMessageRequest":{"address":["tel:+221765005555"],"senderAddress":"tel:+221773387902","senderName":"ipps","outboundSMSTextMessage":{"message":"[3\xc3\xa8me ann\xc3\xa9e communion]\\nChers parents, comme il n\'y a pas cours ce samedi, nous vous prions de faire faire comme devoir de maison, la le\xc3\xa7on \xe2\x80\x9dComment se confesser\xe2\x80\x9d sur la feuille qu\'on leur a distribu\xc3\xa9, dans le cas contraire se reporter \xc3\xa0 la le\xc3\xa7on 8 du livre de cat\xc3\xa9ch\xc3\xa8se. Merci.\\n\\n Le bureau de la cat\xc3\xa9ch\xc3\xa8se.\\nhttps://bit.ly/3F9cRIK"},"resourceURL":"https://api.orange.com/smsmessaging/v1/outbound/tel:+221773387902/requests/98642239-834a-4254-9aa4-3bf39d91beb1"}}'
2022-02-11 21:24:17 | balance 57 | fin envoi
