2021-09-03 22:39:14 | balance 707 | debut envoi
2021-09-03 22:39:14 | numéro : 765005555 | resultat envoi : b'{"outboundSMSMessageRequest":{"address":["tel:+221765005555"],"senderAddress":"tel:+221773387902","senderName":"ipps","outboundSMSTextMessage":{"message":"[CATECHESE]\\nShalom Shalom \xc3\xa0 tous,\\n Rencontre avec le Cur\xc3\xa9 le dimanche 05 Septembre apr\xc3\xa8s la messe de 9h.\\nLa pr\xc3\xa9sence de tous est vivement souhait\xc3\xa9e voir obligatoire\\nMerci\\nLe Pr\xc3\xa9sident"},"resourceURL":"https://api.orange.com/smsmessaging/v1/outbound/tel:+221773387902/requests/1d11e851-ea76-44e7-b063-42219fcc9d43"}}'
2021-09-03 22:39:15 | numéro : 778590854 | resultat envoi : b'{"outboundSMSMessageRequest":{"address":["tel:+221778590854"],"senderAddress":"tel:+221773387902","senderName":"ipps","outboundSMSTextMessage":{"message":"[CATECHESE]\\nShalom Shalom \xc3\xa0 tous,\\n Rencontre avec le Cur\xc3\xa9 le dimanche 05 Septembre apr\xc3\xa8s la messe de 9h.\\nLa pr\xc3\xa9sence de tous est vivement souhait\xc3\xa9e voir obligatoire\\nMerci\\nLe Pr\xc3\xa9sident"},"resourceURL":"https://api.orange.com/smsmessaging/v1/outbound/tel:+221773387902/requests/10800a19-8c32-4c2d-a7f4-cfd7637d9f4b"}}'
2021-09-03 22:39:15 | numéro : 782916195 | resultat envoi : b'{"outboundSMSMessageRequest":{"address":["tel:+221782916195"],"senderAddress":"tel:+221773387902","senderName":"ipps","outboundSMSTextMessage":{"message":"[CATECHESE]\\nShalom Shalom \xc3\xa0 tous,\\n Rencontre avec le Cur\xc3\xa9 le dimanche 05 Septembre apr\xc3\xa8s la messe de 9h.\\nLa pr\xc3\xa9sence de tous est vivement souhait\xc3\xa9e voir obligatoire\\nMerci\\nLe Pr\xc3\xa9sident"},"resourceURL":"https://api.orange.com/smsmessaging/v1/outbound/tel:+221773387902/requests/6f0f9521-2abe-4758-ae07-1b80a143ea9a"}}'
2021-09-03 22:39:15 | numéro : 778170857 | resultat envoi : b'{"outboundSMSMessageRequest":{"address":["tel:+221778170857"],"senderAddress":"tel:+221773387902","senderName":"ipps","outboundSMSTextMessage":{"message":"[CATECHESE]\\nShalom Shalom \xc3\xa0 tous,\\n Rencontre avec le Cur\xc3\xa9 le dimanche 05 Septembre apr\xc3\xa8s la messe de 9h.\\nLa pr\xc3\xa9sence de tous est vivement souhait\xc3\xa9e voir obligatoire\\nMerci\\nLe Pr\xc3\xa9sident"},"resourceURL":"https://api.orange.com/smsmessaging/v1/outbound/tel:+221773387902/requests/2c513a70-6aa1-400b-be5f-78cb589027c9"}}'
2021-09-03 22:39:15 | numéro : 775106381 | resultat envoi : b'{"outboundSMSMessageRequest":{"address":["tel:+221775106381"],"senderAddress":"tel:+221773387902","senderName":"ipps","outboundSMSTextMessage":{"message":"[CATECHESE]\\nShalom Shalom \xc3\xa0 tous,\\n Rencontre avec le Cur\xc3\xa9 le dimanche 05 Septembre apr\xc3\xa8s la messe de 9h.\\nLa pr\xc3\xa9sence de tous est vivement souhait\xc3\xa9e voir obligatoire\\nMerci\\nLe Pr\xc3\xa9sident"},"resourceURL":"https://api.orange.com/smsmessaging/v1/outbound/tel:+221773387902/requests/776fc8d3-7a90-4436-a4b3-7c09b096d32e"}}'
2021-09-03 22:39:16 | numéro : 773670365 | resultat envoi : b'{"outboundSMSMessageRequest":{"address":["tel:+221773670365"],"senderAddress":"tel:+221773387902","senderName":"ipps","outboundSMSTextMessage":{"message":"[CATECHESE]\\nShalom Shalom \xc3\xa0 tous,\\n Rencontre avec le Cur\xc3\xa9 le dimanche 05 Septembre apr\xc3\xa8s la messe de 9h.\\nLa pr\xc3\xa9sence de tous est vivement souhait\xc3\xa9e voir obligatoire\\nMerci\\nLe Pr\xc3\xa9sident"},"resourceURL":"https://api.orange.com/smsmessaging/v1/outbound/tel:+221773387902/requests/03652456-6a81-4a99-bf7c-bbc4b7fc6d66"}}'
2021-09-03 22:39:16 | numéro : 774444153 | resultat envoi : b'{"outboundSMSMessageRequest":{"address":["tel:+221774444153"],"senderAddress":"tel:+221773387902","senderName":"ipps","outboundSMSTextMessage":{"message":"[CATECHESE]\\nShalom Shalom \xc3\xa0 tous,\\n Rencontre avec le Cur\xc3\xa9 le dimanche 05 Septembre apr\xc3\xa8s la messe de 9h.\\nLa pr\xc3\xa9sence de tous est vivement souhait\xc3\xa9e voir obligatoire\\nMerci\\nLe Pr\xc3\xa9sident"},"resourceURL":"https://api.orange.com/smsmessaging/v1/outbound/tel:+221773387902/requests/02330063-3387-4fae-bf9d-925ac4105e4d"}}'
2021-09-03 22:39:16 | numéro : 765055550 | resultat envoi : b'{"outboundSMSMessageRequest":{"address":["tel:+221765055550"],"senderAddress":"tel:+221773387902","senderName":"ipps","outboundSMSTextMessage":{"message":"[CATECHESE]\\nShalom Shalom \xc3\xa0 tous,\\n Rencontre avec le Cur\xc3\xa9 le dimanche 05 Septembre apr\xc3\xa8s la messe de 9h.\\nLa pr\xc3\xa9sence de tous est vivement souhait\xc3\xa9e voir obligatoire\\nMerci\\nLe Pr\xc3\xa9sident"},"resourceURL":"https://api.orange.com/smsmessaging/v1/outbound/tel:+221773387902/requests/b9e80853-290b-4052-9946-561fbf97ea5c"}}'
2021-09-03 22:39:17 | numéro : 773387902 | resultat envoi : b'{"outboundSMSMessageRequest":{"address":["tel:+221773387902"],"senderAddress":"tel:+221773387902","senderName":"ipps","outboundSMSTextMessage":{"message":"[CATECHESE]\\nShalom Shalom \xc3\xa0 tous,\\n Rencontre avec le Cur\xc3\xa9 le dimanche 05 Septembre apr\xc3\xa8s la messe de 9h.\\nLa pr\xc3\xa9sence de tous est vivement souhait\xc3\xa9e voir obligatoire\\nMerci\\nLe Pr\xc3\xa9sident"},"resourceURL":"https://api.orange.com/smsmessaging/v1/outbound/tel:+221773387902/requests/1a66eb3a-62bc-40f7-9f0b-6be9e85fae0b"}}'
2021-09-03 22:39:17 | balance 497 | fin envoi
