2022-02-01 20:30:25 | balance 3601 | debut envoi
2022-02-01 20:30:25 | numéro : 765005555 | resultat envoi : b'{"outboundSMSMessageRequest":{"address":["tel:+221765005555"],"senderAddress":"tel:+221773387902","senderName":"ipps","outboundSMSTextMessage":{"message":"Le fer aiguise le fer\xe2\x80\x9d\\nDeux onctions proph\xc3\xa9tiques pour une orientation nouvelle\\nSi tu es de Mbour, ce programme est pour toi: 4 f\xc3\xa9v. Hotel Coco Beach, 17H\\nPuis Cap sur Dakar,programme sp\xc3\xa9cial c\xc3\xa9libataires:5 et 6 f\xc3\xa9v. \xc3\xa0 Monteiro \xc3\xa0 18h\\nViens proph\xc3\xa9tiser la fin de ton c\xc3\xa9libat, car \xe2\x80\x9dIl n\'est pas bon que l\'homme soit seul\xe2\x80\x9d\\nTheme : \xe2\x80\x9dJe lui ferai une aide semblable\xe2\x80\x9d Gn 2,18\\nhttps://bit.ly/3dZDH9B"},"resourceURL":"https://api.orange.com/smsmessaging/v1/outbound/tel:+221773387902/requests/c1785885-b2c5-48d6-99ee-2b95a30e1cb9"}}'
2022-02-01 20:30:26 | numéro : 773387902 | resultat envoi : b'{"outboundSMSMessageRequest":{"address":["tel:+221773387902"],"senderAddress":"tel:+221773387902","senderName":"ipps","outboundSMSTextMessage":{"message":"Le fer aiguise le fer\xe2\x80\x9d\\nDeux onctions proph\xc3\xa9tiques pour une orientation nouvelle\\nSi tu es de Mbour, ce programme est pour toi: 4 f\xc3\xa9v. Hotel Coco Beach, 17H\\nPuis Cap sur Dakar,programme sp\xc3\xa9cial c\xc3\xa9libataires:5 et 6 f\xc3\xa9v. \xc3\xa0 Monteiro \xc3\xa0 18h\\nViens proph\xc3\xa9tiser la fin de ton c\xc3\xa9libat, car \xe2\x80\x9dIl n\'est pas bon que l\'homme soit seul\xe2\x80\x9d\\nTheme : \xe2\x80\x9dJe lui ferai une aide semblable\xe2\x80\x9d Gn 2,18\\nhttps://bit.ly/3dZDH9B"},"resourceURL":"https://api.orange.com/smsmessaging/v1/outbound/tel:+221773387902/requests/f60098f5-8544-45b7-a7f9-a2b99b5c331a"}}'
2022-02-01 20:30:26 | balance 3461 | fin envoi
