2021-12-02 10:42:27 | balance 622 | debut envoi
2021-12-02 10:42:27 | numéro : 773387902 | resultat envoi : b'{"outboundSMSMessageRequest":{"address":["tel:+221773387902"],"senderAddress":"tel:+221773387902","senderName":"ipps","outboundSMSTextMessage":{"message":"Chers parents,\\n ce samedi 5 dec. se tiendra le premier contr\xc3\xb4le trimestriel, nous comptons sur vous pour faire r\xc3\xa9viser votre enfant et surtout vous assurer de sa pr\xc3\xa9sence. Pour les adultes ce sera le dimanche 6 dec. Merci par avance pour votre collaboration.\\n Le Bureau de la Cat\xc3\xa9ch\xc3\xa8se\\nSoyez b\xc3\xa9nis"},"resourceURL":"https://api.orange.com/smsmessaging/v1/outbound/tel:+221773387902/requests/d7ecb271-5caf-4347-8e6d-6df1918d1680"}}'
2021-12-02 10:42:27 | numéro : 776483485 | resultat envoi : b'{"outboundSMSMessageRequest":{"address":["tel:+221776483485"],"senderAddress":"tel:+221773387902","senderName":"ipps","outboundSMSTextMessage":{"message":"Chers parents,\\n ce samedi 5 dec. se tiendra le premier contr\xc3\xb4le trimestriel, nous comptons sur vous pour faire r\xc3\xa9viser votre enfant et surtout vous assurer de sa pr\xc3\xa9sence. Pour les adultes ce sera le dimanche 6 dec. Merci par avance pour votre collaboration.\\n Le Bureau de la Cat\xc3\xa9ch\xc3\xa8se\\nSoyez b\xc3\xa9nis"},"resourceURL":"https://api.orange.com/smsmessaging/v1/outbound/tel:+221773387902/requests/7d7741d8-b971-499a-b413-16654911251a"}}'
2021-12-02 10:42:27 | numéro : 771561674 | resultat envoi : b'{"outboundSMSMessageRequest":{"address":["tel:+221771561674"],"senderAddress":"tel:+221773387902","senderName":"ipps","outboundSMSTextMessage":{"message":"Chers parents,\\n ce samedi 5 dec. se tiendra le premier contr\xc3\xb4le trimestriel, nous comptons sur vous pour faire r\xc3\xa9viser votre enfant et surtout vous assurer de sa pr\xc3\xa9sence. Pour les adultes ce sera le dimanche 6 dec. Merci par avance pour votre collaboration.\\n Le Bureau de la Cat\xc3\xa9ch\xc3\xa8se\\nSoyez b\xc3\xa9nis"},"resourceURL":"https://api.orange.com/smsmessaging/v1/outbound/tel:+221773387902/requests/6a62d640-64bb-4328-bbcc-f613946fa194"}}'
2021-12-02 10:42:28 | numéro : 775782652 | resultat envoi : b'{"outboundSMSMessageRequest":{"address":["tel:+221775782652"],"senderAddress":"tel:+221773387902","senderName":"ipps","outboundSMSTextMessage":{"message":"Chers parents,\\n ce samedi 5 dec. se tiendra le premier contr\xc3\xb4le trimestriel, nous comptons sur vous pour faire r\xc3\xa9viser votre enfant et surtout vous assurer de sa pr\xc3\xa9sence. Pour les adultes ce sera le dimanche 6 dec. Merci par avance pour votre collaboration.\\n Le Bureau de la Cat\xc3\xa9ch\xc3\xa8se\\nSoyez b\xc3\xa9nis"},"resourceURL":"https://api.orange.com/smsmessaging/v1/outbound/tel:+221773387902/requests/f6ccb7e3-aaf8-43f7-afbe-cfa6ae878f96"}}'
2021-12-02 10:42:28 | numéro : 773670365 | resultat envoi : b'{"outboundSMSMessageRequest":{"address":["tel:+221773670365"],"senderAddress":"tel:+221773387902","senderName":"ipps","outboundSMSTextMessage":{"message":"Chers parents,\\n ce samedi 5 dec. se tiendra le premier contr\xc3\xb4le trimestriel, nous comptons sur vous pour faire r\xc3\xa9viser votre enfant et surtout vous assurer de sa pr\xc3\xa9sence. Pour les adultes ce sera le dimanche 6 dec. Merci par avance pour votre collaboration.\\n Le Bureau de la Cat\xc3\xa9ch\xc3\xa8se\\nSoyez b\xc3\xa9nis"},"resourceURL":"https://api.orange.com/smsmessaging/v1/outbound/tel:+221773387902/requests/a4a82a50-6342-4902-9626-ca928a9bc0cf"}}'
2021-12-02 10:42:28 | numéro : 775452777 | resultat envoi : b'{"outboundSMSMessageRequest":{"address":["tel:+221775452777"],"senderAddress":"tel:+221773387902","senderName":"ipps","outboundSMSTextMessage":{"message":"Chers parents,\\n ce samedi 5 dec. se tiendra le premier contr\xc3\xb4le trimestriel, nous comptons sur vous pour faire r\xc3\xa9viser votre enfant et surtout vous assurer de sa pr\xc3\xa9sence. Pour les adultes ce sera le dimanche 6 dec. Merci par avance pour votre collaboration.\\n Le Bureau de la Cat\xc3\xa9ch\xc3\xa8se\\nSoyez b\xc3\xa9nis"},"resourceURL":"https://api.orange.com/smsmessaging/v1/outbound/tel:+221773387902/requests/c12dbbb2-db62-4a8b-8d43-80af789a895a"}}'
2021-12-02 10:42:29 | numéro : 774095176 | resultat envoi : b'{"outboundSMSMessageRequest":{"address":["tel:+221774095176"],"senderAddress":"tel:+221773387902","senderName":"ipps","outboundSMSTextMessage":{"message":"Chers parents,\\n ce samedi 5 dec. se tiendra le premier contr\xc3\xb4le trimestriel, nous comptons sur vous pour faire r\xc3\xa9viser votre enfant et surtout vous assurer de sa pr\xc3\xa9sence. Pour les adultes ce sera le dimanche 6 dec. Merci par avance pour votre collaboration.\\n Le Bureau de la Cat\xc3\xa9ch\xc3\xa8se\\nSoyez b\xc3\xa9nis"},"resourceURL":"https://api.orange.com/smsmessaging/v1/outbound/tel:+221773387902/requests/2e419ffa-c632-427b-a3f8-08edc4efe10c"}}'
2021-12-02 10:42:29 | numéro : 776108894 | resultat envoi : b'{"outboundSMSMessageRequest":{"address":["tel:+221776108894"],"senderAddress":"tel:+221773387902","senderName":"ipps","outboundSMSTextMessage":{"message":"Chers parents,\\n ce samedi 5 dec. se tiendra le premier contr\xc3\xb4le trimestriel, nous comptons sur vous pour faire r\xc3\xa9viser votre enfant et surtout vous assurer de sa pr\xc3\xa9sence. Pour les adultes ce sera le dimanche 6 dec. Merci par avance pour votre collaboration.\\n Le Bureau de la Cat\xc3\xa9ch\xc3\xa8se\\nSoyez b\xc3\xa9nis"},"resourceURL":"https://api.orange.com/smsmessaging/v1/outbound/tel:+221773387902/requests/3075b5ed-ac7d-4027-ab37-e3cb29f972f0"}}'
2021-12-02 10:42:29 | numéro : 778590854 | resultat envoi : b'{"outboundSMSMessageRequest":{"address":["tel:+221778590854"],"senderAddress":"tel:+221773387902","senderName":"ipps","outboundSMSTextMessage":{"message":"Chers parents,\\n ce samedi 5 dec. se tiendra le premier contr\xc3\xb4le trimestriel, nous comptons sur vous pour faire r\xc3\xa9viser votre enfant et surtout vous assurer de sa pr\xc3\xa9sence. Pour les adultes ce sera le dimanche 6 dec. Merci par avance pour votre collaboration.\\n Le Bureau de la Cat\xc3\xa9ch\xc3\xa8se\\nSoyez b\xc3\xa9nis"},"resourceURL":"https://api.orange.com/smsmessaging/v1/outbound/tel:+221773387902/requests/84574e21-4e92-4be0-b00d-02b1a04a175b"}}'
2021-12-02 10:42:30 | numéro : 765472363 | resultat envoi : b'{"outboundSMSMessageRequest":{"address":["tel:+221765472363"],"senderAddress":"tel:+221773387902","senderName":"ipps","outboundSMSTextMessage":{"message":"Chers parents,\\n ce samedi 5 dec. se tiendra le premier contr\xc3\xb4le trimestriel, nous comptons sur vous pour faire r\xc3\xa9viser votre enfant et surtout vous assurer de sa pr\xc3\xa9sence. Pour les adultes ce sera le dimanche 6 dec. Merci par avance pour votre collaboration.\\n Le Bureau de la Cat\xc3\xa9ch\xc3\xa8se\\nSoyez b\xc3\xa9nis"},"resourceURL":"https://api.orange.com/smsmessaging/v1/outbound/tel:+221773387902/requests/b19a6b06-e103-48fe-8221-794c9fa48862"}}'
2021-12-02 10:42:30 | numéro : 774444153 | resultat envoi : b'{"outboundSMSMessageRequest":{"address":["tel:+221774444153"],"senderAddress":"tel:+221773387902","senderName":"ipps","outboundSMSTextMessage":{"message":"Chers parents,\\n ce samedi 5 dec. se tiendra le premier contr\xc3\xb4le trimestriel, nous comptons sur vous pour faire r\xc3\xa9viser votre enfant et surtout vous assurer de sa pr\xc3\xa9sence. Pour les adultes ce sera le dimanche 6 dec. Merci par avance pour votre collaboration.\\n Le Bureau de la Cat\xc3\xa9ch\xc3\xa8se\\nSoyez b\xc3\xa9nis"},"resourceURL":"https://api.orange.com/smsmessaging/v1/outbound/tel:+221773387902/requests/26e1617d-399d-4739-a0db-3a8df0285be8"}}'
2021-12-02 10:42:30 | numéro : 771541666 | resultat envoi : b'{"outboundSMSMessageRequest":{"address":["tel:+221771541666"],"senderAddress":"tel:+221773387902","senderName":"ipps","outboundSMSTextMessage":{"message":"Chers parents,\\n ce samedi 5 dec. se tiendra le premier contr\xc3\xb4le trimestriel, nous comptons sur vous pour faire r\xc3\xa9viser votre enfant et surtout vous assurer de sa pr\xc3\xa9sence. Pour les adultes ce sera le dimanche 6 dec. Merci par avance pour votre collaboration.\\n Le Bureau de la Cat\xc3\xa9ch\xc3\xa8se\\nSoyez b\xc3\xa9nis"},"resourceURL":"https://api.orange.com/smsmessaging/v1/outbound/tel:+221773387902/requests/42e30ff6-a9ab-444b-a18a-feb754e1b9ef"}}'
2021-12-02 10:42:31 | numéro : 775106381 | resultat envoi : b'{"outboundSMSMessageRequest":{"address":["tel:+221775106381"],"senderAddress":"tel:+221773387902","senderName":"ipps","outboundSMSTextMessage":{"message":"Chers parents,\\n ce samedi 5 dec. se tiendra le premier contr\xc3\xb4le trimestriel, nous comptons sur vous pour faire r\xc3\xa9viser votre enfant et surtout vous assurer de sa pr\xc3\xa9sence. Pour les adultes ce sera le dimanche 6 dec. Merci par avance pour votre collaboration.\\n Le Bureau de la Cat\xc3\xa9ch\xc3\xa8se\\nSoyez b\xc3\xa9nis"},"resourceURL":"https://api.orange.com/smsmessaging/v1/outbound/tel:+221773387902/requests/d96ff5fe-1352-48a0-9b89-12b3d66aed79"}}'
2021-12-02 10:42:31 | numéro : 775484214 | resultat envoi : b'{"outboundSMSMessageRequest":{"address":["tel:+221775484214"],"senderAddress":"tel:+221773387902","senderName":"ipps","outboundSMSTextMessage":{"message":"Chers parents,\\n ce samedi 5 dec. se tiendra le premier contr\xc3\xb4le trimestriel, nous comptons sur vous pour faire r\xc3\xa9viser votre enfant et surtout vous assurer de sa pr\xc3\xa9sence. Pour les adultes ce sera le dimanche 6 dec. Merci par avance pour votre collaboration.\\n Le Bureau de la Cat\xc3\xa9ch\xc3\xa8se\\nSoyez b\xc3\xa9nis"},"resourceURL":"https://api.orange.com/smsmessaging/v1/outbound/tel:+221773387902/requests/533775f5-93a7-48f1-9aed-0f7590ec99ea"}}'
2021-12-02 10:42:31 | numéro : 776567822 | resultat envoi : b'{"outboundSMSMessageRequest":{"address":["tel:+221776567822"],"senderAddress":"tel:+221773387902","senderName":"ipps","outboundSMSTextMessage":{"message":"Chers parents,\\n ce samedi 5 dec. se tiendra le premier contr\xc3\xb4le trimestriel, nous comptons sur vous pour faire r\xc3\xa9viser votre enfant et surtout vous assurer de sa pr\xc3\xa9sence. Pour les adultes ce sera le dimanche 6 dec. Merci par avance pour votre collaboration.\\n Le Bureau de la Cat\xc3\xa9ch\xc3\xa8se\\nSoyez b\xc3\xa9nis"},"resourceURL":"https://api.orange.com/smsmessaging/v1/outbound/tel:+221773387902/requests/eeddc2dd-592b-4cb7-9952-075b26eeb7f2"}}'
2021-12-02 10:42:32 | numéro : 776419216 | resultat envoi : b'{"outboundSMSMessageRequest":{"address":["tel:+221776419216"],"senderAddress":"tel:+221773387902","senderName":"ipps","outboundSMSTextMessage":{"message":"Chers parents,\\n ce samedi 5 dec. se tiendra le premier contr\xc3\xb4le trimestriel, nous comptons sur vous pour faire r\xc3\xa9viser votre enfant et surtout vous assurer de sa pr\xc3\xa9sence. Pour les adultes ce sera le dimanche 6 dec. Merci par avance pour votre collaboration.\\n Le Bureau de la Cat\xc3\xa9ch\xc3\xa8se\\nSoyez b\xc3\xa9nis"},"resourceURL":"https://api.orange.com/smsmessaging/v1/outbound/tel:+221773387902/requests/3a0cc8aa-d4bf-4892-bed5-26c1010f5f30"}}'
2021-12-02 10:42:32 | numéro : 776373107 | resultat envoi : b'{"outboundSMSMessageRequest":{"address":["tel:+221776373107"],"senderAddress":"tel:+221773387902","senderName":"ipps","outboundSMSTextMessage":{"message":"Chers parents,\\n ce samedi 5 dec. se tiendra le premier contr\xc3\xb4le trimestriel, nous comptons sur vous pour faire r\xc3\xa9viser votre enfant et surtout vous assurer de sa pr\xc3\xa9sence. Pour les adultes ce sera le dimanche 6 dec. Merci par avance pour votre collaboration.\\n Le Bureau de la Cat\xc3\xa9ch\xc3\xa8se\\nSoyez b\xc3\xa9nis"},"resourceURL":"https://api.orange.com/smsmessaging/v1/outbound/tel:+221773387902/requests/0cf358a4-27c4-4fc0-a642-de7541a820f5"}}'
2021-12-02 10:42:32 | numéro : 709745723 | resultat envoi : b'{"outboundSMSMessageRequest":{"address":["tel:+221709745723"],"senderAddress":"tel:+221773387902","senderName":"ipps","outboundSMSTextMessage":{"message":"Chers parents,\\n ce samedi 5 dec. se tiendra le premier contr\xc3\xb4le trimestriel, nous comptons sur vous pour faire r\xc3\xa9viser votre enfant et surtout vous assurer de sa pr\xc3\xa9sence. Pour les adultes ce sera le dimanche 6 dec. Merci par avance pour votre collaboration.\\n Le Bureau de la Cat\xc3\xa9ch\xc3\xa8se\\nSoyez b\xc3\xa9nis"},"resourceURL":"https://api.orange.com/smsmessaging/v1/outbound/tel:+221773387902/requests/e9507725-0dd4-43a8-8dfb-4c5e38072cda"}}'
2021-12-02 10:42:33 | numéro : 766614352 | resultat envoi : b'{"outboundSMSMessageRequest":{"address":["tel:+221766614352"],"senderAddress":"tel:+221773387902","senderName":"ipps","outboundSMSTextMessage":{"message":"Chers parents,\\n ce samedi 5 dec. se tiendra le premier contr\xc3\xb4le trimestriel, nous comptons sur vous pour faire r\xc3\xa9viser votre enfant et surtout vous assurer de sa pr\xc3\xa9sence. Pour les adultes ce sera le dimanche 6 dec. Merci par avance pour votre collaboration.\\n Le Bureau de la Cat\xc3\xa9ch\xc3\xa8se\\nSoyez b\xc3\xa9nis"},"resourceURL":"https://api.orange.com/smsmessaging/v1/outbound/tel:+221773387902/requests/cba9e6ec-493e-4c1e-9bec-729f17caea22"}}'
2021-12-02 10:42:33 | numéro : 776084967 | resultat envoi : b'{"outboundSMSMessageRequest":{"address":["tel:+221776084967"],"senderAddress":"tel:+221773387902","senderName":"ipps","outboundSMSTextMessage":{"message":"Chers parents,\\n ce samedi 5 dec. se tiendra le premier contr\xc3\xb4le trimestriel, nous comptons sur vous pour faire r\xc3\xa9viser votre enfant et surtout vous assurer de sa pr\xc3\xa9sence. Pour les adultes ce sera le dimanche 6 dec. Merci par avance pour votre collaboration.\\n Le Bureau de la Cat\xc3\xa9ch\xc3\xa8se\\nSoyez b\xc3\xa9nis"},"resourceURL":"https://api.orange.com/smsmessaging/v1/outbound/tel:+221773387902/requests/d8f820e3-a85e-428c-b9ab-6c3457d761a8"}}'
2021-12-02 10:42:33 | numéro : 779051492 | resultat envoi : b'{"outboundSMSMessageRequest":{"address":["tel:+221779051492"],"senderAddress":"tel:+221773387902","senderName":"ipps","outboundSMSTextMessage":{"message":"Chers parents,\\n ce samedi 5 dec. se tiendra le premier contr\xc3\xb4le trimestriel, nous comptons sur vous pour faire r\xc3\xa9viser votre enfant et surtout vous assurer de sa pr\xc3\xa9sence. Pour les adultes ce sera le dimanche 6 dec. Merci par avance pour votre collaboration.\\n Le Bureau de la Cat\xc3\xa9ch\xc3\xa8se\\nSoyez b\xc3\xa9nis"},"resourceURL":"https://api.orange.com/smsmessaging/v1/outbound/tel:+221773387902/requests/949a06c8-d976-44d4-bba4-f8ec2b4b8967"}}'
2021-12-02 10:42:33 | numéro : 775090971 | resultat envoi : b'{"outboundSMSMessageRequest":{"address":["tel:+221775090971"],"senderAddress":"tel:+221773387902","senderName":"ipps","outboundSMSTextMessage":{"message":"Chers parents,\\n ce samedi 5 dec. se tiendra le premier contr\xc3\xb4le trimestriel, nous comptons sur vous pour faire r\xc3\xa9viser votre enfant et surtout vous assurer de sa pr\xc3\xa9sence. Pour les adultes ce sera le dimanche 6 dec. Merci par avance pour votre collaboration.\\n Le Bureau de la Cat\xc3\xa9ch\xc3\xa8se\\nSoyez b\xc3\xa9nis"},"resourceURL":"https://api.orange.com/smsmessaging/v1/outbound/tel:+221773387902/requests/b4e0fc93-6c3c-4816-9161-47cf2eb9536e"}}'
2021-12-02 10:42:34 | numéro : 778631439 | resultat envoi : b'{"outboundSMSMessageRequest":{"address":["tel:+221778631439"],"senderAddress":"tel:+221773387902","senderName":"ipps","outboundSMSTextMessage":{"message":"Chers parents,\\n ce samedi 5 dec. se tiendra le premier contr\xc3\xb4le trimestriel, nous comptons sur vous pour faire r\xc3\xa9viser votre enfant et surtout vous assurer de sa pr\xc3\xa9sence. Pour les adultes ce sera le dimanche 6 dec. Merci par avance pour votre collaboration.\\n Le Bureau de la Cat\xc3\xa9ch\xc3\xa8se\\nSoyez b\xc3\xa9nis"},"resourceURL":"https://api.orange.com/smsmessaging/v1/outbound/tel:+221773387902/requests/568c2e7e-2cd8-4732-ac03-3b0ef4809445"}}'
2021-12-02 10:42:34 | numéro : 775090971 | resultat envoi : b'{"outboundSMSMessageRequest":{"address":["tel:+221775090971"],"senderAddress":"tel:+221773387902","senderName":"ipps","outboundSMSTextMessage":{"message":"Chers parents,\\n ce samedi 5 dec. se tiendra le premier contr\xc3\xb4le trimestriel, nous comptons sur vous pour faire r\xc3\xa9viser votre enfant et surtout vous assurer de sa pr\xc3\xa9sence. Pour les adultes ce sera le dimanche 6 dec. Merci par avance pour votre collaboration.\\n Le Bureau de la Cat\xc3\xa9ch\xc3\xa8se\\nSoyez b\xc3\xa9nis"},"resourceURL":"https://api.orange.com/smsmessaging/v1/outbound/tel:+221773387902/requests/d973c19a-cdca-4d43-9e2e-f71cfe2e138d"}}'
2021-12-02 10:42:35 | numéro : 778631439 | resultat envoi : b'{"outboundSMSMessageRequest":{"address":["tel:+221778631439"],"senderAddress":"tel:+221773387902","senderName":"ipps","outboundSMSTextMessage":{"message":"Chers parents,\\n ce samedi 5 dec. se tiendra le premier contr\xc3\xb4le trimestriel, nous comptons sur vous pour faire r\xc3\xa9viser votre enfant et surtout vous assurer de sa pr\xc3\xa9sence. Pour les adultes ce sera le dimanche 6 dec. Merci par avance pour votre collaboration.\\n Le Bureau de la Cat\xc3\xa9ch\xc3\xa8se\\nSoyez b\xc3\xa9nis"},"resourceURL":"https://api.orange.com/smsmessaging/v1/outbound/tel:+221773387902/requests/ecf0032a-3ca3-49ad-bed9-50c010278ed1"}}'
2021-12-02 10:42:35 | numéro : 775090971 | resultat envoi : b'{"outboundSMSMessageRequest":{"address":["tel:+221775090971"],"senderAddress":"tel:+221773387902","senderName":"ipps","outboundSMSTextMessage":{"message":"Chers parents,\\n ce samedi 5 dec. se tiendra le premier contr\xc3\xb4le trimestriel, nous comptons sur vous pour faire r\xc3\xa9viser votre enfant et surtout vous assurer de sa pr\xc3\xa9sence. Pour les adultes ce sera le dimanche 6 dec. Merci par avance pour votre collaboration.\\n Le Bureau de la Cat\xc3\xa9ch\xc3\xa8se\\nSoyez b\xc3\xa9nis"},"resourceURL":"https://api.orange.com/smsmessaging/v1/outbound/tel:+221773387902/requests/c5f53e20-d18e-4dd4-b62a-24225d465880"}}'
2021-12-02 10:42:35 | numéro : 778631439 | resultat envoi : b'{"outboundSMSMessageRequest":{"address":["tel:+221778631439"],"senderAddress":"tel:+221773387902","senderName":"ipps","outboundSMSTextMessage":{"message":"Chers parents,\\n ce samedi 5 dec. se tiendra le premier contr\xc3\xb4le trimestriel, nous comptons sur vous pour faire r\xc3\xa9viser votre enfant et surtout vous assurer de sa pr\xc3\xa9sence. Pour les adultes ce sera le dimanche 6 dec. Merci par avance pour votre collaboration.\\n Le Bureau de la Cat\xc3\xa9ch\xc3\xa8se\\nSoyez b\xc3\xa9nis"},"resourceURL":"https://api.orange.com/smsmessaging/v1/outbound/tel:+221773387902/requests/280f9710-b774-43a6-8855-fa7fe44a4bee"}}'
2021-12-02 10:42:36 | numéro : 778631439 | resultat envoi : b'{"outboundSMSMessageRequest":{"address":["tel:+221778631439"],"senderAddress":"tel:+221773387902","senderName":"ipps","outboundSMSTextMessage":{"message":"Chers parents,\\n ce samedi 5 dec. se tiendra le premier contr\xc3\xb4le trimestriel, nous comptons sur vous pour faire r\xc3\xa9viser votre enfant et surtout vous assurer de sa pr\xc3\xa9sence. Pour les adultes ce sera le dimanche 6 dec. Merci par avance pour votre collaboration.\\n Le Bureau de la Cat\xc3\xa9ch\xc3\xa8se\\nSoyez b\xc3\xa9nis"},"resourceURL":"https://api.orange.com/smsmessaging/v1/outbound/tel:+221773387902/requests/8067dcfd-71ae-4977-b2a8-5ad2fe5b7328"}}'
2021-12-02 10:42:36 | numéro : 776423893 | resultat envoi : b'{"outboundSMSMessageRequest":{"address":["tel:+221776423893"],"senderAddress":"tel:+221773387902","senderName":"ipps","outboundSMSTextMessage":{"message":"Chers parents,\\n ce samedi 5 dec. se tiendra le premier contr\xc3\xb4le trimestriel, nous comptons sur vous pour faire r\xc3\xa9viser votre enfant et surtout vous assurer de sa pr\xc3\xa9sence. Pour les adultes ce sera le dimanche 6 dec. Merci par avance pour votre collaboration.\\n Le Bureau de la Cat\xc3\xa9ch\xc3\xa8se\\nSoyez b\xc3\xa9nis"},"resourceURL":"https://api.orange.com/smsmessaging/v1/outbound/tel:+221773387902/requests/38681fb5-b828-48bc-8a67-61032f8b5e69"}}'
2021-12-02 10:42:36 | numéro : 778186880 | resultat envoi : b'{"outboundSMSMessageRequest":{"address":["tel:+221778186880"],"senderAddress":"tel:+221773387902","senderName":"ipps","outboundSMSTextMessage":{"message":"Chers parents,\\n ce samedi 5 dec. se tiendra le premier contr\xc3\xb4le trimestriel, nous comptons sur vous pour faire r\xc3\xa9viser votre enfant et surtout vous assurer de sa pr\xc3\xa9sence. Pour les adultes ce sera le dimanche 6 dec. Merci par avance pour votre collaboration.\\n Le Bureau de la Cat\xc3\xa9ch\xc3\xa8se\\nSoyez b\xc3\xa9nis"},"resourceURL":"https://api.orange.com/smsmessaging/v1/outbound/tel:+221773387902/requests/34531c8e-0d23-43f5-8bb8-f593a6316fd8"}}'
2021-12-02 10:42:36 | numéro : 774278168 | resultat envoi : b'{"outboundSMSMessageRequest":{"address":["tel:+221774278168"],"senderAddress":"tel:+221773387902","senderName":"ipps","outboundSMSTextMessage":{"message":"Chers parents,\\n ce samedi 5 dec. se tiendra le premier contr\xc3\xb4le trimestriel, nous comptons sur vous pour faire r\xc3\xa9viser votre enfant et surtout vous assurer de sa pr\xc3\xa9sence. Pour les adultes ce sera le dimanche 6 dec. Merci par avance pour votre collaboration.\\n Le Bureau de la Cat\xc3\xa9ch\xc3\xa8se\\nSoyez b\xc3\xa9nis"},"resourceURL":"https://api.orange.com/smsmessaging/v1/outbound/tel:+221773387902/requests/1f4dfcfd-8890-4047-90dc-9b32ddecd6b8"}}'
2021-12-02 10:42:37 | numéro : 775272339 | resultat envoi : b'{"outboundSMSMessageRequest":{"address":["tel:+221775272339"],"senderAddress":"tel:+221773387902","senderName":"ipps","outboundSMSTextMessage":{"message":"Chers parents,\\n ce samedi 5 dec. se tiendra le premier contr\xc3\xb4le trimestriel, nous comptons sur vous pour faire r\xc3\xa9viser votre enfant et surtout vous assurer de sa pr\xc3\xa9sence. Pour les adultes ce sera le dimanche 6 dec. Merci par avance pour votre collaboration.\\n Le Bureau de la Cat\xc3\xa9ch\xc3\xa8se\\nSoyez b\xc3\xa9nis"},"resourceURL":"https://api.orange.com/smsmessaging/v1/outbound/tel:+221773387902/requests/c3f049ed-acdd-4a45-b740-bd68bdedc7a9"}}'
2021-12-02 10:42:37 | numéro : 775949406 | resultat envoi : b'{"outboundSMSMessageRequest":{"address":["tel:+221775949406"],"senderAddress":"tel:+221773387902","senderName":"ipps","outboundSMSTextMessage":{"message":"Chers parents,\\n ce samedi 5 dec. se tiendra le premier contr\xc3\xb4le trimestriel, nous comptons sur vous pour faire r\xc3\xa9viser votre enfant et surtout vous assurer de sa pr\xc3\xa9sence. Pour les adultes ce sera le dimanche 6 dec. Merci par avance pour votre collaboration.\\n Le Bureau de la Cat\xc3\xa9ch\xc3\xa8se\\nSoyez b\xc3\xa9nis"},"resourceURL":"https://api.orange.com/smsmessaging/v1/outbound/tel:+221773387902/requests/247cd47a-dcf0-4341-b6e0-d95172fc2fc8"}}'
2021-12-02 10:42:38 | numéro : 776533581 | resultat envoi : b'{"outboundSMSMessageRequest":{"address":["tel:+221776533581"],"senderAddress":"tel:+221773387902","senderName":"ipps","outboundSMSTextMessage":{"message":"Chers parents,\\n ce samedi 5 dec. se tiendra le premier contr\xc3\xb4le trimestriel, nous comptons sur vous pour faire r\xc3\xa9viser votre enfant et surtout vous assurer de sa pr\xc3\xa9sence. Pour les adultes ce sera le dimanche 6 dec. Merci par avance pour votre collaboration.\\n Le Bureau de la Cat\xc3\xa9ch\xc3\xa8se\\nSoyez b\xc3\xa9nis"},"resourceURL":"https://api.orange.com/smsmessaging/v1/outbound/tel:+221773387902/requests/42bb679c-4e91-4a7e-9b82-fe61d96fcd50"}}'
2021-12-02 10:42:38 | numéro : 784237451 | resultat envoi : b'{"outboundSMSMessageRequest":{"address":["tel:+221784237451"],"senderAddress":"tel:+221773387902","senderName":"ipps","outboundSMSTextMessage":{"message":"Chers parents,\\n ce samedi 5 dec. se tiendra le premier contr\xc3\xb4le trimestriel, nous comptons sur vous pour faire r\xc3\xa9viser votre enfant et surtout vous assurer de sa pr\xc3\xa9sence. Pour les adultes ce sera le dimanche 6 dec. Merci par avance pour votre collaboration.\\n Le Bureau de la Cat\xc3\xa9ch\xc3\xa8se\\nSoyez b\xc3\xa9nis"},"resourceURL":"https://api.orange.com/smsmessaging/v1/outbound/tel:+221773387902/requests/766e7574-bdeb-49bc-981c-1dfa6cef32e9"}}'
2021-12-02 10:42:38 | numéro : 774561255 | resultat envoi : b'{"outboundSMSMessageRequest":{"address":["tel:+221774561255"],"senderAddress":"tel:+221773387902","senderName":"ipps","outboundSMSTextMessage":{"message":"Chers parents,\\n ce samedi 5 dec. se tiendra le premier contr\xc3\xb4le trimestriel, nous comptons sur vous pour faire r\xc3\xa9viser votre enfant et surtout vous assurer de sa pr\xc3\xa9sence. Pour les adultes ce sera le dimanche 6 dec. Merci par avance pour votre collaboration.\\n Le Bureau de la Cat\xc3\xa9ch\xc3\xa8se\\nSoyez b\xc3\xa9nis"},"resourceURL":"https://api.orange.com/smsmessaging/v1/outbound/tel:+221773387902/requests/9e2ee68b-49e2-4d00-9845-9389dd3309b9"}}'
2021-12-02 10:42:38 | numéro : 776593275 | resultat envoi : b'{"outboundSMSMessageRequest":{"address":["tel:+221776593275"],"senderAddress":"tel:+221773387902","senderName":"ipps","outboundSMSTextMessage":{"message":"Chers parents,\\n ce samedi 5 dec. se tiendra le premier contr\xc3\xb4le trimestriel, nous comptons sur vous pour faire r\xc3\xa9viser votre enfant et surtout vous assurer de sa pr\xc3\xa9sence. Pour les adultes ce sera le dimanche 6 dec. Merci par avance pour votre collaboration.\\n Le Bureau de la Cat\xc3\xa9ch\xc3\xa8se\\nSoyez b\xc3\xa9nis"},"resourceURL":"https://api.orange.com/smsmessaging/v1/outbound/tel:+221773387902/requests/cb677c27-ed6a-49af-a4e6-893e7c38ccfe"}}'
2021-12-02 10:42:39 | numéro : 776368484 | resultat envoi : b'{"outboundSMSMessageRequest":{"address":["tel:+221776368484"],"senderAddress":"tel:+221773387902","senderName":"ipps","outboundSMSTextMessage":{"message":"Chers parents,\\n ce samedi 5 dec. se tiendra le premier contr\xc3\xb4le trimestriel, nous comptons sur vous pour faire r\xc3\xa9viser votre enfant et surtout vous assurer de sa pr\xc3\xa9sence. Pour les adultes ce sera le dimanche 6 dec. Merci par avance pour votre collaboration.\\n Le Bureau de la Cat\xc3\xa9ch\xc3\xa8se\\nSoyez b\xc3\xa9nis"},"resourceURL":"https://api.orange.com/smsmessaging/v1/outbound/tel:+221773387902/requests/77a0fe73-95bd-4348-a8d2-aead247531b9"}}'
2021-12-02 10:42:39 | numéro : 778185656 | resultat envoi : b'{"outboundSMSMessageRequest":{"address":["tel:+221778185656"],"senderAddress":"tel:+221773387902","senderName":"ipps","outboundSMSTextMessage":{"message":"Chers parents,\\n ce samedi 5 dec. se tiendra le premier contr\xc3\xb4le trimestriel, nous comptons sur vous pour faire r\xc3\xa9viser votre enfant et surtout vous assurer de sa pr\xc3\xa9sence. Pour les adultes ce sera le dimanche 6 dec. Merci par avance pour votre collaboration.\\n Le Bureau de la Cat\xc3\xa9ch\xc3\xa8se\\nSoyez b\xc3\xa9nis"},"resourceURL":"https://api.orange.com/smsmessaging/v1/outbound/tel:+221773387902/requests/0607c51f-7586-4f6e-9e07-03bbeed984ba"}}'
2021-12-02 10:42:39 | numéro : 764380570 | resultat envoi : b'{"outboundSMSMessageRequest":{"address":["tel:+221764380570"],"senderAddress":"tel:+221773387902","senderName":"ipps","outboundSMSTextMessage":{"message":"Chers parents,\\n ce samedi 5 dec. se tiendra le premier contr\xc3\xb4le trimestriel, nous comptons sur vous pour faire r\xc3\xa9viser votre enfant et surtout vous assurer de sa pr\xc3\xa9sence. Pour les adultes ce sera le dimanche 6 dec. Merci par avance pour votre collaboration.\\n Le Bureau de la Cat\xc3\xa9ch\xc3\xa8se\\nSoyez b\xc3\xa9nis"},"resourceURL":"https://api.orange.com/smsmessaging/v1/outbound/tel:+221773387902/requests/8dda9bd3-f169-424b-bbe4-baab3da3c7f1"}}'
2021-12-02 10:42:40 | numéro : 775325170 | resultat envoi : b'{"outboundSMSMessageRequest":{"address":["tel:+221775325170"],"senderAddress":"tel:+221773387902","senderName":"ipps","outboundSMSTextMessage":{"message":"Chers parents,\\n ce samedi 5 dec. se tiendra le premier contr\xc3\xb4le trimestriel, nous comptons sur vous pour faire r\xc3\xa9viser votre enfant et surtout vous assurer de sa pr\xc3\xa9sence. Pour les adultes ce sera le dimanche 6 dec. Merci par avance pour votre collaboration.\\n Le Bureau de la Cat\xc3\xa9ch\xc3\xa8se\\nSoyez b\xc3\xa9nis"},"resourceURL":"https://api.orange.com/smsmessaging/v1/outbound/tel:+221773387902/requests/a474f27a-2e6f-4f9f-8109-2ecb54ace674"}}'
2021-12-02 10:42:40 | numéro : 772256922 | resultat envoi : b'{"outboundSMSMessageRequest":{"address":["tel:+221772256922"],"senderAddress":"tel:+221773387902","senderName":"ipps","outboundSMSTextMessage":{"message":"Chers parents,\\n ce samedi 5 dec. se tiendra le premier contr\xc3\xb4le trimestriel, nous comptons sur vous pour faire r\xc3\xa9viser votre enfant et surtout vous assurer de sa pr\xc3\xa9sence. Pour les adultes ce sera le dimanche 6 dec. Merci par avance pour votre collaboration.\\n Le Bureau de la Cat\xc3\xa9ch\xc3\xa8se\\nSoyez b\xc3\xa9nis"},"resourceURL":"https://api.orange.com/smsmessaging/v1/outbound/tel:+221773387902/requests/a181071f-962c-4e6f-a1b0-c67693c2ebdd"}}'
2021-12-02 10:42:40 | numéro : 765005555 | resultat envoi : b'{"outboundSMSMessageRequest":{"address":["tel:+221765005555"],"senderAddress":"tel:+221773387902","senderName":"ipps","outboundSMSTextMessage":{"message":"Chers parents,\\n ce samedi 5 dec. se tiendra le premier contr\xc3\xb4le trimestriel, nous comptons sur vous pour faire r\xc3\xa9viser votre enfant et surtout vous assurer de sa pr\xc3\xa9sence. Pour les adultes ce sera le dimanche 6 dec. Merci par avance pour votre collaboration.\\n Le Bureau de la Cat\xc3\xa9ch\xc3\xa8se\\nSoyez b\xc3\xa9nis"},"resourceURL":"https://api.orange.com/smsmessaging/v1/outbound/tel:+221773387902/requests/fb4a6bff-c571-4fad-94a8-3dc9c570d7c2"}}'
2021-12-02 10:42:40 | balance 202 | fin envoi
