777199843
778163193
771490977
777931080
774782486
775963859
773353028
772361598
776130535
777133003
772754360
779359753
776464539
775560088
775321279
775401087
775146250
772196872
778452777
775327533
776546643
776875644
776513054
773334985
776339579
776556463
775564221
765472363
768502818
770577086
771043316
771332447
771356007
771561674
771671737
771800496
772191960
772446899
772505078
772753360
772855719
773260947
773387902