776513054
783361123
775522148
772932492
776457989
775428173
781440170
774501240
779430351
776477735
778033346
772000618
775212029
777133003
775116324
776458971
775313888
772754360
774133658
779325273
776556519