765005555
777237720
778929932
771594350
776381558
775411590
775333414
776622494
774088344
771448080
774563764
778847941
772172163
704029979
774516330
778758816
776567420
772430279
771785321
775319967
764811761
778253398
776534105
772339508
773335607
784750972
776405575
771055263
775352178
775541620
776894472
781434385
771291531
775557053
771138736
776434360
771087550
775229523
775223735
775511024
775795790
775512970
775298336
773216099
771766736
775503561
776424522
774219278
776498254
776525807
776147928
776214746
775062177
775599517
772280318
778614292
772542047
776476691
778097977
776800589
773826716
775333656
774197667
773458517
773387902