773387902
776424522
775235588
774985742
772430279
775319967
770991516
771291531
775928315
773594811
776557407
771448080
776430358
775101032
776437437
776567420
775179857
775234183
774104700
775411590
772339508
778847941
774405222
781160829
775028055
776409105
774075616
775541178
776561466
775062177
774088211
784250972
773183857
775157053
775415641
776381558
773335607
775208104
776935090
773532839
784586092
785892898
773339605
785896800
705138273
775219523
784595698
776211481
775498563
772243050
773081216
775542311
773458517
774064144
775690622
774693090
765005555