773387902
776514206
776513054
776511538
776509340
776508450
776507364
776506991
776499719
776499124
776498954
776498799
776495807
776494985
776494983
776493693
776489387
776488014
776486794
776486498
776486313
776483612
776482464
776480367
776477735
776473615
776471040
776470540
776463737
776460853
776460310
776459425
776458971
776457989
776455102
776454985
776452793
776452429
776444650
776444458
776443049
776441417
776439845
776437437
776430358
776429197
776426478
776426266
776424983
776424522
776423009
776414335
776409105
776408915
776408426
776407910
776405575
776403037
776401147
776400621
776400341
776397140
776394736
776393869
776390725
776381558
776381266
776374195
776373718
776371949
776369777
776369494
776369105
776369056
776367942
776362103
776360533
776358058
776349734
776345194
776344777
776340713
776339237
776336844
776333704
776323283
776322184
776314101
776311837
776303951
776302359
776296767
776291410
776273118
776264561
776255472
776250737
776246576
776241869
776233787
776230118
776211481
776209126
776204003
776196151
776195868
776192144
776191400
776188099
776185615
776184018
776180613
776177314
776170246
776169446
776168770
776167625
776165312
776160561
776160069
776149201
776148108
776147928
776145543
776144178
776141864
776141038
776139219
776133380
776132372
776132197
776118698
776116728
776114280
776110772
776093579
776089269
776086253
776085818
776085626
776084996
776084577
776083657
776082705
776081034
776058177
776054888
776051954
776050931
776050170
776050145
776024949
776020026
775997340
775991851
775991820
775986213
775979565
775977237
775976776
775971851
775971149
775961982
775957241
775941646
775935590
775928315
775920639
775906391
775904049
775895622
775887842
775875195
775869872
775859754
775857884
775856771
775843131
775841237
775801774
775797191
775795790
775792983
775791913
775789992
775786031
775783279
775781343
775780502
775780350
775778496
775764412
775751734
775748741
775743996
775743702
775740931
775730752
775729326
775726594
775725453
775720701
775719262
775719027
775716972
775711653
775701906
775690622
775685050
775683850
775682967
775680353
775680330
775680062
775676333
775675745
775672519
775669051
775664615
775663987
775662619
775659670
775658798
775658790
775658182
775657881
775656479
775655702
775653895
775647216
775642871
775637932
775637002
775635788
775634541
775633095
775626323
775616387
775615846
775612686
775607138
775606841
775606606
775606168
775606050
775603150
775595749
775594498
775592983
775589622
775588489
775585129
775584528
775583928
775581835
775581642
775580081
775573971
775571268
775566702
775564615
775561642
775559622
775558340
775558112
775556439
775552511
775551056
775547353
775547051
775542311
775541620
775541391
775538962
775533881
775528289
775523604
775519737
775517063
775514498
775512970
775511278
775509517
775507280
775506319
775504532
775503561
775502963
775500919
775498563
775491279
775489202
775488508
775484330
775478645
775478608
775475782
775474784
775474544
775468773
775468427
775468156
775464706
775461205
775454949
775454913
775454693
775447172
775432904
775432515
775429769
775428725
775428629
775428173
775427161
775425494
775425222
775424227
775423882
775419217
775418288
775418151
775415641
775414688
775413905
775411590
775409935
775406391
775402757
775401428
775397695
775397021
775396105
775395055
775394950
775393818
775392902
775392648
775391586
775388147
775387523
775378262
775377723
775373842
775373558
775371329
775365620
775361954
775361838
775359679
775358482
775358180
775358064
775357672
775354466
775352178
775349508
775349458
775349113
775349031
775346754
775344043
775341934
775340865
775337208
775336807
775336649
775333414
775332673
775329163
775328459
775327307
775325868
775324840
775324438
775321389
775319967
775317459
775316102
775314716
775313888
775310703
775290652
775285222
775283359
775282789
775282581
775279267
775278714
775277331
775276975
775275857
775273931
775272940
775268403
775267497
775267411
775264433
775257435
775249361
775246075
775245261
775245197
775242424
775242364
775239641
775237789
775236402
775234183
775231171
775227578
775226482
775219523
775213660
775212939
775212195
775212029
775208154
775208104
775205222
775203133
775200745
775200522
775198738
775198069
775195950
775195670
775193601
775191906
775191274
775191235
775190323
775188733
775179857
775177136
775171463
775171439
775171088
775170995
775161869
775157823
775157053
775155418
775151778
775151555
775149565
775148068
775144356
775139307
775135967
775130720
775130622
775130499
775129846
775125264
775125009
775118556
775118315
775117973
775117642
775116324
775114951
775108151
775104224
775103724
775103005
775102656
775102495
775101366
775101295
775101032
775100409
775100071
775098877
775093180
775088151
775083009
775081216
775080533
775079264
775077198
775073707
775073009
775072682
775062177
775058086
775053036
775051656
775048216
775043554
775043257
775040000
775038903
775036376
775033776
775033438
775031492
775030884
775028250
775028055
775019384
775015452
774993939
774989284
774987863
774986863
774978979
774953325
774948203
774940492
774929245
774925826
774924590
774900195
774888807
774879692
774875720
774872248
774863220
774862938
774861827
774850164
774847280
774841661
774835159
774820959
774818290
774808173
774807296
774806522
774797266
774781505
774777427
774773417
774768035
774759914
774738184
774736173
774729918
774726199
774722289
774683967
774677832
774671339
774654829
774652542
774624200
774587022
774586092
774581844
774580720
774577324
774566514
774563764
774557541
774554563
774545780
774533630
774528072
774525771
774520425
774516338
774516330
774512093
774501240
774500521
774495734
774487279
774473313
774472474
774471401
774466651
774466279
774463904
774457562
774457198
774454141
774451797
774446121
774442147
774441060
774435526
774430332
774425473
774424709
774422710
774416137
774413529
774408390
774408145
774407342
774407341
774405222
774403870
774398396
774395899
774390716
774380563
774379073
774379072
774378141
774370771
774367448
774366534
774365534
774348397
774341230
774337346
774336116
774336077
774333792
774326053
774323978
774321317
774315615
774313396
774311351
774300316
774300285
774299683
774297517
774295574
774288886
774287075
774284934
774284528
774279404
774275159
774274336
774273356
774272248
774266937
774263923
774261958
774258621
774256910
774252882
774248122
774247085
774246722
774246656
774245045
774237579
774230715
774219278
774217039
774190213
774188125
774187528
774186108
774180523
774178001
774177794
774176885
774174494
774172319
774167098
774156924
774155000
774144341
774142940
774142458
774136992
774136476
774135651
774133658
774124832
774123013
774120884
774109912
774106021
774104700
774104100
774095953
774093108
774088344
774088211
774084559
774076211
774071882
774070577
774064144
774054021
774039126
774032820
774029293
774026333
774025812
774025257
774021006
774020045
774019882
774008247
774006817
774003991
774001329
773998416
773996854
773960185
773944380
773940062
773937343
773935213
773929788
773916678
773894357
773887834
773883477
773881499
773871103
773863906
773843103
773811711
773804606
773800522
773796203
773789135
773787860
773777830
773776802
773760858
773756849
773735698
773730000
773728635
773728124
773727710
773719911
773717773
773702535
773698256
773685650
773685384
773681451
773674120
773671101
773667648
773662038
773651994
773644027
773638255
773634878
773626173
773625973
773625693
773604593
773595989
773594811
773593369
773589166
773582685
773576485
773565565
773560119
773538064
773533881
773532859
773532839
773532464
773529986
773529419
773526968
773526901
773519158
773496125
773479338
773474227
773467626
773466512
773458517
773456751
773454785
773451318
773438766
773437118
773418905
773405733
773401351
773393897
773375102
773368071
773353855
773349484
773345813
773341781
773341556
773339605
773335607
773308116
773307495
773291813
773290984
773283770
773274345
773266172
773260947
773256217
773244380
773241011
773236982
773235456
773232910
773224589
773220887
773216809
773216099
773211799
773204483
773204462
773199717
773182626
773179091
773175167
773170650
773166923
773164522
773160712
773153869
773151501
773136714
773136627
773136423
773131388
773129103
773127438
773126359
773126339
773123012
773106805
773106356
773090412
773081216
773078626
773073477
773056890
773054751
773054116
773051995
773047208
773039466
773038132
773026761
773026121
773025993
773025676
773023013
773000543
773000268
772982811
772979725
772965631
772965532
772936349
772928525
772911029
772908986
772908275
772905697
772893003
772888276
772882804
772867552
772851710
772837490
772819220
772800486
772794350
772787686
772787261
772787249
772785409
772777360
772771704
772771481
772757097
772754360
772747361
772742042
772730291
772720540
772717633
772714436
772712047
772708390
772706486
772703679
772701803
772700949
772700924
772699261
772696278
772692241
772689556
772682562
772681327
772674839
772660175
772659400
772626693
772609563
772604546
772588905
772586075
772583016
772578287
772578244
772566710
772564448
772560161
772552495
772549155
772542047
772538648
772515047
772512640
772500134
772496451
772494914
772483428
772465697
772455331
772454923
772448220
772437434
772430279
772429332
772422687
772421253
772420960
772416048
772409425
772408452
772388255
772387483
772387326
772386265
772386083
772384026
772375184
772374694
772370012
772369912
772365273
772362346
772349816
772344707
772340939
772340739
772339508
772338808
772337872
772336739
772333129
772322772
772322406
772310947
772309773
772304001
772302714
765005555