765005555
778929932
771594350
773458517
773532839
772494914
776381558
775411590
777476138
775179857
775333414
782120212
774104700
776622494
775195670
784605558
774924590
774088344
776084577
771448080
774136992
775583928
776054888
775079264
774563764
778847941
775657881
775264433
772172163
779278940
776518053
771774360
775177136
776082705
763043832
704029979
775690622
776621278
776486794
773438766
774008247
771324007
774516330
776430358
776567420
772430279
781491434
771785321
771785310
775358064
771160304
775319967
775234183
764811761
770745364
767318023
778758816
778253398
776534105
772339508
776887068
773047208
770533446
772787686
770912764
775033438
776945964
772542047
773335607
776114280
773667648
777053369
772421253
771827907
772787249
770468214
771160943
777251041
784750972
770986503
775941646
770305030
771766736
777888851
774835159
785238617
785232548
781925367
770552465
776401147
770789620
776800589
773387902