778076111
776165312
771291531
779143734
771063488
705138273
772905697
774390716
760155990
785170995
778020296
781203285
763451704
775171088
776631765
779781053
775606168
775125009
771218302
776699959
772172000
774929245