765005555
776415990
776310663
785967363
775359092
775424504
774133658
776504070
773334985
775748741
775086298
776644586
775606176
776495003
776457989
775474875
776509246
776593275
775212029
775124881
770555098
771332447
774494750
776406129
783069999
776516029
776056655
775613232
776499719
775482641
775571844
776989276
778170857
781440170
773074411
776390010
775526105
775325170
776176815
772769694
772855719
775350180
775114078
776171813
775409935
770714249
775513089
774214986
774437114
776117050
775130286
777369467
775263904
771677231
775414435
776108893
776875644
776400000
771723076
772191960
775653895
772644720
775280909
776408993
776478256
775525888
776507635
777321957
778825099
775469587
775472539
771731156
775580878
777303158
775704366
774543127
775133324
776518371
764339924
775484330
777945519
772918038
775702023
775564221
776163951
775647216
775292417
771771438
774536540
774501240
785359748
775395349
776434009
784641693
778033346
776386644
774287075
776904718
774016185
774176259
775731794
779909554
775417946
774495687
774985551
776471616
778185656
775107730
775712727
776254216
772669929
779914795
779296349
776665018
784605433
775419217
775892806
775601433
770577086
775711415
773210720
775159531
775249738
771229696
776556519
774338369
776513054
771490977
775130535
785543591
776114946
775109571
775342335
777347129
773753925
775195436
777180496
777918196
774566305
775918410
776556463
775398628
775429373
775571614
776566752
772014225
771338793
775578617
775262629
782501185
784237451
782367809
773591482
772234794
778185277
775764412
775312030
774298056
775608737
778277894
774461705
778116032
776565463
779606964
773801469
776582528
781058883
778275151
774021156
778417588
771590646
775327533
774581844
775220517
773698374
774404336
774126591
776587031
772023293
776525040
775240726
772505078
775787833
775492796
775168038
785345168
775949406
775589584
775672727
775494786
773260947
707171591
774507437
775313888
775089662
776053011
775305398
785392854
772903451
777678495
775902879
768502818
707283615
708462464
774261252
778731542
774558595
774379255
772000618
777760766
774135373
774315632
783504796
775318517
775346085
771671737
777892124
771043316
775546001
781095609
775186216
775056461
776517246
774431491
777449572
775605414
776177154
774118434
775561594
775428173
778627506
778125800
776452338
777199843
772295957
773550679
781950993
772263463
773277031
772215069
775399244
775516890
775004574
775035049
775717070
777338757
772753360
775349179
781718774
771732310
773796203
776399742
772446899
779430351
774670742
781908746
774271807
772503472
775573384
775642749
776781505
778414000
775153727
776091083
774238040
776963571
775694303
773632643
771056511
781309502
781511041
773387902