706870692
707171591
761408127
764339924
765055550
766753014
767408941
770555098
770577086
770714249
770784482
770937183
771043316
771056511
771078016
771148880
771229696
771234567
771332447
771338793
771490977
771586745
771590646
771671737
771677231
771682859
771723076
771731156
771732310
771771438
772000618
772014225
772023293
772176994
772191960
772215069
772234794
772238769
772263463
772295957
772446899
772466800
772486459
772503472
772505078
772537083
772644720
772669929
772702850
772709151
772753149
772753360
772769694
772791832
772855719
772869220
772900633
772903451
772918038
772961549
773071847
773074411
773126655
773210720
773260947
773277031
773334985
773445891
773505457
773505467
773530415
773550679
773591482
773593851
773632643
773667630
773698374
773716892
773753925
773762204
773796203
773801469
773903055
773948944
774016185
774021156
774118434
774126591
774133658
774135373
774176259
774208887
774214986
774238040
774261252
774268062
774271807
774287075
774298056
774298166
774315632
774338369
774379255
774386408
774404336
774405614
774408604
774431491
774437114
774461705
774494750
774495687
774501240
774507437
774535853
774536540
774543127
774549483
774558595
774566305
774581844
774611010
774670742
774749016
774985551
775004574
775035049
775056461
775086298
775089662
775107730
775109571
775114078
775124881
775130286
775130535
775133324
775153727
775159531
775168038
775177161
775185434
775186216
775195436
775212029
775220517
775240726
775249738
775262629
775263904
775280909
775292417
775298166
775305398
775312030
775313888
775318517
775325170
775327533
775331586
775342335
775346085
775347569
775349179
775350180
775358000
775359092
775382422
775395349
775398628
775399244
775409935
775413561
775414435
775414565
775417946
775419217
775424504
775424522
775428173
775429373
775452777
775456194
775469587
775472539
775474875
775479099
775482641
775484330
775485173
775492796
775494786
775500286
775512011
775513089
775516890
775525888
775526105
775546001
775560005
775561594
775564221
775571614
775571844
775573384
775578617
775580777
775580878
775589584
775597373
775601433
775605414
775606176
775608737
775613232
775620763
775642549
775642749
775647216
775653895
775671079
775672727
775694303
775702023
775704366
775711415
775712727
775717070
775731542
775731794
775744427
775748741
775764412
775787833
775892806
775902879
775902979
775918410
775949406
776053011
776056655
776064560
776091083
776099977
776108893
776112766
776114946
776117050
776130535
776163951
776171813
776176815
776176878
776177154
776254216
776305608
776310663
776386644
776390010
776399742
776400000
776405437
776406129
776408591
776408993
776415990
776434009
776443984
776452338
776457989
776459620
776471616
776478256
776491040
776493338
776495003
776499719
776502532
776504070
776507635
776509246
776513034
776513054
776516029
776517246
776518371
776525040
776537892
776546643
776556463
776556519
776565463
776566752
776572997
776582528
776587031
776593275
776644586
776665018
776726471
776781505
776875644
776881398
776904718
776963571
776989276
777148715
777171591
777180496
777199496
777199843
777303158
777321957
777338757
777339972
777347129
777369467
777399219
777449572
777627307
777678495
777678823
777756452
777760766
777892124
777918196
777945519
777987551
778033346
778067048
778116032
778125800
778144437
778170857
778185277
778185656
778275151
778277894
778339655
778412946
778414000
778417588
778627506
778731542
778771914
778825099
779032906
779210668
779296349
779430351
779578443
779606964
779854514
779909554
779914795
779957502
781058883
781095609
781440170
781630632
781681322
781718774
781908746
781930228
781950993
782140554
782367809
782501185
782649288
782649452
783069999
783135778
783309044
783407346
783504796
784237451
784605433
784641693
784755429
784812573
785166552
785345168
785359748
785543591
774379255